,time,rtt,id
4222,4222,17.057000000000002,4222
3944,3944,19.31,3944
2962,2962,16.867,2962
4751,4751,2359.0,4751
3044,3044,15.819,3044
3861,3861,2569.0,3861
4251,4251,1637.0,4251
2717,2717,1719.0,2717
648,648,27.308000000000003,648
1614,1614,10.48,1614
5022,5022,11.993,5022
2874,2874,12.989,2874
1600,1600,11.737,1600
3352,3352,11.671,3352
5037,5037,639.0,5037
5120,5120,19.295,5120
3210,3210,10.932,3210
3957,3957,2746.0,3957
3610,3610,11.587,3610
4899,4899,2898.0,4899
709,709,1090.0,709
1340,1340,22.086,1340
2138,2138,26.865,2138
2119,2119,1970.0,2119
1741,1741,3346.0,1741
2403,2403,2335.0,2403
4273,4273,1491.0,4273
1073,1073,2748.0,1073
2824,2824,11.255,2824
3826,3826,12.095999999999998,3826
3833,3833,1366.0,3833
3971,3971,2587.0,3971
5119,5119,2859.0,5119
901,901,2665.0,901
5414,5414,10.697,5414
968,968,13.392,968
2643,2643,2863.0,2643
3603,3603,2774.0,3603
1370,1370,11.411,1370
4615,4615,342.0,4615
857,857,1241.0,857
4708,4708,14.064,4708
5439,5439,899.0,5439
3084,3084,10.527,3084
1347,1347,2264.0,1347
1698,1698,15.328,1698
4932,4932,22.535,4932
558,558,10.661,558
1724,1724,17.839000000000006,1724
2579,2579,2943.0,2579
3641,3641,826.0,3641
5430,5430,15.066,5430
2298,2298,12.019,2298
3002,3002,13.082,3002
890,890,10.543,890
866,866,19.578,866
3996,3996,12.843,3996
1675,1675,0.0,1675
2895,2895,683.0,2895
2788,2788,13.91,2788
4287,4287,1724.0,4287
2609,2609,1725.0,2609
705,705,3284.0,705
2064,2064,11.172,2064
2904,2904,13.582,2904
4159,4159,0.0,4159
2702,2702,18.269,2702
1044,1044,12.588,1044
5141,5141,962.0,5141
3316,3316,10.94,3316
3924,3924,95.914,3924
1660,1660,25.586,1660
3997,3997,2556.0,3997
4713,4713,1926.0,4713
1498,1498,14.034,1498
2614,2614,13.019,2614
2164,2164,12.915,2164
812,812,17.674,812
5313,5313,1736.0,5313
5087,5087,0.0,5087
2284,2284,10.456,2284
5045,5045,329.0,5045
1943,1943,3325.0,1943
3358,3358,13.481,3358
511,511,776.0,511
5185,5185,2568.0,5185
3200,3200,13.921,3200
693,693,3211.0,693
1330,1330,17.616,1330
2769,2769,1304.0,2769
1654,1654,15.155,1654
2427,2427,2686.0,2427
5380,5380,17.363,5380
3284,3284,13.645,3284
3056,3056,12.549,3056
1632,1632,14.685,1632
5350,5350,11.037,5350
2889,2889,1595.0,2889
2651,2651,2994.0,2651
2111,2111,855.0,2111
4666,4666,11.962,4666
1545,1545,1390.0,1545
1268,1268,15.932,1268
1226,1226,10.755999999999998,1226
1198,1198,14.088,1198
3732,3732,12.022,3732
1146,1146,10.684,1146
4675,4675,3416.0,4675
5314,5314,156.185,5314
1118,1118,16.812,1118
2783,2783,849.0,2783
3127,3127,834.0,3127
598,598,11.299,598
579,579,375.0,579
1339,1339,37.0,1339
5383,5383,2250.0,5383
1143,1143,330.0,1143
874,874,13.753,874
4041,4041,1302.0,4041
3317,3317,1334.0,3317
5376,5376,11.245,5376
5437,5437,1121.0,5437
4605,4605,3169.0,4605
5188,5188,10.615,5188
1771,1771,2879.0,1771
2343,2343,2597.0,2343
4059,4059,665.0,4059
934,934,13.613,934
1492,1492,12.163,1492
2541,2541,0.0,2541
1342,1342,15.69,1342
2680,2680,16.313,2680
3442,3442,13.349,3442
5463,5463,1902.0,5463
4872,4872,13.890999999999998,4872
2825,2825,484.0,2825
4396,4396,12.661,4396
3304,3304,13.087,3304
819,819,593.0,819
4669,4669,1912.0,4669
2071,2071,1077.0,2071
2251,2251,3346.0,2251
3761,3761,633.0,3761
1736,1736,11.349,1736
2441,2441,0.0,2441
526,526,15.545,526
4610,4610,192.254,4610
4894,4894,17.755,4894
2900,2900,14.417,2900
4931,4931,1656.0,4931
3091,3091,1502.0,3091
4686,4686,27.755,4686
4594,4594,12.81,4594
2117,2117,3328.0,2117
576,576,11.159,576
5348,5348,16.895,5348
4330,4330,27.615,4330
2110,2110,11.187,2110
5459,5459,2569.0,5459
3021,3021,2874.0,3021
4416,4416,18.939,4416
2877,2877,302.0,2877
1399,1399,2824.0,1399
3548,3548,11.811,3548
4493,4493,258.0,4493
4470,4470,13.445,4470
984,984,22.023000000000003,984
5126,5126,14.317,5126
2592,2592,12.737,2592
1075,1075,1606.0,1075
4480,4480,14.3,4480
4184,4184,142.759,4184
2631,2631,698.0,2631
4542,4542,10.747,4542
5176,5176,10.57,5176
3158,3158,12.67,3158
1971,1971,2213.0,1971
1270,1270,13.554,1270
2537,2537,3080.0,2537
3364,3364,11.26,3364
4764,4764,20.874,4764
1350,1350,21.094,1350
1428,1428,21.226,1428
690,690,23.298,690
3011,3011,3091.0,3011
5044,5044,15.338,5044
3120,3120,12.863,3120
1900,1900,21.738000000000003,1900
2823,2823,3182.0,2823
2426,2426,15.345999999999998,2426
5370,5370,14.64,5370
2730,2730,14.858,2730
2414,2414,11.94,2414
4323,4323,3041.0,4323
5146,5146,15.362,5146
4695,4695,618.0,4695
3166,3166,14.720999999999998,3166
5161,5161,1853.0,5161
3631,3631,1445.0,3631
1681,1681,2537.0,1681
2954,2954,17.082,2954
2129,2129,1777.0,2129
2989,2989,1715.0,2989
1490,1490,14.171,1490
2875,2875,908.0,2875
4847,4847,1378.0,4847
692,692,14.392,692
742,742,19.338,742
3203,3203,2983.0,3203
4339,4339,1428.0,4339
1514,1514,14.067,1514
4131,4131,886.0,4131
4988,4988,13.736,4988
4787,4787,1167.0,4787
5331,5331,1182.0,5331
1358,1358,18.337,1358
4467,4467,747.0,4467
2017,2017,1613.0,2017
5267,5267,678.0,5267
1087,1087,921.0,1087
4190,4190,11.276,4190
768,768,14.764,768
2218,2218,24.374,2218
953,953,1553.0,953
4573,4573,539.0,4573
1807,1807,1971.0,1807
1341,1341,1792.0,1341
1750,1750,10.761,1750
2806,2806,11.257,2806
4331,4331,3339.0,4331
1575,1575,2232.0,1575
540,540,17.8,540
5224,5224,14.108,5224
1254,1254,15.59,1254
2249,2249,78.0,2249
5240,5240,13.693,5240
826,826,14.905,826
2490,2490,12.863,2490
1086,1086,14.803,1086
928,928,15.678,928
3703,3703,1216.0,3703
2471,2471,1561.0,2471
704,704,12.189,704
3478,3478,22.019,3478
1010,1010,11.33,1010
4050,4050,129.243,4050
1368,1368,14.970999999999998,1368
3075,3075,513.0,3075
3461,3461,2050.0,3461
2212,2212,19.237,2212
2844,2844,17.749000000000006,2844
3262,3262,15.055,3262
2600,2600,13.322,2600
1454,1454,11.683,1454
2047,2047,0.0,2047
2671,2671,186.0,2671
3787,3787,424.0,3787
5256,5256,11.147,5256
2811,2811,1625.0,2811
3108,3108,18.578,3108
4138,4138,12.404000000000002,4138
2363,2363,2995.0,2363
1659,1659,1465.0,1659
4077,4077,216.0,4077
1324,1324,14.825,1324
1174,1174,14.732,1174
3662,3662,14.345,3662
1089,1089,1158.0,1089
1651,1651,2954.0,1651
1521,1521,970.0,1521
2632,2632,18.648,2632
2559,2559,441.0,2559
2291,2291,0.0,2291
1122,1122,27.797,1122
1418,1418,21.451,1418
3049,3049,1096.0,3049
2167,2167,3228.0,2167
4332,4332,11.212,4332
4064,4064,11.149,4064
3064,3064,13.553,3064
2464,2464,16.257,2464
3238,3238,24.497,3238
5233,5233,2785.0,5233
1664,1664,16.254,1664
3055,3055,2526.0,3055
941,941,1973.0,941
5096,5096,11.819,5096
4681,4681,724.0,4681
2710,2710,13.628,2710
1282,1282,16.612000000000002,1282
1410,1410,17.621,1410
3785,3785,1762.0,3785
1567,1567,2382.0,1567
4143,4143,1396.0,4143
652,652,17.151,652
3719,3719,2871.0,3719
4864,4864,16.902,4864
1322,1322,24.243,1322
1916,1916,10.413,1916
1938,1938,11.357,1938
1435,1435,926.0,1435
2964,2964,19.812,2964
5076,5076,11.469,5076
4963,4963,1978.0,4963
1000,1000,10.598,1000
991,991,3212.0,991
3082,3082,17.497,3082
5133,5133,2415.0,5133
4476,4476,159.86700000000005,4476
2855,2855,2596.0,2855
5124,5124,10.94,5124
2048,2048,13.583,2048
4924,4924,13.024,4924
5388,5388,27.475,5388
1224,1224,12.871,1224
5421,5421,0.0,5421
2148,2148,18.411,2148
2767,2767,1447.0,2767
3132,3132,10.880999999999998,3132
813,813,1075.0,813
4998,4998,17.180999999999994,4998
3307,3307,3243.0,3307
3896,3896,168.792,3896
4906,4906,10.875,4906
2586,2586,17.73,2586
4248,4248,23.457,4248
2273,2273,446.0,2273
4944,4944,12.784,4944
2706,2706,10.398,2706
3849,3849,1800.0,3849
544,544,30.79,544
3483,3483,26.0,3483
1431,1431,3121.0,1431
4088,4088,155.18200000000004,4088
2257,2257,2243.0,2257
2391,2391,1733.0,2391
3949,3949,540.0,3949
5326,5326,10.918,5326
3721,3721,2788.0,3721
3913,3913,1756.0,3913
3619,3619,0.0,3619
1800,1800,16.92,1800
2621,2621,2016.0,2621
695,695,0.0,695
3695,3695,1912.0,3695
2226,2226,14.989,2226
1549,1549,653.0,1549
1657,1657,2182.0,1657
1117,1117,2920.0,1117
3725,3725,1438.0,3725
2419,2419,2235.0,2419
4427,4427,2722.0,4427
3070,3070,14.311,3070
1669,1669,1108.0,1669
2199,2199,82.0,2199
2603,2603,221.0,2603
3312,3312,11.366,3312
3812,3812,18.427,3812
1606,1606,11.447,1606
1359,1359,1956.0,1359
4543,4543,594.0,4543
1602,1602,10.477,1602
2439,2439,1381.0,2439
948,948,11.235,948
2598,2598,12.406,2598
4113,4113,145.0,4113
5404,5404,15.247,5404
847,847,676.0,847
3088,3088,13.623,3088
4158,4158,18.654,4158
1309,1309,735.0,1309
3550,3550,14.084,3550
1678,1678,12.156,1678
502,502,13.529000000000002,502
5274,5274,14.522,5274
4813,4813,3315.0,4813
5408,5408,11.089,5408
614,614,14.091,614
4277,4277,2755.0,4277
4348,4348,18.517,4348
2361,2361,2734.0,2361
2772,2772,15.05,2772
3495,3495,0.0,3495
2612,2612,22.426,2612
2134,2134,14.38,2134
573,573,1313.0,573
3505,3505,3261.0,3505
2802,2802,14.831,2802
4913,4913,164.0,4913
4174,4174,10.533,4174
1274,1274,11.347,1274
1553,1553,0.0,1553
1715,1715,1671.0,1715
2480,2480,12.097,2480
1626,1626,14.047,1626
4399,4399,2311.0,4399
1197,1197,2698.0,1197
4292,4292,188.204,4292
4840,4840,16.967,4840
4013,4013,1037.0,4013
1489,1489,3036.0,1489
3390,3390,14.62,3390
4165,4165,156.0,4165
3182,3182,14.993,3182
3512,3512,19.116,3512
2517,2517,474.0,2517
3848,3848,17.055,3848
4069,4069,0.0,4069
1453,1453,386.0,1453
542,542,18.965,542
2510,2510,11.495,2510
3594,3594,12.859000000000002,3594
5258,5258,11.163,5258
4914,4914,12.303,4914
4270,4270,11.473,4270
2950,2950,12.323,2950
2518,2518,16.248,2518
816,816,13.136,816
2716,2716,15.462,2716
3239,3239,0.0,3239
2864,2864,14.557,2864
5372,5372,11.197,5372
3393,3393,0.0,3393
760,760,14.51,760
2653,2653,1274.0,2653
895,895,3177.0,895
1123,1123,3329.0,1123
3507,3507,0.0,3507
5282,5282,12.796,5282
1228,1228,10.154,1228
851,851,723.0,851
4858,4858,12.189,4858
786,786,12.403,786
735,735,0.0,735
3513,3513,2493.0,3513
5426,5426,12.273,5426
2847,2847,558.0,2847
4272,4272,164.334,4272
5020,5020,11.064,5020
1383,1383,2760.0,1383
894,894,11.925,894
3388,3388,15.069,3388
501,501,1682.0,501
2204,2204,15.615,2204
1527,1527,706.0,1527
2443,2443,1569.0,2443
555,555,2656.0,555
2423,2423,1009.0,2423
3970,3970,194.039,3970
1491,1491,1788.0,1491
4845,4845,3224.0,4845
898,898,14.793,898
1921,1921,1462.0,1921
4473,4473,3136.0,4473
1022,1022,11.883,1022
2729,2729,2231.0,2729
820,820,10.796,820
805,805,2545.0,805
4598,4598,11.169,4598
3720,3720,12.735,3720
2024,2024,18.28,2024
1319,1319,0.0,1319
1718,1718,25.617,1718
4700,4700,183.855,4700
3025,3025,1315.0,3025
1461,1461,343.0,1461
2585,2585,1462.0,2585
1219,1219,1971.0,1219
4818,4818,11.297,4818
5086,5086,12.651,5086
3860,3860,13.374,3860
4142,4142,10.993,4142
2970,2970,13.7,2970
4093,4093,0.0,4093
4943,4943,3405.0,4943
4176,4176,10.722,4176
4933,4933,3413.0,4933
2505,2505,87.0,2505
3278,3278,16.8,3278
4005,4005,2558.0,4005
2685,2685,0.0,2685
979,979,2606.0,979
2998,2998,13.868,2998
2037,2037,1874.0,2037
3753,3753,181.0,3753
5175,5175,516.0,5175
2778,2778,20.155,2778
2608,2608,11.939,2608
4445,4445,2105.0,4445
1263,1263,137.0,1263
2861,2861,2381.0,2861
2039,2039,1281.0,2039
1124,1124,16.854,1124
2805,2805,3342.0,2805
2165,2165,2496.0,2165
2470,2470,12.449000000000002,2470
1289,1289,1403.0,1289
5283,5283,2236.0,5283
4529,4529,3188.0,4529
2838,2838,14.052,2838
1333,1333,1552.0,1333
3727,3727,2527.0,3727
2263,2263,1759.0,2263
5028,5028,14.952,5028
2856,2856,19.108,2856
4809,4809,1117.0,4809
5212,5212,11.052,5212
5153,5153,2630.0,5153
5247,5247,1341.0,5247
3775,3775,669.0,3775
5276,5276,16.724,5276
4567,4567,1481.0,4567
2353,2353,45.0,2353
703,703,870.0,703
4046,4046,16.874000000000002,4046
3670,3670,13.742,3670
2886,2886,10.732,2886
3697,3697,741.0,3697
4655,4655,1003.0,4655
823,823,1835.0,823
1364,1364,15.408,1364
3365,3365,3021.0,3365
2839,2839,1769.0,2839
4996,4996,12.86,4996
1872,1872,12.928,1872
4613,4613,446.0,4613
3951,3951,2419.0,3951
539,539,2772.0,539
2953,2953,1041.0,2953
3780,3780,15.021,3780
727,727,2668.0,727
2013,2013,0.0,2013
4572,4572,12.222,4572
3698,3698,14.799,3698
4724,4724,22.004,4724
912,912,17.449,912
691,691,1968.0,691
4054,4054,11.826,4054
3817,3817,1595.0,3817
1390,1390,18.594,1390
3159,3159,1859.0,3159
3928,3928,199.016,3928
863,863,1384.0,863
4692,4692,14.369000000000002,4692
3520,3520,10.68,3520
1809,1809,668.0,1809
3443,3443,1875.0,3443
3339,3339,1338.0,3339
4320,4320,12.518,4320
4091,4091,1759.0,4091
5411,5411,163.0,5411
4628,4628,11.59,4628
2187,2187,2511.0,2187
1621,1621,2801.0,1621
1318,1318,11.5,1318
3455,3455,3368.0,3455
732,732,27.377,732
1855,1855,1179.0,1855
2370,2370,14.275,2370
3039,3039,1378.0,3039
5297,5297,2182.0,5297
1343,1343,1404.0,1343
3842,3842,14.433,3842
2909,2909,1110.0,2909
3466,3466,18.514,3466
3140,3140,15.122,3140
3134,3134,14.488,3134
856,856,11.615,856
593,593,1896.0,593
3124,3124,14.326,3124
3100,3100,16.567999999999998,3100
4231,4231,3214.0,4231
4435,4435,1834.0,4435
1055,1055,2608.0,1055
2639,2639,307.0,2639
3701,3701,1793.0,3701
995,995,1699.0,995
2816,2816,11.16,2816
3700,3700,46.25,3700
2233,2233,655.0,2233
1547,1547,2234.0,1547
4448,4448,14.117,4448
2980,2980,11.485,2980
1563,1563,1212.0,1563
1096,1096,11.492,1096
4364,4364,12.793,4364
4812,4812,11.386,4812
1485,1485,1302.0,1485
4799,4799,2046.0,4799
3824,3824,10.872,3824
3350,3350,12.173,3350
1329,1329,224.0,1329
3475,3475,1050.0,3475
1026,1026,11.037,1026
2325,2325,942.0,2325
1543,1543,1842.0,1543
2677,2677,2070.0,2677
2548,2548,16.409000000000002,2548
1257,1257,308.0,1257
5156,5156,21.429,5156
2132,2132,15.775,2132
1551,1551,2044.0,1551
1697,1697,2315.0,1697
3028,3028,14.816,3028
1136,1136,10.62,1136
3438,3438,14.163,3438
2679,2679,0.0,2679
4360,4360,15.529000000000002,4360
2863,2863,2920.0,2863
2595,2595,169.0,2595
3518,3518,15.114,3518
4023,4023,401.0,4023
3894,3894,14.297,3894
881,881,0.0,881
4039,4039,1104.0,4039
5244,5244,14.888,5244
5221,5221,3408.0,5221
2425,2425,0.0,2425
3170,3170,15.247,3170
2908,2908,14.903,2908
2348,2348,11.634,2348
3451,3451,860.0,3451
726,726,10.677,726
4999,4999,3041.0,4999
3149,3149,1078.0,3149
1155,1155,3176.0,1155
1392,1392,13.331,1392
1455,1455,1017.0,1455
4836,4836,21.287,4836
4957,4957,2641.0,4957
4912,4912,14.156,4912
1528,1528,27.699,1528
4530,4530,16.037,4530
2466,2466,11.203,2466
3841,3841,1309.0,3841
5158,5158,16.683,5158
4938,4938,12.757,4938
756,756,25.267,756
2574,2574,154.77200000000005,2574
3303,3303,1881.0,3303
5162,5162,12.304,5162
1940,1940,11.692,1940
1569,1569,1987.0,1569
1216,1216,14.337,1216
2602,2602,15.554,2602
2945,2945,1279.0,2945
2463,2463,515.0,2463
1229,1229,102.0,1229
1409,1409,0.0,1409
1910,1910,12.961,1910
547,547,491.0,547
4428,4428,13.297,4428
611,611,220.0,611
1156,1156,14.793,1156
2540,2540,24.887,2540
909,909,569.0,909
3519,3519,2354.0,3519
2238,2238,23.95,2238
1996,1996,10.856,1996
2380,2380,16.209,2380
3116,3116,10.761,3116
2564,2564,18.472,2564
4579,4579,3060.0,4579
1391,1391,383.0,1391
1721,1721,1070.0,1721
3907,3907,1916.0,3907
3096,3096,25.975,3096
3397,3397,0.0,3397
1985,1985,427.0,1985
2124,2124,16.94,2124
2942,2942,14.247,2942
1813,1813,3297.0,1813
5357,5357,83.0,5357
2979,2979,631.0,2979
1388,1388,11.169,1388
943,943,1405.0,943
4499,4499,999.0,4499
1238,1238,13.076,1238
3591,3591,2578.0,3591
5070,5070,14.145,5070
5008,5008,14.255,5008
1864,1864,11.86,1864
5010,5010,27.523000000000003,5010
2550,2550,19.03,2550
4410,4410,14.609000000000002,4410
1006,1006,12.844,1006
2894,2894,13.027,2894
4128,4128,12.716,4128
2809,2809,1889.0,2809
3978,3978,179.25,3978
2587,2587,62.0,2587
5306,5306,17.271,5306
2739,2739,402.0,2739
508,508,12.099,508
1562,1562,20.949,1562
3423,3423,3114.0,3423
514,514,25.089,514
2334,2334,12.461,2334
1695,1695,2336.0,1695
5340,5340,11.315,5340
2594,2594,11.486,2594
5138,5138,11.701,5138
668,668,15.57,668
5063,5063,2798.0,5063
3728,3728,16.24,3728
5193,5193,1514.0,5193
1273,1273,2737.0,1273
2452,2452,10.956,2452
688,688,13.484000000000002,688
4294,4294,15.175999999999998,4294
3938,3938,20.433,3938
2508,2508,15.156,2508
2137,2137,636.0,2137
3834,3834,31.421,3834
3608,3608,14.909,3608
582,582,12.231,582
1926,1926,11.745,1926
4580,4580,11.532,4580
4125,4125,1791.0,4125
4342,4342,21.07,4342
2389,2389,496.0,2389
922,922,11.574000000000002,922
3707,3707,1057.0,3707
963,963,2898.0,963
4976,4976,10.438,4976
2549,2549,2009.0,2549
3123,3123,163.0,3123
3067,3067,2767.0,3067
2169,2169,2000.0,2169
3405,3405,2484.0,3405
3563,3563,2433.0,3563
1722,1722,14.833,1722
2635,2635,3378.0,2635
2756,2756,13.062,2756
5025,5025,1641.0,5025
3733,3733,128.0,3733
4177,4177,900.0,4177
3742,3742,13.151,3742
5039,5039,2926.0,5039
3652,3652,11.179,3652
2569,2569,1777.0,2569
2626,2626,13.921,2626
3033,3033,1732.0,3033
4937,4937,1462.0,4937
3179,3179,3347.0,3179
3232,3232,19.141,3232
2077,2077,2190.0,2077
4734,4734,11.094,4734
1583,1583,0.0,1583
3912,3912,19.974,3912
1905,1905,0.0,1905
4784,4784,12.706,4784
2689,2689,2108.0,2689
1241,1241,1262.0,1241
4255,4255,2796.0,4255
2177,2177,93.0,2177
5301,5301,3021.0,5301
3476,3476,13.864,3476
5379,5379,2556.0,5379
2486,2486,12.101,2486
635,635,113.0,635
5067,5067,2951.0,5067
2366,2366,11.865,2366
4854,4854,12.399,4854
3622,3622,19.635,3622
1230,1230,14.406,1230
5263,5263,3146.0,5263
5317,5317,884.0,5317
3629,3629,3064.0,3629
4144,4144,30.476,4144
951,951,1124.0,951
4639,4639,2929.0,4639
2170,2170,10.285,2170
910,910,11.607,910
4058,4058,174.09799999999996,4058
3772,3772,163.21200000000005,3772
4460,4460,24.734,4460
1061,1061,892.0,1061
3741,3741,0.0,3741
3686,3686,13.204,3686
2561,2561,155.0,2561
1601,1601,0.0,1601
1966,1966,10.752,1966
4349,4349,581.0,4349
3197,3197,2874.0,3197
1203,1203,2919.0,1203
4216,4216,10.513,4216
2504,2504,13.939,2504
3593,3593,476.0,3593
1305,1305,1192.0,1305
3766,3766,10.542,3766
4746,4746,10.764,4746
5033,5033,198.0,5033
2424,2424,27.73,2424
5378,5378,17.057000000000002,5378
1559,1559,2637.0,1559
2179,2179,0.0,2179
798,798,12.140999999999998,798
5217,5217,1535.0,5217
1212,1212,15.458,1212
4252,4252,207.456,4252
1968,1968,11.470999999999998,1968
3644,3644,11.186,3644
2379,2379,699.0,2379
2649,2649,3307.0,2649
4674,4674,11.822,4674
2734,2734,13.761,2734
920,920,14.731,920
5448,5448,10.47,5448
3760,3760,17.323,3760
4094,4094,18.497,4094
3901,3901,3354.0,3901
3007,3007,855.0,3007
4498,4498,21.274,4498
3994,3994,12.842,3994
1552,1552,20.961,1552
5398,5398,14.967,5398
2872,2872,15.348,2872
999,999,0.0,999
4756,4756,11.608,4756
1994,1994,10.354,1994
5308,5308,15.524,5308
3573,3573,238.0,3573
2555,2555,723.0,2555
2162,2162,14.812,2162
1102,1102,17.28,1102
2200,2200,21.924,2200
4837,4837,1789.0,4837
4817,4817,1012.0,4817
717,717,910.0,717
3164,3164,14.482,3164
1751,1751,66.0,1751
4920,4920,16.123,4920
2610,2610,185.985,2610
3524,3524,14.604,3524
4960,4960,13.715,4960
2923,2923,0.0,2923
1655,1655,0.0,1655
1182,1182,11.185,1182
5102,5102,10.414,5102
4433,4433,0.0,4433
4738,4738,69.525,4738
1770,1770,27.38,1770
2330,2330,18.687,2330
1694,1694,14.227,1694
3400,3400,12.408,3400
4597,4597,921.0,4597
4043,4043,861.0,4043
3564,3564,18.527,3564
4827,4827,954.0,4827
2804,2804,17.465,2804
4170,4170,13.488,4170
3711,3711,2897.0,3711
2556,2556,198.36,2556
4810,4810,182.516,4810
3428,3428,15.269,3428
1438,1438,21.359,1438
1039,1039,0.0,1039
2976,2976,11.416,2976
2808,2808,11.156,2808
1643,1643,1508.0,1643
2359,2359,0.0,2359
4861,4861,2301.0,4861
838,838,25.842,838
2524,2524,16.989,2524
3413,3413,1825.0,3413
532,532,12.803,532
2737,2737,212.0,2737
3633,3633,2754.0,3633
1511,1511,2560.0,1511
2743,2743,0.0,2743
5413,5413,0.0,5413
2278,2278,23.359,2278
3986,3986,11.271,3986
559,559,0.0,559
1877,1877,1344.0,1877
1672,1672,14.351,1672
4029,4029,1261.0,4029
5187,5187,2686.0,5187
3436,3436,19.765,3436
1147,1147,1459.0,1147
2133,2133,3307.0,2133
1929,1929,3029.0,1929
3961,3961,1375.0,3961
1404,1404,17.79,1404
3133,3133,1239.0,3133
1082,1082,15.376,1082
2159,2159,1081.0,2159
1181,1181,249.0,1181
3531,3531,3048.0,3531
1106,1106,16.12,1106
5112,5112,10.794,5112
2258,2258,10.787,2258
4815,4815,1642.0,4815
3655,3655,337.0,3655
3496,3496,11.027,3496
4457,4457,748.0,4457
2375,2375,174.0,2375
3152,3152,10.649,3152
2315,2315,0.0,2315
2001,2001,913.0,2001
2496,2496,14.285,2496
4673,4673,0.0,4673
2364,2364,13.93,2364
1637,1637,1474.0,1637
1920,1920,14.997,1920
4074,4074,14.518,4074
2454,2454,16.058,2454
749,749,2133.0,749
2351,2351,2838.0,2351
4791,4791,2563.0,4791
3649,3649,0.0,3649
808,808,10.849,808
5346,5346,13.845,5346
537,537,2563.0,537
2882,2882,27.653,2882
3677,3677,0.0,3677
3762,3762,16.205,3762
4754,4754,19.345,4754
2103,2103,1160.0,2103
3837,3837,2591.0,3837
5466,5466,10.543,5466
5434,5434,12.628,5434
1935,1935,3276.0,1935
1202,1202,11.928,1202
1285,1285,2689.0,1285
2658,2658,11.375,2658
2925,2925,2473.0,2925
1696,1696,14.859000000000002,1696
3946,3946,14.187,3946
3306,3306,11.172,3306
2089,2089,2938.0,2089
4559,4559,3103.0,4559
4902,4902,14.019,4902
1007,1007,1864.0,1007
5024,5024,10.428,5024
4412,4412,11.405,4412
2944,2944,15.622,2944
5018,5018,13.049,5018
5079,5079,1516.0,5079
2951,2951,1743.0,2951
3130,3130,13.733,3130
3947,3947,2125.0,3947
967,967,2482.0,967
2052,2052,22.759,2052
4584,4584,12.970999999999998,4584
1043,1043,1051.0,1043
1922,1922,10.418,1922
3643,3643,217.0,3643
1209,1209,1369.0,1209
2044,2044,10.380999999999998,2044
2955,2955,0.0,2955
1663,1663,3010.0,1663
751,751,0.0,751
1244,1244,11.694,1244
2043,2043,1934.0,2043
5237,5237,2354.0,5237
519,519,0.0,519
500,500,11.754,500
3805,3805,542.0,3805
1465,1465,2926.0,1465
4276,4276,21.49,4276
5261,5261,1484.0,5261
4729,4729,0.0,4729
914,914,20.135,914
3310,3310,15.148,3310
2791,2791,212.0,2791
1384,1384,15.491,1384
955,955,0.0,955
728,728,15.388,728
5469,5469,3043.0,5469
1046,1046,12.004,1046
3930,3930,32.542,3930
1179,1179,3076.0,1179
4398,4398,11.069,4398
752,752,17.537,752
734,734,14.996,734
3899,3899,2126.0,3899
4814,4814,12.367,4814
2575,2575,951.0,2575
4786,4786,16.844,4786
3017,3017,2095.0,3017
2100,2100,17.175,2100
4260,4260,34.892,4260
3764,3764,11.77,3764
3547,3547,1401.0,3547
1870,1870,15.31,1870
3357,3357,2335.0,3357
4531,4531,3083.0,4531
1980,1980,15.903,1980
1830,1830,16.648,1830
1323,1323,2184.0,1323
3268,3268,12.720999999999998,3268
548,548,18.231,548
3911,3911,0.0,3911
1167,1167,189.0,1167
2483,2483,243.0,2483
3042,3042,11.287,3042
4593,4593,1056.0,4593
4620,4620,15.579,4620
1482,1482,12.896,1482
4616,4616,11.029000000000002,4616
1373,1373,2070.0,1373
4774,4774,18.14,4774
4464,4464,10.632,4464
3361,3361,1485.0,3361
4965,4965,1883.0,4965
1063,1063,1228.0,1063
1195,1195,1707.0,1195
1081,1081,1053.0,1081
2545,2545,477.0,2545
4516,4516,20.177,4516
5412,5412,12.242,5412
2145,2145,2985.0,2145
4744,4744,10.857,4744
4065,4065,461.0,4065
3800,3800,182.79,3800
3162,3162,14.13,3162
4135,4135,2779.0,4135
2782,2782,12.264,2782
1974,1974,14.925,1974
2362,2362,13.672,2362
1051,1051,3347.0,1051
4200,4200,16.718,4200
3977,3977,428.0,3977
3528,3528,13.259,3528
1412,1412,16.32,1412
4469,4469,224.0,4469
4068,4068,201.416,4068
2241,2241,3421.0,2241
822,822,11.334,822
2317,2317,1731.0,2317
5442,5442,13.06,5442
4870,4870,17.488,4870
675,675,3027.0,675
4867,4867,0.0,4867
1352,1352,12.185,1352
2459,2459,2489.0,2459
5344,5344,11.452,5344
1906,1906,16.463,1906
5238,5238,10.473,5238
3537,3537,1731.0,3537
5056,5056,15.964,5056
2898,2898,16.25,2898
5068,5068,12.62,5068
2161,2161,349.0,2161
1839,1839,3269.0,1839
1729,1729,829.0,1729
621,621,32.0,621
5309,5309,2810.0,5309
4355,4355,3422.0,4355
4240,4240,20.974,4240
2936,2936,12.869000000000002,2936
4109,4109,1984.0,4109
2413,2413,0.0,2413
5173,5173,1813.0,5173
2776,2776,21.733,2776
3734,3734,13.604,3734
2091,2091,3345.0,2091
2422,2422,12.855,2422
4994,4994,15.765999999999998,4994
3584,3584,14.086,3584
2360,2360,14.148,2360
1072,1072,11.83,1072
4421,4421,2458.0,4421
4577,4577,2213.0,4577
5291,5291,0.0,5291
3125,3125,1522.0,3125
4816,4816,17.379,4816
3069,3069,2677.0,3069
1580,1580,14.433,1580
1376,1376,12.298,1376
1535,1535,3046.0,1535
4811,4811,2240.0,4811
2627,2627,954.0,2627
4970,4970,11.227,4970
513,513,938.0,513
770,770,34.405,770
623,623,400.0,623
4982,4982,12.434,4982
1335,1335,2039.0,1335
4139,4139,1387.0,4139
5416,5416,11.076,5416
3909,3909,0.0,3909
4016,4016,11.586,4016
855,855,1901.0,855
1550,1550,13.944,1550
4688,4688,13.941,4688
5038,5038,12.537,5038
5467,5467,0.0,5467
2846,2846,12.047,2846
3679,3679,1637.0,3679
2437,2437,906.0,2437
2978,2978,10.825,2978
2428,2428,32.733000000000004,2428
1326,1326,18.773,1326
4021,4021,2245.0,4021
4614,4614,13.463,4614
2313,2313,2726.0,2313
5254,5254,10.983,5254
2636,2636,25.144,2636
4321,4321,2535.0,4321
905,905,741.0,905
604,604,11.788,604
764,764,12.688,764
4750,4750,142.566,4750
879,879,649.0,879
778,778,12.364,778
1206,1206,14.432,1206
3650,3650,11.312,3650
978,978,24.119,978
5271,5271,0.0,5271
733,733,0.0,733
3191,3191,1756.0,3191
1191,1191,1650.0,1191
1419,1419,2147.0,1419
3199,3199,2102.0,3199
3756,3756,11.113,3756
1450,1450,20.833,1450
4925,4925,30.0,4925
1252,1252,14.621,1252
5277,5277,357.0,5277
2093,2093,3356.0,2093
4386,4386,11.657,4386
4929,4929,2880.0,4929
4265,4265,2475.0,4265
2412,2412,14.462,2412
4904,4904,22.801,4904
2890,2890,13.753,2890
1706,1706,26.673,1706
1808,1808,13.439,1808
4841,4841,2628.0,4841
2060,2060,13.97,2060
3601,3601,2782.0,3601
3737,3737,0.0,3737
5075,5075,1098.0,5075
1789,1789,2349.0,1789
720,720,13.349,720
644,644,16.502,644
2697,2697,567.0,2697
2929,2929,1155.0,2929
1709,1709,126.0,1709
3788,3788,18.624,3788
3432,3432,11.975,3432
4180,4180,16.81,4180
4378,4378,12.728,4378
1882,1882,12.575,1882
2986,2986,11.738,2986
4140,4140,11.942,4140
2009,2009,1221.0,2009
5320,5320,11.74,5320
2879,2879,2785.0,2879
2544,2544,16.441,2544
2690,2690,11.027,2690
5287,5287,115.0,5287
3202,3202,27.628,3202
659,659,1353.0,659
1584,1584,14.623,1584
1658,1658,21.97,1658
877,877,1352.0,877
2637,2637,2264.0,2637
1738,1738,14.595999999999998,1738
3009,3009,2155.0,3009
2261,2261,3171.0,2261
3813,3813,1424.0,3813
1239,1239,1168.0,1239
2684,2684,15.646,2684
1377,1377,2626.0,1377
3572,3572,17.868,3572
2572,2572,12.433,2572
4299,4299,2994.0,4299
5195,5195,2187.0,5195
2365,2365,2727.0,2365
2796,2796,14.043,2796
4368,4368,12.974,4368
3174,3174,14.217,3174
4115,4115,1609.0,4115
5196,5196,10.435,5196
1711,1711,0.0,1711
3666,3666,10.508,3666
2507,2507,598.0,2507
3559,3559,171.0,3559
4447,4447,138.0,4447
566,566,10.574000000000002,566
5017,5017,3142.0,5017
4218,4218,15.348,4218
4073,4073,2469.0,4073
651,651,487.0,651
4830,4830,10.974,4830
1844,1844,16.37,1844
2421,2421,1803.0,2421
5183,5183,2012.0,5183
3625,3625,0.0,3625
4232,4232,11.839,4232
1029,1029,3420.0,1029
2764,2764,16.547,2764
4053,4053,1115.0,4053
3256,3256,13.704,3256
5410,5410,22.064,5410
2758,2758,11.171,2758
1761,1761,1701.0,1761
2440,2440,16.269000000000002,2440
1699,1699,0.0,1699
5373,5373,3169.0,5373
2108,2108,12.919,2108
1193,1193,2422.0,1193
2178,2178,13.819,2178
2140,2140,18.377,2140
3934,3934,19.308,3934
1691,1691,2010.0,1691
5298,5298,12.565,5298
1574,1574,54.76600000000001,1574
4564,4564,13.300999999999998,4564
3220,3220,17.814,3220
3945,3945,2698.0,3945
5150,5150,18.101,5150
1858,1858,11.815,1858
3085,3085,2016.0,3085
4794,4794,11.389,4794
3956,3956,191.669,3956
1915,1915,2200.0,1915
3287,3287,3357.0,3287
5015,5015,684.0,5015
5251,5251,1605.0,5251
1524,1524,13.759,1524
933,933,1677.0,933
3004,3004,11.769,3004
5053,5053,1952.0,5053
2303,2303,2695.0,2303
1934,1934,15.75,1934
4326,4326,15.103,4326
4379,4379,1817.0,4379
3346,3346,10.519,3346
4821,4821,1145.0,4821
3482,3482,12.734000000000002,3482
3294,3294,14.024,3294
3943,3943,3386.0,3943
2358,2358,14.675999999999998,2358
5369,5369,2859.0,5369
3073,3073,0.0,3073
5356,5356,12.214,5356
1791,1791,0.0,1791
885,885,3096.0,885
4588,4588,23.091,4588
1311,1311,1159.0,1311
1525,1525,2389.0,1525
581,581,2228.0,581
3992,3992,12.279000000000002,3992
2433,2433,981.0,2433
1290,1290,15.241,1290
5216,5216,13.868,5216
1362,1362,93.059,1362
1557,1557,2326.0,1557
1759,1759,462.0,1759
1171,1171,0.0,1171
589,589,0.0,589
2640,2640,10.419,2640
5218,5218,21.026,5218
1468,1468,11.966,1468
718,718,15.083,718
4099,4099,496.0,4099
1306,1306,13.441,1306
2757,2757,353.0,2757
3472,3472,11.653,3472
2331,2331,443.0,2331
1255,1255,2576.0,1255
4533,4533,491.0,4533
2821,2821,2016.0,2821
1578,1578,15.781,1578
1067,1067,2588.0,1067
4092,4092,11.725,4092
1236,1236,13.014,1236
2956,2956,16.148,2956
4726,4726,12.615,4726
3516,3516,11.065,3516
1192,1192,17.939,1192
3029,3029,527.0,3029
2373,2373,1287.0,2373
1594,1594,13.035,1594
3755,3755,3192.0,3755
2432,2432,15.466,2432
1442,1442,13.005,1442
4393,4393,1680.0,4393
4761,4761,1648.0,4761
4930,4930,16.358,4930
4795,4795,1688.0,4795
602,602,11.103,602
5345,5345,235.0,5345
4901,4901,2976.0,4901
1571,1571,1872.0,1571
561,561,364.0,561
3221,3221,2267.0,3221
3869,3869,0.0,3869
1429,1429,0.0,1429
5239,5239,1165.0,5239
2994,2994,12.098,2994
2532,2532,17.962,2532
2657,2657,3011.0,2657
4497,4497,3425.0,4497
2582,2582,16.526,2582
952,952,20.444000000000006,952
1205,1205,0.0,1205
2920,2920,11.338,2920
2175,2175,2561.0,2175
4879,4879,2588.0,4879
4633,4633,2162.0,4633
776,776,14.056,776
4520,4520,11.612,4520
3078,3078,15.681,3078
4627,4627,3416.0,4627
1510,1510,13.099,1510
700,700,13.444,700
1846,1846,11.826,1846
3969,3969,1295.0,3969
5269,5269,692.0,5269
5392,5392,22.704,5392
5219,5219,2464.0,5219
3730,3730,11.219,3730
523,523,2457.0,523
2347,2347,2925.0,2347
3532,3532,19.041,3532
4575,4575,1997.0,4575
4425,4425,2624.0,4425
2153,2153,1137.0,2153
3101,3101,174.0,3101
1919,1919,2372.0,1919
714,714,15.43,714
3201,3201,1003.0,3201
4195,4195,2174.0,4195
4424,4424,167.435,4424
4974,4974,11.675999999999998,4974
3988,3988,14.529000000000002,3988
2135,2135,2564.0,2135
4706,4706,14.77,4706
2034,2034,17.974,2034
3987,3987,2317.0,3987
5005,5005,788.0,5005
2304,2304,11.274,2304
5001,5001,2711.0,5001
950,950,14.227,950
504,504,11.765,504
2335,2335,0.0,2335
1947,1947,589.0,1947
1509,1509,2897.0,1509
4129,4129,1420.0,4129
3145,3145,0.0,3145
5462,5462,14.386,5462
3288,3288,22.419,3288
4221,4221,949.0,4221
1843,1843,1902.0,1843
4995,4995,1996.0,4995
5130,5130,11.84,5130
3095,3095,318.0,3095
4881,4881,3101.0,4881
1749,1749,238.0,1749
2011,2011,2087.0,2011
1685,1685,158.0,1685
3634,3634,25.162,3634
1822,1822,22.712,1822
1941,1941,717.0,1941
4859,4859,2381.0,4859
708,708,11.16,708
4017,4017,3039.0,4017
4719,4719,382.0,4719
5137,5137,3373.0,5137
4955,4955,233.0,4955
911,911,2248.0,911
3887,3887,3210.0,3887
4369,4369,0.0,4369
3675,3675,422.0,3675
3414,3414,11.113,3414
3485,3485,1059.0,3485
3233,3233,2091.0,3233
3598,3598,11.378,3598
4285,4285,79.0,4285
1577,1577,453.0,1577
4737,4737,1294.0,4737
4801,4801,399.0,4801
4175,4175,0.0,4175
784,784,14.968,784
1765,1765,1908.0,1765
2185,2185,1171.0,2185
4295,4295,2107.0,4295
2568,2568,19.447,2568
3484,3484,10.979,3484
3024,3024,10.746,3024
3615,3615,1663.0,3615
3468,3468,13.883,3468
1869,1869,25.0,1869
3431,3431,1428.0,3431
3902,3902,18.403,3902
672,672,10.955,672
2154,2154,14.621,2154
3020,3020,12.886,3020
3121,3121,341.0,3121
2402,2402,12.692,2402
4300,4300,170.78099999999995,4300
3538,3538,10.877,3538
5043,5043,56.0,5043
4865,4865,887.0,4865
3375,3375,1668.0,3375
1670,1670,13.917,1670
1862,1862,10.577,1862
3750,3750,11.050999999999998,3750
4739,4739,1273.0,4739
1832,1832,11.403,1832
1395,1395,1009.0,1395
1154,1154,13.711,1154
897,897,1448.0,897
4747,4747,1080.0,4747
1616,1616,14.311,1616
2916,2916,11.695,2916
2722,2722,15.219,2722
4919,4919,1766.0,4919
4871,4871,1219.0,4871
4679,4679,250.0,4679
1158,1158,11.284,1158
5387,5387,2937.0,5387
2961,2961,230.0,2961
4104,4104,193.455,4104
3215,3215,3057.0,3215
4304,4304,14.406,4304
3838,3838,16.165,3838
4157,4157,1954.0,4157
4097,4097,132.0,4097
4409,4409,2444.0,4409
4723,4723,2828.0,4723
2342,2342,19.92,2342
5014,5014,20.488000000000003,5014
3248,3248,12.019,3248
4636,4636,152.225,4636
3424,3424,16.064,3424
4549,4549,2542.0,4549
4558,4558,23.128,4558
2157,2157,1878.0,2157
571,571,669.0,571
562,562,12.017,562
3204,3204,18.171,3204
5232,5232,12.408,5232
1768,1768,17.969,1768
4381,4381,1484.0,4381
3803,3803,0.0,3803
4512,4512,12.874,4512
2520,2520,14.388,2520
2056,2056,27.368,2056
4095,4095,1518.0,4095
3511,3511,1072.0,3511
977,977,1576.0,977
4653,4653,2971.0,4653
737,737,0.0,737
4145,4145,237.0,4145
1924,1924,11.929,1924
1161,1161,3375.0,1161
4671,4671,1144.0,4671
754,754,13.136,754
1890,1890,18.007,1890
2762,2762,13.211,2762
4048,4048,20.947,4048
2558,2558,10.162,2558
4755,4755,2614.0,4755
1558,1558,12.27,1558
3154,3154,13.281,3154
1307,1307,1803.0,1307
2515,2515,3241.0,2515
592,592,11.33,592
4850,4850,11.724,4850
3999,3999,1955.0,3999
1436,1436,10.675,1436
4307,4307,1769.0,4307
4903,4903,2370.0,4903
521,521,2122.0,521
5305,5305,852.0,5305
1138,1138,14.034,1138
2701,2701,538.0,2701
2196,2196,12.312,2196
787,787,3226.0,787
2040,2040,10.225,2040
5145,5145,3358.0,5145
1094,1094,14.503,1094
538,538,24.519,538
1291,1291,3295.0,1291
5143,5143,2837.0,5143
3417,3417,2589.0,3417
4261,4261,1937.0,4261
641,641,154.0,641
509,509,2812.0,509
4638,4638,162.734,4638
3993,3993,2816.0,3993
902,902,15.77,902
4084,4084,10.995,4084
3032,3032,10.875,3032
1619,1619,289.0,1619
3264,3264,14.753,3264
4643,4643,2381.0,4643
2707,2707,96.0,2707
3379,3379,1753.0,3379
2747,2747,2273.0,2747
5262,5262,13.475,5262
3147,3147,651.0,3147
3664,3664,10.243,3664
4079,4079,808.0,4079
1648,1648,52.161,1648
1458,1458,12.559,1458
4118,4118,11.36,4118
3774,3774,15.214,3774
5054,5054,26.773000000000003,5054
3871,3871,2742.0,3871
3935,3935,934.0,3935
5023,5023,1418.0,5023
4831,4831,1644.0,4831
2272,2272,15.197,2272
1630,1630,15.369000000000002,1630
569,569,2861.0,569
767,767,1975.0,767
2314,2314,14.69,2314
2206,2206,11.018,2206
4539,4539,1245.0,4539
1382,1382,15.053,1382
1988,1988,12.662,1988
5057,5057,205.0,5057
4887,4887,550.0,4887
1372,1372,16.108,1372
4857,4857,927.0,4857
2203,2203,0.0,2203
2830,2830,16.878,2830
4465,4465,853.0,4465
5006,5006,12.831,5006
1885,1885,781.0,1885
4481,4481,0.0,4481
2000,2000,12.215,2000
2098,2098,16.805999999999994,2098
4204,4204,12.619000000000002,4204
775,775,1600.0,775
2686,2686,21.8,2686
4646,4646,211.392,4646
4900,4900,14.8,4900
2529,2529,3353.0,2529
2476,2476,12.964,2476
5281,5281,613.0,5281
5332,5332,10.265,5332
3315,3315,1368.0,3315
4658,4658,17.373,4658
1501,1501,3110.0,1501
1536,1536,52.133,1536
4317,4317,190.0,4317
4234,4234,11.77,4234
772,772,12.51,772
3360,3360,10.541,3360
4351,4351,201.0,4351
1437,1437,2392.0,1437
5207,5207,2895.0,5207
3410,3410,11.428,3410
1990,1990,11.535,1990
4045,4045,0.0,4045
1250,1250,11.388,1250
2318,2318,13.168,2318
803,803,1036.0,803
4828,4828,12.337,4828
4078,4078,12.546,4078
2728,2728,16.86,2728
2715,2715,2062.0,2715
1842,1842,14.969,1842
4897,4897,0.0,4897
3279,3279,1624.0,3279
1633,1633,507.0,1633
3040,3040,10.857,3040
2012,2012,11.884,2012
1019,1019,1823.0,1019
1680,1680,15.058,1680
3426,3426,14.797,3426
4215,4215,2335.0,4215
1838,1838,18.836,1838
1036,1036,13.191,1036
3380,3380,14.572,3380
3836,3836,15.656,3836
1099,1099,1633.0,1099
2918,2918,12.654000000000002,2918
572,572,13.065,572
3037,3037,3078.0,3037
2673,2673,2713.0,2673
1299,1299,2994.0,1299
1539,1539,1789.0,1539
3717,3717,1189.0,3717
3219,3219,2642.0,3219
2985,2985,2796.0,2985
3498,3498,11.169,3498
2088,2088,11.361,2088
3777,3777,1232.0,3777
3754,3754,11.178,3754
5381,5381,1763.0,5381
1139,1139,3417.0,1139
1624,1624,13.688,1624
2820,2820,12.178,2820
3845,3845,1151.0,3845
5179,5179,100.0,5179
3253,3253,417.0,3253
1210,1210,13.823,1210
2565,2565,2819.0,2565
3372,3372,12.649,3372
4648,4648,23.068,4648
3106,3106,18.573,3106
1733,1733,681.0,1733
3114,3114,13.202,3114
3954,3954,184.835,3954
2972,2972,10.776,2972
1427,1427,817.0,1427
2341,2341,2215.0,2341
4055,4055,0.0,4055
2144,2144,16.921,2144
1620,1620,15.012,1620
2880,2880,12.505999999999998,2880
1493,1493,1358.0,1493
2528,2528,12.027,2528
2741,2741,1327.0,2741
1573,1573,1854.0,1573
1186,1186,14.363,1186
2429,2429,1688.0,2429
4624,4624,24.382,4624
3773,3773,2741.0,3773
3509,3509,3120.0,3509
5362,5362,18.309,5362
3488,3488,17.46,3488
2682,2682,19.553,2682
1554,1554,21.937,1554
2142,2142,19.132,2142
4112,4112,10.901,4112
852,852,10.746,852
4034,4034,12.239,4034
3031,3031,2573.0,3031
1851,1851,0.0,1851
3318,3318,20.883000000000006,3318
2815,2815,3012.0,2815
1538,1538,13.313,1538
931,931,622.0,931
2125,2125,993.0,2125
3855,3855,0.0,3855
1478,1478,13.22,1478
3046,3046,14.395,3046
2678,2678,13.2,2678
2176,2176,11.901,2176
2750,2750,13.153,2750
867,867,48.0,867
1805,1805,2787.0,1805
3656,3656,25.919,3656
1097,1097,3153.0,1097
5450,5450,13.163,5450
923,923,813.0,923
4236,4236,15.979,4236
4775,4775,0.0,4775
1665,1665,706.0,1665
5092,5092,11.395,5092
4758,4758,18.437,4758
707,707,1437.0,707
2283,2283,387.0,2283
4219,4219,2193.0,4219
5321,5321,2048.0,5321
3384,3384,15.092,3384
5359,5359,2255.0,5359
1414,1414,16.468,1414
3394,3394,10.873,3394
3370,3370,10.458,3370
3691,3691,0.0,3691
2615,2615,0.0,2615
2279,2279,3246.0,2279
1686,1686,16.445999999999998,1686
1801,1801,2027.0,1801
1264,1264,13.409,1264
4193,4193,2524.0,4193
5457,5457,1847.0,5457
5335,5335,2432.0,5335
5402,5402,15.129,5402
4509,4509,2463.0,4509
506,506,13.238,506
1763,1763,2413.0,1763
4718,4718,21.524,4718
3313,3313,1579.0,3313
5149,5149,2233.0,5149
4229,4229,1487.0,4229
3749,3749,2186.0,3749
4656,4656,16.442999999999998,4656
4313,4313,0.0,4313
5129,5129,2824.0,5129
4714,4714,20.313,4714
5315,5315,224.0,5315
4490,4490,14.103,4490
875,875,196.0,875
1690,1690,16.227999999999998,1690
1639,1639,3346.0,1639
3150,3150,16.468,3150
2152,2152,11.2,2152
1001,1001,104.0,1001
4978,4978,11.355,4978
2118,2118,16.971,2118
4397,4397,2983.0,4397
1148,1148,16.541,1148
2022,2022,12.64,2022
619,619,2885.0,619
4565,4565,2411.0,4565
3369,3369,3220.0,3369
3473,3473,1874.0,3473
3324,3324,13.368,3324
1344,1344,15.004,1344
4327,4327,1972.0,4327
1634,1634,13.841,1634
3401,3401,3356.0,3401
4090,4090,16.067,4090
3543,3543,3410.0,3543
706,706,12.369000000000002,706
3558,3558,16.073,3558
1293,1293,158.0,1293
4981,4981,1284.0,4981
2648,2648,23.602,2648
4149,4149,958.0,4149
568,568,11.045,568
4977,4977,2122.0,4977
4948,4948,12.573,4948
3503,3503,652.0,3503
1794,1794,30.014,1794
5166,5166,14.422,5166
811,811,1744.0,811
2867,2867,2243.0,2867
1456,1456,20.053,1456
4926,4926,24.231,4926
3449,3449,1733.0,3449
2090,2090,15.865,2090
684,684,14.657,684
2484,2484,11.722,2484
1401,1401,2501.0,1401
1593,1593,893.0,1593
3840,3840,16.337,3840
4036,4036,92.692,4036
3383,3383,3066.0,3383
4571,4571,2160.0,4571
924,924,16.027,924
557,557,778.0,557
1267,1267,1486.0,1267
1346,1346,17.072,1346
3948,3948,15.67,3948
1754,1754,13.912,1754
4070,4070,188.918,4070
844,844,11.177,844
1014,1014,12.913,1014
3444,3444,12.632,3444
833,833,1943.0,833
3391,3391,3303.0,3391
1827,1827,3019.0,1827
3110,3110,11.652,3110
1743,1743,732.0,1743
2516,2516,14.343,2516
4728,4728,13.664,4728
4322,4322,147.24200000000005,4322
1982,1982,15.546,1982
3744,3744,42.953,3744
2450,2450,17.139,2450
1542,1542,11.583,1542
4372,4372,13.428,4372
1762,1762,15.287,1762
958,958,18.932,958
1928,1928,12.855,1928
3027,3027,2103.0,3027
4780,4780,11.235,4780
3879,3879,2589.0,3879
738,738,15.779000000000002,738
1585,1585,923.0,1585
3320,3320,12.508,3320
4741,4741,2645.0,4741
5197,5197,108.0,5197
716,716,17.708,716
2869,2869,1214.0,2869
1603,1603,2616.0,1603
1317,1317,1922.0,1317
2571,2571,2156.0,2571
1027,1027,1224.0,1027
1714,1714,19.836,1714
5155,5155,0.0,5155
2213,2213,68.0,2213
1246,1246,14.168,1246
2122,2122,12.588,2122
2957,2957,0.0,2957
1452,1452,23.801,1452
834,834,19.393,834
4710,4710,181.48,4710
3696,3696,18.528,3696
1090,1090,14.958,1090
3382,3382,13.122,3382
935,935,844.0,935
5288,5288,10.487,5288
2843,2843,3144.0,2843
4591,4591,0.0,4591
1178,1178,13.408,1178
545,545,1938.0,545
3891,3891,1819.0,3891
3283,3283,1750.0,3283
5324,5324,12.458,5324
2669,2669,2364.0,2669
2709,2709,0.0,2709
609,609,3121.0,609
815,815,3012.0,815
4192,4192,15.174,4192
4257,4257,2347.0,4257
2392,2392,12.904000000000002,2392
4727,4727,1014.0,4727
3646,3646,11.11,3646
1066,1066,18.221,1066
4570,4570,15.612,4570
3261,3261,3425.0,3261
5436,5436,10.47,5436
4513,4513,2923.0,4513
1720,1720,13.765,1720
3927,3927,970.0,3927
4910,4910,11.823,4910
3266,3266,11.068,3266
4684,4684,14.365,4684
4742,4742,14.533,4742
2939,2939,445.0,2939
1597,1597,1419.0,1597
5215,5215,2693.0,5215
1184,1184,14.469,1184
3844,3844,13.769,3844
1909,1909,3389.0,1909
918,918,11.332,918
1262,1262,49.13399999999999,1262
1568,1568,18.317,1568
4256,4256,11.494000000000002,4256
1003,1003,1676.0,1003
595,595,1705.0,595
4263,4263,1577.0,4263
988,988,18.12,988
2858,2858,11.843,2858
2499,2499,2536.0,2499
4555,4555,2590.0,4555
4515,4515,1970.0,4515
3048,3048,11.421,3048
1859,1859,1707.0,1859
1248,1248,17.368,1248
1415,1415,908.0,1415
5241,5241,3430.0,5241
4989,4989,2322.0,4989
4757,4757,1315.0,4757
4329,4329,752.0,4329
1247,1247,2837.0,1247
5427,5427,3203.0,5427
2214,2214,25.983,2214
1035,1035,1447.0,1035
4075,4075,1157.0,4075
4798,4798,19.59,4798
687,687,942.0,687
2367,2367,1767.0,2367
4004,4004,11.962,4004
2774,2774,24.303,2774
1710,1710,11.245,1710
4333,4333,2238.0,4333
4209,4209,650.0,4209
1592,1592,64.553,1592
4884,4884,11.261,4884
1111,1111,0.0,1111
5082,5082,16.595,5082
5343,5343,1110.0,5343
3556,3556,12.432,3556
2818,2818,15.507,2818
3693,3693,318.0,3693
925,925,47.0,925
3639,3639,2410.0,3639
4471,4471,526.0,4471
3328,3328,13.127,3328
617,617,306.0,617
3325,3325,2127.0,3325
5266,5266,16.31,5266
2803,2803,1905.0,2803
5358,5358,11.523,5358
4100,4100,194.128,4100
3250,3250,24.461,3250
1170,1170,18.183,1170
4771,4771,439.0,4771
2814,2814,15.356,2814
580,580,11.491,580
1176,1176,17.296,1176
565,565,1370.0,565
960,960,16.438,960
2344,2344,11.837,2344
4406,4406,15.567,4406
2316,2316,15.794,2316
3501,3501,2404.0,3501
4114,4114,12.402,4114
4788,4788,12.01,4788
5257,5257,608.0,5257
1893,1893,3136.0,1893
3880,3880,173.747,3880
3373,3373,1925.0,3373
2733,2733,2647.0,2733
1878,1878,24.165,1878
2349,2349,0.0,2349
596,596,22.625,596
3623,3623,65.0,3623
3412,3412,11.308,3412
1218,1218,11.032,1218
1183,1183,852.0,1183
2329,2329,2113.0,2329
3851,3851,1181.0,3851
2264,2264,17.625,2264
2235,2235,70.0,2235
4341,4341,1136.0,4341
4061,4061,1864.0,4061
3208,3208,27.747,3208
1481,1481,158.0,1481
3148,3148,12.504,3148
5125,5125,2262.0,5125
4254,4254,15.09,4254
3714,3714,35.87,3714
3237,3237,526.0,3237
1513,1513,120.0,1513
848,848,10.989,848
1165,1165,2291.0,1165
4212,4212,20.375,4212
2935,2935,717.0,2935
3226,3226,14.057,3226
4133,4133,3348.0,4133
5206,5206,15.461,5206
997,997,663.0,997
683,683,2106.0,683
915,915,0.0,915
637,637,0.0,637
828,828,16.6,828
5433,5433,159.0,5433
1879,1879,3334.0,1879
2333,2333,1303.0,2333
2460,2460,11.542,2460
4303,4303,2912.0,4303
970,970,10.959,970
992,992,19.14,992
3715,3715,442.0,3715
2076,2076,21.835,2076
4014,4014,12.967,4014
3685,3685,1979.0,3685
821,821,630.0,821
4500,4500,13.267,4500
3846,3846,13.281,3846
1444,1444,15.304,1444
3173,3173,0.0,3173
2016,2016,11.082,2016
3530,3530,19.219,3530
5236,5236,11.482,5236
1337,1337,716.0,1337
3228,3228,13.994000000000002,3228
2661,2661,2463.0,2661
3515,3515,343.0,3515
5471,5471,0.0,5471
3768,3768,12.648,3768
3406,3406,11.507,3406
4522,4522,13.783,4522
4482,4482,16.018,4482
2025,2025,2656.0,2025
3408,3408,13.019,3408
3422,3422,12.094,3422
3338,3338,16.855,3338
4461,4461,1792.0,4461
3990,3990,10.315,3990
5231,5231,468.0,5231
3926,3926,10.871,3926
4909,4909,2583.0,4909
5286,5286,10.573,5286
1315,1315,2593.0,1315
4631,4631,414.0,4631
3492,3492,11.408,3492
3381,3381,1990.0,3381
2826,2826,11.355,2826
2411,2411,0.0,2411
1278,1278,13.318,1278
4962,4962,11.393,4962
5325,5325,3382.0,5325
3113,3113,2002.0,3113
1788,1788,15.334,1788
1612,1612,15.32,1612
3782,3782,14.333,3782
5396,5396,14.119000000000002,5396
4160,4160,21.554,4160
4439,4439,2422.0,4439
1798,1798,16.551,1798
842,842,10.903,842
5085,5085,2063.0,5085
2493,2493,0.0,2493
5148,5148,14.851,5148
4505,4505,1044.0,4505
2871,2871,501.0,2871
1127,1127,829.0,1127
747,747,795.0,747
1271,1271,689.0,1271
736,736,20.17,736
3236,3236,17.887999999999995,3236
524,524,11.288,524
4224,4224,180.325,4224
2801,2801,1895.0,2801
2770,2770,14.621,2770
824,824,12.451,824
4155,4155,1210.0,4155
4736,4736,16.639,4736
3854,3854,16.679000000000002,3854
3272,3272,14.478,3272
872,872,27.091,872
4557,4557,528.0,4557
5098,5098,24.792,5098
1423,1423,554.0,1423
3491,3491,3276.0,3491
4067,4067,1389.0,4067
2194,2194,26.994,2194
5210,5210,14.193,5210
3151,3151,1404.0,3151
3036,3036,12.069,3036
5139,5139,2553.0,5139
4164,4164,170.523,4164
4455,4455,0.0,4455
4544,4544,11.617,4544
3280,3280,14.918,3280
3827,3827,2117.0,3827
2813,2813,961.0,2813
2301,2301,1461.0,2301
4990,4990,17.28,4990
1810,1810,13.203,1810
3276,3276,15.889,3276
1052,1052,22.737,1052
1967,1967,1263.0,1967
5390,5390,18.106,5390
1867,1867,388.0,1867
2777,2777,0.0,2777
2180,2180,26.159,2180
1814,1814,12.99,1814
2663,2663,346.0,2663
3587,3587,174.0,3587
3359,3359,1080.0,3359
4487,4487,858.0,4487
5099,5099,0.0,5099
2793,2793,367.0,2793
4846,4846,12.378,4846
3533,3533,2222.0,3533
2109,2109,3243.0,2109
4535,4535,2739.0,4535
761,761,1102.0,761
634,634,11.5,634
3458,3458,10.626,3458
1881,1881,3141.0,1881
1208,1208,24.158,1208
4291,4291,1768.0,4291
4241,4241,2297.0,4241
3144,3144,13.774,3144
2779,2779,0.0,2779
3345,3345,772.0,3345
5011,5011,1472.0,5011
4660,4660,19.357,4660
1213,1213,0.0,1213
4898,4898,16.601,4898
3588,3588,39.545,3588
886,886,10.936,886
2535,2535,1854.0,2535
2086,2086,27.175,2086
4916,4916,12.34,4916
4632,4632,15.169,4632
1116,1116,22.464,1116
1951,1951,1830.0,1951
3300,3300,13.994000000000002,3300
2243,2243,1288.0,2243
4096,4096,12.591,4096
3327,3327,1380.0,3327
1227,1227,2983.0,1227
536,536,15.029000000000002,536
3752,3752,12.3,3752
4151,4151,2804.0,4151
1997,1997,565.0,1997
5428,5428,10.792,5428
5406,5406,10.983,5406
3105,3105,2121.0,3105
3627,3627,2605.0,3627
2617,2617,0.0,2617
758,758,19.041,758
4346,4346,15.515,4346
5272,5272,13.563,5272
2160,2160,14.226,2160
4779,4779,337.0,4779
4087,4087,1204.0,4087
2785,2785,2242.0,2785
5127,5127,2173.0,5127
4623,4623,361.0,4623
1251,1251,3378.0,1251
2252,2252,10.884,2252
3876,3876,13.14,3876
4672,4672,11.948,4672
1487,1487,2191.0,1487
2672,2672,12.745,2672
3061,3061,0.0,3061
588,588,12.862,588
2146,2146,17.877,2146
4060,4060,13.532,4060
4908,4908,20.468,4908
809,809,1142.0,809
4052,4052,11.205,4052
3128,3128,11.135,3128
2310,2310,11.158,2310
3258,3258,17.297,3258
2336,2336,14.699000000000002,2336
3387,3387,1869.0,3387
2007,2007,1045.0,2007
4759,4759,549.0,4759
1473,1473,3163.0,1473
4420,4420,11.755,4420
2211,2211,1959.0,2211
3244,3244,18.381,3244
4711,4711,3354.0,4711
1647,1647,2417.0,1647
2533,2533,0.0,2533
2457,2457,1401.0,2457
2247,2247,1911.0,2247
1646,1646,11.586,1646
4214,4214,19.343,4214
4452,4452,16.399,4452
4590,4590,16.237000000000002,4590
5190,5190,13.466,5190
4504,4504,160.696,4504
3683,3683,1392.0,3683
1588,1588,13.885,1588
4012,4012,10.424,4012
3560,3560,10.595,3560
2038,2038,11.0,2038
1925,1925,722.0,1925
3343,3343,2329.0,3343
3929,3929,0.0,3929
878,878,14.472,878
1835,1835,3168.0,1835
2638,2638,13.322,2638
1012,1012,11.75,1012
3932,3932,11.101,3932
4483,4483,3154.0,4483
1972,1972,11.523,1972
2115,2115,334.0,2115
3249,3249,2708.0,3249
3809,3809,37.0,3809
2810,2810,10.958,2810
2473,2473,2520.0,2473
3176,3176,14.3,3176
1640,1640,13.553,1640
2020,2020,15.948,2020
722,722,15.359000000000002,722
1918,1918,16.160999999999998,1918
4179,4179,1082.0,4179
677,677,1438.0,677
1590,1590,11.811,1590
2458,2458,12.374,2458
3043,3043,1034.0,3043
5445,5445,2782.0,5445
2066,2066,12.653,2066
669,669,1557.0,669
4678,4678,10.707,4678
2960,2960,11.579,2960
2656,2656,11.142,2656
553,553,2327.0,553
1020,1020,12.359000000000002,1020
883,883,1792.0,883
4730,4730,19.221,4730
4961,4961,581.0,4961
517,517,191.0,517
1328,1328,22.153,1328
2208,2208,11.633,2208
5302,5302,14.671,5302
4414,4414,28.23,4414
1735,1735,1303.0,1735
3920,3920,11.213,3920
2553,2553,665.0,2553
946,946,15.226,946
4086,4086,15.369000000000002,4086
3214,3214,13.717,3214
4148,4148,15.146,4148
2506,2506,13.014,2506
4507,4507,1061.0,4507
3965,3965,1118.0,3965
2590,2590,10.482,2590
4340,4340,15.505,4340
3459,3459,787.0,3459
2102,2102,15.082,2102
2449,2449,1045.0,2449
2116,2116,13.313,2116
2130,2130,18.72,2130
4880,4880,13.339,4880
1433,1433,1142.0,1433
606,606,11.054,606
663,663,1159.0,663
1059,1059,706.0,1059
3117,3117,2479.0,3117
986,986,13.254,986
5455,5455,742.0,5455
4641,4641,2789.0,4641
5311,5311,2583.0,5311
1379,1379,1130.0,1379
5389,5389,3000.0,5389
5089,5089,462.0,5089
4081,4081,2458.0,4081
1615,1615,92.0,1615
4661,4661,1709.0,4661
966,966,14.655,966
2763,2763,3001.0,2763
2912,2912,11.664,2912
2346,2346,12.19,2346
2997,2997,2633.0,2997
4625,4625,2356.0,4625
3614,3614,11.403,3614
3680,3680,15.001,3680
4198,4198,14.145,4198
2405,2405,0.0,2405
1300,1300,14.429,1300
2704,2704,11.193,2704
1296,1296,20.761,1296
1705,1705,3021.0,1705
2114,2114,11.645,2114
2530,2530,17.813,2530
3668,3668,14.489,3668
1258,1258,16.537,1258
4519,4519,2106.0,4519
1572,1572,51.527,1572
873,873,2417.0,873
3207,3207,2398.0,3207
3806,3806,25.719,3806
3872,3872,11.086,3872
3506,3506,11.079,3506
4501,4501,1114.0,4501
5289,5289,2548.0,5289
5250,5250,10.692,5250
4019,4019,637.0,4019
2387,2387,153.0,2387
4600,4600,12.933,4600
2836,2836,14.713,2836
3216,3216,16.581,3216
1464,1464,10.711,1464
4162,4162,16.294,4162
3541,3541,2820.0,3541
2453,2453,0.0,2453
628,628,16.825,628
3794,3794,11.465,3794
4856,4856,16.959,4856
2444,2444,11.017,2444
4028,4028,22.079,4028
5278,5278,18.715,5278
5030,5030,10.716,5030
4971,4971,1041.0,4971
4753,4753,679.0,4753
4417,4417,1452.0,4417
2746,2746,14.523,2746
4792,4792,10.538,4792
1400,1400,14.982,1400
1378,1378,12.135,1378
5464,5464,11.206,5464
2265,2265,1417.0,2265
3086,3086,14.262,3086
4296,4296,21.036,4296
4947,4947,199.0,4947
1953,1953,1548.0,1953
2921,2921,828.0,2921
4790,4790,15.655,4790
4363,4363,1543.0,4363
2714,2714,19.496,2714
2248,2248,12.493,2248
1962,1962,11.066,1962
4318,4318,12.108,4318
5073,5073,1930.0,5073
1899,1899,1170.0,1899
1863,1863,0.0,1863
1954,1954,11.348,1954
2919,2919,0.0,2919
1381,1381,3254.0,1381
4301,4301,1946.0,4301
2699,2699,1937.0,2699
3404,3404,12.305,3404
4959,4959,1962.0,4959
1098,1098,11.585,1098
4676,4676,13.358,4676
629,629,2447.0,629
2620,2620,24.009,2620
899,899,1543.0,899
1912,1912,13.171,1912
1185,1185,454.0,1185
1591,1591,1944.0,1591
1367,1367,2975.0,1367
3542,3542,11.489,3542
5107,5107,2869.0,5107
2492,2492,11.199000000000002,2492
3604,3604,11.804,3604
1627,1627,1340.0,1627
3180,3180,15.711,3180
797,797,1757.0,797
4630,4630,21.583,4630
771,771,0.0,771
3072,3072,21.159,3072
3429,3429,3206.0,3429
3277,3277,0.0,3277
4103,4103,1167.0,4103
4220,4220,175.325,4220
1013,1013,1130.0,1013
3209,3209,1247.0,3209
2902,2902,16.03,2902
1338,1338,10.919,1338
1249,1249,887.0,1249
3989,3989,2912.0,3989
2468,2468,13.479,2468
3968,3968,13.717,3968
4123,4123,2515.0,4123
1360,1360,32.634,1360
1937,1937,2722.0,1937
3590,3590,23.382,3590
1531,1531,1999.0,1531
4954,4954,22.123,4954
2357,2357,743.0,2357
3979,3979,1110.0,3979
1499,1499,2520.0,1499
3212,3212,13.476,3212
2321,2321,345.0,2321
2338,2338,11.462,2338
2491,2491,1833.0,2491
1151,1151,2644.0,1151
518,518,14.568,518
5000,5000,14.59,5000
4568,4568,11.948,4568
1868,1868,19.611,1868
4283,4283,2401.0,4283
3450,3450,15.668,3450
5368,5368,10.733,5368
5382,5382,21.756,5382
2067,2067,2137.0,2067
2488,2488,11.525,2488
4253,4253,2237.0,4253
2599,2599,3251.0,2599
5191,5191,1114.0,5191
2435,2435,1163.0,2435
1169,1169,0.0,1169
4035,4035,2817.0,4035
2848,2848,13.039,2848
1945,1945,1005.0,1945
3658,3658,10.829,3658
1403,1403,28.0,1403
1841,1841,657.0,1841
1015,1015,892.0,1015
2705,2705,0.0,2705
835,835,1144.0,835
4685,4685,1827.0,4685
846,846,12.42,846
4280,4280,10.978,4280
2959,2959,2278.0,2959
4629,4629,0.0,4629
1084,1084,16.436,1084
1964,1964,12.313,1964
3471,3471,3012.0,3471
5058,5058,19.411,5058
2451,2451,398.0,2451
4441,4441,0.0,4441
3767,3767,3335.0,3767
3784,3784,12.976,3784
639,639,1750.0,639
3389,3389,2946.0,3389
1121,1121,260.0,1121
1649,1649,189.0,1649
4953,4953,1245.0,4953
4432,4432,11.595,4432
1159,1159,2867.0,1159
3189,3189,1486.0,3189
3661,3661,82.0,3661
4819,4819,1439.0,4819
3882,3882,59.724,3882
2202,2202,12.842,2202
3736,3736,11.69,3736
4262,4262,154.607,4262
5456,5456,12.211,5456
5384,5384,16.052,5384
4206,4206,45.805,4206
3765,3765,2642.0,3765
3597,3597,633.0,3597
1993,1993,2249.0,1993
2760,2760,12.919,2760
4049,4049,629.0,4049
4749,4749,0.0,4749
2049,2049,2110.0,2049
3616,3616,10.757,3616
2789,2789,67.0,2789
1480,1480,11.827,1480
5077,5077,455.0,5077
4547,4547,311.0,4547
2327,2327,929.0,2327
2781,2781,1031.0,2781
1266,1266,12.843,1266
1976,1976,19.264,1976
3739,3739,1455.0,3739
2232,2232,15.015,2232
5100,5100,14.177,5100
4527,4527,1477.0,4527
3682,3682,11.751,3682
829,829,3167.0,829
1565,1565,2942.0,1565
4752,4752,123.775,4752
2384,2384,19.637,2384
2773,2773,3219.0,2773
4000,4000,12.235,4000
1804,1804,13.199000000000002,1804
5322,5322,11.535,5322
1496,1496,12.867,1496
3937,3937,1869.0,3937
1441,1441,733.0,1441
3139,3139,3338.0,3139
1500,1500,14.987,1500
2385,2385,2871.0,2385
4980,4980,10.884,4980
4474,4474,11.087,4474
3648,3648,11.432,3648
4197,4197,3314.0,4197
1529,1529,898.0,1529
1331,1331,1070.0,1331
4911,4911,3175.0,4911
1504,1504,15.839,1504
541,541,752.0,541
4152,4152,210.228,4152
2438,2438,15.449000000000002,2438
534,534,26.571,534
3453,3453,1877.0,3453
1949,1949,1017.0,1949
1609,1609,2566.0,1609
1375,1375,1822.0,1375
1779,1779,2419.0,1779
626,626,13.063,626
3080,3080,22.891,3080
1776,1776,23.9,1776
2578,2578,11.403,2578
853,853,494.0,853
1831,1831,960.0,1831
1407,1407,292.0,1407
882,882,25.154,882
1095,1095,2127.0,1095
3958,3958,41.469,3958
4720,4720,20.983,4720
1088,1088,11.539,1088
4548,4548,20.932,4548
3366,3366,11.142,3366
2873,2873,1067.0,2873
4838,4838,16.983,4838
5041,5041,2062.0,5041
1162,1162,16.664,1162
4697,4697,0.0,4697
1112,1112,13.357,1112
4083,4083,1041.0,4083
4374,4374,12.19,4374
2217,2217,54.0,2217
817,817,2228.0,817
3873,3873,268.0,3873
5163,5163,1524.0,5163
610,610,10.577,610
725,725,261.0,725
1769,1769,1925.0,1769
1825,1825,3098.0,1825
2487,2487,2816.0,2487
3825,3825,1886.0,3825
1897,1897,183.0,1897
1137,1137,648.0,1137
2539,2539,3133.0,2539
5078,5078,15.008,5078
994,994,12.419,994
4521,4521,3385.0,4521
575,575,2771.0,575
4893,4893,1196.0,4893
2850,2850,19.149,2850
4063,4063,1146.0,4063
2266,2266,16.428,2266
1747,1747,1482.0,1747
3575,3575,2999.0,3575
1420,1420,17.682000000000006,1420
4044,4044,15.94,4044
4335,4335,628.0,4335
5027,5027,1760.0,5027
1243,1243,1221.0,1243
594,594,10.409,594
1231,1231,2644.0,1231
5447,5447,2104.0,5447
3347,3347,1028.0,3347
613,613,1134.0,613
3112,3112,17.807000000000006,3112
4839,4839,2811.0,4839
4245,4245,772.0,4245
2534,2534,15.237,2534
2228,2228,20.808000000000003,2228
2078,2078,24.9,2078
570,570,11.382,570
3863,3863,2122.0,3863
5259,5259,0.0,5259
1128,1128,13.965,1128
3083,3083,0.0,3083
5104,5104,26.125,5104
3167,3167,325.0,3167
2128,2128,15.626,2128
5374,5374,12.424,5374
2244,2244,16.895,2244
3783,3783,3012.0,3783
605,605,3273.0,605
4853,4853,3010.0,4853
4001,4001,0.0,4001
2605,2605,3389.0,2605
2606,2606,13.608,2606
1132,1132,11.432,1132
2069,2069,569.0,2069
5248,5248,10.487,5248
1476,1476,13.07,1476
730,730,11.856,730
2300,2300,12.686,2300
2434,2434,12.09,2434
2647,2647,2354.0,2647
4056,4056,20.06,4056
5072,5072,13.867,5072
3273,3273,788.0,3273
2371,2371,666.0,2371
3904,3904,16.727,3904
1853,1853,77.0,1853
3713,3713,1366.0,3713
938,938,13.557,938
5004,5004,11.082,5004
2474,2474,12.396,2474
4883,4883,0.0,4883
3252,3252,32.236,3252
2933,2933,2718.0,2933
2992,2992,13.791,2992
3217,3217,1222.0,3217
1276,1276,13.59,1276
4654,4654,17.076,4654
2723,2723,3314.0,2723
3692,3692,166.625,3692
2727,2727,2032.0,2727
5170,5170,20.12,5170
2903,2903,1745.0,2903
3582,3582,17.862000000000005,3582
4769,4769,1459.0,4769
3171,3171,311.0,3171
1673,1673,1255.0,1673
4394,4394,11.315,4394
2079,2079,175.0,2079
2003,2003,2233.0,2003
3331,3331,2758.0,3331
5303,5303,1249.0,5303
3103,3103,3249.0,3103
5074,5074,11.487,5074
3368,3368,14.978,3368
2201,2201,1949.0,2201
2613,2613,0.0,2613
3570,3570,29.619,3570
3881,3881,798.0,3881
4334,4334,18.399,4334
3038,3038,14.259,3038
2583,2583,2365.0,2583
4735,4735,257.0,4735
2168,2168,13.94,2168
1302,1302,16.936,1302
3884,3884,131.236,3884
3022,3022,15.356,3022
2061,2061,747.0,2061
5131,5131,1220.0,5131
1689,1689,0.0,1689
3290,3290,15.067,3290
2181,2181,2367.0,2181
3185,3185,2242.0,3185
3481,3481,2825.0,3481
4860,4860,13.808,4860
3642,3642,22.232,3642
1875,1875,2951.0,1875
1582,1582,17.402,1582
2172,2172,14.701,2172
1432,1432,13.966,1432
2332,2332,18.066,2332
3982,3982,10.95,3982
1519,1519,2508.0,1519
2812,2812,10.962,2812
5211,5211,0.0,5211
744,744,13.324000000000002,744
5293,5293,2720.0,5293
4745,4745,3195.0,4745
3409,3409,2542.0,3409
5318,5318,12.983,5318
3341,3341,2718.0,3341
4268,4268,12.091,4268
2604,2604,26.125,2604
5431,5431,0.0,5431
574,574,12.012,574
799,799,2286.0,799
4226,4226,188.276,4226
3293,3293,1416.0,3293
5016,5016,13.099,5016
5093,5093,1082.0,5093
2479,2479,1711.0,2479
1114,1114,16.206,1114
3874,3874,11.094,3874
3175,3175,2261.0,3175
831,831,3092.0,831
4312,4312,158.487,4312
4239,4239,3313.0,4239
2084,2084,14.913,2084
3640,3640,19.699,3640
2184,2184,18.348,2184
3859,3859,1924.0,3859
4886,4886,12.098,4886
1175,1175,1154.0,1175
1815,1815,2562.0,1815
2511,2511,2443.0,2511
5152,5152,14.419,5152
3066,3066,10.795,3066
3674,3674,12.036,3674
1083,1083,1955.0,1083
535,535,2899.0,535
2726,2726,13.648,2726
4002,4002,204.175,4002
1793,1793,3358.0,1793
2761,2761,890.0,2761
2099,2099,496.0,2099
993,993,0.0,993
1078,1078,13.892,1078
4419,4419,2725.0,4419
4956,4956,13.714,4956
3667,3667,0.0,3667
2378,2378,14.414,2378
5200,5200,13.876,5200
1716,1716,12.635,1716
698,698,13.835,698
4451,4451,2937.0,4451
3858,3858,19.661,3858
793,793,1570.0,793
5097,5097,794.0,5097
5405,5405,3357.0,5405
4848,4848,10.392,4848
4966,4966,12.125,4966
900,900,11.287,900
5154,5154,21.841,5154
5114,5114,14.737,5114
2055,2055,0.0,2055
3274,3274,12.024,3274
4478,4478,174.204,4478
949,949,584.0,949
2223,2223,33.0,2223
556,556,11.698,556
3820,3820,14.479,3820
2082,2082,16.133,2082
5260,5260,11.064,5260
1129,1129,254.0,1129
522,522,17.185,522
3329,3329,1067.0,3329
3551,3551,915.0,3551
2355,2355,653.0,2355
699,699,3042.0,699
854,854,12.282,854
2963,2963,94.0,2963
884,884,14.308,884
1180,1180,18.5,1180
1871,1871,3361.0,1871
3245,3245,2446.0,3245
1617,1617,3033.0,1617
4882,4882,25.997,4882
4196,4196,17.596,4196
1661,1661,1290.0,1661
2269,2269,954.0,2269
796,796,13.308,796
1467,1467,205.0,1467
2969,2969,2412.0,2969
4408,4408,11.627,4408
4935,4935,1180.0,4935
903,903,596.0,903
3441,3441,1735.0,3441
3126,3126,11.300999999999998,3126
4107,4107,2718.0,4107
4436,4436,14.02,4436
2659,2659,441.0,2659
729,729,1925.0,729
647,647,2612.0,647
1142,1142,13.212,1142
5101,5101,0.0,5101
2993,2993,39.0,2993
3267,3267,1766.0,3267
599,599,261.0,599
2870,2870,16.764,2870
1955,1955,446.0,1955
2390,2390,15.449000000000002,2390
3402,3402,10.787,3402
2907,2907,1620.0,2907
5220,5220,20.388,5220
721,721,1414.0,721
1780,1780,23.337,1780
3567,3567,3353.0,3567
3980,3980,12.47,3980
1416,1416,14.892,1416
2971,2971,387.0,2971
5178,5178,20.046,5178
2382,2382,25.753,2382
880,880,26.99,880
3099,3099,2149.0,3099
2552,2552,18.369,2552
1518,1518,14.58,1518
2287,2287,1704.0,2287
1321,1321,2526.0,1321
4310,4310,10.218,4310
913,913,2568.0,913
5441,5441,0.0,5441
4733,4733,0.0,4733
1406,1406,15.981,1406
3746,3746,14.634,3746
4732,4732,14.213,4732
5352,5352,10.324000000000002,5352
3710,3710,158.064,3710
3579,3579,240.0,3579
3087,3087,3142.0,3087
5184,5184,10.717,5184
4626,4626,14.108,4626
1024,1024,15.69,1024
849,849,3036.0,849
5167,5167,301.0,5167
3620,3620,20.725,3620
5199,5199,1487.0,5199
5452,5452,14.911,5452
2765,2765,2697.0,2765
3964,3964,17.115,3964
1850,1850,13.823,1850
5109,5109,2385.0,5109
1829,1829,3383.0,1829
4993,4993,140.0,4993
2139,2139,3208.0,2139
1781,1781,2321.0,1781
1021,1021,3074.0,1021
3063,3063,3086.0,3063
4689,4689,826.0,4689
1645,1645,2258.0,1645
2267,2267,1188.0,2267
965,965,0.0,965
2018,2018,10.848,2018
800,800,10.25,800
2755,2755,0.0,2755
2036,2036,11.988,2036
4269,4269,905.0,4269
1353,1353,847.0,1353
4777,4777,613.0,4777
1077,1077,597.0,1077
2827,2827,0.0,2827
3129,3129,3388.0,3129
4602,4602,15.295,4602
4314,4314,14.443,4314
788,788,23.945,788
620,620,10.064,620
2807,2807,1231.0,2807
4486,4486,16.596,4486
2309,2309,1391.0,2309
2004,2004,15.394,2004
3647,3647,657.0,3647
5135,5135,930.0,5135
3645,3645,3298.0,3645
1719,1719,3062.0,1719
2948,2948,13.171,2948
2237,2237,47.0,2237
3918,3918,14.797,3918
4066,4066,199.316,4066
2295,2295,3304.0,2295
4434,4434,11.064,4434
2227,2227,2007.0,2227
1999,1999,3251.0,1999
3308,3308,14.140999999999998,3308
3376,3376,12.113,3376
5205,5205,2245.0,5205
5009,5009,178.0,5009
531,531,3156.0,531
1895,1895,966.0,1895
3229,3229,1407.0,3229
3583,3583,621.0,3583
5444,5444,14.966,5444
5088,5088,17.092,5088
3265,3265,1041.0,3265
3109,3109,2697.0,3109
5429,5429,40.0,5429
2469,2469,0.0,2469
2748,2748,11.418,2748
4554,4554,16.039,4554
4380,4380,18.478,4380
4105,4105,1447.0,4105
4804,4804,15.272,4804
4266,4266,126.824,4266
4691,4691,0.0,4691
3218,3218,13.216,3218
1589,1589,572.0,1589
1883,1883,626.0,1883
5415,5415,919.0,5415
1852,1852,10.245,1852
5361,5361,2943.0,5361
4680,4680,14.233,4680
975,975,1912.0,975
2285,2285,805.0,2285
4132,4132,12.178,4132
1752,1752,11.013,1752
2991,2991,2441.0,2991
5310,5310,11.113,5310
1604,1604,15.953,1604
2080,2080,20.862,2080
1101,1101,1138.0,1101
4108,4108,11.029000000000002,4108
1723,1723,2796.0,1723
2513,2513,2474.0,2513
4508,4508,13.499,4508
3877,3877,1250.0,3877
1796,1796,15.031,1796
1775,1775,740.0,1775
4928,4928,14.029000000000002,4928
4376,4376,12.289,4376
2786,2786,14.074000000000002,2786
2302,2302,13.768,2302
4440,4440,14.220999999999998,4440
2554,2554,13.71,2554
2156,2156,11.859000000000002,2156
1380,1380,14.922,1380
4715,4715,0.0,4715
3068,3068,11.664,3068
3403,3403,1144.0,3403
1396,1396,13.306,1396
3052,3052,18.645,3052
2268,2268,25.607,2268
5186,5186,11.354,5186
4979,4979,2314.0,4979
3247,3247,1926.0,3247
5242,5242,10.237,5242
3984,3984,11.066,3984
3991,3991,2379.0,3991
4183,4183,2577.0,4183
4315,4315,1746.0,4315
4188,4188,14.445,4188
2695,2695,1608.0,2695
3801,3801,2577.0,3801
3799,3799,2536.0,3799
2068,2068,13.327,2068
985,985,746.0,985
3962,3962,11.263,3962
3632,3632,20.733,3632
1349,1349,623.0,1349
3502,3502,11.655,3502
2983,2983,3340.0,2983
2924,2924,15.345999999999998,2924
2896,2896,36.743,2896
4387,4387,1930.0,4387
1826,1826,17.239,1826
1109,1109,349.0,1109
1316,1316,16.027,1316
3165,3165,1041.0,3165
3605,3605,2279.0,3605
1470,1470,49.81399999999999,1470
5226,5226,19.641,5226
2744,2744,14.579,2744
2051,2051,1798.0,2051
4024,4024,11.733,4024
2588,2588,10.925,2588
1587,1587,2166.0,1587
1817,1817,217.0,1817
4259,4259,3025.0,4259
3260,3260,22.247,3260
4325,4325,943.0,4325
3985,3985,2398.0,3985
4459,4459,1213.0,4459
3433,3433,3386.0,3433
1294,1294,20.591,1294
1533,1533,141.0,1533
1728,1728,14.03,1728
4702,4702,70.041,4702
1434,1434,20.268,1434
3998,3998,190.528,3998
1103,1103,640.0,1103
4124,4124,11.642,4124
5174,5174,10.62,5174
3332,3332,12.375,3332
5409,5409,2903.0,5409
2063,2063,832.0,2063
633,633,894.0,633
689,689,3027.0,689
3005,3005,2740.0,3005
1199,1199,3231.0,1199
2195,2195,1920.0,2195
3748,3748,10.807,3748
4770,4770,17.029,4770
5123,5123,1747.0,5123
1596,1596,14.265999999999998,1596
1369,1369,1605.0,1369
4934,4934,14.743,4934
2618,2618,19.186,2618
4696,4696,16.787,4696
987,987,1521.0,987
2797,2797,0.0,2797
646,646,14.16,646
4606,4606,81.045,4606
3917,3917,2399.0,3917
2188,2188,13.79,2188
671,671,1581.0,671
4462,4462,12.324000000000002,4462
750,750,19.158,750
1772,1772,19.892,1772
1607,1607,463.0,1607
1447,1447,986.0,1447
1936,1936,13.791,1936
4918,4918,22.331,4918
2834,2834,14.882,2834
1652,1652,10.763,1652
4891,4891,0.0,4891
2501,2501,3229.0,2501
2694,2694,10.595,2694
1040,1040,17.722,1040
3578,3578,17.299,3578
1440,1440,18.107,1440
4997,4997,635.0,4997
3599,3599,905.0,3599
3136,3136,13.786,3136
2270,2270,18.898,2270
1991,1991,106.0,1991
3521,3521,3157.0,3521
4552,4552,15.662,4552
4662,4662,12.789,4662
4694,4694,11.305,4694
1613,1613,1578.0,1613
3738,3738,10.593,3738
2749,2749,2303.0,2749
603,603,418.0,603
4071,4071,2132.0,4071
3298,3298,12.129,3298
627,627,1541.0,627
4763,4763,1327.0,4763
1880,1880,22.614,1880
660,660,26.869,660
2436,2436,14.344,2436
5091,5091,969.0,5091
4869,4869,2944.0,4869
5189,5189,2157.0,5189
1104,1104,13.890999999999998,1104
3870,3870,14.416,3870
4338,4338,16.94,4338
1150,1150,14.559,1150
5354,5354,13.849,5354
1272,1272,18.674,1272
1892,1892,11.774,1892
622,622,14.823,622
3690,3690,18.797,3690
5121,5121,1567.0,5121
1795,1795,1908.0,1795
2718,2718,15.531,2718
3255,3255,2042.0,3255
1131,1131,1759.0,1131
4645,4645,2565.0,4645
1595,1595,392.0,1595
4258,4258,24.538,4258
5147,5147,2603.0,5147
5113,5113,3220.0,5113
3671,3671,0.0,3671
2416,2416,17.788,2416
3672,3672,210.262,3672
5019,5019,527.0,5019
1214,1214,15.16,1214
1495,1495,1096.0,1495
794,794,11.774,794
4210,4210,17.005,4210
2928,2928,11.245,2928
4446,4446,11.039,4446
5094,5094,18.794,5094
1451,1451,2006.0,1451
5031,5031,1224.0,5031
3314,3314,14.043,3314
4537,4537,308.0,4537
2835,2835,1113.0,2835
1503,1503,3289.0,1503
2448,2448,12.443,2448
871,871,903.0,871
3740,3740,21.098000000000006,3740
3160,3160,13.639,3160
4201,4201,2469.0,4201
2339,2339,378.0,2339
625,625,1370.0,625
4553,4553,3218.0,4553
3718,3718,18.266,3718
1042,1042,15.064,1042
3111,3111,3089.0,3111
5319,5319,3000.0,5319
2292,2292,14.880999999999998,2292
942,942,12.042,942
4936,4936,10.842,4936
4293,4293,3060.0,4293
4423,4423,241.0,4423
2229,2229,711.0,2229
4207,4207,1769.0,4207
1366,1366,14.864,1366
1821,1821,3364.0,1821
505,505,64.0,505
2852,2852,15.581,2852
4275,4275,2873.0,4275
2691,2691,2847.0,2691
4781,4781,2592.0,4781
4820,4820,12.446,4820
1952,1952,14.57,1952
3439,3439,2364.0,3439
2901,2901,429.0,2901
715,715,2159.0,715
3006,3006,12.577,3006
1674,1674,15.04,1674
2394,2394,12.614,2394
2522,2522,15.505,2522
3609,3609,1013.0,3609
1560,1560,11.424,1560
4205,4205,0.0,4205
5230,5230,12.682,5230
4385,4385,2875.0,4385
4202,4202,22.275,4202
5304,5304,11.332,5304
4361,4361,94.0,4361
785,785,953.0,785
1025,1025,362.0,1025
888,888,11.54,888
3940,3940,20.538,3940
1448,1448,13.522,1448
2319,2319,901.0,2319
2408,2408,15.113,2408
1948,1948,11.78,1948
2878,2878,11.737,2878
1207,1207,2817.0,1207
3477,3477,2663.0,3477
4126,4126,13.445,4126
1320,1320,11.785,1320
2974,2974,20.698,2974
4496,4496,12.147,4496
4843,4843,1782.0,4843
1288,1288,14.711,1288
5460,5460,10.782,5460
4022,4022,11.483,4022
790,790,15.853,790
5264,5264,12.995,5264
4773,4773,0.0,4773
1215,1215,0.0,1215
4181,4181,0.0,4181
1413,1413,3203.0,1413
3589,3589,2105.0,3589
3862,3862,14.196,3862
4940,4940,11.376,4940
3743,3743,1926.0,3743
5243,5243,1370.0,5243
4244,4244,19.217,4244
2622,2622,19.566,2622
777,777,3131.0,777
4952,4952,11.837,4952
1466,1466,14.374,1466
1737,1737,1273.0,1737
2326,2326,14.970999999999998,2326
2410,2410,15.255,2410
2150,2150,10.53,2150
4765,4765,3346.0,4765
1421,1421,0.0,1421
3057,3057,2515.0,3057
3157,3157,366.0,3157
2652,2652,11.209,2652
2952,2952,14.072,2952
5105,5105,2494.0,5105
1120,1120,16.758,1120
1792,1792,18.064,1792
4116,4116,11.155,4116
3822,3822,11.342,3822
5007,5007,337.0,5007
1979,1979,34.0,1979
1693,1693,967.0,1693
4693,4693,625.0,4693
3333,3333,2134.0,3333
3188,3188,17.041,3188
5393,5393,2129.0,5393
4033,4033,2636.0,4033
3852,3852,15.717,3852
4822,4822,12.386,4822
2842,2842,12.22,2842
3568,3568,17.189,3568
2053,2053,0.0,2053
3223,3223,1218.0,3223
4776,4776,15.622,4776
1734,1734,12.42,1734
5032,5032,11.916,5032
2551,2551,1766.0,2551
1277,1277,2689.0,1277
969,969,117.0,969
3137,3137,1174.0,3137
4762,4762,89.256,4762
1430,1430,14.970999999999998,1430
4835,4835,1676.0,4835
1259,1259,2679.0,1259
1745,1745,0.0,1745
2753,2753,1411.0,2753
4868,4868,26.272,4868
1653,1653,2022.0,1653
2029,2029,675.0,2029
3452,3452,11.078,3452
3973,3973,2099.0,3973
4823,4823,3011.0,4823
1512,1512,15.47,1512
2975,2975,2145.0,2975
4018,4018,11.604,4018
3196,3196,21.59,3196
2712,2712,11.58,2712
4466,4466,13.291,4466
1911,1911,2565.0,1911
4596,4596,16.570999999999998,4596
2676,2676,17.558,2676
1166,1166,11.1,1166
2946,2946,13.954,2946
731,731,1959.0,731
2041,2041,789.0,2041
4042,4042,15.593,4042
2400,2400,18.182,2400
2198,2198,12.653,2198
3921,3921,2408.0,3921
1204,1204,15.222,1204
3242,3242,15.408,3242
939,939,661.0,939
4438,4438,18.28,4438
1537,1537,3352.0,1537
3611,3611,1201.0,3611
2442,2442,11.242,2442
1995,1995,2994.0,1995
5062,5062,15.41,5062
1313,1313,1146.0,1313
4011,4011,0.0,4011
3635,3635,781.0,3635
2046,2046,18.731,2046
3798,3798,13.468,3798
4185,4185,2756.0,4185
2019,2019,1705.0,2019
4289,4289,464.0,4289
4290,4290,22.58,4290
3465,3465,2993.0,3465
5029,5029,970.0,5029
3995,3995,2331.0,3995
552,552,12.128,552
3457,3457,2403.0,3457
3950,3950,19.107,3950
3399,3399,518.0,3399
1784,1784,15.317,1784
4526,4526,13.544,4526
2664,2664,134.585,2664
2352,2352,13.31,2352
2865,2865,0.0,2865
2973,2973,3371.0,2973
5284,5284,25.147,5284
4647,4647,0.0,4647
3565,3565,1904.0,3565
600,600,10.462,600
3941,3941,0.0,3941
1245,1245,3121.0,1245
4895,4895,1363.0,4895
2641,2641,2062.0,2641
2191,2191,2503.0,2191
5280,5280,16.666,5280
1713,1713,1202.0,1713
3933,3933,2202.0,3933
4782,4782,13.978,4782
2930,2930,14.05,2930
3525,3525,3350.0,3525
3974,3974,78.938,3974
2845,2845,2889.0,2845
4541,4541,2837.0,4541
3330,3330,10.691,3330
1755,1755,2717.0,1755
3574,3574,22.382,3574
3612,3612,19.706,3612
5295,5295,2443.0,5295
3797,3797,3352.0,3797
4986,4986,15.392,4986
1348,1348,14.6,1348
1960,1960,11.033,1960
5417,5417,1766.0,5417
4576,4576,150.466,4576
2171,2171,2511.0,2171
4574,4574,17.887,4574
1854,1854,11.538,1854
4336,4336,24.05,4336
2307,2307,747.0,2307
5034,5034,11.078,5034
1517,1517,987.0,1517
1668,1668,14.028,1668
5394,5394,15.118,5394
1133,1133,1301.0,1133
4375,4375,1159.0,4375
2107,2107,2773.0,2107
3437,3437,1114.0,3437
4308,4308,11.984000000000002,4308
3016,3016,21.197,3016
3709,3709,546.0,3709
5342,5342,10.622,5342
1140,1140,15.566,1140
567,567,223.0,567
1034,1034,22.761,1034
1005,1005,568.0,1005
1105,1105,642.0,1105
1635,1635,2349.0,1635
4634,4634,139.225,4634
591,591,1719.0,591
3529,3529,967.0,3529
1887,1887,1876.0,1887
4122,4122,14.528,4122
1030,1030,18.683,1030
5140,5140,13.773,5140
1983,1983,0.0,1983
1303,1303,1344.0,1303
4657,4657,353.0,4657
2141,2141,1701.0,2141
2754,2754,16.349,2754
1806,1806,11.52,1806
4833,4833,248.0,4833
1225,1225,2701.0,1225
2577,2577,1585.0,2577
3581,3581,2161.0,3581
1679,1679,2466.0,1679
3636,3636,15.293,3636
1638,1638,16.685,1638
3323,3323,1331.0,3323
2035,2035,2080.0,2035
1242,1242,13.865,1242
1901,1901,2063.0,1901
4652,4652,96.96,4652
4566,4566,11.209,4566
4545,4545,1109.0,4545
4401,4401,3185.0,4401
5055,5055,2438.0,5055
4722,4722,12.458,4722
2455,2455,1639.0,2455
3952,3952,203.326,3952
1950,1950,27.165,1950
739,739,3228.0,739
4437,4437,510.0,4437
1515,1515,3236.0,1515
3729,3729,2249.0,3729
3660,3660,11.449000000000002,3660
4601,4601,1936.0,4601
5134,5134,11.828,5134
3975,3975,213.0,3975
4824,4824,12.021,4824
5458,5458,11.401,5458
4635,4635,869.0,4635
4051,4051,592.0,4051
3178,3178,13.794,3178
4477,4477,2615.0,4477
3757,3757,617.0,3757
4392,4392,13.574000000000002,4392
3676,3676,11.534,3676
5338,5338,14.557,5338
4698,4698,11.692,4698
1092,1092,14.416,1092
1917,1917,2364.0,1917
1110,1110,17.816,1110
3420,3420,16.702,3420
1963,1963,420.0,1963
4271,4271,170.0,4271
2525,2525,2152.0,2525
3146,3146,20.7,3146
3819,3819,2476.0,3819
3898,3898,11.446,3898
5144,5144,20.618,5144
1834,1834,13.086,1834
3060,3060,17.648,3060
980,980,13.902,980
3480,3480,19.506,3480
3708,3708,11.208,3708
2897,2897,122.0,2897
4082,4082,11.273,4082
2703,2703,2547.0,2703
4550,4550,166.06599999999997,4550
2369,2369,249.0,2369
2941,2941,957.0,2941
3654,3654,10.671,3654
3416,3416,11.17,3416
1687,1687,3088.0,1687
5418,5418,10.67,5418
516,516,26.789,516
3816,3816,11.847,3816
2456,2456,11.633,2456
972,972,11.140999999999998,972
3510,3510,12.84,3510
2042,2042,12.642,2042
804,804,17.718,804
1056,1056,15.937,1056
3526,3526,11.295,3526
4242,4242,20.776,4242
4556,4556,13.109000000000002,4556
1402,1402,15.743,1402
1422,1422,13.043,1422
3367,3367,0.0,3367
4391,4391,1712.0,4391
3193,3193,308.0,3193
4832,4832,15.47,4832
4366,4366,11.075,4366
5252,5252,10.944,5252
3865,3865,1287.0,3865
4134,4134,11.127,4134
2475,2475,1874.0,2475
1797,1797,194.0,1797
3301,3301,176.0,3301
2280,2280,13.187,2280
631,631,461.0,631
4917,4917,0.0,4917
2862,2862,25.339,2862
5365,5365,1112.0,5365
3430,3430,24.431,3430
4863,4863,2367.0,4863
4510,4510,15.942,4510
3830,3830,11.472,3830
3104,3104,17.925,3104
3624,3624,14.72,3624
4111,4111,2300.0,4111
4760,4760,172.66099999999997,4760
1033,1033,684.0,1033
2183,2183,965.0,2183
658,658,17.037,658
908,908,12.694,908
4405,4405,2774.0,4405
961,961,2495.0,961
676,676,12.248,676
2949,2949,2818.0,2949
507,507,287.0,507
5203,5203,2643.0,5203
5052,5052,13.404000000000002,5052
5042,5042,10.58,5042
5128,5128,11.753,5128
1361,1361,0.0,1361
4127,4127,0.0,4127
1702,1702,13.136,1702
4166,4166,12.17,4166
5468,5468,11.528,5468
1217,1217,2382.0,1217
4238,4238,12.708,4238
1345,1345,2094.0,1345
1160,1160,14.071,1160
2557,2557,2682.0,2557
1764,1764,13.886,1764
927,927,1576.0,927
1540,1540,14.658,1540
3119,3119,148.0,3119
4199,4199,3088.0,4199
5300,5300,17.645,5300
5246,5246,11.824000000000002,5246
615,615,3091.0,615
2006,2006,11.008,2006
4604,4604,12.76,4604
3454,3454,24.561,3454
3791,3791,3121.0,3791
4306,4306,12.384,4306
2173,2173,1242.0,2173
2033,2033,2152.0,2033
1865,1865,1534.0,1865
2256,2256,10.467,2256
3065,3065,2750.0,3065
551,551,3166.0,551
1397,1397,480.0,1397
1312,1312,14.324000000000002,1312
3628,3628,18.714,3628
4644,4644,135.27100000000002,4644
860,860,15.855,860
1085,1085,1155.0,1085
2958,2958,14.503,2958
685,685,2649.0,685
1459,1459,1811.0,1459
2293,2293,2814.0,2293
686,686,15.44,686
1091,1091,0.0,1091
1683,1683,615.0,1683
1283,1283,283.0,1283
657,657,3255.0,657
4235,4235,1861.0,4235
2225,2225,617.0,2225
4608,4608,195.764,4608
4862,4862,16.348,4862
745,745,0.0,745
3554,3554,17.996,3554
2742,2742,10.882,2742
653,653,3318.0,653
1058,1058,15.214,1058
4586,4586,22.434,4586
2136,2136,15.558,2136
4907,4907,0.0,4907
4855,4855,2195.0,4855
839,839,1804.0,839
4705,4705,3105.0,4705
4511,4511,2699.0,4511
4182,4182,11.128,4182
762,762,15.621,762
2790,2790,12.235,2790
1071,1071,2190.0,1071
1802,1802,17.195,1802
4402,4402,11.403,4402
2431,2431,374.0,2431
4992,4992,15.563,4992
4985,4985,652.0,4985
3001,3001,3122.0,3001
2601,2601,978.0,2601
2482,2482,12.173,2482
667,667,303.0,667
2465,2465,1746.0,2465
5036,5036,15.697,5036
3905,3905,3167.0,3905
780,780,14.96,780
4927,4927,883.0,4927
1292,1292,16.766,1292
1475,1475,1090.0,1475
957,957,2310.0,957
1700,1700,29.02,1700
3355,3355,2842.0,3355
3395,3395,1228.0,3395
1541,1541,2252.0,1541
3811,3811,1970.0,3811
5422,5422,10.621,5422
2674,2674,10.532,2674
3886,3886,128.851,3886
5172,5172,12.699000000000002,5172
2645,2645,1700.0,2645
1975,1975,1452.0,1975
2337,2337,2575.0,2337
921,921,3287.0,921
3735,3735,3356.0,3735
1145,1145,3336.0,1145
996,996,23.485,996
2700,2700,15.773,2700
4153,4153,3244.0,4153
807,807,2171.0,807
4783,4783,0.0,4783
806,806,20.729,806
4027,4027,1123.0,4027
2126,2126,23.087,2126
5202,5202,11.612,5202
3062,3062,11.288,3062
1477,1477,853.0,1477
3792,3792,38.882,3792
4150,4150,12.259,4150
4353,4353,0.0,4353
5453,5453,184.0,5453
4785,4785,1498.0,4785
5399,5399,1205.0,5399
694,694,19.376,694
4169,4169,1552.0,4169
2054,2054,21.218000000000004,2054
3059,3059,0.0,3059
1483,1483,725.0,1483
638,638,14.689,638
2567,2567,3067.0,2567
4874,4874,10.658,4874
1386,1386,14.823,1386
3231,3231,3391.0,3231
2216,2216,26.377,2216
1445,1445,1581.0,1445
5026,5026,11.005999999999998,5026
2383,2383,1160.0,2383
3289,3289,2248.0,3289
1740,1740,16.487000000000002,1740
2189,2189,1466.0,2189
3936,3936,12.386,3936
2644,2644,17.133,2644
2254,2254,13.524,2254
2751,2751,2234.0,2751
1774,1774,22.781,1774
4475,4475,2750.0,4475
1927,1927,2242.0,1927
2340,2340,19.955,2340
4622,4622,11.183,4622
3914,3914,10.405,3914
645,645,0.0,645
3916,3916,15.678,3916
4532,4532,11.514,4532
3895,3895,519.0,3895
2866,2866,15.571,2866
1222,1222,14.678,1222
825,825,2245.0,825
976,976,15.107,976
892,892,10.778,892
564,564,10.792,564
4984,4984,12.626,4984
769,769,2718.0,769
4987,4987,1682.0,4987
2800,2800,17.783,2800
4540,4540,15.193,4540
4186,4186,172.21599999999995,4186
1546,1546,13.989,1546
4484,4484,10.942,4484
3187,3187,0.0,3187
3050,3050,11.573,3050
3600,3600,14.478,3600
2143,2143,3376.0,2143
1944,1944,17.768,1944
2407,2407,2988.0,2407
1847,1847,1912.0,1847
4168,4168,10.524,4168
1107,1107,1916.0,1107
3296,3296,11.722,3296
2050,2050,13.92,2050
1233,1233,346.0,1233
4805,4805,0.0,4805
3227,3227,2910.0,3227
586,586,15.222,586
4089,4089,2251.0,4089
1502,1502,44.59,1502
893,893,195.0,893
937,937,0.0,937
4563,4563,1975.0,4563
4284,4284,17.276,4284
5111,5111,2965.0,5111
4561,4561,248.0,4561
4117,4117,0.0,4117
4534,4534,14.062,4534
1069,1069,1032.0,1069
2495,2495,2044.0,2495
4223,4223,1762.0,4223
973,973,1983.0,973
1605,1605,1540.0,1605
550,550,10.196,550
4274,4274,13.768,4274
3321,3321,2350.0,3321
2784,2784,13.334,2784
1625,1625,126.0,1625
549,549,62.0,549
2646,2646,13.557,2646
4362,4362,10.938,4362
682,682,14.772,682
3309,3309,398.0,3309
5201,5201,2987.0,5201
2149,2149,1183.0,2149
4384,4384,13.851,4384
1494,1494,12.55,1494
3814,3814,11.172,3814
1773,1773,2158.0,1773
5012,5012,12.19,5012
4975,4975,2992.0,4975
1914,1914,11.489,1914
3445,3445,2807.0,3445
3585,3585,2897.0,3585
795,795,295.0,795
3425,3425,422.0,3425
3745,3745,1274.0,3745
1439,1439,2954.0,1439
554,554,18.19,554
1708,1708,16.021,1708
4319,4319,398.0,4319
2286,2286,15.005999999999998,2286
5069,5069,1702.0,5069
1032,1032,12.897,1032
5118,5118,15.722,5118
1857,1857,2356.0,1857
1002,1002,10.362,1002
930,930,14.897,930
2692,2692,11.545,2692
723,723,1642.0,723
4740,4740,10.902,4740
1028,1028,13.319,1028
4233,4233,446.0,4233
2498,2498,10.795,2498
2607,2607,534.0,2607
5432,5432,10.648,5432
3723,3723,325.0,3723
774,774,24.231,774
1325,1325,2072.0,1325
4923,4923,3028.0,4923
3142,3142,38.099,3142
5400,5400,11.562,5400
1778,1778,16.167,1778
2147,2147,106.0,2147
4463,4463,773.0,4463
3546,3546,14.753,3546
3942,3942,11.543,3942
3808,3808,26.286,3808
2999,2999,1300.0,2999
1393,1393,3321.0,1393
2467,2467,0.0,2467
2396,2396,10.415,2396
3910,3910,15.441,3910
3131,3131,155.0,3131
2563,2563,436.0,2563
4309,4309,1685.0,4309
4388,4388,11.942,4388
2485,2485,1307.0,2485
2591,2591,1657.0,2591
3925,3925,874.0,3925
2799,2799,697.0,2799
5337,5337,1436.0,5337
3246,3246,15.549,3246
3434,3434,18.207,3434
4456,4456,22.739,4456
3299,3299,2546.0,3299
5360,5360,12.666,5360
3963,3963,2653.0,3963
1201,1201,994.0,1201
4829,4829,2649.0,4829
1787,1787,946.0,1787
3295,3295,766.0,3295
1356,1356,13.48,1356
4286,4286,11.086,4286
4282,4282,12.454,4282
2616,2616,208.803,2616
2320,2320,14.609000000000002,2320
3023,3023,0.0,3023
5090,5090,10.494000000000002,5090
2837,2837,944.0,2837
4560,4560,24.634,4560
4328,4328,14.77,4328
3074,3074,14.195,3074
1739,1739,84.0,1739
3789,3789,2576.0,3789
1884,1884,20.281,1884
4649,4649,2101.0,4649
3508,3508,16.002,3508
2817,2817,638.0,2817
3823,3823,1940.0,3823
4429,4429,1796.0,4429
4106,4106,11.717,4106
1497,1497,0.0,1497
1753,1753,3140.0,1753
5446,5446,13.087,5446
5047,5047,1087.0,5047
4849,4849,2516.0,4849
4725,4725,103.0,4725
4748,4748,149.29,4748
3012,3012,15.437,3012
1785,1785,2325.0,1785
1845,1845,0.0,1845
4589,4589,1424.0,4589
1958,1958,12.691,1958
1365,1365,500.0,1365
2857,2857,1003.0,2857
1530,1530,52.402,1530
3651,3651,2816.0,3651
1507,1507,0.0,1507
2239,2239,1725.0,2239
3097,3097,2278.0,3097
2234,2234,15.724,2234
1426,1426,13.774,1426
515,515,493.0,515
4807,4807,1818.0,4807
3115,3115,3389.0,3115
2417,2417,24.0,2417
4171,4171,0.0,4171
4701,4701,1177.0,4701
5003,5003,0.0,5003
1856,1856,26.073,1856
4670,4670,14.437,4670
4896,4896,29.854,4896
2386,2386,15.615,2386
1153,1153,2604.0,1153
4768,4768,12.329,4768
3810,3810,10.718,3810
713,713,1726.0,713
2255,2255,1455.0,2255
5227,5227,170.0,5227
4808,4808,102.185,4808
3915,3915,855.0,3915
2372,2372,11.755999999999998,2372
5064,5064,23.403,5064
2650,2650,13.441,2650
1135,1135,0.0,1135
4147,4147,1056.0,4147
2947,2947,0.0,2947
4494,4494,13.518,4494
1017,1017,545.0,1017
3795,3795,3343.0,3795
2977,2977,1145.0,2977
1398,1398,17.303,1398
3026,3026,12.619000000000002,3026
1060,1060,21.003,1060
2087,2087,790.0,2087
5234,5234,11.05,5234
3953,3953,348.0,3953
2222,2222,18.766,2222
597,597,1770.0,597
4489,4489,3263.0,4489
4651,4651,3216.0,4651
4316,4316,14.396,4316
543,543,599.0,543
2381,2381,168.0,2381
2158,2158,15.861,2158
2072,2072,12.768,2072
2566,2566,11.075,2566
3706,3706,13.201,3706
1703,1703,1314.0,1703
1200,1200,13.857,1200
4876,4876,17.482,4876
1534,1534,53.26300000000001,1534
3770,3770,12.203,3770
1898,1898,16.801,1898
1978,1978,34.306,1978
3374,3374,13.896,3374
4279,4279,2700.0,4279
3285,3285,1166.0,3285
1008,1008,11.586,1008
661,661,980.0,661
3607,3607,1356.0,3607
1526,1526,14.243,1526
932,932,18.129,932
3311,3311,3409.0,3311
4578,4578,181.895,4578
1310,1310,16.63,1310
1888,1888,24.71,1888
2311,2311,2633.0,2311
2219,2219,106.0,2219
5279,5279,2175.0,5279
601,601,1924.0,601
3960,3960,11.133,3960
3657,3657,0.0,3657
2531,2531,3079.0,2531
711,711,750.0,711
4302,4302,82.09700000000002,4302
3864,3864,114.113,3864
2399,2399,2826.0,2399
5451,5451,2380.0,5451
4472,4472,84.49799999999998,4472
1959,1959,2161.0,1959
1443,1443,0.0,1443
5292,5292,10.98,5292
3090,3090,12.601,3090
5397,5397,3244.0,5397
2420,2420,26.892,2420
3618,3618,14.321,3618
2376,2376,11.071,2376
4227,4227,2510.0,4227
2854,2854,24.263,2854
1849,1849,1013.0,1849
3981,3981,2496.0,3981
4040,4040,10.791,4040
5157,5157,56.0,5157
3763,3763,1495.0,3763
1363,1363,677.0,1363
2628,2628,13.304,2628
4612,4612,13.166,4612
2725,2725,79.0,2725
4485,4485,599.0,4485
3102,3102,15.595,3102
2932,2932,14.859000000000002,2932
2368,2368,11.011,2368
2031,2031,2322.0,2031
4030,4030,12.34,4030
971,971,2128.0,971
1115,1115,1809.0,1115
3336,3336,14.598,3336
2224,2224,16.840999999999998,2224
3489,3489,0.0,3489
1767,1767,2061.0,1767
674,674,15.601,674
5180,5180,15.024,5180
3716,3716,10.836,3716
959,959,2045.0,959
1314,1314,13.242,1314
1656,1656,17.868,1656
5336,5336,10.877,5336
3010,3010,16.958,3010
3013,3013,717.0,3013
2282,2282,14.25,2282
4356,4356,11.254,4356
1748,1748,12.598,1748
3955,3955,410.0,3955
4619,4619,1147.0,4619
1065,1065,2600.0,1065
2002,2002,24.708,2002
1942,1942,15.399,1942
4479,4479,1708.0,4479
3411,3411,2629.0,3411
1555,1555,922.0,1555
4518,4518,117.585,4518
3156,3156,14.343,3156
2536,2536,22.646,2536
2193,2193,99.0,2193
4789,4789,3299.0,4789
1727,1727,2984.0,1727
3240,3240,13.955,3240
2881,2881,3042.0,2881
3553,3553,3088.0,3553
2215,2215,1073.0,2215
4085,4085,803.0,4085
4357,4357,854.0,4357
2401,2401,969.0,2401
3385,3385,1774.0,3385
1173,1173,0.0,1173
4311,4311,2366.0,4311
2885,2885,116.0,2885
4098,4098,13.708,4098
2220,2220,23.47,2220
947,947,1958.0,947
4156,4156,31.256,4156
1904,1904,22.325,1904
5470,5470,11.813,5470
584,584,10.483,584
5171,5171,3336.0,5171
5454,5454,10.818,5454
4178,4178,11.171,4178
1100,1100,13.153,1100
2675,2675,1375.0,2675
3832,3832,13.616,3832
1221,1221,3315.0,1221
1211,1211,2860.0,1211
2654,2654,19.351,2654
2981,2981,2048.0,2981
678,678,14.74,678
5168,5168,17.069000000000006,5168
5245,5245,0.0,5245
1840,1840,16.175,1840
2477,2477,653.0,2477
3922,3922,11.188,3922
814,814,13.154000000000002,814
1387,1387,2275.0,1387
2995,2995,0.0,2995
1457,1457,0.0,1457
3781,3781,0.0,3781
1783,1783,1761.0,1783
3888,3888,13.736,3888
3535,3535,1009.0,3535
2104,2104,11.952,2104
1474,1474,17.14,1474
2253,2253,3278.0,2253
2101,2101,501.0,2101
4491,4491,2134.0,4491
2655,2655,3168.0,2655
4941,4941,3034.0,4941
3342,3342,15.038,3342
904,904,12.793,904
3486,3486,19.052,3486
3487,3487,1516.0,3487
5255,5255,1406.0,5255
3875,3875,1549.0,3875
1053,1053,0.0,1053
5253,5253,1781.0,5253
1050,1050,19.228,1050
4582,4582,19.061,4582
3659,3659,3074.0,3659
1622,1622,13.328,1622
2927,2927,2578.0,2927
4806,4806,12.741,4806
1819,1819,1420.0,1819
2075,2075,3032.0,2075
5419,5419,0.0,5419
3079,3079,2066.0,3079
929,929,335.0,929
3722,3722,12.998,3722
3297,3297,2244.0,3297
4365,4365,1486.0,4365
5339,5339,2859.0,5339
3008,3008,15.293,3008
2560,2560,11.046,2560
1932,1932,15.515999999999998,1932
3035,3035,1148.0,3035
1068,1068,21.601,1068
2445,2445,0.0,2445
1157,1157,2605.0,1157
3829,3829,0.0,3829
3889,3889,1458.0,3889
664,664,10.689,664
5465,5465,97.0,5465
4939,4939,2309.0,4939
4525,4525,1856.0,4525
2085,2085,2174.0,2085
2759,2759,3058.0,2759
2388,2388,19.02,2388
5169,5169,1869.0,5169
4020,4020,13.99,4020
2312,2312,10.339,2312
4611,4611,3084.0,4611
1599,1599,2861.0,1599
3041,3041,250.0,3041
3689,3689,3399.0,3689
2489,2489,0.0,2489
832,832,17.285,832
712,712,15.53,712
865,865,3101.0,865
3019,3019,0.0,3019
3230,3230,14.275,3230
2197,2197,95.0,2197
1816,1816,11.642,1816
5035,5035,930.0,5035
4642,4642,189.467,4642
3302,3302,13.492,3302
1119,1119,3082.0,1119
3972,3972,20.617,3972
5449,5449,0.0,5449
4492,4492,11.151,4492
1253,1253,3078.0,1253
636,636,19.542,636
940,940,19.235,940
650,650,26.586,650
2356,2356,15.779000000000002,2356
2415,2415,961.0,2415
3540,3540,12.5,3540
4585,4585,680.0,4585
896,896,12.130999999999998,896
2322,2322,15.496,2322
5367,5367,251.0,5367
1666,1666,12.427,1666
5021,5021,3308.0,5021
3421,3421,2208.0,3421
4968,4968,11.608,4968
5065,5065,1494.0,5065
2996,2996,11.314,2996
2984,2984,13.464,2984
2798,2798,18.117,2798
2523,2523,0.0,2523
4454,4454,14.99,4454
2965,2965,101.0,2965
4942,4942,13.475,4942
4950,4950,11.025,4950
3181,3181,2460.0,3181
3828,3828,13.218,3828
4189,4189,2655.0,4189
2888,2888,16.503,2888
1707,1707,2259.0,1707
1074,1074,19.927,1074
2982,2982,10.707,2982
3211,3211,0.0,3211
2859,2859,0.0,2859
2893,2893,1819.0,2893
4699,4699,2695.0,4699
2630,2630,16.873,2630
3856,3856,21.366,3856
510,510,12.195,510
3094,3094,17.385,3094
1411,1411,3231.0,1411
1187,1187,2063.0,1187
2922,2922,13.745,2922
2792,2792,13.390999999999998,2792
3562,3562,10.509,3562
3107,3107,148.0,3107
2274,2274,19.791,2274
2231,2231,3048.0,2231
3544,3544,19.6,3544
4731,4731,1381.0,4731
4377,4377,1360.0,4377
3030,3030,11.294,3030
2210,2210,14.309,2210
2121,2121,0.0,2121
2851,2851,410.0,2851
3527,3527,1473.0,3527
1486,1486,11.28,1486
4524,4524,22.28,4524
4637,4637,2437.0,4637
3076,3076,13.13,3076
2593,2593,2212.0,2593
1608,1608,11.12,1608
4173,4173,33.0,4173
1261,1261,2293.0,1261
4243,4243,859.0,4243
3539,3539,1931.0,3539
1125,1125,3332.0,1125
4793,4793,643.0,4793
5443,5443,125.0,5443
5204,5204,15.646,5204
4712,4712,22.034,4712
2305,2305,1435.0,2305
1355,1355,2084.0,1355
3653,3653,1087.0,3653
4514,4514,199.176,4514
990,990,22.727,990
4400,4400,16.354,4400
3003,3003,0.0,3003
3815,3815,2204.0,3815
3586,3586,30.345,3586
4191,4191,744.0,4191
4967,4967,403.0,4967
3456,3456,13.507,3456
1799,1799,0.0,1799
1782,1782,13.364,1782
503,503,1965.0,503
2884,2884,13.007,2884
4415,4415,857.0,4415
5341,5341,662.0,5341
3291,3291,0.0,3291
2030,2030,11.559,2030
4506,4506,157.499,4506
4324,4324,22.036,4324
4003,4003,0.0,4003
3058,3058,14.952,3058
746,746,12.958,746
2931,2931,3301.0,2931
1469,1469,2018.0,1469
3908,3908,10.653,3908
3897,3897,3003.0,3897
2668,2668,18.339,2668
2990,2990,15.29,2990
1682,1682,14.598,1682
530,530,15.919,530
1757,1757,2692.0,1757
779,779,2152.0,779
1164,1164,14.32,1164
3776,3776,15.328,3776
1818,1818,16.625,1818
1223,1223,88.0,1223
3363,3363,1220.0,3363
