,time,rtt,id
1482,1482,76.70100000000002,1482
509,509,2210.0,509
2617,2617,1710.0,2617
1045,1045,681.0,1045
2807,2807,1964.0,2807
902,902,76.743,902
3541,3541,1861.0,3541
648,648,82.584,648
2831,2831,3090.0,2831
2590,2590,79.384,2590
1190,1190,78.839,1190
659,659,1142.0,659
1583,1583,2769.0,1583
1864,1864,73.872,1864
2233,2233,2767.0,2233
776,776,73.38,776
953,953,1244.0,953
3397,3397,1197.0,3397
1724,1724,75.483,1724
1389,1389,2119.0,1389
2658,2658,75.866,2658
3572,3572,75.10300000000002,3572
1629,1629,1951.0,1629
1124,1124,75.945,1124
2351,2351,1407.0,2351
3503,3503,2804.0,3503
2118,2118,85.71600000000002,2118
528,528,79.763,528
1449,1449,2779.0,1449
2043,2043,1594.0,2043
3412,3412,87.92,3412
2532,2532,83.318,2532
2614,2614,198.637,2614
3295,3295,1537.0,3295
2499,2499,604.0,2499
964,964,72.464,964
1301,1301,1488.0,1301
3120,3120,73.738,3120
3305,3305,2246.0,3305
3116,3116,73.065,3116
2656,2656,72.183,2656
1905,1905,986.0,1905
3518,3518,80.977,3518
1427,1427,1650.0,1427
2338,2338,80.992,2338
861,861,788.0,861
1382,1382,73.44800000000002,1382
3179,3179,3110.0,3179
1419,1419,2605.0,1419
3276,3276,78.322,3276
3508,3508,73.279,3508
3585,3585,2251.0,3585
775,775,1375.0,775
3497,3497,2689.0,3497
604,604,79.433,604
2699,2699,2417.0,2699
3168,3168,77.835,3168
3133,3133,2876.0,3133
874,874,76.271,874
2065,2065,2154.0,2065
1532,1532,71.922,1532
1147,1147,405.0,1147
2850,2850,81.597,2850
1364,1364,75.809,1364
2325,2325,1803.0,2325
2466,2466,90.758,2466
1305,1305,2671.0,1305
704,704,73.637,704
2755,2755,2174.0,2755
2757,2757,95.0,2757
2127,2127,396.0,2127
1704,1704,72.415,1704
3158,3158,75.242,3158
3114,3114,74.263,3114
2209,2209,1885.0,2209
2891,2891,2445.0,2891
1692,1692,83.51,1692
3552,3552,86.148,3552
680,680,73.857,680
3378,3378,72.074,3378
532,532,77.343,532
2767,2767,2728.0,2767
1786,1786,75.678,1786
3362,3362,72.727,3362
941,941,474.0,941
1621,1621,1468.0,1621
1485,1485,1909.0,1485
982,982,76.795,982
2321,2321,2336.0,2321
1505,1505,824.0,1505
1019,1019,1701.0,1019
3283,3283,454.0,3283
2176,2176,75.233,2176
2983,2983,332.0,2983
1946,1946,90.25,1946
1643,1643,3169.0,1643
2355,2355,1131.0,2355
1036,1036,74.22,1036
1559,1559,592.0,1559
1510,1510,73.062,1510
2092,2092,75.163,2092
1099,1099,910.0,1099
870,870,73.346,870
1750,1750,73.12100000000002,1750
989,989,1580.0,989
2603,2603,486.0,2603
3111,3111,606.0,3111
2262,2262,79.821,2262
3057,3057,1556.0,3057
533,533,1415.0,533
2914,2914,73.968,2914
2907,2907,1059.0,2907
2492,2492,72.303,2492
2612,2612,81.339,2612
2077,2077,2901.0,2077
2014,2014,92.122,2014
1712,1712,78.89,1712
3355,3355,1171.0,3355
1593,1593,405.0,1593
2391,2391,628.0,2391
772,772,76.029,772
1488,1488,72.15100000000002,1488
632,632,72.57,632
2421,2421,3079.0,2421
1749,1749,3028.0,1749
2559,2559,2445.0,2559
1578,1578,89.45100000000002,1578
1711,1711,420.0,1711
3531,3531,3133.0,3531
3386,3386,76.762,3386
1265,1265,2874.0,1265
1838,1838,83.603,1838
2377,2377,239.0,2377
1414,1414,74.738,1414
851,851,151.0,851
1603,1603,3100.0,1603
1835,1835,253.0,1835
2106,2106,73.002,2106
3452,3452,75.445,3452
2565,2565,199.0,2565
3341,3341,1892.0,3341
3060,3060,87.302,3060
1186,1186,74.078,1186
2740,2740,273.195,2740
2939,2939,544.0,2939
1990,1990,76.808,1990
3530,3530,77.104,3530
1672,1672,72.46300000000002,1672
3232,3232,82.87899999999998,3232
2335,2335,2344.0,2335
2530,2530,99.435,2530
1118,1118,75.722,1118
1866,1866,72.661,1866
3082,3082,83.475,3082
852,852,76.798,852
1342,1342,87.95200000000001,1342
934,934,74.994,934
983,983,443.0,983
3106,3106,73.33,3106
3225,3225,1941.0,3225
2671,2671,748.0,2671
514,514,79.39699999999998,514
3476,3476,78.00399999999998,3476
931,931,2884.0,931
1984,1984,77.382,1984
740,740,78.991,740
3251,3251,1761.0,3251
630,630,72.815,630
1152,1152,76.941,1152
702,702,75.98,702
867,867,2768.0,867
781,781,1318.0,781
2958,2958,153.702,2958
1097,1097,977.0,1097
1509,1509,1810.0,1509
2505,2505,2889.0,2505
1768,1768,81.589,1768
1139,1139,2624.0,1139
2979,2979,3151.0,2979
576,576,75.163,576
3376,3376,72.319,3376
1885,1885,1864.0,1885
2980,2980,75.54,2980
2772,2772,73.92399999999998,2772
3422,3422,73.304,3422
2711,2711,494.0,2711
3479,3479,2925.0,3479
2638,2638,72.32,2638
1974,1974,71.88,1974
3364,3364,75.415,3364
3417,3417,1791.0,3417
889,889,1531.0,889
2611,2611,217.0,2611
3193,3193,593.0,3193
3148,3148,74.206,3148
2155,2155,1522.0,2155
1770,1770,76.763,1770
1240,1240,81.695,1240
1576,1576,84.421,1576
3253,3253,103.0,3253
948,948,73.585,948
1828,1828,77.883,1828
2528,2528,72.554,2528
1255,1255,2302.0,1255
662,662,75.097,662
3353,3353,2751.0,3353
2762,2762,77.977,2762
655,655,1285.0,655
2200,2200,72.508,2200
2044,2044,74.577,2044
3522,3522,97.087,3522
1830,1830,74.084,1830
2393,2393,2267.0,2393
1041,1041,950.0,1041
2504,2504,82.585,2504
1350,1350,87.37100000000002,1350
1923,1923,943.0,1923
2934,2934,260.631,2934
1756,1756,72.355,1756
1922,1922,75.548,1922
1063,1063,2590.0,1063
3144,3144,83.787,3144
3284,3284,76.806,3284
1394,1394,76.483,1394
695,695,1393.0,695
1877,1877,2069.0,1877
2096,2096,74.477,2096
2360,2360,73.514,2360
1961,1961,502.0,1961
1498,1498,72.281,1498
2746,2746,85.255,2746
2547,2547,723.0,2547
2587,2587,2159.0,2587
875,875,121.0,875
1878,1878,72.016,1878
2975,2975,1489.0,2975
2478,2478,76.65100000000002,2478
1102,1102,76.208,1102
2025,2025,2446.0,2025
1001,1001,2286.0,1001
3210,3210,72.258,3210
1094,1094,74.391,1094
1244,1244,81.03399999999998,1244
2749,2749,991.0,2749
3511,3511,1662.0,3511
3110,3110,77.141,3110
1148,1148,77.485,1148
2892,2892,75.919,2892
619,619,608.0,619
1678,1678,73.288,1678
1575,1575,2137.0,1575
1657,1657,730.0,1657
1479,1479,2739.0,1479
1573,1573,2348.0,1573
2843,2843,2690.0,2843
2423,2423,1637.0,2423
1442,1442,77.587,1442
1951,1951,1554.0,1951
2329,2329,1394.0,2329
2672,2672,78.794,2672
2276,2276,73.217,2276
641,641,1713.0,641
2677,2677,491.0,2677
1725,1725,297.0,1725
3444,3444,206.301,3444
1241,1241,1790.0,1241
2686,2686,72.717,2686
3034,3034,78.895,3034
2182,2182,81.324,2182
2244,2244,96.241,2244
1659,1659,2519.0,1659
3407,3407,1685.0,3407
568,568,83.67399999999998,568
1026,1026,72.283,1026
3289,3289,2038.0,3289
2824,2824,75.881,2824
1685,1685,2138.0,1685
1563,1563,799.0,1563
2957,2957,2186.0,2957
811,811,1038.0,811
819,819,2607.0,819
1552,1552,76.235,1552
2895,2895,1234.0,2895
3336,3336,86.288,3336
1718,1718,81.984,1718
684,684,75.727,684
1585,1585,1344.0,1585
1731,1731,1682.0,1731
1392,1392,74.883,1392
1136,1136,75.381,1136
1506,1506,77.976,1506
3259,3259,2731.0,3259
1893,1893,2179.0,1893
2695,2695,1834.0,2695
924,924,80.707,924
1641,1641,2747.0,1641
2769,2769,246.0,2769
1267,1267,1323.0,1267
2159,2159,737.0,2159
2920,2920,75.358,2920
3059,3059,319.0,3059
2586,2586,74.292,2586
2803,2803,599.0,2803
2172,2172,74.393,2172
500,500,76.59899999999998,500
844,844,85.57799999999997,844
3246,3246,79.486,3246
1014,1014,181.824,1014
1362,1362,72.579,1362
1886,1886,71.98,1886
1636,1636,217.276,1636
833,833,2120.0,833
2961,2961,980.0,2961
2440,2440,72.381,2440
1062,1062,74.814,1062
719,719,2558.0,719
2371,2371,1696.0,2371
2810,2810,77.258,2810
2550,2550,75.851,2550
2624,2624,259.742,2624
2669,2669,1682.0,2669
2487,2487,2180.0,2487
1471,1471,2220.0,1471
2640,2640,73.611,2640
3083,3083,1589.0,3083
1696,1696,229.928,1696
2678,2678,77.972,2678
1456,1456,75.61399999999998,1456
3576,3576,82.382,3576
1982,1982,76.664,1982
2109,2109,1565.0,2109
3464,3464,77.98899999999998,3464
979,979,2698.0,979
801,801,2861.0,801
2808,2808,162.506,2808
1980,1980,75.705,1980
1872,1872,82.875,1872
2766,2766,72.20100000000002,2766
2348,2348,83.15799999999999,2348
3268,3268,74.09100000000002,3268
583,583,1279.0,583
1329,1329,2078.0,1329
2974,2974,72.52600000000002,2974
2119,2119,1917.0,2119
716,716,73.316,716
2392,2392,73.597,2392
579,579,1757.0,579
3586,3586,73.27199999999998,3586
1334,1334,87.574,1334
1317,1317,1298.0,1317
3326,3326,77.329,3326
3571,3571,2517.0,3571
1027,1027,2250.0,1027
3597,3597,1823.0,3597
3001,3001,1514.0,3001
690,690,75.875,690
3436,3436,78.75,3436
3063,3063,2997.0,3063
2681,2681,1278.0,2681
2385,2385,1470.0,2385
1246,1246,71.83,1246
1891,1891,2318.0,1891
2795,2795,1936.0,2795
909,909,1097.0,909
1452,1452,78.432,1452
834,834,84.515,834
654,654,81.613,654
1230,1230,94.032,1230
1726,1726,76.172,1726
1090,1090,80.289,1090
502,502,74.506,502
1472,1472,85.682,1472
3084,3084,88.92299999999999,3084
2422,2422,82.76100000000002,2422
3358,3358,72.956,3358
3077,3077,3132.0,3077
1801,1801,581.0,1801
2819,2819,2953.0,2819
501,501,552.0,501
898,898,79.839,898
3146,3146,83.426,3146
545,545,1478.0,545
1171,1171,2013.0,1171
1011,1011,2232.0,1011
2828,2828,74.17,2828
2822,2822,72.931,2822
1579,1579,1097.0,1579
621,621,426.0,621
2419,2419,2221.0,2419
2896,2896,76.222,2896
815,815,3072.0,815
2734,2734,73.415,2734
1743,1743,766.0,1743
1368,1368,74.37,1368
1758,1758,73.207,1758
1790,1790,74.863,1790
1066,1066,76.257,1066
2609,2609,495.0,2609
1714,1714,73.68,1714
3275,3275,3064.0,3275
2142,2142,81.831,2142
2583,2583,1058.0,2583
2434,2434,76.732,2434
1765,1765,1616.0,1765
2949,2949,2107.0,2949
2647,2647,2517.0,2647
2527,2527,2960.0,2527
2005,2005,858.0,2005
3006,3006,76.39,3006
1054,1054,81.751,1054
1184,1184,73.63600000000002,1184
1894,1894,73.166,1894
918,918,80.45100000000002,918
1262,1262,74.02600000000002,1262
2347,2347,2954.0,2347
1003,1003,2198.0,1003
595,595,1299.0,595
1684,1684,72.822,1684
810,810,121.758,810
1574,1574,89.331,1574
3346,3346,98.291,3346
1000,1000,111.281,1000
3473,3473,2992.0,3473
1415,1415,239.0,1415
2192,2192,72.579,2192
2425,2425,1854.0,2425
1247,1247,2053.0,1247
1628,1628,91.927,1628
3579,3579,1539.0,3579
2177,2177,615.0,2177
2818,2818,85.958,2818
2726,2726,73.675,2726
3371,3371,2335.0,3371
1837,1837,2603.0,1837
726,726,80.363,726
2429,2429,801.0,2429
2453,2453,3075.0,2453
2012,2012,77.54899999999998,2012
3266,3266,73.324,3266
1508,1508,90.355,1508
1412,1412,86.541,1412
2380,2380,88.62799999999999,2380
3329,3329,2405.0,3329
770,770,83.914,770
3489,3489,1832.0,3489
1280,1280,76.381,1280
617,617,3009.0,617
2606,2606,81.45100000000002,2606
2205,2205,2815.0,2205
755,755,1844.0,755
1744,1744,87.01,1744
3392,3392,72.391,3392
1202,1202,75.085,1202
3128,3128,76.738,3128
2008,2008,84.052,2008
766,766,71.911,766
2062,2062,73.115,2062
1176,1176,73.66199999999998,1176
1941,1941,1317.0,1941
960,960,75.393,960
2186,2186,79.488,2186
2874,2874,72.086,2874
3514,3514,76.09899999999998,3514
3580,3580,83.406,3580
3254,3254,79.405,3254
2937,2937,2991.0,2937
2825,2825,1487.0,2825
2868,2868,71.893,2868
596,596,73.45,596
1881,1881,1507.0,1881
1218,1218,76.036,1218
1183,1183,2408.0,1183
1964,1964,72.05199999999998,1964
3209,3209,320.0,3209
2438,2438,83.306,2438
2164,2164,89.913,2164
2840,2840,123.892,2840
1481,1481,3170.0,1481
3366,3366,89.345,3366
1630,1630,82.12799999999999,1630
2791,2791,1382.0,2791
2345,2345,2262.0,2345
2480,2480,72.37899999999998,2480
1970,1970,76.03399999999998,1970
1189,1189,1037.0,1189
1513,1513,1130.0,1513
1658,1658,217.919,1658
1165,1165,1503.0,1165
1450,1450,87.165,1450
887,887,1288.0,887
1178,1178,101.64,1178
2230,2230,72.979,2230
3219,3219,1724.0,3219
997,997,1390.0,997
683,683,1229.0,683
2236,2236,72.723,2236
637,637,961.0,637
828,828,86.491,828
2398,2398,76.938,2398
2599,2599,1689.0,2599
970,970,76.367,970
992,992,131.115,992
2801,2801,2749.0,2801
3145,3145,3159.0,3145
821,821,1087.0,821
2576,2576,80.167,2576
3279,3279,211.0,3279
3296,3296,84.39399999999998,3296
3549,3549,1754.0,3549
2221,2221,1844.0,2221
2187,2187,590.0,2187
2238,2238,75.154,2238
2780,2780,76.82600000000002,2780
3533,3533,1317.0,3533
2346,2346,75.036,2346
1358,1358,75.045,1358
2588,2588,238.028,2588
1919,1919,1124.0,1919
3042,3042,74.40899999999998,3042
1290,1290,73.594,1290
2556,2556,76.66199999999998,2556
2095,2095,3000.0,2095
2113,2113,2971.0,2113
3383,3383,1890.0,3383
1315,1315,890.0,1315
1957,1957,1663.0,1957
1675,1675,810.0,1675
2680,2680,76.388,2680
2968,2968,89.28399999999998,2968
1278,1278,79.358,1278
752,752,76.985,752
3345,3345,226.0,3345
3327,3327,1201.0,3327
2693,2693,978.0,2693
1908,1908,89.265,1908
1921,1921,1670.0,1921
1695,1695,1451.0,1695
842,842,71.84,842
2424,2424,75.925,2424
2620,2620,77.165,2620
3040,3040,72.79899999999998,3040
823,823,1504.0,823
3160,3160,72.26100000000002,3160
747,747,2379.0,747
3487,3487,2146.0,3487
1929,1929,2799.0,1929
1188,1188,76.45100000000002,1188
524,524,86.32,524
1612,1612,243.596,1612
2315,2315,324.0,2315
3169,3169,1121.0,3169
2788,2788,72.158,2788
824,824,75.968,824
2249,2249,2752.0,2249
1372,1372,83.35700000000001,1372
1224,1224,78.39699999999998,1224
3491,3491,2248.0,3491
2901,2901,1140.0,2901
3166,3166,72.292,3166
2199,2199,1472.0,2199
2849,2849,2610.0,2849
2169,2169,1008.0,2169
3294,3294,111.123,3294
3569,3569,1958.0,3569
988,988,76.958,988
2908,2908,103.227,2908
2258,2258,78.755,2258
3045,3045,3150.0,3045
2598,2598,75.135,2598
1232,1232,86.969,1232
3092,3092,76.842,3092
765,765,1773.0,765
3399,3399,2532.0,3399
1228,1228,78.904,1228
1052,1052,76.389,1052
3139,3139,1968.0,3139
2852,2852,83.82600000000002,2852
2809,2809,2022.0,2809
2129,2129,1044.0,2129
1311,1311,1107.0,1311
2569,2569,1551.0,2569
2883,2883,257.0,2883
3085,3085,1488.0,3085
2685,2685,2112.0,2685
3507,3507,2486.0,3507
761,761,524.0,761
634,634,81.16,634
1410,1410,85.54,1410
3031,3031,224.0,3031
1988,1988,78.155,1988
1096,1096,88.544,1096
2619,2619,168.0,2619
1297,1297,2094.0,1297
1933,1933,1120.0,1933
1213,1213,148.0,1213
1237,1237,2126.0,1237
3028,3028,72.123,3028
886,886,75.596,886
1516,1516,73.135,1516
1730,1730,76.292,1730
2663,2663,756.0,2663
1116,1116,84.406,1116
1252,1252,83.87799999999999,1252
1279,1279,763.0,1279
2933,2933,2403.0,2933
536,536,82.927,536
2246,2246,74.13600000000002,2246
2226,2226,74.82600000000002,2226
3293,3293,1073.0,3293
1057,1057,2580.0,1057
1805,1805,992.0,1805
569,569,270.0,569
758,758,76.65899999999998,758
3495,3495,2719.0,3495
3537,3537,204.0,3537
3391,3391,1394.0,3391
737,737,2885.0,737
2471,2471,285.0,2471
1987,1987,2591.0,1987
3217,3217,923.0,3217
2167,2167,742.0,2167
624,624,72.524,624
3380,3380,86.536,3380
588,588,78.02,588
3310,3310,82.51299999999998,3310
2944,2944,73.64399999999998,2944
2902,2902,75.98899999999998,2902
1859,1859,3044.0,1859
1080,1080,86.14200000000002,1080
1210,1210,73.794,1210
1339,1339,1972.0,1339
2778,2778,81.406,2778
1697,1697,152.0,1697
3131,3131,1821.0,3131
1196,1196,86.02799999999998,1196
1647,1647,391.0,1647
1646,1646,75.744,1646
3432,3432,77.264,3432
2605,2605,124.0,2605
2000,2000,72.825,2000
2903,2903,1582.0,2903
1588,1588,73.527,1588
2114,2114,72.715,2114
2615,2615,1014.0,2615
1295,1295,1227.0,1295
2037,2037,1742.0,2037
878,878,73.283,878
3226,3226,72.684,3226
1733,1733,547.0,1733
590,590,78.313,590
3208,3208,72.68,3208
2040,2040,82.19200000000002,2040
1391,1391,645.0,1391
2297,2297,2870.0,2297
1928,1928,80.205,1928
2899,2899,2462.0,2899
1924,1924,76.87899999999998,1924
1640,1640,91.909,1640
1631,1631,1417.0,1631
722,722,72.416,722
2272,2272,77.351,2272
677,677,1916.0,677
1590,1590,122.681,1590
995,995,1382.0,995
3567,3567,418.0,3567
2876,2876,75.027,2876
669,669,1320.0,669
1746,1746,74.23100000000002,1746
2992,2992,72.399,2992
912,912,74.515,912
608,608,76.862,608
3147,3147,1935.0,3147
2397,2397,3127.0,2397
883,883,313.0,883
2938,2938,83.24,2938
2515,2515,971.0,2515
2439,2439,175.0,2439
517,517,942.0,517
2342,2342,77.758,2342
3400,3400,75.617,3400
2516,2516,73.525,2516
3185,3185,2867.0,3185
2564,2564,191.164,2564
946,946,79.028,946
2991,2991,1009.0,2991
3068,3068,78.033,3068
2534,2534,72.27600000000002,2534
3401,3401,819.0,3401
542,542,73.809,542
2437,2437,966.0,2437
3521,3521,447.0,3521
1803,1803,2797.0,1803
3325,3325,918.0,3325
2446,2446,72.848,2446
2364,2364,77.888,2364
663,663,2251.0,663
1059,1059,1101.0,1059
2906,2906,73.075,2906
986,986,92.398,986
1010,1010,103.881,1010
3475,3475,1125.0,3475
1611,1611,1361.0,1611
1379,1379,1549.0,1379
2813,2813,2487.0,2813
1615,1615,327.0,1615
2432,2432,73.031,2432
1720,1720,78.436,1720
966,966,77.60600000000002,966
2568,2568,82.196,2568
864,864,81.395,864
3306,3306,72.529,3306
3553,3553,373.0,3553
1566,1566,76.317,1566
1632,1632,75.861,1632
2289,2289,2945.0,2289
1761,1761,3156.0,1761
1300,1300,75.252,1300
2679,2679,838.0,2679
656,656,93.404,656
1296,1296,80.087,1296
1705,1705,2938.0,1705
1807,1807,1551.0,1807
1620,1620,82.10700000000001,1620
1258,1258,82.12100000000002,1258
2870,2870,75.193,2870
2723,2723,2726.0,2723
1965,1965,1203.0,1965
2717,2717,2369.0,2717
3053,3053,3104.0,3053
2047,2047,3005.0,2047
3389,3389,3162.0,3389
2836,2836,82.693,2836
2122,2122,79.60300000000002,2122
2625,2625,2319.0,2625
2814,2814,77.868,2814
1168,1168,72.202,1168
1464,1464,74.796,1464
2610,2610,179.455,2610
1493,1493,2035.0,1493
2820,2820,121.489,2820
628,628,86.006,628
2764,2764,76.163,2764
2558,2558,81.868,2558
606,606,77.021,606
3282,3282,87.441,3282
3526,3526,75.917,3526
2539,2539,1749.0,2539
2911,2911,2760.0,2911
1400,1400,79.67399999999998,1400
1378,1378,76.83800000000002,1378
2855,2855,2082.0,2855
2642,2642,76.785,2642
2390,2390,79.441,2390
2160,2160,79.54899999999998,2160
1351,1351,1815.0,1351
873,873,1560.0,873
2137,2137,1183.0,2137
2463,2463,2366.0,2463
666,666,75.417,666
1729,1729,878.0,1729
1814,1814,84.309,1814
1771,1771,3163.0,1771
2804,2804,72.39699999999998,2804
1863,1863,1735.0,1863
2554,2554,72.21,2554
1909,1909,2447.0,1909
2519,2519,2892.0,2519
651,651,1243.0,651
2715,2715,657.0,2715
1820,1820,78.557,1820
3005,3005,2021.0,3005
1098,1098,76.725,1098
2774,2774,80.247,2774
3170,3170,78.225,3170
572,572,81.03699999999998,572
899,899,2211.0,899
1185,1185,2168.0,1185
1591,1591,1888.0,1591
1367,1367,1169.0,1367
3066,3066,75.57300000000002,3066
1556,1556,73.567,1556
1862,1862,74.709,1862
1627,1627,1010.0,1627
1846,1846,79.15899999999998,1846
2097,2097,481.0,2097
3338,3338,72.633,3338
1282,1282,75.22800000000002,1282
771,771,2937.0,771
2524,2524,72.81,2524
1381,1381,1029.0,1381
1229,1229,1189.0,1229
1013,1013,2518.0,1013
1161,1161,657.0,1161
2235,2235,2393.0,2235
1338,1338,76.907,1338
1249,1249,2224.0,1249
2094,2094,74.524,2094
2074,2074,72.37899999999998,2074
1915,1915,681.0,1915
3112,3112,85.89299999999999,3112
3534,3534,84.52799999999998,3534
2308,2308,73.934,2308
2242,2242,74.257,2242
2994,2994,74.348,2994
3132,3132,87.079,3132
1499,1499,2071.0,1499
3594,3594,76.53399999999998,3594
1151,1151,1674.0,1151
518,518,73.206,518
736,736,84.16799999999998,736
1089,1089,2981.0,1089
1868,1868,74.785,1868
2375,2375,524.0,2375
3122,3122,83.191,3122
1492,1492,77.643,1492
2232,2232,76.01899999999998,2232
2344,2344,253.374,2344
2861,2861,3142.0,2861
3496,3496,86.148,3496
1808,1808,77.421,1808
3187,3187,2051.0,3187
2138,2138,72.596,2138
2943,2943,277.0,2943
3548,3548,73.602,3548
1403,1403,2158.0,1403
1841,1841,2196.0,1841
2304,2304,72.04899999999998,2304
2878,2878,73.344,2878
835,835,1869.0,835
2306,2306,72.57,2306
2771,2771,2512.0,2771
2561,2561,1113.0,2561
911,911,243.0,911
3312,3312,72.425,3312
1423,1423,1488.0,1423
3189,3189,1478.0,3189
2545,2545,804.0,2545
2332,2332,73.514,2332
1736,1736,73.39,1736
639,639,2980.0,639
1341,1341,1845.0,1341
3165,3165,1208.0,3165
1649,1649,2519.0,1649
818,818,83.677,818
2535,2535,2304.0,2535
3402,3402,90.864,3402
1141,1141,680.0,1141
2507,2507,876.0,2507
2845,2845,2060.0,2845
2021,2021,1937.0,2021
1688,1688,74.123,1688
3055,3055,2075.0,3055
3581,3581,3080.0,3581
703,703,305.0,703
2296,2296,89.75200000000002,2296
1717,1717,1478.0,1717
1549,1549,2219.0,1549
3214,3214,72.118,3214
2151,2151,2151.0,2151
2291,2291,2889.0,2291
1931,1931,1425.0,1931
1568,1568,76.67399999999998,1568
741,741,526.0,741
1480,1480,74.55199999999998,1480
2378,2378,74.77,2378
2985,2985,2201.0,2985
1966,1966,72.54,1966
3140,3140,79.81,3140
3080,3080,94.503,3080
2517,2517,1545.0,2517
1691,1691,1409.0,1691
2131,2131,818.0,2131
643,643,2310.0,643
3288,3288,75.346,3288
829,829,2274.0,829
1565,1565,123.0,1565
2913,2913,2128.0,2913
1896,1896,72.804,1896
3483,3483,2969.0,3483
2102,2102,73.079,2102
2951,2951,304.0,2951
2459,2459,919.0,2459
1441,1441,2366.0,1441
2873,2873,497.0,2873
1500,1500,88.866,1500
1179,1179,1805.0,1179
2562,2562,72.585,2562
1876,1876,72.332,1876
3577,3577,642.0,3577
2387,2387,178.0,2387
1529,1529,2491.0,1529
1331,1331,156.0,1331
1504,1504,76.243,1504
3414,3414,83.182,3414
2247,2247,2914.0,2247
534,534,78.679,534
1405,1405,2532.0,1405
1947,1947,3117.0,1947
2919,2919,2525.0,2919
1609,1609,865.0,1609
1375,1375,305.0,1375
1992,1992,74.123,1992
1779,1779,2389.0,1779
626,626,73.92699999999998,626
2633,2633,1151.0,2633
1776,1776,74.283,1776
3589,3589,2633.0,3589
2217,2217,1821.0,2217
1831,1831,2860.0,1831
1407,1407,2490.0,1407
882,882,78.847,882
3138,3138,75.13,3138
2460,2460,248.547,2460
2753,2753,675.0,2753
2500,2500,81.712,2500
1570,1570,92.331,1570
1318,1318,77.707,1318
2997,2997,2914.0,2997
2738,2738,263.955,2738
2877,2877,1133.0,2877
1162,1162,73.189,1162
2449,2449,1166.0,2449
2945,2945,470.0,2945
2805,2805,2124.0,2805
2474,2474,122.799,2474
817,817,895.0,817
2052,2052,82.834,2052
3244,3244,71.971,3244
610,610,73.14,610
725,725,1410.0,725
3482,3482,72.687,3482
1769,1769,3124.0,1769
1825,1825,2351.0,1825
1777,1777,2685.0,1777
1897,1897,691.0,1897
3349,3349,2567.0,3349
2374,2374,83.73700000000002,2374
994,994,125.798,994
2273,2273,951.0,2273
575,575,1925.0,575
2930,2930,73.006,2930
802,802,75.42,802
2165,2165,959.0,2165
1747,1747,574.0,1747
3125,3125,305.0,3125
1420,1420,72.627,1420
2146,2146,72.583,2146
2328,2328,73.913,2328
2904,2904,139.35299999999998,2904
3087,3087,465.0,3087
1243,1243,3096.0,1243
594,594,72.64,594
1231,1231,908.0,1231
836,836,85.87299999999998,836
1299,1299,2912.0,1299
2016,2016,84.601,2016
613,613,844.0,613
1064,1064,76.064,1064
2864,2864,81.911,2864
2168,2168,78.47399999999998,2168
2078,2078,72.805,2078
2472,2472,76.357,2472
3340,3340,72.839,3340
1938,1938,101.383,1938
1337,1337,1641.0,1337
2862,2862,72.343,2862
1035,1035,1594.0,1035
3173,3173,586.0,3173
3470,3470,85.258,3470
3078,3078,75.529,3078
3439,3439,568.0,3439
3195,3195,2710.0,3195
2967,2967,1089.0,2967
2592,2592,72.722,2592
2103,2103,2458.0,2103
557,557,163.0,557
558,558,86.839,558
1132,1132,93.053,1132
2069,2069,785.0,2069
2736,2736,252.018,2736
730,730,87.45700000000002,730
2260,2260,77.699,2260
3344,3344,73.865,3344
3135,3135,596.0,3135
3298,3298,75.624,3298
3197,3197,1735.0,3197
1853,1853,1311.0,1853
1665,1665,425.0,1665
938,938,145.562,938
2093,2093,1631.0,2093
2462,2462,79.939,2462
2324,2324,72.39,2324
3015,3015,2584.0,3015
2570,2570,75.023,2570
885,885,1972.0,885
2435,2435,1055.0,2435
944,944,78.392,944
1169,1169,1422.0,1169
3043,3043,2760.0,3043
2683,2683,1548.0,2683
675,675,2144.0,675
1644,1644,85.82,1644
679,679,2885.0,679
3301,3301,645.0,3301
855,855,884.0,855
3249,3249,3167.0,3249
1804,1804,72.44,1804
1123,1123,2372.0,1123
1673,1673,2896.0,1673
2496,2496,80.955,2496
2079,2079,350.0,2079
2350,2350,95.548,2350
2875,2875,2396.0,2875
1438,1438,78.554,1438
1055,1055,810.0,1055
2026,2026,76.359,2026
3141,3141,1204.0,3141
2582,2582,94.536,2582
565,565,672.0,565
3348,3348,72.935,3348
1833,1833,844.0,1833
2430,2430,85.913,2430
3558,3558,86.819,3558
3461,3461,1804.0,3461
2765,2765,2858.0,2765
1302,1302,82.131,1302
3384,3384,75.485,3384
974,974,78.717,974
2061,2061,2199.0,2061
2201,2201,1120.0,2201
1689,1689,665.0,1689
2733,2733,2493.0,2733
1137,1137,794.0,1137
3278,3278,74.685,3278
2887,2887,2205.0,2887
1594,1594,105.967,1594
3163,3163,286.0,3163
1875,1875,2284.0,1875
1582,1582,72.449,1582
3413,3413,203.0,3413
2635,2635,2294.0,2635
2775,2775,657.0,2775
3350,3350,77.263,3350
3218,3218,77.22399999999998,3218
2162,2162,76.569,2162
3367,3367,1473.0,3367
744,744,78.627,744
1487,1487,3041.0,1487
2918,2918,264.623,2918
2827,2827,874.0,2827
1031,1031,605.0,1031
1293,1293,306.0,1293
2359,2359,2016.0,2359
3109,3109,313.0,3109
3360,3360,71.75399999999998,3360
3198,3198,77.042,3198
799,799,537.0,799
2317,2317,1612.0,2317
3498,3498,72.024,3498
2863,2863,884.0,2863
3201,3201,248.0,3201
1114,1114,94.087,1114
2426,2426,71.66199999999998,2426
3172,3172,81.44800000000002,3172
831,831,1019.0,831
3018,3018,79.67699999999998,3018
2330,2330,76.84100000000002,2330
2204,2204,72.245,2204
1592,1592,213.293,1592
2184,2184,82.59899999999998,2184
1811,1811,1766.0,1811
2923,2923,464.0,2923
1175,1175,2893.0,1175
1815,1815,2866.0,1815
1018,1018,84.77600000000002,1018
1626,1626,75.165,1626
1083,1083,2704.0,1083
535,535,1833.0,535
2673,2673,2315.0,2673
1954,1954,74.40100000000002,1954
1793,1793,2984.0,1793
3207,3207,1690.0,3207
3017,3017,2717.0,3017
993,993,463.0,993
3215,3215,2317.0,3215
2250,2250,84.553,2250
2571,2571,1739.0,2571
2998,2998,73.181,2998
1619,1619,1923.0,1619
1716,1716,91.075,1716
698,698,88.90100000000002,698
1266,1266,75.57300000000002,1266
1810,1810,84.68,1810
793,793,2662.0,793
2413,2413,2919.0,2413
1514,1514,73.931,1514
2871,2871,370.0,2871
853,853,1420.0,853
2960,2960,121.404,2960
1049,1049,1454.0,1049
2055,2055,2854.0,2055
1226,1226,90.454,1226
2366,2366,77.01899999999998,2366
949,949,1908.0,949
2223,2223,186.0,2223
2739,2739,158.0,2739
2484,2484,72.432,2484
3365,3365,558.0,3365
3352,3352,74.635,3352
3150,3150,74.429,3150
522,522,73.54899999999998,522
1281,1281,1871.0,1281
2552,2552,206.54,2552
699,699,3108.0,699
2117,2117,1042.0,2117
3504,3504,84.837,3504
915,915,1853.0,915
884,884,76.316,884
1180,1180,75.533,1180
1871,1871,1509.0,1871
1197,1197,1263.0,1197
1617,1617,602.0,1617
3578,3578,74.597,3578
1661,1661,141.0,1661
796,796,86.505,796
1467,1467,1690.0,1467
2940,2940,113.741,2940
2510,2510,89.11,2510
903,903,2825.0,903
3121,3121,2377.0,3121
1078,1078,108.391,1078
2059,2059,2130.0,2059
2540,2540,72.954,2540
611,611,1151.0,611
729,729,2137.0,729
3385,3385,1449.0,3385
1142,1142,82.523,1142
2003,2003,1946.0,2003
945,945,2932.0,945
1219,1219,1361.0,1219
599,599,1588.0,599
822,822,78.88,822
1955,1955,269.0,1955
1354,1354,85.039,1354
859,859,2047.0,859
2783,2783,1059.0,2783
721,721,1117.0,721
1780,1780,86.75299999999999,1780
1519,1519,1244.0,1519
3424,3424,80.592,3424
1416,1416,84.963,1416
2665,2665,1313.0,2665
1263,1263,273.0,1263
880,880,83.37200000000001,880
1051,1051,1767.0,1051
504,504,76.593,504
1518,1518,72.453,1518
1321,1321,179.0,1321
2537,2537,134.0,2537
913,913,1996.0,913
3243,3243,252.0,3243
2761,2761,3148.0,2761
1406,1406,81.43,1406
1698,1698,75.675,1698
3118,3118,73.30199999999998,3118
1182,1182,74.944,1182
2946,2946,74.264,2946
1531,1531,215.0,1531
1039,1039,2957.0,1039
933,933,647.0,933
1024,1024,76.038,1024
849,849,2277.0,849
1722,1722,72.798,1722
1572,1572,82.096,1572
582,582,76.255,582
830,830,75.51,830
717,717,159.0,717
1916,1916,74.687,1916
1850,1850,73.39699999999998,1850
809,809,1400.0,809
2976,2976,263.452,2976
2139,2139,1587.0,2139
1781,1781,2841.0,1781
1021,1021,1916.0,1021
1015,1015,2919.0,1015
2718,2718,215.012,2718
3267,3267,2839.0,3267
2890,2890,84.94200000000002,2890
2409,2409,513.0,2409
2687,2687,145.0,2687
2336,2336,80.593,2336
2241,2241,1035.0,2241
3200,3200,75.578,3200
707,707,1919.0,707
2036,2036,77.584,2036
2357,2357,2960.0,2357
1353,1353,623.0,1353
3117,3117,1931.0,3117
1077,1077,1976.0,1077
3591,3591,1137.0,3591
2924,2924,251.183,2924
2626,2626,78.918,2626
2579,2579,483.0,2579
2905,2905,1581.0,2905
620,620,85.115,620
3515,3515,258.0,3515
958,958,76.12100000000002,958
2309,2309,1052.0,2309
2004,2004,76.671,2004
3449,3449,1555.0,3449
1867,1867,225.0,1867
1597,1597,2665.0,1597
3467,3467,938.0,3467
900,900,72.601,900
2237,2237,1572.0,2237
1870,1870,86.07600000000002,1870
3458,3458,76.173,3458
2295,2295,1325.0,2295
3119,3119,2669.0,3119
2227,2227,1164.0,2227
1999,1999,2564.0,1999
1260,1260,76.57300000000002,1260
1328,1328,72.861,1328
3290,3290,78.726,3290
2486,2486,72.52600000000002,2486
531,531,1959.0,531
3501,3501,1381.0,3501
1181,1181,1677.0,1181
1535,1535,2130.0,1535
3566,3566,73.352,3566
2257,2257,2849.0,2257
1741,1741,1169.0,1741
2832,2832,79.208,2832
3396,3396,72.278,3396
1408,1408,82.988,1408
700,700,73.363,700
3054,3054,72.618,3054
3494,3494,72.803,3494
2057,2057,2083.0,2057
2823,2823,943.0,2823
3405,3405,1327.0,3405
2721,2721,314.0,2721
1170,1170,84.88799999999998,1170
1589,1589,2161.0,1589
1883,1883,3025.0,1883
803,803,276.0,803
1852,1852,73.03399999999998,1852
2157,2157,2877.0,2157
2578,2578,73.62,2578
2708,2708,73.859,2708
975,975,1891.0,975
2285,2285,867.0,2285
2084,2084,87.038,2084
1752,1752,73.34899999999998,1752
943,943,2905.0,943
3242,3242,81.499,3242
1604,1604,73.382,1604
2080,2080,74.333,2080
1101,1101,593.0,1101
2634,2634,71.95,2634
1723,1723,2872.0,1723
2266,2266,78.686,2266
1429,1429,2275.0,1429
1829,1829,2092.0,1829
2963,2963,2258.0,2963
1796,1796,78.127,1796
1775,1775,2104.0,1775
2288,2288,88.461,2288
519,519,969.0,519
2476,2476,72.565,2476
738,738,76.60300000000002,738
2302,2302,96.318,2302
2544,2544,89.274,2544
506,506,75.146,506
2156,2156,77.632,2156
1380,1380,77.476,1380
3252,3252,80.37100000000002,3252
1020,1020,77.464,1020
3555,3555,1984.0,3555
1396,1396,73.37,1396
1004,1004,75.75399999999998,1004
3044,3044,79.718,3044
1912,1912,76.063,1912
2179,2179,2420.0,2179
2464,2464,73.039,2464
3332,3332,72.258,3332
2488,2488,80.942,2488
1943,1943,1518.0,1943
2135,2135,2758.0,2135
2267,2267,3038.0,2267
2140,2140,72.475,2140
647,647,236.0,647
2373,2373,2370.0,2373
3164,3164,73.634,3164
1751,1751,2538.0,1751
2068,2068,76.163,2068
985,985,1083.0,985
2327,2327,2066.0,2327
3073,3073,1147.0,3073
1584,1584,89.12,1584
1349,1349,1946.0,1349
1454,1454,74.092,1454
935,935,2304.0,935
876,876,79.345,876
848,848,80.994,848
2452,2452,73.96300000000002,2452
3175,3175,1383.0,3175
2830,2830,228.31,2830
1316,1316,75.903,1316
3269,3269,1395.0,3269
1557,1557,307.0,1557
1470,1470,77.092,1470
3311,3311,2285.0,3311
2411,2411,1058.0,2411
696,696,74.943,696
2051,2051,1158.0,2051
1976,1976,74.686,1976
540,540,71.991,540
2730,2730,81.102,2730
2952,2952,72.305,2952
2365,2365,1858.0,2365
1817,1817,1398.0,1817
2211,2211,504.0,2211
1212,1212,77.332,1212
2670,2670,201.495,2670
1937,1937,912.0,1937
3337,3337,1858.0,3337
1385,1385,535.0,1385
1294,1294,76.241,1294
1533,1533,880.0,1533
1728,1728,87.34200000000001,1728
2732,2732,81.262,2732
1434,1434,79.051,1434
2412,2412,75.271,2412
3499,3499,2698.0,3499
1103,1103,1775.0,1103
2076,2076,80.135,2076
3258,3258,79.33800000000002,3258
3446,3446,71.847,3446
2789,2789,672.0,2789
3130,3130,122.103,3130
633,633,3006.0,633
2956,2956,155.884,2956
2928,2928,72.706,2928
1199,1199,239.0,1199
2195,2195,1421.0,2195
2929,2929,2551.0,2929
2900,2900,78.00399999999998,2900
598,598,84.74,598
1596,1596,72.583,1596
1369,1369,735.0,1369
1251,1251,2943.0,1251
570,570,89.133,570
529,529,1784.0,529
987,987,1915.0,987
749,749,2787.0,749
2494,2494,76.992,2494
3592,3592,86.64399999999998,3592
1869,1869,1395.0,1869
2776,2776,109.848,2776
2188,2188,79.015,2188
671,671,1528.0,671
3027,3027,2734.0,3027
750,750,75.536,750
1772,1772,75.94800000000002,1772
2493,2493,1251.0,2493
1607,1607,2145.0,1607
3186,3186,82.109,3186
1936,1936,81.415,1936
3101,3101,2400.0,3101
786,786,88.695,786
1652,1652,76.85600000000002,1652
1307,1307,1358.0,1307
2362,2362,266.089,2362
646,646,80.61,646
1040,1040,78.571,1040
3182,3182,73.214,3182
1440,1440,91.204,1440
3052,3052,73.928,3052
1551,1551,1268.0,1551
1088,1088,75.264,1088
2270,2270,72.60600000000002,2270
1991,1991,2429.0,1991
1473,1473,1437.0,1473
1285,1285,2194.0,1285
2691,2691,2762.0,2691
2724,2724,76.322,2724
1613,1613,499.0,1613
1690,1690,244.496,1690
701,701,982.0,701
3516,3516,82.647,3516
2735,2735,1759.0,2735
1250,1250,73.63,1250
627,627,2147.0,627
1462,1462,72.497,1462
1880,1880,73.465,1880
660,660,75.77,660
2436,2436,74.572,2436
1460,1460,73.566,1460
2395,2395,275.0,2395
2134,2134,72.84100000000002,2134
3433,3433,165.0,3433
2833,2833,2025.0,2833
1822,1822,76.939,1822
2290,2290,88.429,2290
3221,3221,2018.0,3221
3462,3462,72.374,3462
1272,1272,73.668,1272
1892,1892,71.554,1892
622,622,81.005,622
1642,1642,112.209,1642
2123,2123,2999.0,2123
2676,2676,102.738,2676
670,670,73.747,670
2581,2581,1309.0,2581
1131,1131,148.0,1131
3356,3356,80.128,3356
3584,3584,81.32,3584
1595,1595,2733.0,1595
3532,3532,82.82600000000002,3532
978,978,75.608,978
3184,3184,72.48899999999998,3184
1623,1623,1558.0,1623
2416,2416,73.422,2416
1624,1624,73.991,1624
1377,1377,1762.0,1377
1214,1214,77.176,1214
1495,1495,138.0,1495
794,794,74.811,794
1451,1451,211.0,1451
3091,3091,732.0,3091
2595,2595,1710.0,2595
1503,1503,1102.0,1503
2448,2448,80.676,2448
3562,3562,72.09100000000002,3562
2339,2339,2718.0,2339
625,625,627.0,625
1042,1042,84.439,1042
3416,3416,75.905,3416
2292,2292,72.158,2292
942,942,72.434,942
2763,2763,2023.0,2763
2688,2688,74.566,2688
1821,1821,3137.0,1821
2752,2752,82.945,2752
2802,2802,72.432,2802
2846,2846,81.033,2846
1952,1952,72.895,1952
715,715,2800.0,715
1674,1674,75.90100000000002,1674
2394,2394,74.528,2394
2522,2522,74.539,2522
1560,1560,72.523,1560
3238,3238,81.355,3238
785,785,997.0,785
1025,1025,2648.0,1025
888,888,84.429,888
1448,1448,87.682,1448
2319,2319,2119.0,2319
2408,2408,77.73899999999998,2408
1948,1948,75.719,1948
3285,3285,1148.0,3285
2661,2661,1869.0,2661
2867,2867,991.0,2867
1288,1288,75.78399999999998,1288
790,790,75.48,790
3357,3357,2931.0,3357
3343,3343,594.0,3343
1413,1413,375.0,1413
777,777,1531.0,777
1466,1466,74.09,1466
1737,1737,3169.0,1737
3575,3575,1899.0,3575
2410,2410,77.925,2410
2150,2150,89.104,2150
2786,2786,79.336,2786
1421,1421,915.0,1421
3174,3174,72.741,3174
1120,1120,99.634,1120
3157,3157,1444.0,3157
1979,1979,2529.0,1979
1693,1693,1042.0,1693
2722,2722,128.89,2722
3081,3081,2587.0,3081
1734,1734,144.58700000000005,1734
2551,2551,119.0,2551
3039,3039,1038.0,3039
3492,3492,84.915,3492
2782,2782,79.074,2782
1430,1430,75.694,1430
2860,2860,142.805,2860
1259,1259,2512.0,1259
1745,1745,3163.0,1745
1653,1653,3079.0,1653
3379,3379,1095.0,3379
1512,1512,75.423,1512
1911,1911,350.0,1911
2622,2622,74.342,2622
3098,3098,87.756,3098
731,731,1559.0,731
2041,2041,2860.0,2041
2400,2400,218.304,2400
2838,2838,185.612,2838
1204,1204,75.907,1204
894,894,91.388,894
3463,3463,1534.0,3463
1537,1537,1418.0,1537
2442,2442,232.547,2442
1995,1995,1657.0,1995
920,920,123.727,920
3129,3129,2286.0,3129
1313,1313,1914.0,1313
1095,1095,1790.0,1095
2098,2098,73.362,2098
2060,2060,78.949,2060
2046,2046,81.25399999999998,2046
1236,1236,84.476,1236
612,612,77.845,612
2019,2019,2617.0,2019
1360,1360,74.07600000000002,1360
1985,1985,3155.0,1985
2277,2277,2657.0,2277
2785,2785,740.0,2785
1489,1489,2452.0,1489
3089,3089,3081.0,3089
552,552,78.51100000000002,552
2018,2018,76.229,2018
3149,3149,1679.0,3149
2027,2027,3140.0,2027
1791,1791,2735.0,1791
764,764,75.005,764
2038,2038,81.49,2038
923,923,2075.0,923
3191,3191,2337.0,3191
3222,3222,72.845,3222
837,837,969.0,837
782,782,81.139,782
2279,2279,543.0,2279
3382,3382,75.678,3382
901,901,1405.0,901
2513,2513,468.0,2513
3108,3108,95.03,3108
3033,3033,1643.0,3033
600,600,73.27600000000002,600
2100,2100,78.42,2100
2652,2652,73.194,2652
3136,3136,76.331,3136
3474,3474,102.827,3474
3307,3307,1982.0,3307
3137,3137,2586.0,3137
2641,2641,2988.0,2641
2773,2773,1777.0,2773
2191,2191,1327.0,2191
3374,3374,73.699,3374
1713,1713,1946.0,1713
580,580,72.775,580
1795,1795,1483.0,1795
706,706,77.829,706
2081,2081,1164.0,2081
3559,3559,1241.0,3559
1333,1333,99.0,1333
3022,3022,77.365,3022
1150,1150,72.123,1150
1348,1348,73.363,1348
1960,1960,78.4,1960
3538,3538,85.07700000000001,3538
2171,2171,2239.0,2171
965,965,1640.0,965
1366,1366,76.108,1366
1854,1854,73.439,1854
691,691,1351.0,691
2745,2745,1044.0,2745
1517,1517,2859.0,1517
1668,1668,72.192,1668
1133,1133,1154.0,1133
2898,2898,98.151,2898
2107,2107,2227.0,2107
581,581,1269.0,581
1561,1561,1910.0,1561
952,952,74.007,952
3447,3447,563.0,3447
1140,1140,86.20700000000002,1140
2491,2491,1744.0,2491
567,567,2650.0,567
1034,1034,86.26899999999998,1034
1005,1005,1671.0,1005
1973,1973,2171.0,1973
1105,1105,1431.0,1105
1635,1635,115.0,1635
538,538,84.80799999999998,538
591,591,1728.0,591
1832,1832,82.542,1832
1887,1887,487.0,1887
1969,1969,2606.0,1969
1030,1030,72.459,1030
3142,3142,86.139,3142
1902,1902,73.15100000000002,1902
1983,1983,1134.0,1983
1303,1303,2874.0,1303
3304,3304,82.585,3304
561,561,403.0,561
2141,2141,2514.0,2141
1806,1806,102.659,1806
2367,2367,325.0,2367
3505,3505,671.0,3505
1225,1225,2525.0,1225
2577,2577,696.0,2577
1679,1679,1175.0,1679
1023,1023,2479.0,1023
1638,1638,82.734,1638
1587,1587,1718.0,1587
3256,3256,72.85,3256
2035,2035,1741.0,2035
1242,1242,76.128,1242
3500,3500,86.536,3500
2023,2023,2200.0,2023
1476,1476,93.125,1476
1539,1539,2697.0,1539
2403,2403,2985.0,2403
556,556,80.688,556
3123,3123,1327.0,3123
2754,2754,84.17299999999999,2754
2879,2879,3143.0,2879
2847,2847,1850.0,2847
1950,1950,83.889,1950
2307,2307,3163.0,2307
739,739,2796.0,739
1515,1515,3096.0,1515
3431,3431,144.0,3431
3506,3506,78.455,3506
2125,2125,3087.0,2125
2481,2481,122.0,2481
505,505,1817.0,505
2826,2826,75.955,2826
3536,3536,84.525,3536
3020,3020,74.983,3020
2070,2070,80.208,2070
3583,3583,470.0,3583
539,539,1028.0,539
2768,2768,73.752,2768
602,602,81.2,602
1092,1092,73.805,1092
1264,1264,74.07600000000002,1264
2229,2229,1906.0,2229
1917,1917,2764.0,1917
1110,1110,83.913,1110
2720,2720,80.527,2720
3328,3328,72.774,3328
3442,3442,76.796,3442
2525,2525,2749.0,2525
1834,1834,73.015,1834
3502,3502,76.304,3502
980,980,76.52199999999998,980
2886,2886,86.865,2886
2703,2703,3008.0,2703
1934,1934,74.547,1934
2369,2369,1063.0,2369
1687,1687,2261.0,1687
3418,3418,72.214,3418
967,967,1897.0,967
2456,2456,78.691,2456
1554,1554,75.727,1554
972,972,80.062,972
2719,2719,2159.0,2719
2042,2042,73.768,2042
1038,1038,73.73100000000002,1038
804,804,73.294,804
1056,1056,83.33200000000002,1056
2022,2022,82.042,2022
3061,3061,2345.0,3061
1402,1402,75.482,1402
1422,1422,75.327,1422
2450,2450,78.414,2450
2856,2856,73.285,2856
1618,1618,74.5,1618
1156,1156,72.96600000000002,1156
841,841,776.0,841
2402,2402,78.65100000000002,2402
2271,2271,400.0,2271
2503,2503,398.0,2503
2475,2475,2844.0,2475
1940,1940,87.369,1940
1797,1797,1123.0,1797
2664,2664,72.333,2664
2280,2280,90.984,2280
3255,3255,603.0,3255
631,631,398.0,631
3478,3478,80.098,3478
2549,2549,1611.0,2549
2955,2955,126.0,2955
1370,1370,78.16,1370
3183,3183,771.0,3183
1417,1417,2188.0,1417
840,840,76.187,840
2323,2323,583.0,2323
3435,3435,2049.0,3435
1033,1033,2463.0,1033
2954,2954,74.542,2954
658,658,73.744,658
908,908,73.952,908
1813,1813,2078.0,1813
961,961,1343.0,961
676,676,73.207,676
507,507,2713.0,507
1569,1569,2215.0,1569
3203,3203,1164.0,3203
3204,3204,75.404,3204
3154,3154,80.572,3154
1235,1235,1543.0,1235
1465,1465,665.0,1465
1109,1109,1079.0,1109
1702,1702,75.833,1702
1217,1217,227.0,1217
1104,1104,78.892,1104
1238,1238,75.992,1238
1106,1106,94.82,1106
2597,2597,2112.0,2597
2747,2747,533.0,2747
3223,3223,1781.0,3223
1345,1345,273.0,1345
2858,2858,73.028,2858
1844,1844,88.947,1844
2557,2557,2839.0,2557
1344,1344,72.689,1344
1447,1447,1066.0,1447
1764,1764,72.279,1764
927,927,3118.0,927
1127,1127,318.0,1127
1540,1540,104.781,1540
3264,3264,84.037,3264
3231,3231,1539.0,3231
3510,3510,76.074,3510
615,615,2735.0,615
3465,3465,1123.0,3465
508,508,72.585,508
3486,3486,74.936,3486
2173,2173,2036.0,2173
3430,3430,81.596,3430
1160,1160,72.43,1160
1865,1865,1617.0,1865
3067,3067,230.0,3067
551,551,2070.0,551
1128,1128,83.751,1128
1397,1397,341.0,1397
1312,1312,76.582,1312
548,548,72.524,548
860,860,153.246,860
1085,1085,602.0,1085
685,685,2218.0,685
1459,1459,1679.0,1459
2293,2293,2719.0,2293
686,686,88.458,686
1009,1009,1428.0,1009
1091,1091,2119.0,1091
1683,1683,1192.0,1683
1283,1283,604.0,1283
1651,1651,1225.0,1651
3103,3103,2581.0,3103
657,657,1799.0,657
2455,2455,2807.0,2455
2225,2225,1196.0,2225
512,512,71.85,512
3563,3563,1969.0,3563
745,745,387.0,745
2969,2969,2584.0,2969
797,797,2819.0,797
767,767,1614.0,767
653,653,2537.0,653
1058,1058,72.598,1058
2136,2136,83.428,2136
3556,3556,72.113,3556
857,857,1001.0,857
998,998,115.855,998
759,759,2564.0,759
839,839,2245.0,839
1548,1548,75.178,1548
609,609,2049.0,609
2613,2613,2193.0,2613
2942,2942,75.23899999999998,2942
762,762,75.35,762
3228,3228,80.38,3228
1071,1071,2691.0,1071
2299,2299,1497.0,2299
1802,1802,82.45299999999997,1802
2431,2431,2431.0,2431
788,788,100.377,788
3047,3047,2379.0,3047
3450,3450,73.482,3450
3220,3220,71.77199999999998,3220
2596,2596,72.87100000000002,2596
2083,2083,1138.0,2083
2787,2787,284.0,2787
3308,3308,71.99,3308
2601,2601,2520.0,2601
1404,1404,77.788,1404
2482,2482,82.89,2482
667,667,2749.0,667
2465,2465,321.0,2465
1012,1012,76.26899999999998,1012
1949,1949,2583.0,1949
2207,2207,2206.0,2207
2502,2502,82.666,2502
3248,3248,79.665,3248
2966,2966,73.733,2966
1081,1081,1228.0,1081
1292,1292,71.982,1292
3229,3229,1570.0,3229
1475,1475,1757.0,1475
957,957,3083.0,957
1700,1700,78.186,1700
1541,1541,302.0,1541
3545,3545,502.0,3545
1794,1794,77.969,1794
3316,3316,73.258,3316
2190,2190,72.115,2190
2674,2674,78.642,2674
2645,2645,602.0,2645
1401,1401,762.0,1401
1975,1975,1166.0,1975
2337,2337,986.0,2337
921,921,256.0,921
1145,1145,1546.0,1145
996,996,76.34,996
2700,2700,71.832,2700
807,807,2750.0,807
1112,1112,83.34299999999998,1112
3194,3194,73.405,3194
687,687,2354.0,687
2649,2649,3131.0,2649
806,806,98.078,806
1681,1681,2579.0,1681
2126,2126,82.8,2126
3287,3287,2467.0,3287
1477,1477,1440.0,1477
2183,2183,2644.0,2183
2889,2889,337.0,2889
689,689,2071.0,689
3519,3519,2627.0,3519
1800,1800,74.11,1800
694,694,77.616,694
2748,2748,76.82,2748
2054,2054,79.457,2054
1663,1663,1402.0,1663
3373,3373,1548.0,3373
3104,3104,82.65,3104
1895,1895,3058.0,1895
638,638,72.777,638
2567,2567,2799.0,2567
778,778,75.497,778
2742,2742,96.712,2742
1762,1762,72.10600000000002,1762
1386,1386,86.98100000000002,1386
2216,2216,76.75,2216
2013,2013,781.0,2013
1998,1998,77.918,1998
1445,1445,96.0,1445
2383,2383,383.0,2383
1740,1740,82.59200000000001,1740
2189,2189,2465.0,2189
1468,1468,85.32,1468
2644,2644,72.686,2644
1536,1536,75.75399999999998,1536
2254,2254,84.24799999999998,2254
1694,1694,75.976,1694
2751,2751,1857.0,2751
1774,1774,86.62,1774
1927,1927,1483.0,1927
2340,2340,82.788,2340
2706,2706,72.587,2706
526,526,76.499,526
645,645,2148.0,645
2618,2618,72.97800000000002,2618
2705,2705,2726.0,2705
2866,2866,81.492,2866
1222,1222,76.726,1222
1645,1645,2185.0,1645
2283,2283,3017.0,2283
825,825,2650.0,825
976,976,76.543,976
2538,2538,73.442,2538
1538,1538,85.015,1538
2584,2584,75.092,2584
892,892,72.237,892
1755,1755,2607.0,1755
564,564,71.876,564
3038,3038,72.21600000000002,3038
891,891,1710.0,891
2585,2585,523.0,2585
769,769,387.0,769
2800,2800,83.126,2800
3426,3426,82.414,3426
3100,3100,73.266,3100
2743,2743,2022.0,2743
1706,1706,72.781,1706
1546,1546,74.308,1546
2623,2623,205.0,2623
3056,3056,73.531,3056
2099,2099,906.0,2099
2406,2406,76.908,2406
1343,1343,825.0,1343
2143,2143,2682.0,2143
1944,1944,73.49600000000002,1944
3393,3393,202.0,3393
3046,3046,101.749,3046
1847,1847,1834.0,1847
1107,1107,548.0,1107
2790,2790,76.96600000000002,2790
2701,2701,782.0,2701
2050,2050,79.94800000000002,2050
1233,1233,2226.0,1233
709,709,2464.0,709
1208,1208,74.079,1208
1855,1855,2980.0,1855
1154,1154,72.154,1154
586,586,76.704,586
2049,2049,96.0,2049
2600,2600,75.097,2600
1502,1502,88.52,1502
893,893,2561.0,893
1277,1277,393.0,1277
3459,3459,2524.0,3459
937,937,2295.0,937
1374,1374,77.408,1374
1276,1276,88.17299999999999,1276
2268,2268,74.432,2268
2897,2897,2096.0,2897
2407,2407,1024.0,2407
1069,1069,1067.0,1069
2495,2495,1458.0,2495
2777,2777,2991.0,2777
973,973,506.0,973
1605,1605,1657.0,1605
550,550,82.37899999999998,550
1458,1458,76.04899999999998,1458
1163,1163,1077.0,1163
2354,2354,72.492,2354
1193,1193,459.0,1193
3540,3540,84.851,3540
1625,1625,1669.0,1625
1346,1346,72.595,1346
549,549,1555.0,549
1496,1496,97.655,1496
2646,2646,114.196,2646
682,682,83.50299999999999,682
1997,1997,471.0,1997
2149,2149,1448.0,2149
1494,1494,73.258,1494
2256,2256,72.696,2256
3151,3151,1272.0,3151
916,916,78.611,916
2490,2490,89.205,2490
2697,2697,1845.0,2697
879,879,1502.0,879
1914,1914,78.082,1914
1129,1129,1854.0,1129
1248,1248,73.735,1248
2115,2115,2954.0,2115
795,795,701.0,795
1439,1439,3121.0,1439
2153,2153,2304.0,2153
2627,2627,2347.0,2627
2053,2053,1166.0,2053
2716,2716,75.145,2716
554,554,72.96600000000002,554
1708,1708,75.869,1708
2869,2869,2487.0,2869
2286,2286,73.639,2286
1032,1032,72.472,1032
3190,3190,75.923,3190
1857,1857,1330.0,1857
1002,1002,94.258,1002
930,930,76.23,930
2692,2692,84.06299999999997,2692
723,723,2018.0,723
2133,2133,2793.0,2133
644,644,76.28699999999998,644
1028,1028,78.369,1028
2844,2844,81.285,2844
1166,1166,85.296,1166
2498,2498,83.463,2498
2607,2607,225.0,2607
3554,3554,72.25399999999998,3554
3159,3159,849.0,3159
774,774,82.131,774
1483,1483,763.0,1483
1325,1325,515.0,1325
827,827,2255.0,827
2741,2741,2086.0,2741
1320,1320,81.132,1320
2880,2880,85.43799999999997,2880
3520,3520,82.81200000000003,3520
1778,1778,95.847,1778
2639,2639,1662.0,2639
1273,1273,210.0,1273
2147,2147,1595.0,2147
1567,1567,3039.0,1567
1701,1701,825.0,1701
1192,1192,76.307,1192
2727,2727,2111.0,2727
2999,2999,3097.0,2999
1347,1347,1608.0,1347
1393,1393,546.0,1393
2467,2467,1082.0,2467
2396,2396,73.16199999999998,2396
3212,3212,72.792,3212
3368,3368,75.906,3368
2563,2563,572.0,2563
2316,2316,81.656,2316
3162,3162,72.538,3162
2591,2591,1111.0,2591
2063,2063,1826.0,2063
2799,2799,2790.0,2799
3441,3441,1319.0,3441
3453,3453,1413.0,3453
1195,1195,1949.0,1195
1201,1201,2309.0,1201
2821,2821,2205.0,2821
3582,3582,80.056,3582
2632,2632,79.02199999999998,2632
3525,3525,2979.0,3525
733,733,464.0,733
1787,1787,1289.0,1787
1356,1356,73.096,1356
2616,2616,94.676,2616
2320,2320,72.322,2320
1823,1823,788.0,1823
3023,3023,2727.0,3023
3155,3155,2441.0,3155
2837,2837,3047.0,2837
1784,1784,86.398,1784
3074,3074,75.767,3074
1773,1773,1430.0,1773
1739,1739,1207.0,1739
1884,1884,84.939,1884
1361,1361,430.0,1361
553,553,369.0,553
3415,3415,2166.0,3415
1792,1792,72.908,1792
3420,3420,72.092,3420
3113,3113,1296.0,3113
2817,2817,3125.0,2817
1497,1497,3058.0,1497
3564,3564,75.712,3564
2034,2034,73.203,2034
1753,1753,253.0,1753
1121,1121,783.0,1121
3568,3568,72.919,3568
2779,2779,352.0,2779
951,951,795.0,951
753,753,795.0,753
629,629,2426.0,629
652,652,73.067,652
3012,3012,77.375,3012
1785,1785,1450.0,1785
1845,1845,338.0,1845
1826,1826,78.913,1826
1205,1205,1066.0,1205
1598,1598,78.366,1598
1958,1958,75.515,1958
2269,2269,3166.0,2269
1365,1365,852.0,1365
2857,2857,2221.0,2857
1530,1530,71.968,1530
1507,1507,1317.0,1507
2239,2239,550.0,2239
2090,2090,72.476,2090
3277,3277,3127.0,3277
2234,2234,74.35600000000002,2234
1426,1426,75.666,1426
3448,3448,71.991,3448
3273,3273,1067.0,3273
2352,2352,89.51899999999998,2352
3115,3115,303.0,3115
2417,2417,2935.0,2417
1662,1662,75.946,1662
605,605,1522.0,605
907,907,2603.0,907
1856,1856,74.206,1856
574,574,72.47,574
2636,2636,72.683,2636
800,800,75.084,800
2386,2386,74.346,2386
1215,1215,1342.0,1215
3105,3105,696.0,3105
1153,1153,2193.0,1153
672,672,82.20200000000001,672
2573,2573,1168.0,2573
713,713,1208.0,713
2130,2130,75.29899999999998,2130
1388,1388,75.846,1388
3029,3029,1389.0,3029
2255,2255,971.0,2255
3481,3481,1394.0,3481
3262,3262,71.908,3262
3455,3455,241.0,3455
2372,2372,79.21300000000002,2372
3404,3404,73.774,3404
968,968,79.76,968
2650,2650,75.355,2650
3428,3428,74.065,3428
1135,1135,1683.0,1135
2682,2682,77.494,2682
2947,2947,1924.0,2947
2198,2198,78.628,2198
1017,1017,3140.0,1017
1543,1543,2616.0,1543
2977,2977,1820.0,2977
3471,3471,2532.0,3471
3026,3026,87.31299999999997,3026
1234,1234,77.46,1234
1060,1060,75.813,1060
2087,2087,2382.0,2087
3321,3321,2001.0,3321
3454,3454,73.125,3454
2222,2222,75.057,2222
597,597,940.0,597
555,555,2772.0,555
543,543,2756.0,543
3318,3318,74.969,3318
2381,2381,3009.0,2381
2158,2158,77.184,2158
2072,2072,72.60600000000002,2072
2566,2566,81.083,2566
3323,3323,1379.0,3323
1703,1703,1376.0,1703
1200,1200,79.764,1200
2048,2048,80.205,2048
1981,1981,2824.0,1981
780,780,76.173,780
1534,1534,76.742,1534
2333,2333,1333.0,2333
3587,3587,1873.0,3587
3593,3593,2691.0,3593
1978,1978,75.70100000000002,1978
2457,2457,2551.0,2457
2978,2978,270.558,2978
1562,1562,77.738,1562
1008,1008,78.408,1008
661,661,1801.0,661
2594,2594,85.24700000000001,2594
1526,1526,77.001,1526
932,932,75.34899999999998,932
1310,1310,73.473,1310
1888,1888,75.50399999999998,1888
3281,3281,1574.0,3281
2311,2311,1255.0,2311
1111,1111,343.0,1111
2219,2219,2042.0,2219
3372,3372,73.964,3372
1117,1117,2925.0,1117
601,601,521.0,601
3468,3468,117.184,3468
2531,2531,2484.0,2531
711,711,301.0,711
1715,1715,325.0,1715
2399,2399,2572.0,2399
3574,3574,81.736,3574
3097,3097,1371.0,3097
1433,1433,362.0,1433
1959,1959,478.0,1959
1463,1463,311.0,1463
1443,1443,1006.0,1443
3090,3090,86.705,3090
3517,3517,496.0,3517
1177,1177,2994.0,1177
1207,1207,1671.0,1207
2420,2420,201.27,2420
2376,2376,80.327,2376
1634,1634,75.14399999999998,1634
2854,2854,74.665,2854
1849,1849,838.0,1849
3213,3213,2588.0,3213
1061,1061,667.0,1061
2526,2526,245.888,2526
1363,1363,2730.0,1363
2628,2628,89.931,2628
3314,3314,73.543,3314
516,516,74.102,516
2725,2725,2594.0,2725
3102,3102,80.634,3102
2932,2932,72.108,2932
1326,1326,78.01100000000002,1326
2368,2368,86.001,2368
2031,2031,2445.0,2031
971,971,2108.0,971
1115,1115,753.0,1115
2224,2224,74.043,2224
2294,2294,72.373,2294
1767,1767,1991.0,1767
2972,2972,260.653,2972
2088,2088,91.924,2088
674,674,74.414,674
1084,1084,77.11,1084
1435,1435,2735.0,1435
1444,1444,75.661,1444
1926,1926,76.264,1926
1227,1227,2357.0,1227
959,959,1318.0,959
1314,1314,74.796,1314
1656,1656,77.15899999999998,1656
3010,3010,78.093,3010
3013,3013,148.0,3013
3322,3322,80.11399999999998,3322
2282,2282,86.61,2282
1748,1748,73.48,1748
1710,1710,82.60600000000002,1710
523,523,3152.0,523
1065,1065,1983.0,1065
1963,1963,2334.0,1963
2002,2002,72.22,2002
1357,1357,2529.0,1357
2089,2089,470.0,2089
1942,1942,77.218,1942
2032,2032,73.748,2032
1555,1555,2714.0,1555
3333,3333,456.0,3333
1860,1860,77.855,1860
3156,3156,75.578,3156
2536,2536,71.94,2536
3069,3069,1602.0,3069
2193,2193,2151.0,2193
693,693,2329.0,693
1727,1727,784.0,1727
3202,3202,72.82,3202
3240,3240,73.843,3240
2881,2881,2679.0,2881
2215,2215,1536.0,2215
3469,3469,966.0,3469
1522,1522,77.429,1522
2152,2152,81.96,2152
2401,2401,1162.0,2401
2252,2252,74.781,2252
1173,1173,1744.0,1173
2589,2589,537.0,2589
1882,1882,72.041,1882
3381,3381,1906.0,3381
2885,2885,1226.0,2885
2220,2220,75.225,2220
947,947,1818.0,947
1340,1340,72.625,1340
1904,1904,73.585,1904
3596,3596,76.62899999999998,3596
2553,2553,1059.0,2553
584,584,86.36399999999998,584
1075,1075,1098.0,1075
2082,2082,74.303,2082
1100,1100,87.60799999999998,1100
2675,2675,2846.0,2675
1527,1527,396.0,1527
1221,1221,304.0,1221
1211,1211,152.0,1211
2654,2654,84.131,2654
2981,2981,1833.0,2981
2343,2343,1180.0,2343
678,678,77.65899999999998,678
1072,1072,74.402,1072
1149,1149,2600.0,1149
1257,1257,3150.0,1257
2916,2916,93.696,2916
2029,2029,1194.0,2029
3143,3143,2322.0,3143
1840,1840,73.928,1840
2477,2477,1118.0,2477
814,814,73.017,814
1836,1836,71.666,1836
2433,2433,1071.0,2433
1387,1387,2388.0,1387
2580,2580,76.997,2580
2995,2995,2058.0,2995
1457,1457,2453.0,1457
3235,3235,2050.0,3235
1783,1783,1956.0,1783
2104,2104,72.467,2104
1474,1474,73.692,1474
2253,2253,3126.0,2253
2101,2101,277.0,2101
3292,3292,71.962,3292
2655,2655,312.0,2655
845,845,2064.0,845
3342,3342,86.49,3342
904,904,79.935,904
2071,2071,635.0,2071
1159,1159,436.0,1159
1053,1053,2364.0,1053
3429,3429,2414.0,3429
2218,2218,76.336,2218
1050,1050,80.352,1050
1622,1622,232.277,1622
2713,2713,889.0,2713
2927,2927,1489.0,2927
710,710,71.991,710
1819,1819,857.0,1819
2075,2075,2481.0,2075
1432,1432,81.161,1432
3542,3542,91.3,3542
3079,3079,1446.0,3079
929,929,1576.0,929
2313,2313,1287.0,2313
3297,3297,901.0,3297
3403,3403,2038.0,3403
1827,1827,1443.0,1827
3443,3443,118.0,3443
3008,3008,77.418,3008
2560,2560,79.584,2560
1932,1932,88.15899999999998,1932
3035,3035,1878.0,3035
1068,1068,73.953,1068
2445,2445,1751.0,2445
3529,3529,1160.0,3529
1157,1157,1217.0,1157
2033,2033,3053.0,2033
3250,3250,73.801,3250
2303,2303,2416.0,2303
3088,3088,78.298,3088
2120,2120,75.949,2120
664,664,81.009,664
1431,1431,1989.0,1431
3590,3590,80.018,3590
843,843,3121.0,843
1735,1735,1701.0,1735
1842,1842,84.913,1842
2085,2085,1177.0,2085
2759,2759,800.0,2759
2388,2388,251.308,2388
2405,2405,464.0,2405
1073,1073,1089.0,1073
1284,1284,74.994,1284
2312,2312,72.781,2312
515,515,1451.0,515
1599,1599,2798.0,1599
3041,3041,2323.0,3041
2489,2489,1227.0,2489
832,832,94.475,832
3334,3334,72.278,3334
2839,2839,1200.0,2839
712,712,73.672,712
865,865,3041.0,865
3019,3019,2051.0,3019
3062,3062,76.857,3062
3230,3230,74.375,3230
2925,2925,2882.0,2925
2197,2197,1926.0,2197
1816,1816,76.264,1816
939,939,415.0,939
2349,2349,1275.0,2349
2006,2006,78.613,2006
546,546,75.012,546
3573,3573,968.0,3573
3302,3302,74.417,3302
1654,1654,73.54,1654
1119,1119,769.0,1119
1398,1398,76.31,1398
3388,3388,77.387,3388
3075,3075,1469.0,3075
3570,3570,73.71600000000002,3570
1253,1253,2231.0,1253
636,636,75.81,636
940,940,73.281,940
650,650,75.071,650
2356,2356,74.77199999999998,2356
2415,2415,1481.0,2415
1550,1550,74.12899999999998,1550
3335,3335,136.0,3335
3425,3425,1283.0,3425
3261,3261,2134.0,3261
896,896,77.233,896
2322,2322,81.457,2322
1271,1271,2657.0,1271
1666,1666,73.563,1666
925,925,1666.0,925
3421,3421,3132.0,3421
872,872,77.586,872
969,969,1364.0,969
2996,2996,83.89399999999998,2996
2984,2984,79.543,2984
2798,2798,77.417,2798
3560,3560,76.675,3560
2523,2523,2870.0,2523
2667,2667,1544.0,2667
2744,2744,187.314,2744
1901,1901,2638.0,1901
2965,2965,466.0,2965
846,846,75.577,846
3509,3509,882.0,3509
854,854,78.25399999999998,854
3181,3181,3160.0,3181
2888,2888,80.905,2888
1707,1707,576.0,1707
1074,1074,95.432,1074
3309,3309,2848.0,3309
2982,2982,75.187,2982
3211,3211,441.0,3211
2882,2882,72.997,2882
1759,1759,2713.0,1759
2859,2859,1415.0,2859
2893,2893,1057.0,2893
603,603,1934.0,603
2630,2630,76.74600000000002,2630
1528,1528,79.377,1528
510,510,71.988,510
3094,3094,78.72399999999998,3094
1411,1411,2095.0,1411
1187,1187,1168.0,1187
2922,2922,75.119,2922
2792,2792,74.186,2792
3107,3107,2160.0,3107
2274,2274,72.869,2274
2231,2231,2050.0,2231
635,635,1372.0,635
3354,3354,76.132,3354
1889,1889,2651.0,1889
3030,3030,74.039,3030
2210,2210,74.973,2210
2121,2121,2982.0,2121
1542,1542,75.244,1542
2213,2213,1749.0,2213
2851,2851,328.0,2851
3527,3527,359.0,3527
1486,1486,72.584,1486
1610,1610,73.735,1610
2784,2784,74.194,2784
2988,2988,83.6,2988
541,541,2770.0,541
3076,3076,74.661,3076
2593,2593,2109.0,2593
1608,1608,87.15100000000002,1608
1520,1520,72.734,1520
1261,1261,2704.0,1261
3539,3539,1762.0,3539
1125,1125,1794.0,1125
697,697,2452.0,697
3565,3565,2693.0,3565
1108,1108,81.801,1108
616,616,73.487,616
2305,2305,2423.0,2305
1355,1355,1505.0,1355
3472,3472,72.592,3472
3167,3167,3168.0,3167
990,990,75.57,990
3003,3003,397.0,3003
1989,1989,441.0,1989
2542,2542,72.079,2542
871,871,1118.0,871
3007,3007,1075.0,3007
2485,2485,1833.0,2485
3456,3456,78.868,3456
1799,1799,610.0,1799
1782,1782,82.655,1782
503,503,1859.0,503
2884,2884,239.028,2884
1245,1245,1604.0,1245
3188,3188,74.863,3188
3291,3291,168.0,3291
1719,1719,649.0,1719
2030,2030,77.346,2030
2326,2326,72.366,2326
2841,2841,1860.0,2841
1600,1600,80.54899999999998,1600
2287,2287,2365.0,2287
2086,2086,83.824,2086
3058,3058,73.906,3058
746,746,85.07799999999997,746
2931,2931,923.0,2931
1469,1469,2487.0,1469
2404,2404,76.50399999999998,2404
2668,2668,157.746,2668
2990,2990,72.166,2990
1898,1898,83.851,1898
1682,1682,74.067,1682
530,530,80.959,530
1757,1757,1268.0,1757
779,779,475.0,779
3237,3237,2626.0,3237
2541,2541,1741.0,2541
1164,1164,77.414,1164
1818,1818,76.433,1818
1223,1223,336.0,1223
3363,3363,1101.0,3363
