,Client,Threshold,Mean,Mean+1SD,Mean+2SD,Mean+3SD,EE,ORCE,IF,LOF,KMeans
0,out_000.csv,391.5309664999625,31.0752,65.3413,92.9933,101.5396,101.0595,80.4214,101.0712,102.6746,41.32396157775084
1,out_001.csv,370.45238225003754,30.2048,78.7917,96.6549,97.3281,95.3277,75.9111,95.3277,98.2464,98.48049312706132
2,out_002.csv,324.85464333332493,22.9385,49.9638,71.0721,81.9087,79.8511,62.1427,79.871,83.3319,34.246305636925044
3,out_003.csv,349.98461724998754,23.3968,54.8396,77.8594,87.4773,86.3386,67.3652,86.3599,88.9209,35.00792925197906
4,out_004.csv,361.96697041663754,26.5125,58.6676,82.3927,92.4096,91.2024,71.6966,91.2571,93.6175,37.983535482089536
5,out_005.csv,366.11521187506247,28.2018,61.5747,84.4086,94.0025,93.1556,73.6159,93.1892,95.2958,38.03245528117791
6,out_006.csv,388.98549812489995,28.0629,61.8262,87.8504,98.4008,97.9261,76.6675,97.9261,99.3731,37.29181807966967
7,out_007.csv,375.54051845827496,29.9289,63.0287,88.9547,97.3988,96.3461,76.7681,96.3463,99.0126,41.02393372903274
8,out_008.csv,372.065915833325,28.1307,62.3612,86.5318,95.8285,95.0932,75.0574,95.0943,96.6271,38.00582633498845
9,out_009.csv,368.9851813749375,26.9346,61.1672,83.9103,93.7959,93.2311,73.3367,93.2422,94.9414,36.38264158461674
10,out_010.csv,333.0378822499,22.3575,53.9828,74.4694,81.8365,78.9529,61.4773,79.0768,82.592,32.85359365948409
11,out_011.csv,341.3121074218625,23.9972,52.166,73.6368,83.4994,81.8733,63.5858,81.9059,85.1814,34.51279471855143
12,out_012.csv,368.74085879175004,26.2812,59.6727,83.0494,92.2433,91.5784,71.9428,91.5896,93.7973,34.63904062916856
13,out_013.csv,370.01444799991253,26.7694,56.919,83.4503,93.5129,92.0056,71.6488,92.0506,94.2608,37.08930633422582
14,out_014.csv,354.37326083333755,24.3117,55.6329,79.3858,87.7894,85.7971,66.7842,85.8408,88.6705,34.9390307683531
15,out_015.csv,314.52840395835005,21.8939,48.6423,67.8633,79.2701,76.9803,59.8244,76.9996,81.064,33.714477827106585
16,out_016.csv,332.66605089591246,22.2892,48.9001,70.394,80.8839,78.9472,60.7573,78.9575,82.149,32.25314398542987
17,out_017.csv,351.50958683342503,21.9642,53.7265,76.5152,86.0292,84.7799,65.8268,84.8556,87.5131,34.01787869552401
18,out_018.csv,377.8076593748875,24.2277,58.1245,82.4658,92.5,92.2331,71.593,92.2676,93.5815,34.4483720174895
19,out_019.csv,370.25736979165004,26.5432,60.512,83.9061,93.6419,93.2688,73.3124,93.2688,94.8272,36.954711842544015
20,out_020.csv,332.31742937505,22.5595,49.4722,71.4495,81.2454,79.4585,61.2762,79.4585,82.4656,33.29832382858232
21,out_021.csv,318.974888791775,20.6023,47.6319,68.0023,78.9939,76.719,59.592,76.7295,81.0312,31.877298385069786
22,out_022.csv,381.81384441675004,25.0497,59.1904,85.2895,94.5501,94.329,73.7961,94.329,95.6122,36.15357338187844
23,out_023.csv,349.14159220839997,23.4998,53.346,74.875,85.7246,84.9264,65.5548,84.9264,86.5216,33.655714523013906
24,out_024.csv,327.60935033328747,24.5292,51.43,71.2948,82.7724,80.1858,62.6908,80.2059,84.8544,34.5400517602821
25,out_025.csv,295.4423901250875,23.5944,47.8783,65.8788,76.6787,73.1037,58.1596,73.1038,78.7736,34.287375925219294
26,out_026.csv,383.35268216673745,30.3535,64.084,90.7181,99.5961,98.8939,78.5033,98.8939,100.5881,39.996728504079776
27,out_027.csv,369.7749977917,29.606,70.6112,93.2319,96.4132,94.1061,75.3755,94.1062,97.7931,41.642603251146596
28,out_028.csv,341.00696475001246,23.8591,53.3622,75.3759,85.2609,83.7021,65.4582,83.7229,86.9647,35.18839718482612
29,out_029.csv,345.82670704166253,24.1319,54.1449,75.2181,85.0676,84.3321,65.6326,84.3321,86.3443,34.731444631971094
30,out_030.csv,356.9052724166375,23.9671,55.6929,78.3499,87.9343,87.2673,67.971,87.2675,89.3575,34.21267995887063
31,out_031.csv,349.729983124975,24.8559,56.8654,78.6153,88.0803,86.9053,68.0997,86.9162,89.8069,36.59015328104632
32,out_032.csv,349.7689912500625,25.6105,56.7149,79.3324,89.1112,87.7503,68.934,87.7503,90.13,38.29467562898098
33,out_033.csv,366.3474934582749,25.1999,59.609,84.8285,92.1439,89.9214,70.1256,89.9214,92.1672,35.88285390530293
34,out_034.csv,344.12153641665,23.7567,53.9976,76.6936,86.6477,85.0726,66.2261,85.0831,87.961,35.57848932012443
35,out_035.csv,338.6397330624625,23.6504,51.1583,73.4273,84.7729,82.7813,64.1945,82.7813,86.2551,35.19221618129688
36,out_036.csv,321.484648916575,22.4653,49.3127,69.0374,80.1308,77.8728,60.6286,77.9029,81.9201,34.23549320303741
37,out_037.csv,307.1744644582625,22.0259,48.2145,67.7268,78.5618,74.901,58.7742,74.92,80.7098,34.29567297086178
38,out_038.csv,359.28391575008754,26.7301,59.5088,82.7488,91.3547,90.2707,71.2383,90.2925,93.1589,38.1101414649296
39,out_039.csv,325.0497083332625,23.5358,50.6258,69.8425,80.9341,78.8059,61.2735,78.8063,82.699,33.727113241182856
40,out_040.csv,351.9238257499875,23.364,53.4877,77.0256,86.872,86.0035,66.7842,86.025,88.134,34.64069914255002
41,out_041.csv,326.88191325005005,23.2368,49.2316,70.3866,81.1472,78.8568,61.477,78.9077,83.1979,33.50600965813456
42,out_042.csv,299.89675512497496,23.225,46.4257,65.6417,76.0781,72.7892,57.8187,72.7988,78.9221,33.67191477881607
43,out_043.csv,327.47986479176257,23.0479,51.3154,70.7602,80.9508,79.4244,61.9117,79.4244,82.8303,33.82091422395927
44,out_044.csv,331.16881250003746,22.6135,50.8385,71.6024,81.5479,79.599,61.7615,79.5991,83.2141,33.81960644904559
45,out_045.csv,349.48182041675,24.7705,56.9973,78.2691,87.5192,86.4783,67.6094,86.6388,88.6248,35.779146185648905
46,out_046.csv,342.2842906667125,24.3922,52.8152,75.0055,85.0147,83.4843,64.7534,83.5157,86.4098,35.1166085396468
47,out_047.csv,325.56139329178757,23.5541,50.5412,71.892,81.9891,79.0488,61.4068,79.0689,82.8348,34.35048571542759
48,out_048.csv,316.4655114584125,23.8666,50.4813,70.4363,81.1902,77.7548,61.3811,77.7549,83.3751,35.684172946533394
49,out_049.csv,316.2612606249625,22.0278,48.556,68.2563,78.9309,76.6076,59.6786,76.6272,80.9322,33.154606853642925
50,out_050.csv,327.9438531666875,22.5898,48.854,69.2771,80.3292,78.8959,60.8871,78.8961,82.1776,32.204498040461225
51,out_051.csv,347.301659333275,23.4482,53.8956,76.5443,86.9649,85.3216,66.5188,85.3324,88.4015,35.9465201156366
52,out_052.csv,352.07871687497504,24.2782,54.0526,78.6463,87.6676,85.8324,66.6652,85.9187,88.2686,35.25112097041683
53,out_053.csv,350.031949791725,24.2649,63.8383,86.4995,89.4013,86.4246,67.1932,86.446,88.9111,89.97402185536531
54,out_054.csv,357.73484662492496,24.9406,55.2334,78.2753,88.0527,87.3406,67.9099,87.3515,89.5243,34.91422530850523
55,out_055.csv,362.95485649995004,26.1872,55.4191,80.9369,91.3087,90.2651,70.3293,90.2761,92.3394,35.49845719153968
56,out_056.csv,322.1421485833,22.6514,50.549,70.6606,81.3776,79.1746,61.7763,79.1746,83.2089,35.20566278239564
57,out_057.csv,369.0451226251125,26.5734,58.4027,84.3376,94.4576,92.7789,72.8236,92.9244,95.4825,38.82024163675554
58,out_058.csv,319.8324085415875,23.8796,52.9728,72.7676,82.8623,79.7369,63.0313,79.7369,84.5466,36.84782456404776
59,out_059.csv,377.80832104169997,25.6664,57.0255,83.3541,93.4248,92.5939,71.9968,92.5939,94.7193,35.2784262870125
60,out_060.csv,338.32247766672504,22.4076,50.9863,72.6527,83.9738,81.9681,63.5446,81.9681,85.7056,34.865327981571426
61,out_061.csv,349.5651536666875,24.7704,54.5987,77.2656,87.3087,85.814,67.1927,85.814,89.1966,36.19052559381389
62,out_062.csv,368.3483735418,26.5576,59.7641,82.6639,92.2792,91.9521,72.2687,91.9743,93.7019,36.056154829794814
63,out_063.csv,350.5932394583375,25.0528,55.6951,78.456,88.341,86.2066,67.1943,86.2286,88.6067,35.895397760915905
64,out_064.csv,365.86016437502497,25.2752,56.6894,80.8699,91.0782,90.1886,70.1544,90.2777,92.3403,36.905459912446176
65,out_065.csv,343.513372125025,24.8597,53.5937,75.5,86.0975,84.636,66.0917,84.6694,87.7709,35.42730982328378
66,out_066.csv,341.7483952501125,24.7436,54.2176,74.9005,84.5794,83.8388,65.4399,83.8388,86.6057,34.40977419111844
67,out_067.csv,323.7485880833001,24.2574,52.9635,73.0717,82.4411,79.8427,62.7216,79.8527,83.4954,35.69052701758094
68,out_068.csv,339.11767004166256,23.9003,52.389,73.8684,84.2396,82.7948,64.5021,82.8052,86.077,35.74881125225601
69,out_069.csv,355.89065525006254,22.9764,53.6249,76.8456,87.3081,86.1967,66.7443,86.1967,88.964,34.52484991384292
70,out_070.csv,375.1900965208624,25.0675,85.0744,94.0236,94.209,92.6111,72.2332,92.6224,93.8735,94.38263747758694
71,out_071.csv,387.801014208275,27.5879,62.3137,88.986,98.7829,98.5585,77.3485,98.5818,99.5306,37.47424612275124
72,out_072.csv,365.53984879177494,28.6578,61.1263,87.2156,95.3967,93.4693,74.0089,93.4693,96.3316,41.9189500223954
73,out_073.csv,380.4084507499,25.7383,63.4565,89.6222,95.2631,93.8818,73.2983,93.9168,95.2697,36.3667524947222
74,out_074.csv,359.14556308327496,23.5029,61.0239,85.2733,89.9885,88.1316,68.3869,88.1649,89.8567,35.139891265355224
75,out_075.csv,367.8697567084,25.9855,58.2801,82.6876,91.6368,91.0181,71.3488,91.1307,93.1209,34.85013201056859
76,out_076.csv,342.52300170836253,25.1283,54.7267,77.1705,86.7186,84.8134,66.4464,84.8134,88.4203,36.570753673470335
77,out_077.csv,349.77326725006253,25.3479,56.7513,79.6358,89.5164,88.0242,69.036,88.0453,90.7134,38.539456881814
78,out_078.csv,368.95812275001254,28.5562,61.3357,86.1565,95.357,94.8396,75.0255,94.8506,96.1289,39.407948113744
79,out_079.csv,351.04796400005,25.9465,56.9008,79.3118,89.1769,88.0664,68.9937,88.0664,90.4411,35.22239424916301
80,out_080.csv,352.90035337511245,22.3619,54.3552,78.1031,87.3446,85.5864,66.0861,85.619,88.6085,34.98903869854234
81,out_081.csv,374.86639295838745,26.8456,60.9737,84.8781,94.5795,94.3627,74.1017,94.374,95.7328,36.99081873041862
82,out_082.csv,349.62081174992505,24.6247,54.9486,78.4502,88.8008,86.5568,67.6832,86.5568,89.968,36.476855715626165
83,out_083.csv,337.4513993750125,24.4624,54.2473,75.4695,85.1606,83.6598,65.6078,83.7526,87.0681,36.78345554403128
84,out_084.csv,342.319705083225,23.9764,53.9944,74.8959,85.0479,83.6948,65.3933,83.6948,86.7264,35.154479112534645
85,out_085.csv,347.43525750003744,24.0834,55.6655,76.8362,85.6306,84.7296,66.2537,84.7508,87.57,35.1840088381897
86,out_086.csv,369.0700441250875,26.5253,61.1788,84.3345,93.4736,93.1012,73.434,93.1012,94.7527,34.85311474018391
87,out_087.csv,365.80449766673746,26.9268,59.9795,84.0532,92.9031,92.2065,72.7482,92.2838,94.5067,37.01258192990531
88,out_088.csv,335.7685352916125,24.708,54.1394,73.8381,84.9058,83.4878,65.0961,83.4878,86.585,35.09392299434751
89,out_089.csv,345.0503074166375,24.3493,52.6433,75.5231,86.0091,84.338,65.3741,84.338,87.1394,34.940720315846114
90,out_090.csv,336.792583208325,22.3766,52.0256,73.6222,83.7185,82.0265,63.9035,82.0678,85.5884,34.067167104966835
91,out_091.csv,355.1591913751,23.2026,53.4411,77.2323,86.677,85.8908,66.47,85.9126,87.7159,34.504784145825035
92,out_092.csv,325.9498703332501,21.9278,49.0819,69.0211,80.5453,78.5201,60.6997,78.5301,82.4063,33.04097202651685
93,out_093.csv,336.8186107082125,22.4453,51.1192,71.719,82.462,81.4541,62.7198,81.4543,84.0104,33.09858019427816
94,out_094.csv,340.8335692082375,23.2011,51.6216,73.1993,83.8009,82.146,63.6622,82.1775,85.2877,33.23734452526961
95,out_095.csv,347.203429708275,21.9747,50.8355,73.3664,84.462,83.2832,63.8384,83.2832,85.8849,32.801492294888696
96,out_096.csv,368.67129854175005,27.9839,60.994,84.8951,94.2896,93.403,73.6613,93.403,95.5653,37.779205211471734
97,out_097.csv,388.777738749975,29.1413,63.777,90.0988,98.7176,98.1168,77.3465,98.1168,100.5334,39.16355383278362
98,out_098.csv,365.899410250075,26.1739,57.7495,83.1461,92.7055,91.5013,71.5968,91.5013,93.5916,36.84223191836276
99,out_099.csv,361.3584060833625,25.6025,66.1544,89.4335,92.278,89.6406,70.2089,89.6407,92.2057,92.66904974716033
