,time,rtt,id
1511,1511,0.0,1511
1335,1335,189.0,1335
1490,1490,24.902,1490
727,727,2402.0,727
1461,1461,1627.0,1461
2342,2342,31.351,2342
4054,4054,24.207,4054
2176,2176,26.241,2176
2617,2617,2853.0,2617
1574,1574,33.295,1574
1886,1886,26.807,1886
855,855,163.0,855
3655,3655,1506.0,3655
2058,2058,173.21099999999996,2058
2683,2683,493.0,2683
1022,1022,26.983,1022
4086,4086,29.521,4086
4241,4241,1210.0,4241
1351,1351,2002.0,1351
2731,2731,2627.0,2731
2548,2548,28.247,2548
4031,4031,1814.0,4031
1342,1342,27.539,1342
756,756,32.893,756
4443,4443,2041.0,4443
547,547,1839.0,547
1535,1535,1421.0,1535
1485,1485,2680.0,1485
2532,2532,29.188,2532
3560,3560,30.37,3560
3747,3747,1647.0,3747
4027,4027,979.0,4027
513,513,2336.0,513
2144,2144,24.905,2144
3514,3514,128.15200000000002,3514
4029,4029,1191.0,4029
2466,2466,28.577,2466
4350,4350,25.84,4350
1424,1424,31.022,1424
2756,2756,26.516,2756
763,763,1913.0,763
905,905,2099.0,905
1141,1141,1315.0,1141
4213,4213,0.0,4213
695,695,1324.0,695
4181,4181,932.0,4181
3762,3762,29.841,3762
2929,2929,2771.0,2929
3502,3502,24.498,3502
1275,1275,191.0,1275
1900,1900,26.191,1900
4108,4108,23.983,4108
2374,2374,24.097,2374
3683,3683,1969.0,3683
2808,2808,28.158,2808
1206,1206,28.977,1206
2586,2586,35.904,2586
978,978,27.527,978
4332,4332,24.591,4332
1581,1581,2832.0,1581
4234,4234,26.513,4234
2895,2895,2371.0,2895
798,798,24.142,798
2037,2037,2935.0,2037
1191,1191,1593.0,1191
1174,1174,29.138,1174
4380,4380,24.109,4380
812,812,27.903,812
4186,4186,24.709,4186
3918,3918,26.391,3918
3431,3431,1521.0,3431
3874,3874,25.959,3874
4338,4338,24.116,4338
2494,2494,31.615,2494
3700,3700,28.101,3700
2864,2864,26.697,2864
1984,1984,29.005,1984
3226,3226,29.303,3226
1676,1676,29.382,1676
928,928,27.491,928
3550,3550,28.417,3550
1043,1043,2311.0,1043
2330,2330,25.452,2330
3428,3428,31.204,3428
1482,1482,23.665,1482
2611,2611,170.0,2611
2788,2788,38.808,2788
2933,2933,1852.0,2933
3408,3408,24.548,3408
2192,2192,32.205,2192
818,818,25.703000000000007,818
3596,3596,24.28,3596
4151,4151,1523.0,4151
4339,4339,2293.0,4339
3603,3603,2512.0,3603
2714,2714,34.92,2714
3977,3977,958.0,3977
3974,3974,30.373,3974
3696,3696,34.408,3696
4120,4120,24.062,4120
1905,1905,1249.0,1905
623,623,2224.0,623
2739,2739,516.0,2739
1368,1368,30.649,1368
773,773,1783.0,773
1920,1920,27.828000000000007,1920
2750,2750,29.011,2750
2651,2651,2320.0,2651
3300,3300,25.588,3300
720,720,29.58,720
1323,1323,1896.0,1323
1642,1642,25.301,1642
3834,3834,28.627,3834
3999,3999,671.0,3999
2486,2486,26.263,2486
4411,4411,2315.0,4411
2624,2624,28.764,2624
2796,2796,28.622,2796
2953,2953,467.0,2953
1220,1220,27.124,1220
3571,3571,0.0,3571
2728,2728,25.526,2728
1026,1026,26.485,1026
2912,2912,86.509,2912
4300,4300,27.124,4300
1364,1364,29.803,1364
2377,2377,1037.0,2377
858,858,31.691,858
2825,2825,2550.0,2825
1076,1076,26.566,1076
4364,4364,30.018,4364
2629,2629,941.0,2629
2908,2908,34.068000000000005,2908
3164,3164,210.466,3164
3022,3022,46.209,3022
740,740,26.98,740
4297,4297,918.0,4297
3166,3166,28.236,3166
4214,4214,25.396,4214
688,688,34.296,688
3083,3083,271.0,3083
4177,4177,2788.0,4177
1626,1626,28.039,1626
3337,3337,0.0,3337
560,560,24.509,560
1636,1636,25.439,1636
1256,1256,32.729,1256
1547,1547,1133.0,1547
3033,3033,1989.0,3033
1584,1584,26.645,1584
4110,4110,27.039,4110
2483,2483,2999.0,2483
2764,2764,26.001,2764
3891,3891,1237.0,3891
895,895,598.0,895
1808,1808,28.622,1808
955,955,611.0,955
2375,2375,241.0,2375
724,724,24.31,724
1239,1239,1498.0,1239
2142,2142,27.818,2142
1987,1987,428.0,1987
1289,1289,80.0,1289
1377,1377,457.0,1377
3045,3045,0.0,3045
704,704,25.143,704
1749,1749,1805.0,1749
4011,4011,718.0,4011
3556,3556,24.606,3556
1549,1549,2819.0,1549
1980,1980,23.605,1980
1896,1896,30.598000000000006,1896
3923,3923,1181.0,3923
598,598,27.312,598
2711,2711,1817.0,2711
2686,2686,30.287,2686
3091,3091,0.0,3091
2393,2393,2864.0,2393
1655,1655,1456.0,1655
2891,2891,1535.0,2891
1570,1570,26.084,1570
3519,3519,2162.0,3519
3559,3559,2798.0,3559
859,859,476.0,859
1308,1308,27.837,1308
3426,3426,24.01,3426
4174,4174,26.006,4174
1018,1018,26.526,1018
566,566,26.203000000000007,566
2669,2669,2256.0,2669
2008,2008,34.008,2008
2801,2801,823.0,2801
3241,3241,297.0,3241
2547,2547,2155.0,2547
3293,3293,0.0,3293
651,651,1265.0,651
2353,2353,499.0,2353
578,578,24.426,578
577,577,2506.0,577
2515,2515,2931.0,2515
2663,2663,602.0,2663
2818,2818,35.556,2818
820,820,29.077,820
2774,2774,27.828000000000007,2774
3847,3847,2969.0,3847
948,948,25.127,948
2175,2175,2160.0,2175
4385,4385,876.0,4385
1650,1650,34.173,1650
2970,2970,26.211,2970
1029,1029,749.0,1029
1041,1041,1903.0,1041
868,868,25.935,868
4259,4259,1395.0,4259
1586,1586,24.989,1586
1877,1877,884.0,1877
3233,3233,2119.0,3233
2117,2117,0.0,2117
2849,2849,2125.0,2849
690,690,30.557,690
2775,2775,146.0,2775
2106,2106,151.594,2106
2111,2111,0.0,2111
4137,4137,2016.0,4137
2124,2124,26.031,2124
4064,4064,30.795,4064
1677,1677,1112.0,1677
642,642,26.986,642
4375,4375,2674.0,4375
906,906,26.295,906
3676,3676,25.45,3676
3684,3684,25.825,3684
2635,2635,568.0,2635
3668,3668,25.218000000000004,3668
1274,1274,23.971,1274
3731,3731,1422.0,3731
4132,4132,26.259,4132
3796,3796,27.992,3796
2073,2073,205.0,2073
1922,1922,28.888,1922
783,783,2833.0,783
1996,1996,31.692,1996
3983,3983,0.0,3983
4145,4145,1210.0,4145
2324,2324,27.582,2324
2478,2478,34.836,2478
4139,4139,2895.0,4139
1063,1063,61.0,1063
4127,4127,2991.0,4127
933,933,1618.0,933
2412,2412,25.629,2412
3037,3037,1599.0,3037
2272,2272,25.84,2272
3483,3483,0.0,3483
3475,3475,2513.0,3475
3169,3169,1398.0,3169
4246,4246,27.716,4246
877,877,888.0,877
2169,2169,1154.0,2169
2151,2151,1459.0,2151
3439,3439,507.0,3439
3761,3761,0.0,3761
4093,4093,86.0,4093
2148,2148,23.77,2148
885,885,2735.0,885
748,748,24.008000000000006,748
2561,2561,393.0,2561
2021,2021,2686.0,2021
4333,4333,2568.0,4333
2351,2351,803.0,2351
2819,2819,1239.0,2819
3372,3372,27.569000000000006,3372
2362,2362,27.205,2362
4052,4052,24.815,4052
1751,1751,500.0,1751
2092,2092,34.352,2092
3591,3591,2754.0,3591
1171,1171,2874.0,1171
589,589,2046.0,589
2579,2579,935.0,2579
2424,2424,23.671,2424
1553,1553,2440.0,1553
3694,3694,24.93,3694
2634,2634,26.508000000000006,2634
718,718,35.641,718
2582,2582,25.726,2582
2874,2874,27.893,2874
1376,1376,28.15,1376
1306,1306,26.868,1306
3703,3703,387.0,3703
1930,1930,28.148000000000003,1930
1255,1255,1142.0,1255
2745,2745,658.0,2745
4279,4279,644.0,4279
1644,1644,34.261,1644
3278,3278,28.017,3278
1067,1067,469.0,1067
1260,1260,27.758000000000006,1260
3392,3392,143.553,3392
3217,3217,1352.0,3217
2876,2876,28.876,2876
1566,1566,26.067,1566
2926,2926,25.346,2926
1864,1864,33.405,1864
3110,3110,30.549,3110
1594,1594,23.48,1594
1442,1442,27.53,1442
3072,3072,26.855,3072
2414,2414,32.549,2414
1352,1352,24.944000000000006,1352
3629,3629,0.0,3629
2698,2698,24.444000000000006,2698
3816,3816,28.471,3816
3366,3366,97.312,3366
2661,2661,934.0,2661
1872,1872,29.863000000000003,1872
1571,1571,2146.0,1571
3320,3320,31.836,3320
1544,1544,28.607,1544
1429,1429,2285.0,1429
3228,3228,50.223,3228
3775,3775,2593.0,3775
3440,3440,23.92,3440
3170,3170,24.391,3170
3046,3046,27.017,3046
2758,2758,35.60800000000001,2758
3182,3182,25.363000000000003,3182
3038,3038,30.98,3038
4222,4222,32.603,4222
3901,3901,2859.0,3901
1738,1738,28.391,1738
3096,3096,28.716,3096
2783,2783,2856.0,2783
776,776,23.836,776
3724,3724,24.808000000000003,3724
1685,1685,0.0,1685
2015,2015,905.0,2015
1510,1510,28.497,1510
4065,4065,539.0,4065
700,700,25.992,700
1761,1761,968.0,1761
4148,4148,26.319000000000006,4148
4067,4067,1807.0,4067
2559,2559,1001.0,2559
1182,1182,29.468000000000004,1182
2131,2131,785.0,2131
1956,1956,26.012,1956
861,861,979.0,861
1807,1807,2220.0,1807
4434,4434,29.661,4434
2258,2258,29.021,2258
4159,4159,2975.0,4159
3258,3258,24.141,3258
4372,4372,33.635,4372
1771,1771,1931.0,1771
3259,3259,1257.0,3259
3952,3952,27.403,3952
2185,2185,1175.0,2185
3468,3468,29.312,3468
4034,4034,26.124,4034
3510,3510,25.855,3510
2815,2815,298.0,2815
3750,3750,28.761,3750
3772,3772,25.769,3772
950,950,28.604,950
1580,1580,26.355,1580
504,504,26.249,504
2249,2249,1794.0,2249
1929,1929,350.0,1929
1509,1509,345.0,1509
3975,3975,1824.0,3975
3316,3316,210.161,3316
3034,3034,28.327,3034
1846,1846,27.006,1846
1016,1016,26.832,1016
3351,3351,1648.0,3351
956,956,28.018,956
2962,2962,24.845,2962
3732,3732,24.14,3732
2508,2508,26.634,2508
1126,1126,28.49,1126
2419,2419,2808.0,2419
3740,3740,24.236,3740
2879,2879,1727.0,2879
1756,1756,27.817,1756
3616,3616,25.159,3616
708,708,31.973000000000006,708
675,675,2446.0,675
751,751,1806.0,751
2178,2178,25.439,2178
1908,1908,27.616,1908
2621,2621,643.0,2621
3053,3053,2853.0,3053
3313,3313,0.0,3313
2484,2484,29.233,2484
2318,2318,25.799,2318
3695,3695,807.0,3695
2979,2979,2202.0,2979
1577,1577,2124.0,1577
2206,2206,26.62,2206
1301,1301,2343.0,1301
4004,4004,25.826,4004
2509,2509,1913.0,2509
784,784,28.188,784
4089,4089,2026.0,4089
520,520,23.815,520
3415,3415,1930.0,3415
3071,3071,0.0,3071
3779,3779,529.0,3779
1986,1986,26.103,1986
3112,3112,29.926,3112
3650,3650,32.013000000000005,3650
3933,3933,2728.0,3933
912,912,25.22,912
1961,1961,0.0,1961
2540,2540,28.958,2540
2112,2112,147.856,2112
941,941,1591.0,941
3052,3052,31.439,3052
1770,1770,34.054,1770
1670,1670,39.033,1670
666,666,24.066,666
4016,4016,28.05,4016
4398,4398,35.269,4398
3252,3252,239.408,3252
897,897,2694.0,897
2397,2397,2796.0,2397
1786,1786,28.031,1786
1616,1616,26.746,1616
1970,1970,30.094,1970
2245,2245,1605.0,2245
1637,1637,1351.0,1637
2196,2196,26.196,2196
3055,3055,826.0,3055
2505,2505,2265.0,2505
1523,1523,0.0,1523
3860,3860,28.972,3860
742,742,25.69,742
3306,3306,26.643,3306
1158,1158,30.451,1158
2707,2707,1884.0,2707
3158,3158,23.562,3158
3451,3451,2586.0,3451
2699,2699,2496.0,2699
4248,4248,24.462,4248
2715,2715,1696.0,2715
2886,2886,33.766,2886
2877,2877,1641.0,2877
2900,2900,25.644,2900
1395,1395,2696.0,1395
3413,3413,0.0,3413
3361,3361,0.0,3361
3256,3256,198.49400000000003,3256
3697,3697,1433.0,3697
4022,4022,24.051,4022
593,593,2988.0,593
2985,2985,985.0,2985
3103,3103,1361.0,3103
571,571,1921.0,571
1696,1696,26.129,1696
562,562,24.82,562
2829,2829,918.0,2829
1037,1037,764.0,1037
3992,3992,26.924,3992
2463,2463,827.0,2463
4062,4062,29.304,4062
2409,2409,1395.0,2409
1462,1462,25.998,1462
1575,1575,1705.0,1575
4293,4293,1637.0,4293
1147,1147,2992.0,1147
4282,4282,29.551,4282
1212,1212,31.313,1212
977,977,2825.0,977
3176,3176,165.083,3176
2517,2517,1475.0,2517
3353,3353,626.0,3353
1161,1161,1581.0,1161
3282,3282,40.968,3282
754,754,24.427,754
934,934,28.946,934
714,714,33.498000000000005,714
3225,3225,193.0,3225
3216,3216,211.827,3216
3614,3614,27.881,3614
1155,1155,2424.0,1155
1330,1330,24.513,1330
3805,3805,0.0,3805
1558,1558,24.885,1558
1307,1307,2665.0,1307
2241,2241,234.0,2241
2288,2288,27.547,2288
592,592,25.159,592
3512,3512,24.033,3512
3025,3025,478.0,3025
1436,1436,34.638000000000005,1436
3822,3822,29.383000000000006,3822
2690,2690,24.37,2690
4118,4118,26.584,4118
521,521,865.0,521
2140,2140,25.312,2140
3959,3959,0.0,3959
2860,2860,23.882,2860
3513,3513,1367.0,3513
1138,1138,37.66,1138
1874,1874,25.516,1874
2853,2853,1682.0,2853
2732,2732,28.11,2732
787,787,2704.0,787
2472,2472,28.814,2472
2441,2441,496.0,2441
2843,2843,0.0,2843
3435,3435,2601.0,3435
1082,1082,25.732,1082
3884,3884,26.317,3884
1094,1094,31.793000000000006,1094
1004,1004,28.505,1004
3308,3308,29.273000000000003,3308
1291,1291,868.0,1291
3954,3954,28.345,3954
3713,3713,0.0,3713
2681,2681,1793.0,2681
3365,3365,306.0,3365
641,641,562.0,641
509,509,820.0,509
3264,3264,26.488000000000003,3264
2935,2935,183.0,2935
902,902,24.941,902
4117,4117,849.0,4117
2813,2813,2211.0,2813
1672,1672,27.979,1672
1619,1619,2782.0,1619
2127,2127,839.0,2127
659,659,624.0,659
2273,2273,248.0,2273
2906,2906,30.76,2906
3688,3688,188.038,3688
953,953,1286.0,953
3980,3980,23.741,3980
2820,2820,29.672,2820
1916,1916,30.271,1916
1820,1820,27.448,1820
3821,3821,563.0,3821
1988,1988,27.786,1988
1124,1124,31.346,1124
1384,1384,29.734,1384
1648,1648,26.436,1648
3735,3735,2846.0,3735
4343,4343,1609.0,4343
1552,1552,37.418,1552
741,741,74.0,741
2778,2778,34.924,2778
4182,4182,28.992,4182
2278,2278,32.77,2278
1630,1630,24.602,1630
2507,2507,2284.0,2507
1966,1966,26.034,1966
2275,2275,1340.0,2275
1382,1382,29.591,1382
1971,1971,2327.0,1971
4187,4187,0.0,4187
3574,3574,29.332,3574
4070,4070,24.278,4070
2413,2413,0.0,2413
2460,2460,27.147,2460
3739,3739,1921.0,3739
3121,3121,1631.0,3121
2858,2858,31.777,2858
2062,2062,23.827,2062
3177,3177,1730.0,3177
3126,3126,24.048,3126
582,582,29.796,582
775,775,2593.0,775
2045,2045,2411.0,2045
604,604,29.658,604
4357,4357,2790.0,4357
3229,3229,0.0,3229
4115,4115,1066.0,4115
1501,1501,275.0,1501
3647,3647,2729.0,3647
4352,4352,24.447,4352
3534,3534,25.067,3534
4083,4083,1948.0,4083
2251,2251,1230.0,2251
3040,3040,33.637,3040
1437,1437,1742.0,1437
2976,2976,24.653,2976
3638,3638,28.51,3638
1123,1123,2110.0,1123
4379,4379,2320.0,4379
3913,3913,2307.0,3913
2331,2331,2674.0,2331
974,974,27.303,974
1250,1250,30.888,1250
803,803,930.0,803
2938,2938,27.287,2938
2871,2871,2914.0,2871
2867,2867,2850.0,2867
4386,4386,27.421,4386
680,680,26.435,680
4354,4354,26.912,4354
1556,1556,25.834,1556
4250,4250,23.895,4250
2740,2740,25.625,2740
1633,1633,1159.0,1633
2329,2329,2588.0,2329
1341,1341,1837.0,1341
4226,4226,26.651,4226
4160,4160,27.744,4160
1019,1019,0.0,1019
1938,1938,36.288,1938
3859,3859,1113.0,3859
2709,2709,2428.0,2709
1838,1838,28.02,1838
1724,1724,32.567,1724
1036,1036,27.22,1036
2165,2165,2524.0,2165
1839,1839,0.0,1839
911,911,148.0,911
1099,1099,202.0,1099
870,870,27.431,870
2012,2012,35.893,2012
989,989,1840.0,989
2363,2363,1275.0,2363
1299,1299,2443.0,1299
2348,2348,43.605,2348
3340,3340,35.903,3340
1557,1557,1034.0,1557
3552,3552,29.033,3552
3849,3849,2921.0,3849
3857,3857,2814.0,3857
3588,3588,31.296,3588
1139,1139,2687.0,1139
2284,2284,31.386,2284
1624,1624,23.883000000000006,1624
3881,3881,0.0,3881
772,772,24.575,772
3447,3447,1561.0,3447
2365,2365,1296.0,2365
2113,2113,2500.0,2113
2537,2537,2847.0,2537
2603,2603,1957.0,2603
2263,2263,1493.0,2263
3272,3272,188.23,3272
1946,1946,25.618,1946
1733,1733,2661.0,1733
4370,4370,27.865,4370
2847,2847,0.0,2847
1680,1680,27.191,1680
1947,1947,0.0,1947
2980,2980,27.295,2980
1427,1427,346.0,1427
4047,4047,2878.0,4047
1505,1505,2907.0,1505
1620,1620,24.669,1620
4269,4269,2308.0,4269
1493,1493,188.0,1493
2794,2794,26.767,2794
4116,4116,25.204,4116
1573,1573,1006.0,1573
1186,1186,25.669,1186
3930,3930,25.309,3930
3579,3579,1378.0,3579
2757,2757,1397.0,2757
4295,4295,0.0,4295
3830,3830,28.993,3830
2987,2987,2599.0,2987
3394,3394,50.648,3394
3497,3497,1261.0,3497
2521,2521,0.0,2521
3294,3294,160.05700000000004,3294
852,852,29.291,852
2672,2672,25.177,2672
983,983,2859.0,983
3760,3760,23.566,3760
3407,3407,2623.0,3407
3262,3262,24.28,3262
3666,3666,25.047,3666
1660,1660,26.769,1660
931,931,906.0,931
2724,2724,28.392,2724
1478,1478,24.203000000000007,1478
3533,3533,1155.0,3533
630,630,25.129,630
702,702,25.243,702
867,867,2025.0,867
1805,1805,959.0,1805
2592,2592,29.148000000000003,2592
1097,1097,2855.0,1097
2166,2166,212.466,2166
2875,2875,1335.0,2875
4416,4416,24.647,4416
2047,2047,2255.0,2047
3675,3675,645.0,3675
1641,1641,0.0,1641
3738,3738,27.961,3738
3406,3406,25.779,3406
717,717,67.0,717
707,707,2877.0,707
3665,3665,711.0,3665
2960,2960,25.453000000000007,2960
3280,3280,24.55,3280
3244,3244,28.058000000000003,3244
3243,3243,2516.0,3243
3976,3976,27.98,3976
1414,1414,28.626,1414
2261,2261,696.0,2261
2568,2568,33.14,2568
3129,3129,2509.0,3129
3234,3234,24.815,3234
1686,1686,28.626,1686
1801,1801,1660.0,1801
3368,3368,33.111999999999995,3368
2943,2943,2560.0,2943
3521,3521,2582.0,3521
3890,3890,27.795,3890
4351,4351,0.0,4351
2898,2898,27.653,2898
506,506,24.942,506
1763,1763,127.0,1763
2688,2688,24.848000000000006,2688
3554,3554,23.847,3554
3263,3263,101.0,3263
4128,4128,27.23,4128
4051,4051,1581.0,4051
3214,3214,211.647,3214
2833,2833,820.0,2833
3577,3577,2279.0,3577
2462,2462,28.657,2462
558,558,24.314,558
2894,2894,24.114,2894
3014,3014,24.154,3014
3350,3350,146.436,3350
4212,4212,24.083,4212
875,875,1322.0,875
4201,4201,1218.0,4201
2108,2108,106.736,2108
2044,2044,33.638000000000005,2044
4124,4124,27.566,4124
1102,1102,31.275,1102
1001,1001,2904.0,1001
3896,3896,28.793000000000006,3896
1244,1244,26.085,1244
1671,1671,782.0,1671
4399,4399,788.0,4399
1148,1148,31.782,1148
3401,3401,732.0,3401
619,619,2990.0,619
2421,2421,1950.0,2421
2260,2260,24.922,2260
2389,2389,1530.0,2389
3987,3987,2925.0,3987
876,876,31.544,876
3911,3911,246.0,3911
2298,2298,30.921,2298
2872,2872,24.928,2872
2174,2174,28.008000000000006,2174
1665,1665,1775.0,1665
3269,3269,941.0,3269
2499,2499,1472.0,2499
1408,1408,26.436,1408
1824,1824,27.631,1824
1241,1241,2765.0,1241
1293,1293,909.0,1293
3709,3709,2690.0,3709
4268,4268,24.925,4268
2915,2915,2493.0,2915
3352,3352,27.329,3352
568,568,29.534,568
3701,3701,571.0,3701
1532,1532,25.159,1532
2762,2762,25.925,2762
2430,2430,25.713,2430
3584,3584,30.16,3584
3986,3986,24.567,3986
4130,4130,28.716,4130
811,811,1331.0,811
819,819,1227.0,819
1711,1711,84.0,1711
1456,1456,24.555,1456
3622,3622,24.507,3622
2221,2221,0.0,2221
4114,4114,24.692,4114
684,684,27.211,684
3223,3223,2543.0,3223
1593,1593,1725.0,1593
2163,2163,1844.0,2163
2432,2432,24.422,2432
2918,2918,34.374,2918
924,924,26.102,924
2364,2364,27.292,2364
1267,1267,1866.0,1267
2000,2000,26.227,2000
3746,3746,23.842,3746
2789,2789,2162.0,2789
1754,1754,26.39,1754
3851,3851,969.0,3851
2863,2863,2994.0,2863
1524,1524,29.472,1524
844,844,28.186,844
3018,3018,24.977,3018
1014,1014,27.324,1014
1362,1362,42.956,1362
2656,2656,26.824,2656
833,833,1624.0,833
1471,1471,524.0,1471
2937,2937,3012.0,2937
3928,3928,32.504,3928
1062,1062,36.839,1062
1743,1743,2000.0,1743
3433,3433,2340.0,3433
2920,2920,27.931,2920
3841,3841,2462.0,3841
2575,2575,515.0,2575
1982,1982,27.797,1982
2118,2118,25.516,2118
4365,4365,2073.0,4365
1578,1578,30.809,1578
1639,1639,0.0,1639
4192,4192,28.917,4192
3628,3628,27.935,3628
1765,1765,2278.0,1765
958,958,25.574,958
1928,1928,41.727,1928
979,979,1707.0,979
2238,2238,24.31,2238
3011,3011,2393.0,3011
2648,2648,24.676,2648
738,738,24.541,738
1585,1585,0.0,1585
3232,3232,24.276,3232
2199,2199,0.0,2199
3699,3699,1623.0,3699
1329,1329,2091.0,1329
3744,3744,30.348000000000006,3744
716,716,27.783,716
3566,3566,29.17,3566
1603,1603,1055.0,1603
1669,1669,1634.0,1669
1334,1334,60.611,1334
1317,1317,0.0,1317
4096,4096,23.753,4096
3914,3914,29.824,3914
1027,1027,1159.0,1027
3412,3412,25.856,3412
3148,3148,24.523000000000003,3148
1714,1714,24.241,1714
4245,4245,512.0,4245
3680,3680,24.223000000000006,3680
3275,3275,1725.0,3275
1246,1246,26.834,1246
2122,2122,29.382,2122
1492,1492,24.56,1492
909,909,0.0,909
1452,1452,26.241,1452
834,834,24.195,834
1678,1678,28.184,1678
2795,2795,1720.0,2795
1090,1090,24.429,1090
4150,4150,24.916,4150
1472,1472,25.648000000000003,1472
935,935,640.0,935
4143,4143,2174.0,4143
3989,3989,2061.0,3989
3219,3219,1650.0,3219
4229,4229,1342.0,4229
1525,1525,2371.0,1525
898,898,27.747,898
4013,4013,1680.0,4013
545,545,2152.0,545
4263,4263,560.0,4263
3455,3455,1454.0,3455
3504,3504,25.301,3504
2524,2524,30.825,2524
621,621,849.0,621
4356,4356,25.921,4356
3537,3537,1654.0,3537
815,815,1263.0,815
3165,3165,349.0,3165
2529,2529,2319.0,2529
2556,2556,34.341,2556
608,608,28.828000000000007,608
1066,1066,28.603,1066
3785,3785,0.0,3785
2496,2496,26.748,2496
4393,4393,1338.0,4393
3147,3147,928.0,3147
1720,1720,25.006,1720
3663,3663,596.0,3663
3604,3604,24.783,3604
3783,3783,2941.0,3783
2291,2291,548.0,2291
4111,4111,1675.0,4111
2246,2246,28.342,2246
2471,2471,2751.0,2471
4038,4038,24.388,4038
1179,1179,764.0,1179
3673,3673,2500.0,3673
1597,1597,2864.0,1597
1054,1054,26.12,1054
1184,1184,35.758,1184
572,572,28.47,572
1909,1909,2935.0,1909
918,918,23.789,918
1262,1262,26.774,1262
1568,1568,26.302,1568
1181,1181,513.0,1181
1939,1939,2339.0,1939
1003,1003,113.0,1003
595,595,1872.0,595
4429,4429,2050.0,4429
2429,2429,1654.0,2429
2093,2093,568.0,2093
810,810,27.584,810
2493,2493,2024.0,2493
1514,1514,33.515,1514
1742,1742,36.003,1742
1000,1000,25.653,1000
1859,1859,283.0,1859
3765,3765,1108.0,3765
1415,1415,1990.0,1415
4099,4099,273.0,4099
2873,2873,2887.0,2873
3736,3736,27.685,3736
3027,3027,1599.0,3027
1631,1631,1834.0,1631
1247,1247,2725.0,1247
2746,2746,24.812,2746
2344,2344,32.459,2344
3868,3868,26.661,3868
2214,2214,32.199,2214
1035,1035,2111.0,1035
4010,4010,28.954,4010
3442,3442,24.302,3442
3139,3139,2106.0,3139
3583,3583,1389.0,3583
2373,2373,1086.0,2373
3685,3685,297.0,3685
726,726,24.602,726
3132,3132,27.071,3132
4094,4094,28.377,4094
4018,4018,24.076,4018
2454,2454,26.529,2454
4426,4426,27.62,4426
4091,4091,2225.0,4091
4432,4432,26.994,4432
4014,4014,24.209,4014
3578,3578,24.094,3578
1508,1508,28.92,1508
1412,1412,30.561,1412
2497,2497,1459.0,2497
3464,3464,28.611,3464
1965,1965,843.0,1965
770,770,28.287,770
3359,3359,0.0,3359
4313,4313,2839.0,4313
4007,4007,2338.0,4007
3089,3089,2532.0,3089
2162,2162,25.116,2162
1280,1280,26.722,1280
2587,2587,2264.0,2587
617,617,944.0,617
3179,3179,2979.0,3179
4407,4407,1081.0,4407
755,755,1741.0,755
4025,4025,2425.0,4025
3326,3326,24.242,3326
1202,1202,27.761,1202
1170,1170,27.788,1170
2824,2824,34.286,2824
766,766,28.95,766
3266,3266,212.216,3266
1176,1176,72.845,1176
565,565,1689.0,565
1873,1873,627.0,1873
3679,3679,1462.0,3679
2134,2134,27.663,2134
960,960,25.639,960
4046,4046,24.697,4046
3400,3400,29.599,3400
2428,2428,26.676,2428
1695,1695,349.0,1695
1051,1051,2803.0,1051
3594,3594,39.082,3594
3044,3044,24.751,3044
1893,1893,2675.0,1893
2735,2735,1936.0,2735
3682,3682,26.727,3682
4205,4205,590.0,4205
3506,3506,28.258000000000006,3506
3085,3085,277.0,3085
596,596,29.3,596
1968,1968,25.727,1968
3009,3009,848.0,3009
2314,2314,33.546,2314
1621,1621,2972.0,1621
1218,1218,27.484,1218
1183,1183,2361.0,1183
2722,2722,27.363000000000003,2722
2264,2264,24.028,2264
3938,3938,25.82,3938
2235,2235,1889.0,2235
3036,3036,42.517,3036
3290,3290,23.467,3290
3467,3467,686.0,3467
3310,3310,111.41,3310
1481,1481,2712.0,1481
4153,4153,2691.0,4153
2347,2347,2888.0,2347
3153,3153,700.0,3153
3404,3404,24.673,3404
4319,4319,2616.0,4319
1592,1592,27.679,1592
4176,4176,24.202,4176
1189,1189,1797.0,1189
1513,1513,740.0,1513
4254,4254,30.329,4254
1165,1165,1237.0,1165
1450,1450,28.077,1450
2954,2954,28.133000000000006,2954
887,887,1631.0,887
1178,1178,25.152,1178
2904,2904,33.496,2904
1861,1861,1725.0,1861
2811,2811,1634.0,2811
2940,2940,24.341,2940
997,997,369.0,997
1741,1741,2908.0,1741
683,683,1493.0,683
915,915,562.0,915
637,637,990.0,637
1730,1730,35.786,1730
3093,3093,643.0,3093
828,828,23.754,828
4389,4389,2467.0,4389
1879,1879,2122.0,1879
2519,2519,1219.0,2519
3667,3667,1615.0,3667
970,970,26.22,970
992,992,27.997,992
2633,2633,1691.0,2633
2076,2076,23.74,2076
2187,2187,605.0,2187
2704,2704,24.851,2704
3481,3481,2723.0,3481
3615,3615,0.0,3615
821,821,2272.0,821
3138,3138,32.303000000000004,3138
2550,2550,27.408,2550
3396,3396,35.395,3396
1690,1690,26.845,1690
4060,4060,24.845,4060
3996,3996,34.016,3996
3000,3000,28.475,3000
4382,4382,37.877,4382
2016,2016,29.086,2016
1226,1226,24.726,1226
1337,1337,0.0,1337
2909,2909,879.0,2909
2804,2804,29.2,2804
4232,4232,25.261,4232
3173,3173,2291.0,3173
2826,2826,35.85800000000001,2826
4323,4323,1691.0,4323
1890,1890,24.782,1890
2684,2684,24.31,2684
1358,1358,33.366,1358
3152,3152,24.697,3152
3127,3127,1908.0,3127
2025,2025,966.0,2025
2685,2685,1094.0,2685
3721,3721,298.0,3721
1290,1290,28.865,1290
3879,3879,2899.0,3879
557,557,2286.0,557
4088,4088,28.778,4088
2773,2773,2863.0,2773
3424,3424,27.203000000000007,3424
4377,4377,1894.0,4377
1315,1315,2904.0,1315
3598,3598,193.909,3598
3538,3538,25.712,3538
3919,3919,1218.0,3919
3274,3274,190.037,3274
3626,3626,25.77,3626
1278,1278,30.59,1278
3028,3028,29.179,3028
752,752,30.079,752
3520,3520,103.991,3520
4097,4097,2425.0,4097
1788,1788,26.807,1788
2097,2097,1066.0,2097
3341,3341,524.0,3341
3934,3934,25.713,3934
2945,2945,2178.0,2945
1263,1263,196.0,1263
3880,3880,25.065,3880
1798,1798,27.382,1798
1858,1858,33.111,1858
842,842,24.239,842
848,848,27.359,848
3644,3644,109.942,3644
3719,3719,2020.0,3719
3812,3812,212.887,3812
2345,2345,269.0,2345
823,823,188.0,823
3347,3347,1193.0,3347
747,747,2682.0,747
2370,2370,30.712,2370
4310,4310,25.984,4310
736,736,24.152,736
1188,1188,31.595,1188
524,524,24.427,524
1612,1612,32.746,1612
2446,2446,27.577,2446
1746,1746,27.549,1746
2335,2335,2519.0,2335
4327,4327,2801.0,4327
3892,3892,30.111,3892
2574,2574,25.31,2574
824,824,25.012,824
3271,3271,3019.0,3271
4049,4049,2262.0,4049
1372,1372,29.621,1372
2426,2426,25.831,2426
4072,4072,23.531,4072
3463,3463,2087.0,3463
1224,1224,24.533,1224
4316,4316,24.633000000000006,4316
3386,3386,31.466,3386
3798,3798,28.871,3798
4242,4242,36.377,4242
1423,1423,2221.0,1423
2281,2281,2741.0,2281
3478,3478,33.792,3478
4199,4199,0.0,4199
2543,2543,0.0,2543
4056,4056,26.153,4056
3043,3043,2145.0,3043
988,988,23.558000000000003,988
4125,4125,1490.0,4125
945,945,872.0,945
4409,4409,1693.0,4409
3882,3882,24.82,3882
1232,1232,25.69,1232
4001,4001,897.0,4001
1878,1878,25.377,1878
3288,3288,24.179,3288
765,765,2533.0,765
2301,2301,1593.0,2301
3418,3418,27.312,3418
1810,1810,29.294,1810
1228,1228,25.846,1228
4005,4005,574.0,4005
1052,1052,28.399,1052
1967,1967,459.0,1967
4335,4335,1553.0,4335
2360,2360,27.828000000000007,2360
1867,1867,855.0,1867
2921,2921,0.0,2921
4394,4394,27.632,4394
2180,2180,32.562,2180
1814,1814,25.587,1814
3482,3482,29.358,3482
4449,4449,622.0,4449
3907,3907,1933.0,3907
1311,1311,752.0,1311
4157,4157,2344.0,4157
3819,3819,1462.0,3819
4131,4131,0.0,4131
3522,3522,28.624,3522
3507,3507,3003.0,3507
3279,3279,2875.0,3279
2423,2423,1045.0,2423
2470,2470,27.138,2470
2017,2017,566.0,2017
2109,2109,2070.0,2109
3159,3159,1954.0,3159
761,761,352.0,761
634,634,25.992,634
1410,1410,30.846,1410
1881,1881,2861.0,1881
3704,3704,24.47,3704
2733,2733,879.0,2733
3557,3557,253.0,3557
1096,1096,29.925,1096
3198,3198,23.484,3198
1297,1297,1503.0,1297
4077,4077,1820.0,4077
2057,2057,1801.0,2057
3051,3051,0.0,3051
3284,3284,27.993,3284
1213,1213,337.0,1213
1237,1237,1626.0,1237
2806,2806,27.469,2806
886,886,28.685,886
1516,1516,26.138,1516
4419,4419,2183.0,4419
2702,2702,25.028,2702
3253,3253,2219.0,3253
1851,1851,421.0,1851
1116,1116,29.365,1116
1951,1951,1118.0,1951
2259,2259,1161.0,2259
1252,1252,31.393,1252
2243,2243,1014.0,2243
2608,2608,28.716,2608
1279,1279,421.0,1279
3768,3768,27.493,3768
536,536,23.906,536
4193,4193,0.0,4193
3595,3595,2993.0,3595
3753,3753,950.0,3753
1391,1391,231.0,1391
2612,2612,42.845,2612
1057,1057,2071.0,1057
3951,3951,2226.0,3951
569,569,2529.0,569
3200,3200,171.17700000000005,3200
758,758,28.504,758
2814,2814,30.765,2814
4440,4440,26.456,4440
2160,2160,25.368,2160
1281,1281,1208.0,1281
3633,3633,453.0,3633
1811,1811,0.0,1811
995,995,1216.0,995
737,737,2447.0,737
3927,3927,458.0,3927
3630,3630,26.969,3630
1251,1251,2531.0,1251
4133,4133,2324.0,4133
3853,3853,801.0,3853
3947,3947,2079.0,3947
2959,2959,2083.0,2959
4301,4301,2647.0,4301
1487,1487,1709.0,1487
624,624,25.183000000000003,624
2679,2679,1593.0,2679
588,588,31.41,588
2146,2146,24.043000000000006,2146
4289,4289,740.0,4289
3599,3599,1933.0,3599
809,809,2570.0,809
2609,2609,2343.0,2609
1080,1080,26.654,1080
2310,2310,28.353,2310
1210,1210,27.035,1210
1913,1913,604.0,1913
2336,2336,33.349000000000004,2336
2950,2950,28.483,2950
1339,1339,1501.0,1339
2007,2007,338.0,2007
2194,2194,30.217,2194
3390,3390,28.413,3390
1697,1697,1534.0,1697
1473,1473,895.0,1473
2717,2717,2840.0,2717
2211,2211,2730.0,2211
3346,3346,30.659,3346
1647,1647,1503.0,1647
2533,2533,2091.0,2533
3994,3994,29.271,3994
2247,2247,2139.0,2247
1646,1646,27.056,1646
2956,2956,29.357,2956
3852,3852,28.706,3852
3196,3196,24.658,3196
3298,3298,26.78,3298
3141,3141,1975.0,3141
2595,2595,0.0,2595
1588,1588,25.215,1588
3236,3236,24.472,3236
1925,1925,334.0,1925
878,878,28.025,878
1835,1835,2529.0,1835
3567,3567,650.0,3567
2776,2776,26.657,2776
1972,1972,29.743,1972
3766,3766,28.51,3766
2696,2696,25.377,2696
2473,2473,730.0,2473
1640,1640,26.531,1640
2020,2020,27.207,2020
722,722,24.491,722
1918,1918,25.451,1918
677,677,1186.0,677
1590,1590,24.838,1590
2458,2458,26.341,2458
4405,4405,2167.0,4405
2066,2066,156.871,2066
669,669,625.0,669
3416,3416,24.504,3416
3861,3861,263.0,3861
1020,1020,24.055,1020
883,883,1327.0,883
2610,2610,27.146,2610
3002,3002,34.683,3002
517,517,498.0,517
1328,1328,26.121,1328
2208,2208,23.998,2208
4196,4196,27.9,4196
3084,3084,24.966,3084
4249,4249,1944.0,4249
2767,2767,2909.0,2767
4147,4147,110.0,4147
946,946,24.095,946
4277,4277,1436.0,4277
2914,2914,76.837,2914
2506,2506,28.445,2506
3144,3144,27.439,3144
2802,2802,31.652,2802
2590,2590,28.232,2590
4230,4230,34.092,4230
2102,2102,29.42,2102
2449,2449,2706.0,2449
2116,2116,28.115,2116
3937,3937,1484.0,3937
3741,3741,2553.0,3741
4033,4033,2167.0,4033
606,606,36.874,606
663,663,0.0,663
1059,1059,1097.0,1059
986,986,31.448,986
1379,1379,237.0,1379
3871,3871,976.0,3871
4134,4134,27.98,4134
1615,1615,2655.0,1615
3032,3032,32.115,3032
966,966,25.308000000000003,966
2346,2346,35.779,2346
4296,4296,28.455,4296
1300,1300,26.811,1300
1296,1296,28.713,1296
1705,1705,1177.0,1705
2114,2114,25.487,2114
2530,2530,28.247,2530
1258,1258,31.254,1258
3318,3318,29.238000000000003,3318
1572,1572,27.062,1572
873,873,1153.0,873
2693,2693,938.0,2693
2730,2730,25.157,2730
2782,2782,24.725,2782
4180,4180,24.14,4180
3432,3432,24.563,3432
2387,2387,1950.0,2387
3517,3517,1267.0,3517
1464,1464,33.907,1464
2923,2923,0.0,2923
2453,2453,0.0,2453
628,628,32.907,628
3707,3707,1294.0,3707
2444,2444,24.246,2444
4415,4415,1122.0,4415
3869,3869,1521.0,3869
3692,3692,32.28,3692
3387,3387,492.0,3387
1400,1400,29.075,1400
1378,1378,40.315,1378
4436,4436,24.34,4436
2265,2265,2934.0,2265
1953,1953,329.0,1953
3526,3526,24.575,3526
2248,2248,26.684,2248
1962,1962,26.235,1962
2689,2689,1980.0,2689
1899,1899,1059.0,1899
1863,1863,846.0,1863
1954,1954,25.131,1954
1381,1381,0.0,1381
3015,3015,2682.0,3015
3672,3672,33.77,3672
1098,1098,29.836,1098
4287,4287,470.0,4287
3893,3893,2995.0,3893
2620,2620,27.002,2620
899,899,1354.0,899
1912,1912,23.821,1912
1185,1185,1847.0,1185
1591,1591,396.0,1591
1367,1367,390.0,1367
3903,3903,2519.0,3903
2492,2492,26.303,2492
1627,1627,1225.0,1627
3525,3525,1559.0,3525
771,771,2096.0,771
4340,4340,30.913,4340
2961,2961,0.0,2961
1013,1013,1635.0,1013
1338,1338,27.219,1338
1249,1249,1517.0,1249
2816,2816,34.684,2816
2468,2468,33.246,2468
3098,3098,27.692,3098
3220,3220,24.632,3220
1937,1937,984.0,1937
1531,1531,1151.0,1531
3660,3660,172.31099999999995,3660
2357,2357,2999.0,2357
2810,2810,25.196,2810
1499,1499,1784.0,1499
2321,2321,1180.0,2321
2338,2338,26.443,2338
3423,3423,0.0,3423
1151,1151,416.0,1151
518,518,26.824,518
1868,1868,25.686,1868
3109,3109,2813.0,3109
2067,2067,1244.0,2067
2488,2488,38.79,2488
3024,3024,30.884,3024
2599,2599,433.0,2599
2435,2435,337.0,2435
1169,1169,2091.0,1169
3799,3799,91.0,3799
1945,1945,760.0,1945
1403,1403,492.0,1403
1841,1841,1326.0,1841
1015,1015,2173.0,1015
3658,3658,24.603,3658
835,835,2099.0,835
3380,3380,29.945,3380
2903,2903,623.0,2903
3245,3245,915.0,3245
4079,4079,679.0,4079
1964,1964,26.078000000000007,1964
3835,3835,358.0,3835
2451,2451,1120.0,2451
639,639,2004.0,639
4037,4037,1207.0,4037
1649,1649,1871.0,1649
3095,3095,2510.0,3095
4200,4200,24.933000000000003,4200
4391,4391,2049.0,4391
2737,2737,144.0,2737
2202,2202,24.304,2202
4422,4422,38.719,4422
1993,1993,2880.0,1993
3710,3710,208.385,3710
1480,1480,24.2,1480
3004,3004,31.061,3004
2327,2327,1397.0,2327
1266,1266,24.974,1266
1976,1976,26.556,1976
2232,2232,25.91,2232
3511,3511,2161.0,3511
3124,3124,25.36,3124
829,829,1431.0,829
1565,1565,1095.0,1565
3171,3171,1818.0,3171
2384,2384,24.442,2384
2968,2968,34.361,2968
1804,1804,27.82,1804
4122,4122,25.319000000000006,4122
3402,3402,24.493,3402
2780,2780,24.425,2780
1441,1441,2162.0,1441
1500,1500,27.009,1500
2385,2385,0.0,2385
3120,3120,30.315,3120
1529,1529,767.0,1529
1331,1331,1300.0,1331
2840,2840,33.035,2840
1504,1504,31.031,1504
4217,4217,2371.0,4217
2917,2917,2500.0,2917
2438,2438,24.832,2438
534,534,25.966,534
3568,3568,31.619,3568
1609,1609,1538.0,1609
1375,1375,2959.0,1375
1779,1779,245.0,1779
626,626,32.751,626
1776,1776,32.263000000000005,1776
2578,2578,27.343000000000004,2578
853,853,2386.0,853
1831,1831,1580.0,1831
1407,1407,2269.0,1407
882,882,38.701,882
3212,3212,30.662,3212
4421,4421,1307.0,4421
3357,3357,2574.0,3357
1088,1088,31.482,1088
3496,3496,27.028,3496
3515,3515,721.0,3515
1162,1162,27.618,1162
3690,3690,205.677,3690
3782,3782,24.327,3782
3715,3715,661.0,3715
2217,2217,1077.0,2217
817,817,2896.0,817
3979,3979,2690.0,3979
610,610,31.013,610
725,725,952.0,725
1769,1769,1032.0,1769
1825,1825,0.0,1825
2487,2487,0.0,2487
1897,1897,1728.0,1897
1137,1137,2567.0,1137
2539,2539,1950.0,2539
994,994,35.033,994
2934,2934,24.31,2934
575,575,1770.0,575
3581,3581,2763.0,3581
2861,2861,107.0,2861
2266,2266,25.596,2266
1747,1747,1516.0,1747
1420,1420,25.747,1420
3031,3031,1880.0,3031
3786,3786,24.693,3786
1243,1243,0.0,1243
594,594,28.739,594
1231,1231,2932.0,1231
613,613,980.0,613
3499,3499,2016.0,3499
2534,2534,26.029,2534
2228,2228,31.587,2228
2078,2078,23.93,2078
570,570,27.41,570
3495,3495,1792.0,3495
3898,3898,28.323,3898
2128,2128,33.849000000000004,2128
3773,3773,1249.0,3773
2244,2244,25.285,2244
3921,3921,1719.0,3921
2828,2828,29.81,2828
2605,2605,1686.0,2605
2606,2606,28.494,2606
1132,1132,24.485,1132
2069,2069,1987.0,2069
4113,4113,76.0,4113
3339,3339,2790.0,3339
730,730,24.582,730
2300,2300,31.565,2300
2434,2434,24.046,2434
2647,2647,2512.0,2647
2855,2855,930.0,2855
3848,3848,33.802,3848
2371,2371,1365.0,2371
1853,1853,1549.0,1853
938,938,25.885,938
3047,3047,2787.0,3047
2474,2474,29.818,2474
2971,2971,451.0,2971
4220,4220,33.586,4220
3837,3837,1521.0,3837
2723,2723,0.0,2723
3825,3825,1668.0,3825
1673,1673,117.0,1673
2079,2079,1279.0,2079
2003,2003,2601.0,2003
3854,3854,28.422,3854
2201,2201,1513.0,2201
4381,4381,811.0,4381
2583,2583,2168.0,2583
3371,3371,2500.0,3371
2168,2168,32.556999999999995,2168
1302,1302,30.02,1302
2061,2061,0.0,2061
4006,4006,24.756,4006
1689,1689,2575.0,1689
2181,2181,1964.0,2181
3528,3528,24.403,3528
1875,1875,436.0,1875
1582,1582,32.471,1582
2172,2172,29.418000000000006,2172
4215,4215,0.0,4215
2332,2332,26.062,2332
1519,1519,932.0,1519
2812,2812,27.572,2812
4059,4059,244.0,4059
744,744,28.396,744
4430,4430,29.5,4430
2604,2604,28.316,2604
3924,3924,32.177,3924
799,799,0.0,799
2479,2479,1889.0,2479
1114,1114,29.252,1114
831,831,0.0,831
2084,2084,32.762,2084
2184,2184,24.002,2184
3957,3957,606.0,3957
1175,1175,2672.0,1175
1815,1815,971.0,1815
2511,2511,2693.0,2511
3967,3967,358.0,3967
1083,1083,585.0,1083
535,535,1426.0,535
2726,2726,32.872,2726
1793,1793,2689.0,1793
2761,2761,2363.0,2761
3804,3804,29.951,3804
993,993,1508.0,993
1078,1078,29.05,1078
3087,3087,0.0,3087
3664,3664,31.975,3664
2378,2378,30.62,2378
4042,4042,24.985,4042
1716,1716,24.794,1716
698,698,26.853,698
793,793,792.0,793
3887,3887,816.0,3887
3509,3509,2873.0,3509
900,900,27.072,900
3133,3133,1874.0,3133
2055,2055,2255.0,2055
4179,4179,2662.0,4179
949,949,1170.0,949
2223,2223,2494.0,2223
4195,4195,2780.0,4195
4152,4152,24.386,4152
4135,4135,2110.0,4135
3764,3764,25.027,3764
522,522,24.382,522
2355,2355,199.0,2355
699,699,2163.0,699
4330,4330,31.778,4330
884,884,27.544,884
1180,1180,89.98299999999998,1180
1871,1871,1984.0,1871
1617,1617,0.0,1617
4156,4156,24.491,4156
1661,1661,2012.0,1661
3904,3904,28.07,3904
796,796,32.789,796
1467,1467,350.0,1467
3081,3081,1359.0,3081
4302,4302,37.689,4302
903,903,89.0,903
2659,2659,1726.0,2659
729,729,1477.0,729
647,647,1667.0,647
1142,1142,27.71,1142
599,599,2318.0,599
4107,4107,1037.0,4107
1955,1955,1118.0,1955
2390,2390,24.996,2390
2907,2907,2119.0,2907
3319,3319,743.0,3319
721,721,2380.0,721
1780,1780,24.992,1780
1416,1416,27.341,1416
2382,2382,25.734,2382
880,880,28.184,880
2552,2552,29.852,2552
1518,1518,27.769,1518
4417,4417,2489.0,4417
1321,1321,189.0,1321
913,913,1896.0,913
2942,2942,24.186,2942
3405,3405,2778.0,3405
1406,1406,24.82,1406
3328,3328,24.91,3328
3238,3238,25.85,3238
1024,1024,29.818,1024
849,849,0.0,849
4039,4039,188.0,4039
4169,4169,1285.0,4169
2765,2765,1977.0,2765
1850,1850,23.939,1850
3906,3906,29.274,3906
1829,1829,170.0,1829
3730,3730,31.643,3730
2139,2139,2667.0,2139
1781,1781,2738.0,1781
1021,1021,2724.0,1021
3317,3317,2963.0,3317
3531,3531,2117.0,3531
2267,2267,2038.0,2267
3281,3281,2447.0,3281
4276,4276,24.263,4276
3926,3926,35.122,3926
3206,3206,24.38,3206
2036,2036,25.674,2036
2989,2989,699.0,2989
1353,1353,2093.0,1353
1077,1077,90.0,1077
2827,2827,1394.0,2827
3205,3205,1952.0,3205
3549,3549,2413.0,3549
620,620,34.988,620
2807,2807,2856.0,2807
2309,2309,2435.0,2309
2004,2004,27.426,2004
4285,4285,1973.0,4285
4071,4071,2971.0,4071
2237,2237,2843.0,2237
2295,2295,2456.0,2295
3912,3912,31.612,3912
2227,2227,2518.0,2227
1999,1999,2824.0,1999
4427,4427,816.0,4427
3493,3493,1009.0,3493
531,531,533.0,531
3623,3623,1467.0,3623
4404,4404,26.659,4404
2469,2469,1850.0,2469
3617,3617,1586.0,3617
3608,3608,68.67699999999999,3608
3448,3448,25.23,3448
3742,3742,24.392,3742
1589,1589,1068.0,1589
1883,1883,1474.0,1883
4367,4367,1467.0,4367
1852,1852,26.439,1852
4028,4028,24.863000000000003,4028
975,975,297.0,975
2285,2285,2870.0,2285
1752,1752,29.293000000000006,1752
2991,2991,59.0,2991
3191,3191,2022.0,3191
1604,1604,24.606,1604
2080,2080,34.532,2080
1101,1101,1919.0,1101
1723,1723,319.0,1723
3249,3249,1652.0,3249
1796,1796,26.161,1796
1775,1775,1622.0,1775
4446,4446,30.457,4446
3619,3619,1858.0,3619
2786,2786,24.889,2786
2302,2302,33.164,2302
2554,2554,31.917,2554
2156,2156,25.308000000000003,2156
1380,1380,32.152,1380
3099,3099,2337.0,3099
1396,1396,33.943000000000005,1396
3725,3725,1865.0,3725
4103,4103,1078.0,4103
2695,2695,1258.0,2695
2068,2068,166.872,2068
985,985,1173.0,985
1349,1349,972.0,1349
2983,2983,2512.0,2983
2924,2924,24.879,2924
2896,2896,23.788,2896
3042,3042,33.414,3042
3900,3900,27.777,3900
3457,3457,0.0,3457
1316,1316,27.607,1316
1470,1470,24.751,1470
4078,4078,25.134,4078
4418,4418,26.68,4418
2051,2051,990.0,2051
2588,2588,28.938,2588
3331,3331,1028.0,3331
1817,1817,2254.0,1817
1294,1294,32.039,1294
1533,1533,0.0,1533
1728,1728,33.937,1728
4270,4270,27.185,4270
1434,1434,28.397,1434
1103,1103,0.0,1103
4000,4000,24.949,4000
3840,3840,23.798,3840
633,633,1157.0,633
3870,3870,25.61,3870
3005,3005,833.0,3005
1199,1199,114.0,1199
2195,2195,2383.0,2195
4223,4223,2350.0,4223
3749,3749,1668.0,3749
1596,1596,24.314,1596
1369,1369,2190.0,1369
4021,4021,473.0,4021
3364,3364,211.833,3364
987,987,2823.0,987
2797,2797,0.0,2797
646,646,31.883000000000006,646
3210,3210,29.813,3210
2188,2188,25.534,2188
671,671,2496.0,671
750,750,24.419,750
1772,1772,38.448,1772
1607,1607,608.0,1607
3471,3471,573.0,3471
1936,1936,28.081,1936
2834,2834,25.991,2834
1652,1652,36.003,1652
2501,2501,2284.0,2501
2694,2694,25.645,2694
1040,1040,26.463,1040
1440,1440,26.761,1440
3991,3991,0.0,3991
2270,2270,26.444000000000006,2270
1991,1991,2294.0,1991
3286,3286,29.843000000000004,3286
3325,3325,1612.0,3325
1613,1613,639.0,1613
2749,2749,1808.0,2749
4344,4344,29.512,4344
627,627,0.0,627
1880,1880,27.006,1880
660,660,26.06,660
2436,2436,24.862,2436
3787,3787,744.0,3787
3460,3460,26.618,3460
3276,3276,28.197,3276
4280,4280,30.737,4280
1272,1272,25.395,1272
1892,1892,24.86,1892
622,622,33.34,622
3267,3267,812.0,3267
2718,2718,37.822,2718
1131,1131,976.0,1131
3270,3270,152.213,3270
1595,1595,378.0,1595
4258,4258,31.057,4258
3910,3910,24.593000000000004,3910
2416,2416,28.112,2416
1214,1214,27.163,1214
1495,1495,1063.0,1495
794,794,25.461,794
2928,2928,173.423,2928
1451,1451,2231.0,1451
3790,3790,24.452,3790
3161,3161,562.0,3161
2835,2835,1783.0,2835
1503,1503,2397.0,1503
2448,2448,26.152,2448
4400,4400,36.108,4400
2339,2339,843.0,2339
625,625,1330.0,625
1042,1042,30.518,1042
3111,3111,761.0,3111
4219,4219,2234.0,4219
2292,2292,26.613000000000003,2292
942,942,28.802,942
3369,3369,2387.0,3369
3283,3283,1455.0,3283
1821,1821,669.0,1821
3356,3356,29.329,3356
2852,2852,28.442,2852
2691,2691,1916.0,2691
4050,4050,25.077,4050
3473,3473,2608.0,3473
1952,1952,25.522,1952
2901,2901,1525.0,2901
715,715,624.0,715
3006,3006,23.992,3006
1674,1674,24.171,1674
2394,2394,26.47,2394
2522,2522,30.89,2522
1560,1560,25.69,1560
3971,3971,1286.0,3971
785,785,2562.0,785
1025,1025,1253.0,1025
888,888,27.304,888
1448,1448,28.057,1448
2319,2319,2404.0,2319
2408,2408,28.283,2408
1948,1948,27.395,1948
2878,2878,32.661,2878
4041,4041,293.0,4041
3251,3251,1332.0,3251
2974,2974,25.347,2974
3503,3503,1712.0,3503
1288,1288,26.457,1288
790,790,24.635,790
4142,4142,25.053,4142
3929,3929,2611.0,3929
1413,1413,857.0,1413
3646,3646,31.052,3646
2622,2622,28.023000000000003,2622
777,777,0.0,777
1466,1466,29.708,1466
1737,1737,2114.0,1737
4414,4414,24.475,4414
2410,2410,24.228,2410
2150,2150,28.765,2150
3399,3399,1626.0,3399
1421,1421,1490.0,1421
3057,3057,0.0,3057
3157,3157,2316.0,3157
3820,3820,26.608,3820
2952,2952,31.53,2952
3899,3899,742.0,3899
1120,1120,35.56,1120
4008,4008,26.078000000000007,4008
1979,1979,2989.0,1979
1693,1693,1347.0,1693
3332,3332,25.096,3332
3476,3476,30.87,3476
2842,2842,26.637,2842
4445,4445,1058.0,4445
1734,1734,44.815,1734
3791,3791,2357.0,3791
2551,2551,0.0,2551
3717,3717,131.0,3717
4317,4317,334.0,4317
3137,3137,0.0,3137
3612,3612,124.983,3612
1430,1430,31.53,1430
3492,3492,28.135,3492
1259,1259,0.0,1259
1745,1745,309.0,1745
2753,2753,2574.0,2753
1653,1653,1806.0,1653
4168,4168,24.568,4168
1512,1512,37.546,1512
2975,2975,2836.0,2975
2712,2712,31.297,2712
1911,1911,1937.0,1911
3201,3201,2519.0,3201
2676,2676,24.675,2676
3800,3800,25.345,3800
2946,2946,26.119,2946
731,731,2209.0,731
2041,2041,2172.0,2041
2400,2400,27.404,2400
3465,3465,1466.0,3465
1204,1204,30.315,1204
894,894,24.986,894
4281,4281,152.0,4281
1537,1537,2332.0,1537
2755,2755,1673.0,2755
2442,2442,24.84,2442
1995,1995,1841.0,1995
920,920,24.962,920
3839,3839,584.0,3839
1313,1313,334.0,1313
1095,1095,0.0,1095
2098,2098,27.286,2098
2060,2060,24.473000000000006,2060
2046,2046,28.226,2046
2994,2994,28.6,2994
1236,1236,28.998,1236
612,612,31.643,612
2019,2019,618.0,2019
1360,1360,33.313,1360
1985,1985,2821.0,1985
3066,3066,28.207,3066
2277,2277,884.0,2277
3398,3398,26.807,3398
1489,1489,0.0,1489
3788,3788,26.677,3788
3777,3777,0.0,3777
552,552,29.174,552
3524,3524,29.246,3524
2018,2018,25.087,2018
3863,3863,1191.0,3863
2027,2027,2246.0,2027
1791,1791,345.0,1791
4184,4184,27.793000000000006,4184
764,764,23.704,764
2038,2038,164.52900000000002,2038
923,923,601.0,923
3917,3917,1764.0,3917
3602,3602,25.306,3602
837,837,2485.0,837
2865,2865,2924.0,2865
782,782,29.319000000000006,782
2279,2279,1940.0,2279
3995,3995,2083.0,3995
4171,4171,1535.0,4171
3542,3542,26.101,3542
901,901,2780.0,901
2752,2752,32.088,2752
2513,2513,704.0,2513
3769,3769,1937.0,3769
3813,3813,2059.0,3813
3866,3866,35.229,3866
600,600,29.492,600
2100,2100,29.612,2100
2652,2652,30.992,2652
3767,3767,959.0,3767
4294,4294,27.464,4294
4073,4073,1726.0,4073
3215,3215,0.0,3215
3582,3582,25.324,3582
2641,2641,54.0,2641
3384,3384,25.498,3384
2191,2191,766.0,2191
4286,4286,24.264,4286
1713,1713,1081.0,1713
580,580,28.555,580
1795,1795,2543.0,1795
2930,2930,26.647,2930
706,706,28.519,706
2845,2845,876.0,2845
2081,2081,1499.0,2081
3669,3669,2372.0,3669
3070,3070,24.191,3070
1333,1333,2238.0,1333
3693,3693,300.0,3693
1150,1150,67.44,1150
1348,1348,27.513,1348
1960,1960,25.643,1960
4369,4369,2209.0,4369
2171,2171,1276.0,2171
965,965,1252.0,965
4433,4433,2524.0,4433
1366,1366,33.621,1366
1854,1854,27.981,1854
691,691,806.0,691
3349,3349,103.0,3349
3551,3551,605.0,3551
1517,1517,1183.0,1517
1668,1668,29.974,1668
4342,4342,24.646,4342
1133,1133,2545.0,1133
2809,2809,640.0,2809
4303,4303,71.0,4303
2107,2107,91.0,2107
581,581,1700.0,581
1561,1561,0.0,1561
952,952,29.17,952
3016,3016,24.262,3016
4260,4260,24.714,4260
1140,1140,32.219,1140
2491,2491,660.0,2491
567,567,1408.0,567
1034,1034,31.054,1034
1005,1005,0.0,1005
1973,1973,1448.0,1973
1105,1105,201.0,1105
1635,1635,1386.0,1635
538,538,24.496,538
591,591,831.0,591
1832,1832,29.232,1832
1887,1887,2809.0,1887
1969,1969,475.0,1969
1030,1030,26.429,1030
4347,4347,0.0,4347
1902,1902,29.599,1902
1983,1983,297.0,1983
1303,1303,2096.0,1303
3273,3273,2100.0,3273
4325,4325,2194.0,4325
561,561,2865.0,561
2141,2141,0.0,2141
2754,2754,35.256,2754
1806,1806,28.267,1806
2367,2367,1632.0,2367
4074,4074,30.54,4074
1225,1225,2112.0,1225
2577,2577,2832.0,2577
1679,1679,116.0,1679
1023,1023,1285.0,1023
1638,1638,25.331,1638
1587,1587,2200.0,1587
3323,3323,1351.0,3323
3998,3998,38.039,3998
2035,2035,0.0,2035
1242,1242,29.279,1242
2948,2948,24.152,2948
4326,4326,24.432,4326
2023,2023,127.0,2023
1476,1476,38.002,1476
1539,1539,214.0,1539
2403,2403,1590.0,2403
556,556,35.583,556
3831,3831,61.0,3831
4017,4017,1938.0,4017
3358,3358,206.279,3358
3883,3883,0.0,3883
3474,3474,27.04,3474
1950,1950,25.899,1950
2307,2307,0.0,2307
739,739,0.0,739
1515,1515,785.0,1515
3988,3988,27.579,3988
3529,3529,1117.0,3529
2125,2125,196.0,2125
2481,2481,2387.0,2481
505,505,591.0,505
3453,3453,1091.0,3453
3480,3480,24.45,3480
3691,3691,0.0,3691
2070,2070,25.004,2070
4424,4424,25.203000000000007,4424
539,539,560.0,539
3178,3178,24.391,3178
3327,3327,1283.0,3327
3375,3375,62.0,3375
602,602,29.619,602
1092,1092,25.566,1092
1264,1264,27.526,1264
2229,2229,1134.0,2229
1917,1917,2333.0,1917
1110,1110,23.618,1110
2720,2720,32.111999999999995,2720
4141,4141,2195.0,4141
2973,2973,1871.0,2973
4253,4253,822.0,4253
2525,2525,445.0,2525
3498,3498,23.785,3498
3312,3312,24.155,3312
1834,1834,24.679,1834
4328,4328,24.76,4328
3565,3565,2359.0,3565
980,980,26.873,980
3727,3727,1776.0,3727
4368,4368,28.824,4368
2703,2703,1985.0,2703
1934,1934,41.114,1934
2369,2369,1831.0,2369
2941,2941,1984.0,2941
1687,1687,2556.0,1687
4061,4061,2714.0,4061
967,967,299.0,967
2456,2456,26.2,2456
3174,3174,31.975,3174
1554,1554,24.503,1554
972,972,28.583,972
2719,2719,1854.0,2719
2042,2042,30.902,2042
1038,1038,26.478,1038
804,804,30.786,804
1056,1056,26.414,1056
2022,2022,28.1,2022
3748,3748,24.304,3748
1402,1402,26.55,1402
1422,1422,23.985,1422
3367,3367,872.0,3367
3193,3193,1848.0,3193
2450,2450,25.854,2450
3488,3488,24.165,3488
4123,4123,0.0,4123
1618,1618,26.219,1618
2870,2870,29.269,2870
3260,3260,24.664,3260
1156,1156,29.782,1156
841,841,1234.0,841
2402,2402,29.433000000000003,2402
3304,3304,24.902,3304
2271,2271,123.0,2271
2503,2503,1137.0,2503
2475,2475,143.0,2475
1940,1940,28.024,1940
1797,1797,1920.0,1797
2664,2664,24.157,2664
3301,3301,1755.0,3301
2280,2280,25.183000000000003,2280
3643,3643,2671.0,3643
2831,2831,1077.0,2831
631,631,296.0,631
2862,2862,28.23,2862
4299,4299,39.0,4299
2549,2549,2826.0,2549
3430,3430,24.611,3430
3530,3530,24.048,3530
1370,1370,26.053,1370
3909,3909,651.0,3909
1417,1417,0.0,1417
840,840,26.664,840
3632,3632,167.067,3632
2323,2323,789.0,2323
4244,4244,24.255,4244
1033,1033,1250.0,1033
3610,3610,125.755,3610
658,658,33.599000000000004,658
908,908,27.839,908
1813,1813,1778.0,1813
961,961,636.0,961
676,676,26.862,676
2949,2949,1803.0,2949
507,507,369.0,507
3827,3827,2541.0,3827
1569,1569,1943.0,1569
2883,2883,0.0,2883
3826,3826,31.21,3826
3932,3932,40.322,3932
3872,3872,34.527,3872
1235,1235,2354.0,1235
1465,1465,0.0,1465
1109,1109,2691.0,1109
1702,1702,25.41,1702
1217,1217,60.0,1217
1104,1104,32.224000000000004,1104
1238,1238,25.657,1238
1106,1106,30.289,1106
2597,2597,1410.0,2597
2747,2747,1730.0,2747
3966,3966,26.762,3966
1345,1345,2617.0,1345
3490,3490,28.846,3490
1844,1844,27.285,1844
2557,2557,2120.0,2557
1344,1344,27.28,1344
1447,1447,0.0,1447
1764,1764,42.757,1764
927,927,1213.0,927
1127,1127,2296.0,1127
1540,1540,24.021,1540
3714,3714,152.078,3714
3414,3414,117.706,3414
4012,4012,30.984,4012
3963,3963,2311.0,3963
3648,3648,25.379,3648
3436,3436,28.957,3436
615,615,1739.0,615
4283,4283,1424.0,4283
3441,3441,1200.0,3441
508,508,25.631,508
4309,4309,1203.0,4309
3454,3454,24.423,3454
2173,2173,1917.0,2173
4237,4237,279.0,4237
1160,1160,27.152,1160
1865,1865,211.0,1865
3935,3935,1086.0,3935
3523,3523,800.0,3523
551,551,2060.0,551
1128,1128,33.431,1128
1397,1397,1085.0,1397
2890,2890,24.182,2890
3146,3146,24.461,3146
1312,1312,27.787,1312
548,548,36.433,548
860,860,34.699,860
4292,4292,27.623,4292
1085,1085,783.0,1085
3958,3958,27.704,3958
2958,2958,26.18,2958
685,685,1618.0,685
1459,1459,184.0,1459
2293,2293,769.0,2293
686,686,28.618,686
1009,1009,1902.0,1009
1091,1091,841.0,1091
1683,1683,533.0,1683
1283,1283,1282.0,1283
1651,1651,1082.0,1651
3806,3806,25.567,3806
657,657,1971.0,657
3204,3204,30.646,3204
2455,2455,2584.0,2455
2225,2225,2001.0,2225
512,512,24.82,512
4015,4015,1887.0,4015
745,745,2751.0,745
3065,3065,643.0,3065
3627,3627,1573.0,3627
797,797,2423.0,797
3145,3145,0.0,3145
767,767,107.0,767
653,653,0.0,653
1058,1058,36.336,1058
2136,2136,30.193,2136
3661,3661,2033.0,3661
857,857,2619.0,857
998,998,28.386,998
759,759,1689.0,759
839,839,2247.0,839
1548,1548,30.275,1548
609,609,1638.0,609
3175,3175,0.0,3175
2613,2613,1844.0,2613
3597,3597,0.0,3597
2998,2998,34.867,2998
4063,4063,1493.0,4063
762,762,28.688,762
3698,3698,34.949,3698
1071,1071,2181.0,1071
2299,2299,2317.0,2299
1802,1802,27.572,1802
2431,2431,2589.0,2431
788,788,29.387,788
3729,3729,0.0,3729
3377,3377,1527.0,3377
3720,3720,24.088,3720
3950,3950,25.26,3950
2596,2596,29.667,2596
2083,2083,1001.0,2083
2787,2787,1392.0,2787
3001,3001,645.0,3001
4075,4075,834.0,4075
2601,2601,2143.0,2601
1404,1404,26.945,1404
2482,2482,28.687,2482
667,667,0.0,667
2465,2465,1296.0,2465
4362,4362,25.072,4362
3060,3060,24.219,3060
4358,4358,24.157,4358
1012,1012,29.139,1012
1949,1949,835.0,1949
2207,2207,2971.0,2207
2502,2502,26.025,2502
3985,3985,2209.0,3985
3624,3624,31.565,3624
1081,1081,2210.0,1081
1292,1292,28.474,1292
3961,3961,1711.0,3961
1475,1475,0.0,1475
957,957,837.0,957
1700,1700,24.841,1700
3355,3355,2237.0,3355
3395,3395,1818.0,3395
1541,1541,442.0,1541
4376,4376,27.97,4376
3239,3239,2905.0,3239
1794,1794,27.343000000000004,1794
4084,4084,32.458,4084
2190,2190,24.426,2190
2967,2967,1877.0,2967
2674,2674,26.564,2674
3997,3997,1532.0,3997
2645,2645,514.0,2645
3370,3370,28.79,3370
1401,1401,663.0,1401
1975,1975,2309.0,1975
2337,2337,1495.0,2337
921,921,2996.0,921
1145,1145,2598.0,1145
996,996,30.082,996
2700,2700,26.255,2700
807,807,2071.0,807
1112,1112,26.644,1112
3920,3920,26.109,3920
687,687,2665.0,687
2649,2649,2531.0,2649
806,806,34.921,806
1681,1681,436.0,1681
2126,2126,31.084,2126
4045,4045,1679.0,4045
4275,4275,678.0,4275
1477,1477,0.0,1477
2183,2183,2773.0,2183
2889,2889,1952.0,2889
3580,3580,24.537,3580
689,689,304.0,689
4348,4348,26.936,4348
1800,1800,24.849,1800
694,694,33.96,694
2748,2748,24.757,2748
2054,2054,24.577,2054
3634,3634,33.118,3634
1663,1663,0.0,1663
4162,4162,24.101,4162
3807,3807,542.0,3807
1895,1895,0.0,1895
638,638,35.175,638
2567,2567,2295.0,2567
778,778,30.153,778
2742,2742,24.219,2742
1762,1762,29.252,1762
1386,1386,29.454,1386
3231,3231,2058.0,3231
2216,2216,31.537,2216
3104,3104,27.538,3104
2013,2013,1746.0,2013
3059,3059,1645.0,3059
1998,1998,26.506,1998
1445,1445,2544.0,1445
3784,3784,28.101,3784
4401,4401,0.0,4401
3247,3247,750.0,3247
2383,2383,0.0,2383
3289,3289,2408.0,3289
1740,1740,35.795,1740
2189,2189,418.0,2189
3039,3039,2124.0,3039
1468,1468,25.407,1468
2644,2644,26.898000000000003,2644
1536,1536,26.464,1536
2254,2254,25.957,2254
1694,1694,35.455,1694
2751,2751,1123.0,2751
1774,1774,25.267,1774
1927,1927,1762.0,1927
2340,2340,32.463,2340
2706,2706,26.026,2706
526,526,28.353,526
645,645,2042.0,645
2618,2618,26.89,2618
2705,2705,935.0,2705
2866,2866,24.55,2866
1222,1222,62.344,1222
1645,1645,2210.0,1645
2283,2283,2095.0,2283
825,825,2884.0,825
976,976,28.007,976
2538,2538,30.171,2538
1538,1538,27.686,1538
2584,2584,27.99,2584
892,892,24.09,892
1755,1755,0.0,1755
564,564,31.041,564
4307,4307,2421.0,4307
4080,4080,26.221,4080
891,891,676.0,891
2585,2585,584.0,2585
769,769,1424.0,769
2800,2800,23.97,2800
4231,4231,1429.0,4231
3802,3802,29.6,3802
2743,2743,1690.0,2743
1706,1706,25.998,1706
1546,1546,29.412,1546
3592,3592,147.752,3592
2623,2623,2636.0,2623
3743,3743,2915.0,3743
3187,3187,1898.0,3187
3050,3050,27.679,3050
2099,2099,1499.0,2099
2406,2406,27.104,2406
1343,1343,824.0,1343
3600,3600,40.785,3600
2143,2143,938.0,2143
1944,1944,36.188,1944
4188,4188,25.567,4188
3645,3645,738.0,3645
3728,3728,30.577,3728
1847,1847,2696.0,1847
1107,1107,1055.0,1107
2790,2790,24.664,2790
2701,2701,695.0,2701
3296,3296,173.97,3296
2050,2050,30.403,2050
1233,1233,804.0,1233
709,709,261.0,709
1208,1208,30.855,1208
3227,3227,1634.0,3227
1855,1855,1829.0,1855
3116,3116,205.394,3116
1154,1154,24.825,1154
586,586,29.44,586
2049,2049,0.0,2049
2600,2600,27.913,2600
1502,1502,30.885,1502
3438,3438,24.078000000000007,3438
3119,3119,2676.0,3119
3163,3163,988.0,3163
893,893,0.0,893
1277,1277,2036.0,1277
3649,3649,791.0,3649
4129,4129,2280.0,4129
937,937,1985.0,937
1374,1374,26.366,1374
1276,1276,40.51,1276
3687,3687,1543.0,3687
3151,3151,1420.0,3151
2268,2268,25.642,2268
4425,4425,2689.0,4425
2897,2897,776.0,2897
2407,2407,1945.0,2407
1069,1069,0.0,1069
2495,2495,2195.0,2495
2777,2777,152.0,2777
973,973,455.0,973
1605,1605,1288.0,1605
550,550,37.626,550
1458,1458,32.473,1458
3389,3389,2911.0,3389
3314,3314,213.948,3314
1163,1163,2365.0,1163
3242,3242,185.761,3242
2354,2354,26.764,2354
3561,3561,2386.0,3561
3321,3321,239.0,3321
1193,1193,2884.0,1193
4371,4371,2893.0,4371
1625,1625,1923.0,1625
1346,1346,24.821,1346
549,549,2446.0,549
1496,1496,31.91,1496
2646,2646,32.295,2646
682,682,29.411,682
4329,4329,0.0,4329
4100,4100,28.909,4100
1997,1997,1519.0,1997
3224,3224,24.176,3224
2149,2149,788.0,2149
1494,1494,32.098,1494
2256,2256,25.901,2256
3865,3865,1836.0,3865
916,916,23.875,916
2490,2490,26.494,2490
2697,2697,1686.0,2697
879,879,1816.0,879
1914,1914,29.392,1914
1129,1129,1541.0,1129
1248,1248,34.643,1248
2115,2115,385.0,2115
3445,3445,773.0,3445
3585,3585,159.0,3585
3117,3117,0.0,3117
795,795,0.0,795
4306,4306,28.705,4306
3745,3745,241.0,3745
1439,1439,245.0,1439
2153,2153,2226.0,2153
2627,2627,171.0,2627
2053,2053,1332.0,2053
3195,3195,2457.0,3195
2716,2716,25.008000000000006,2716
3555,3555,2162.0,3555
554,554,46.535,554
1708,1708,26.885,1708
2869,2869,1105.0,2869
2286,2286,26.189,2286
3846,3846,27.595,3846
3183,3183,770.0,3183
1032,1032,27.322,1032
3916,3916,31.682,3916
1857,1857,1438.0,1857
1002,1002,24.624,1002
930,930,26.965,930
2692,2692,24.635,2692
3268,3268,149.991,3268
723,723,1685.0,723
2133,2133,2166.0,2133
3383,3383,2985.0,3383
644,644,25.052,644
1028,1028,29.088,1028
3545,3545,2030.0,3545
2844,2844,23.973000000000006,2844
1166,1166,31.254,1166
2498,2498,26.73,2498
2607,2607,2542.0,2607
4388,4388,36.704,4388
3723,3723,0.0,3723
3818,3818,98.383,3818
774,774,28.072,774
1483,1483,535.0,1483
1325,1325,0.0,1325
827,827,1048.0,827
3757,3757,1065.0,3757
2741,2741,2454.0,2741
3142,3142,187.68400000000003,3142
1320,1320,27.441,1320
2880,2880,26.312,2880
4349,4349,2024.0,4349
1778,1778,26.473000000000006,1778
2639,2639,589.0,2639
1273,1273,2971.0,1273
2147,2147,1229.0,2147
3255,3255,0.0,3255
1567,1567,2648.0,1567
3546,3546,27.721,3546
1701,1701,2267.0,1701
1192,1192,25.494,1192
2727,2727,2230.0,2727
3808,3808,24.886,3808
2999,2999,0.0,2999
1347,1347,97.0,1347
1393,1393,1763.0,1393
2467,2467,485.0,2467
2396,2396,27.509,2396
3131,3131,2620.0,3131
3941,3941,1881.0,3941
4155,4155,1952.0,4155
2563,2563,1496.0,2563
2316,2316,25.389,2316
3277,3277,1109.0,3277
4252,4252,26.384,4252
2591,2591,2443.0,2591
2063,2063,2112.0,2063
2799,2799,1665.0,2799
4251,4251,2795.0,4251
3246,3246,24.666,3246
3434,3434,24.347,3434
4109,4109,292.0,4109
3299,3299,975.0,3299
1195,1195,2186.0,1195
1201,1201,1840.0,1201
2821,2821,2959.0,2821
4423,4423,576.0,4423
2632,2632,24.021,2632
4355,4355,759.0,4355
733,733,899.0,733
1787,1787,0.0,1787
3295,3295,1742.0,3295
1356,1356,32.941,1356
2616,2616,28.059,2616
2320,2320,25.548,2320
1823,1823,225.0,1823
3023,3023,59.0,3023
3873,3873,1967.0,3873
2837,2837,604.0,2837
1784,1784,25.661,1784
3074,3074,24.99,3074
1773,1773,1423.0,1773
3708,3708,24.69,3708
3756,3756,23.575,3756
1739,1739,2941.0,1739
3789,3789,408.0,3789
3613,3613,1419.0,3613
1884,1884,26.776,1884
1361,1361,2620.0,1361
553,553,1964.0,553
4218,4218,26.717,4218
4390,4390,26.91,4390
1792,1792,28.48,1792
3508,3508,25.075,3508
4224,4224,27.581,4224
3113,3113,1131.0,3113
2817,2817,2762.0,2817
3823,3823,2492.0,3823
3168,3168,191.662,3168
4105,4105,2582.0,4105
1497,1497,694.0,1497
4402,4402,27.152,4402
2034,2034,29.805,2034
1753,1753,0.0,1753
1121,1121,2974.0,1121
4406,4406,36.076,4406
2779,2779,293.0,2779
951,951,2493.0,951
753,753,1650.0,753
629,629,986.0,629
652,652,29.176,652
3484,3484,24.392,3484
3702,3702,35.462,3702
3012,3012,26.27,3012
1785,1785,2394.0,1785
1845,1845,2569.0,1845
1826,1826,29.553,1826
1205,1205,2584.0,1205
1598,1598,28.946,1598
1958,1958,23.832,1958
2269,2269,1532.0,2269
1365,1365,2696.0,1365
2857,2857,257.0,2857
1530,1530,28.601,1530
3651,3651,37.0,3651
1507,1507,2758.0,1507
2239,2239,2788.0,2239
2090,2090,27.108,2090
4057,4057,2620.0,4057
2234,2234,36.232,2234
1426,1426,26.066,1426
4261,4261,58.0,4261
4026,4026,25.418000000000006,4026
2352,2352,28.225,2352
3115,3115,726.0,3115
2417,2417,0.0,2417
1662,1662,48.841,1662
605,605,2854.0,605
907,907,1837.0,907
1856,1856,29.977,1856
574,574,28.477,574
2636,2636,23.734,2636
800,800,28.404,800
2386,2386,45.202,2386
3878,3878,28.361,3878
1215,1215,207.0,1215
3754,3754,27.21,3754
3105,3105,0.0,3105
1153,1153,355.0,1153
672,672,28.806,672
2573,2573,350.0,2573
3810,3810,28.312,3810
713,713,2253.0,713
2130,2130,38.896,2130
1388,1388,33.738,1388
3029,3029,2631.0,3029
2255,2255,0.0,2255
4304,4304,24.717,4304
4009,4009,2857.0,4009
4272,4272,25.18,4272
3915,3915,1417.0,3915
2372,2372,31.79,2372
4203,4203,276.0,4203
968,968,29.393,968
2650,2650,31.381,2650
4138,4138,24.077,4138
1135,1135,2615.0,1135
2682,2682,23.59,2682
2947,2947,2968.0,2947
2198,2198,29.389,2198
1017,1017,148.0,1017
1543,1543,0.0,1543
3795,3795,2391.0,3795
3572,3572,211.306,3572
2977,2977,0.0,2977
4291,4291,1082.0,4291
3026,3026,31.0,3026
1234,1234,25.631,1234
1060,1060,27.911,1060
2087,2087,103.0,2087
4090,4090,28.405,4090
4271,4271,2624.0,4271
4106,4106,24.198,4106
2222,2222,33.241,2222
597,597,2832.0,597
555,555,0.0,555
543,543,56.0,543
4087,4087,2209.0,4087
2381,2381,1168.0,2381
2158,2158,25.458,2158
2072,2072,26.872,2072
3494,3494,24.894,3494
2566,2566,44.067,2566
3706,3706,29.385,3706
4225,4225,997.0,4225
1703,1703,303.0,1703
4121,4121,0.0,4121
4240,4240,26.408,4240
1200,1200,29.892,1200
2048,2048,29.502,2048
1981,1981,1709.0,1981
780,780,27.366,780
1534,1534,32.089,1534
3470,3470,27.499,3470
2333,2333,2946.0,2333
3770,3770,27.961,3770
4431,4431,1632.0,4431
3734,3734,30.592,3734
4442,4442,31.36,4442
1978,1978,26.563,1978
2457,2457,0.0,2457
3374,3374,27.621,3374
2978,2978,25.967,2978
3285,3285,1780.0,3285
1562,1562,23.859,1562
1008,1008,33.313,1008
661,661,249.0,661
2594,2594,26.135,2594
3607,3607,1842.0,3607
1526,1526,24.84,1526
932,932,27.493,932
3662,3662,29.86,3662
3936,3936,36.328,3936
4043,4043,253.0,4043
3876,3876,23.845,3876
1310,1310,27.484,1310
3824,3824,30.566,3824
1888,1888,30.449,1888
4036,4036,25.999,4036
2311,2311,63.0,2311
1111,1111,1492.0,1111
3674,3674,183.142,3674
2219,2219,405.0,2219
4161,4161,426.0,4161
1117,1117,487.0,1117
601,601,2199.0,601
3960,3960,28.471,3960
3657,3657,1367.0,3657
4383,4383,2876.0,4383
3712,3712,175.509,3712
4104,4104,25.222,4104
2531,2531,292.0,2531
711,711,0.0,711
1715,1715,1281.0,1715
3307,3307,538.0,3307
3864,3864,25.061,3864
2399,2399,2373.0,2399
4413,4413,2562.0,4413
3097,3097,2641.0,3097
1433,1433,958.0,1433
1959,1959,1996.0,1959
1463,1463,2468.0,1463
1443,1443,823.0,1443
4185,4185,2492.0,4185
3090,3090,28.002,3090
4345,4345,2951.0,4345
1177,1177,2940.0,1177
1207,1207,657.0,1207
2420,2420,26.695,2420
3311,3311,117.0,3311
3618,3618,23.585,3618
2376,2376,30.601,2376
1634,1634,26.48,1634
2854,2854,28.043000000000006,2854
1849,1849,729.0,1849
3981,3981,43.0,3981
4315,4315,1807.0,4315
4040,4040,32.216,4040
3213,3213,416.0,3213
1061,1061,2219.0,1061
3763,3763,59.0,3763
2526,2526,36.111,2526
1363,1363,1947.0,1363
4032,4032,25.639,4032
3397,3397,2586.0,3397
2628,2628,29.315,2628
4082,4082,24.802,4082
516,516,28.522,516
2725,2725,0.0,2725
3102,3102,27.03,3102
2932,2932,24.157,2932
1326,1326,64.303,1326
2368,2368,28.558000000000003,2368
2031,2031,1668.0,2031
4030,4030,25.199,4030
971,971,2243.0,971
1115,1115,1083.0,1115
3336,3336,27.532,3336
2224,2224,28.094,2224
2294,2294,43.01600000000001,2294
3489,3489,1107.0,3489
1767,1767,116.0,1767
2972,2972,24.608,2972
2088,2088,32.663000000000004,2088
674,674,26.359,674
1084,1084,28.555,1084
3716,3716,213.697,3716
1435,1435,54.0,1435
1444,1444,25.898000000000003,1444
1926,1926,28.174,1926
1227,1227,1889.0,1227
3962,3962,24.643,3962
959,959,1437.0,959
1314,1314,27.038,1314
1656,1656,27.776,1656
3010,3010,32.037,3010
3013,3013,1003.0,3013
3322,3322,29.69,3322
2282,2282,31.472,2282
1748,1748,35.017,1748
1710,1710,27.098000000000006,1710
3955,3955,944.0,3955
523,523,1875.0,523
1065,1065,2346.0,1065
1963,1963,517.0,1963
2002,2002,34.425,2002
4044,4044,24.409,4044
1357,1357,2792.0,1357
2089,2089,0.0,2089
1942,1942,29.623,1942
4066,4066,24.041,4066
3518,3518,27.613000000000003,3518
3953,3953,2959.0,3953
3411,3411,2833.0,3411
2032,2032,30.668000000000006,2032
1555,1555,2510.0,1555
3333,3333,1411.0,3333
1860,1860,30.911,1860
3156,3156,24.748,3156
2536,2536,28.912,2536
3069,3069,1705.0,3069
2193,2193,1127.0,2193
693,693,2456.0,693
1727,1727,704.0,1727
3491,3491,858.0,3491
3809,3809,1697.0,3809
3202,3202,141.75799999999995,3202
3409,3409,1460.0,3409
3686,3686,183.327,3686
3240,3240,26.382,3240
2881,2881,2340.0,2881
3553,3553,0.0,3553
2215,2215,1409.0,2215
4288,4288,24.642,4288
4312,4312,29.245,4312
4085,4085,1530.0,4085
1522,1522,24.042,1522
2152,2152,24.287,2152
2401,2401,113.0,2401
2252,2252,27.144,2252
3385,3385,1455.0,3385
1173,1173,2340.0,1173
2589,2589,1981.0,2589
3836,3836,31.53,3836
1882,1882,25.327,1882
4170,4170,24.046,4170
2885,2885,340.0,2885
4098,4098,30.967,4098
2220,2220,33.239000000000004,2220
947,947,717.0,947
1340,1340,30.254,1340
1904,1904,24.631,1904
4448,4448,25.799,4448
2553,2553,1763.0,2553
584,584,25.228,584
1075,1075,913.0,1075
4216,4216,24.24,4216
4081,4081,78.0,4081
2082,2082,33.055,2082
1100,1100,24.776,1100
2675,2675,351.0,2675
1527,1527,2527.0,1527
3563,3563,1376.0,3563
3832,3832,32.56,3832
1221,1221,532.0,1221
1211,1211,0.0,1211
2654,2654,27.47,2654
2981,2981,1093.0,2981
2343,2343,2534.0,2343
678,678,27.826,678
1072,1072,27.253,1072
1149,1149,1074.0,1149
1257,1257,529.0,1257
2916,2916,31.108,2916
2029,2029,2682.0,2029
3143,3143,1240.0,3143
1840,1840,25.806,1840
2477,2477,1447.0,2477
3922,3922,31.374,3922
814,814,31.096,814
3620,3620,26.761,3620
1836,1836,25.188,1836
2433,2433,965.0,2433
1387,1387,738.0,1387
2580,2580,26.174,2580
2995,2995,2187.0,2995
1457,1457,0.0,1457
3235,3235,0.0,3235
3781,3781,2064.0,3781
1783,1783,2938.0,1783
3422,3422,29.598000000000006,3422
3888,3888,27.997,3888
3535,3535,444.0,3535
2104,2104,25.561,2104
1474,1474,28.386,1474
3855,3855,128.0,3855
2253,2253,744.0,2253
2101,2101,1214.0,2101
3292,3292,23.841,3292
2655,2655,0.0,2655
845,845,657.0,845
3342,3342,26.122,3342
904,904,24.803,904
3486,3486,27.704,3486
2071,2071,932.0,2071
3487,3487,1998.0,3487
1159,1159,643.0,1159
3875,3875,1868.0,3875
1053,1053,69.0,1053
4236,4236,24.071,4236
2218,2218,33.44,2218
3452,3452,27.144,3452
1050,1050,27.175,1050
3659,3659,303.0,3659
1622,1622,28.331,1622
2713,2713,1461.0,2713
2927,2927,1582.0,2927
710,710,36.894,710
1819,1819,56.0,1819
2075,2075,49.0,2075
3547,3547,216.0,3547
1432,1432,26.901,1432
4420,4420,27.737,4420
4373,4373,1626.0,4373
3079,3079,1412.0,3079
929,929,1759.0,929
3722,3722,24.646,3722
2313,2313,2927.0,2313
3297,3297,2193.0,3297
3403,3403,2617.0,3403
1827,1827,1815.0,1827
4264,4264,24.332,4264
4435,4435,1281.0,4435
3008,3008,23.983,3008
2560,2560,27.412,2560
1932,1932,28.17,1932
3035,3035,457.0,3035
1068,1068,28.623,1068
2445,2445,1212.0,2445
3670,3670,24.507,3670
4360,4360,24.452,4360
3858,3858,29.664,3858
1157,1157,1939.0,1157
2033,2033,1813.0,2033
3250,3250,24.52,3250
2303,2303,1459.0,2303
3829,3829,371.0,3829
3088,3088,26.598000000000006,3088
3889,3889,385.0,3889
2120,2120,26.43,2120
664,664,24.023000000000003,664
1431,1431,319.0,1431
4438,4438,30.861,4438
843,843,2826.0,843
4239,4239,1452.0,4239
1735,1735,157.0,1735
1842,1842,24.156,1842
2085,2085,496.0,2085
3885,3885,343.0,3885
2759,2759,2736.0,2759
4210,4210,27.396,4210
2388,2388,27.582,2388
2405,2405,2357.0,2405
1073,1073,1819.0,1073
4020,4020,29.354,4020
1284,1284,29.143,1284
2312,2312,29.507,2312
515,515,1705.0,515
1599,1599,1781.0,1599
3041,3041,2505.0,3041
4092,4092,29.103,4092
3780,3780,29.136,3780
4165,4165,651.0,4165
3689,3689,2961.0,3689
2489,2489,1653.0,2489
832,832,27.029,832
3334,3334,24.025,3334
2839,2839,1414.0,2839
712,712,37.494,712
865,865,1462.0,865
3019,3019,2208.0,3019
3062,3062,24.578000000000007,3062
3230,3230,115.197,3230
2925,2925,655.0,2925
2197,2197,1367.0,2197
4172,4172,25.253,4172
1816,1816,29.862,1816
939,939,2761.0,939
2349,2349,364.0,2349
2006,2006,28.521,2006
546,546,25.894,546
4412,4412,29.127,4412
4163,4163,0.0,4163
3302,3302,29.419,3302
1654,1654,35.464,1654
1119,1119,794.0,1119
3972,3972,24.299,3972
1398,1398,36.605,1398
3388,3388,27.534,3388
3075,3075,1192.0,3075
4408,4408,25.442,4408
1253,1253,285.0,1253
4256,4256,27.694000000000006,4256
636,636,33.707,636
940,940,35.504,940
650,650,26.476,650
2356,2356,28.069000000000006,2356
2415,2415,181.0,2415
3640,3640,28.534,3640
3540,3540,24.232,3540
1550,1550,28.991,1550
3335,3335,2867.0,3335
3425,3425,1821.0,3425
3261,3261,1207.0,3261
896,896,28.373,896
2322,2322,27.522,2322
1271,1271,332.0,1271
1666,1666,36.949,1666
3573,3573,914.0,3573
925,925,1073.0,925
4198,4198,26.051,4198
3421,3421,37.0,3421
872,872,24.337,872
969,969,1039.0,969
2996,2996,37.793,2996
2984,2984,26.969,2984
2798,2798,25.22,2798
4397,4397,897.0,4397
2523,2523,476.0,2523
2667,2667,261.0,2667
2744,2744,28.752,2744
4069,4069,2120.0,4069
1901,1901,2210.0,1901
2965,2965,296.0,2965
846,846,27.112,846
4337,4337,1529.0,4337
854,854,30.384,854
3181,3181,1697.0,3181
3828,3828,192.183,3828
4189,4189,0.0,4189
2888,2888,25.243,2888
1707,1707,2757.0,1707
1074,1074,27.226,1074
3309,3309,939.0,3309
2982,2982,196.843,2982
3211,3211,801.0,3211
2882,2882,29.094,2882
1759,1759,924.0,1759
2859,2859,1756.0,2859
2893,2893,2639.0,2893
603,603,0.0,603
2630,2630,29.952,2630
1528,1528,31.3,1528
3856,3856,29.138,3856
510,510,27.637,510
3094,3094,28.48,3094
1411,1411,2250.0,1411
1187,1187,2946.0,1187
2922,2922,33.072,2922
2792,2792,25.206,2792
3562,3562,33.219,3562
3107,3107,823.0,3107
2274,2274,24.52,2274
2231,2231,0.0,2231
3544,3544,24.128,3544
635,635,2057.0,635
3354,3354,27.428,3354
1889,1889,834.0,1889
3030,3030,33.161,3030
2210,2210,29.507,2210
2121,2121,0.0,2121
1542,1542,28.816,1542
2213,2213,1179.0,2213
2851,2851,1032.0,2851
3527,3527,1424.0,3527
1486,1486,27.631,1486
1610,1610,26.016,1610
2784,2784,29.288,2784
2988,2988,31.939,2988
541,541,1509.0,541
3076,3076,24.893,3076
2593,2593,0.0,2593
1608,1608,29.184,1608
4173,4173,1050.0,4173
1520,1520,24.957,1520
1261,1261,2241.0,1261
4243,4243,332.0,4243
3539,3539,1296.0,3539
1125,1125,1008.0,1125
3569,3569,927.0,3569
697,697,837.0,697
4403,4403,2887.0,4403
1108,1108,26.695,1108
616,616,29.251,616
2305,2305,3010.0,2305
1355,1355,753.0,1355
3653,3653,1071.0,3653
3472,3472,31.71,3472
3167,3167,886.0,3167
990,990,27.764,990
3003,3003,2027.0,3003
3815,3815,1271.0,3815
3586,3586,24.432,3586
1989,1989,803.0,1989
2542,2542,23.964,2542
4191,4191,233.0,4191
871,871,2118.0,871
3007,3007,1481.0,3007
2485,2485,0.0,2485
3456,3456,25.96,3456
1799,1799,802.0,1799
1782,1782,29.44,1782
503,503,2163.0,503
2884,2884,26.187,2884
1245,1245,0.0,1245
3188,3188,24.732,3188
3711,3711,752.0,3711
3291,3291,2861.0,3291
1719,1719,464.0,1719
2030,2030,173.696,2030
2326,2326,26.794,2326
2841,2841,1242.0,2841
1600,1600,24.405,1600
2287,2287,1337.0,2287
4324,4324,26.106,4324
2086,2086,134.08,2086
4003,4003,2944.0,4003
3058,3058,85.266,3058
746,746,24.025,746
2931,2931,465.0,2931
1469,1469,701.0,1469
3908,3908,34.011,3908
3897,3897,88.0,3897
4048,4048,27.543000000000006,4048
2404,2404,28.299,2404
2668,2668,24.591,2668
2990,2990,34.811,2990
1898,1898,41.865,1898
4366,4366,29.689,4366
4320,4320,24.025,4320
1682,1682,28.445,1682
4255,4255,2717.0,4255
530,530,25.203000000000007,530
3726,3726,29.155,3726
1757,1757,2285.0,1757
779,779,477.0,779
3237,3237,2450.0,3237
4227,4227,1861.0,4227
2541,2541,1095.0,2541
1164,1164,31.659,1164
3944,3944,29.54,3944
3776,3776,24.632,3776
3625,3625,630.0,3625
1818,1818,30.041,1818
1223,1223,0.0,1223
3363,3363,1645.0,3363
