,time,rtt,id
1872,1872,13.42,1872
4406,4406,14.734000000000002,4406
3733,3733,1225.0,3733
962,962,10.813,962
5100,5100,11.069,5100
5172,5172,12.630999999999998,5172
2428,2428,20.356,2428
1281,1281,195.0,1281
1581,1581,235.0,1581
2257,2257,1883.0,2257
2205,2205,284.0,2205
526,526,12.798,526
2579,2579,1365.0,2579
578,578,13.773,578
2934,2934,11.92,2934
4682,4682,11.397,4682
3040,3040,22.095,3040
2296,2296,11.928,2296
3701,3701,1015.0,3701
1516,1516,12.546,1516
2556,2556,16.803,2556
2895,2895,1503.0,2895
576,576,15.093,576
1308,1308,21.083,1308
5177,5177,2110.0,5177
3393,3393,1436.0,3393
4016,4016,12.96,4016
4603,4603,1783.0,4603
2689,2689,564.0,2689
4433,4433,0.0,4433
2323,2323,1861.0,2323
3322,3322,15.115,3322
1803,1803,2046.0,1803
857,857,1185.0,857
4453,4453,378.0,4453
2581,2581,367.0,2581
4245,4245,2228.0,4245
2732,2732,10.683,2732
1399,1399,469.0,1399
2502,2502,15.54,2502
3375,3375,415.0,3375
1189,1189,0.0,1189
5231,5231,542.0,5231
5158,5158,15.666,5158
4224,4224,13.102,4224
4470,4470,14.629,4470
4132,4132,11.53,4132
1041,1041,1873.0,1041
984,984,18.36,984
4066,4066,13.719,4066
1977,1977,714.0,1977
3725,3725,0.0,3725
2271,2271,40.0,2271
1075,1075,347.0,1075
4903,4903,475.0,4903
3436,3436,33.689,3436
4487,4487,2334.0,4487
3966,3966,19.278,3966
5210,5210,11.744000000000002,5210
1848,1848,11.366,1848
3904,3904,11.774,3904
1279,1279,563.0,1279
3046,3046,14.067,3046
1270,1270,13.157,1270
2291,2291,2141.0,2291
4809,4809,1394.0,4809
1664,1664,14.149,1664
1350,1350,12.121,1350
1428,1428,15.259,1428
690,690,13.345,690
5127,5127,1426.0,5127
1566,1566,16.192999999999998,1566
3622,3622,14.36,3622
1726,1726,13.112,1726
2683,2683,649.0,2683
1987,1987,1514.0,1987
5198,5198,14.55,5198
2597,2597,1670.0,2597
4982,4982,14.072,4982
4502,4502,145.719,4502
3002,3002,13.228,3002
2324,2324,14.169,2324
4742,4742,10.988,4742
3391,3391,731.0,3391
2609,2609,190.0,2609
2561,2561,0.0,2561
1490,1490,25.012,1490
3093,3093,2088.0,3093
3750,3750,23.405,3750
692,692,13.773,692
742,742,10.752,742
3037,3037,0.0,3037
3777,3777,2074.0,3777
1514,1514,14.356,1514
3893,3893,0.0,3893
4634,4634,11.493,4634
1676,1676,11.711,1676
1358,1358,13.581,1358
2077,2077,1199.0,2077
2549,2549,875.0,2549
1730,1730,21.623,1730
1087,1087,1287.0,1087
2395,2395,2112.0,2395
768,768,17.813,768
2017,2017,1735.0,2017
953,953,1318.0,953
2423,2423,793.0,2423
3446,3446,10.603,3446
1341,1341,0.0,1341
3360,3360,11.267,3360
2667,2667,1949.0,2667
4079,4079,316.0,4079
540,540,15.797,540
3364,3364,13.502,3364
1254,1254,16.727,1254
2024,2024,12.798,2024
5074,5074,12.675999999999998,5074
826,826,10.474,826
2250,2250,15.359000000000002,2250
1086,1086,21.755,1086
928,928,11.317,928
2233,2233,768.0,2233
704,704,13.451,704
3803,3803,2057.0,3803
1010,1010,19.998,1010
3879,3879,2243.0,3879
1368,1368,15.383,1368
3547,3547,2236.0,3547
2570,2570,15.11,2570
2541,2541,370.0,2541
4973,4973,1453.0,4973
3095,3095,1897.0,3095
1454,1454,14.116,1454
3497,3497,2010.0,3497
3767,3767,1698.0,3767
2334,2334,12.08,2334
3693,3693,1484.0,3693
2662,2662,167.15200000000004,2662
4878,4878,10.71,4878
3900,3900,15.247,3900
1704,1704,12.175999999999998,1704
2512,2512,22.792,2512
1324,1324,10.64,1324
5195,5195,1696.0,5195
3155,3155,321.0,3155
1089,1089,1599.0,1089
1521,1521,1343.0,1521
2461,2461,2298.0,2461
2418,2418,10.706,2418
4922,4922,11.623,4922
1122,1122,15.449000000000002,1122
1418,1418,14.947,1418
2898,2898,13.397,2898
1971,1971,2436.0,1971
4080,4080,12.549,4080
5108,5108,14.556,5108
1636,1636,14.911,1636
2226,2226,13.498,2226
3279,3279,2171.0,3279
2430,2430,12.03,2430
4498,4498,13.126,4498
941,941,871.0,941
4935,4935,2239.0,4935
4404,4404,14.92,4404
5262,5262,11.496,5262
1282,1282,13.693,1282
1410,1410,16.167,1410
1907,1907,1892.0,1907
1567,1567,856.0,1567
3078,3078,15.865,3078
652,652,16.089000000000002,652
4520,4520,16.159000000000002,4520
4614,4614,13.073,4614
1322,1322,13.048,1322
2517,2517,2547.0,2517
3004,3004,13.718,3004
1435,1435,1952.0,1435
2562,2562,13.787,2562
4488,4488,23.378,4488
2424,2424,10.952,2424
1000,1000,12.069,1000
991,991,307.0,991
3997,3997,2553.0,3997
4970,4970,12.726,4970
4208,4208,12.085,4208
2608,2608,13.293,2608
2804,2804,12.844,2804
1860,1860,12.502,1860
3948,3948,10.742,3948
1224,1224,16.385,1224
2097,2097,2374.0,2097
2685,2685,96.0,2685
2505,2505,1521.0,2505
3284,3284,11.262,3284
813,813,1186.0,813
3859,3859,1312.0,3859
2569,2569,245.0,2569
2370,2370,17.735,2370
2743,2743,2205.0,2743
2059,2059,0.0,2059
2379,2379,562.0,2379
3633,3633,1050.0,3633
544,544,23.16,544
4431,4431,0.0,4431
1431,1431,606.0,1431
4219,4219,0.0,4219
4832,4832,16.000999999999998,4832
2163,2163,885.0,2163
4693,4693,1782.0,4693
5163,5163,180.0,5163
2117,2117,1400.0,2117
3691,3691,1007.0,3691
3415,3415,1716.0,3415
2179,2179,1198.0,2179
2389,2389,990.0,2389
2696,2696,14.422,2696
1549,1549,1918.0,1549
1657,1657,141.0,1657
1117,1117,862.0,1117
3263,3263,352.0,3263
2186,2186,15.543,2186
3484,3484,11.17,3484
2916,2916,12.965,2916
1669,1669,2276.0,1669
4523,4523,2414.0,4523
3141,3141,2459.0,3141
4735,4735,2492.0,4735
1606,1606,51.537,1606
1359,1359,1064.0,1359
1602,1602,14.871,1602
948,948,11.581,948
5152,5152,10.378,5152
2840,2840,15.468,2840
2875,2875,2053.0,2875
847,847,0.0,847
1998,1998,10.852,1998
4850,4850,13.345,4850
1309,1309,2098.0,1309
3349,3349,403.0,3349
1678,1678,49.045,1678
502,502,14.939,502
4211,4211,0.0,4211
2039,2039,243.0,2039
2028,2028,10.991,2028
614,614,10.909,614
4031,4031,2180.0,4031
2058,2058,10.11,2058
2137,2137,1371.0,2137
3303,3303,1943.0,3303
573,573,2329.0,573
2212,2212,10.628,2212
3326,3326,16.56,3326
1943,1943,657.0,1943
1274,1274,15.501,1274
1553,1553,722.0,1553
1715,1715,184.0,1715
3969,3969,963.0,3969
1626,1626,11.515999999999998,1626
2791,2791,0.0,2791
1197,1197,2365.0,1197
3423,3423,423.0,3423
2740,2740,14.546,2740
4361,4361,0.0,4361
3210,3210,23.093000000000004,3210
3100,3100,30.192,3100
3017,3017,1380.0,3017
5234,5234,14.632,5234
2425,2425,1962.0,2425
3383,3383,514.0,3383
1453,1453,308.0,1453
542,542,18.796,542
2343,2343,2224.0,2343
4078,4078,12.449000000000002,4078
2170,2170,26.013,2170
2910,2910,22.755,2910
3287,3287,831.0,3287
2275,2275,193.0,2275
816,816,12.847,816
2841,2841,1471.0,2841
3073,3073,1507.0,3073
2719,2719,1052.0,2719
1908,1908,17.828,1908
3213,3213,1911.0,3213
760,760,14.6,760
2500,2500,15.835,2500
895,895,953.0,895
1123,1123,1491.0,1123
3318,3318,10.709,3318
5079,5079,1588.0,5079
1228,1228,10.473,1228
851,851,0.0,851
4097,4097,777.0,4097
786,786,10.973,786
735,735,937.0,735
2045,2045,722.0,2045
2778,2778,12.827,2778
3617,3617,0.0,3617
4755,4755,377.0,4755
3219,3219,732.0,3219
1383,1383,1882.0,1383
4322,4322,12.473,4322
4026,4026,14.363,4026
501,501,1158.0,501
2005,2005,2157.0,2005
1527,1527,1594.0,1527
2207,2207,511.0,2207
555,555,263.0,555
4780,4780,14.407,4780
4184,4184,18.565,4184
1491,1491,1760.0,1491
4691,4691,2187.0,4691
898,898,18.519,898
3739,3739,2336.0,3739
1022,1022,10.83,1022
2596,2596,13.324000000000002,2596
820,820,13.296,820
805,805,352.0,805
4321,4321,966.0,4321
4155,4155,875.0,4155
5104,5104,10.41,5104
1319,1319,334.0,1319
1718,1718,14.267,1718
4509,4509,623.0,4509
4251,4251,462.0,4251
1461,1461,2280.0,1461
5052,5052,13.279000000000002,5052
1219,1219,2206.0,1219
3536,3536,10.632,3536
4146,4146,16.877,4146
3845,3845,1291.0,3845
2822,2822,12.083,2822
3458,3458,11.158,3458
4785,4785,1694.0,4785
4887,4887,158.0,4887
4775,4775,320.0,4775
2263,2263,1232.0,2263
4200,4200,12.408,4200
5121,5121,2495.0,5121
979,979,1792.0,979
2849,2849,389.0,2849
2724,2724,15.574000000000002,2724
2134,2134,11.643,2134
5252,5252,11.567,5252
2555,2555,636.0,2555
3686,3686,11.983,3686
1263,1263,2338.0,1263
2716,2716,17.122,2716
1124,1124,26.747,1124
2666,2666,12.126,2666
4486,4486,16.608,4486
3931,3931,1612.0,3931
2518,2518,10.515999999999998,2518
2443,2443,210.0,2443
2698,2698,16.026,2698
4434,4434,15.05,4434
3516,3516,14.055,3516
1986,1986,13.033,1986
4653,4653,2088.0,4653
2713,2713,2016.0,2713
4655,4655,222.0,4655
2073,2073,1811.0,2073
4989,4989,831.0,4989
2626,2626,11.302,2626
2251,2251,797.0,2251
5109,5109,1062.0,5109
4292,4292,19.124,4292
2131,2131,0.0,2131
703,703,1881.0,703
1873,1873,943.0,1873
3011,3011,2325.0,3011
3475,3475,1074.0,3475
823,823,295.0,823
3564,3564,18.555,3564
4459,4459,1714.0,4459
4195,4195,2377.0,4195
4838,4838,13.267,4838
3727,3727,0.0,3727
4923,4923,1952.0,4923
4471,4471,1221.0,4471
3158,3158,17.332,3158
2679,2679,1570.0,2679
4297,4297,1732.0,4297
2833,2833,1156.0,2833
4407,4407,2012.0,4407
912,912,11.927,912
4448,4448,16.750999999999998,4448
1876,1876,14.251,1876
1390,1390,16.554000000000002,1390
3114,3114,18.091,3114
863,863,0.0,863
2619,2619,402.0,2619
3325,3325,2084.0,3325
1809,1809,29.0,1809
3225,3225,217.0,3225
4925,4925,1122.0,4925
2943,2943,210.0,2943
3854,3854,184.557,3854
2375,2375,1963.0,2375
2825,2825,1601.0,2825
1989,1989,404.0,1989
1621,1621,294.0,1621
1318,1318,11.972,1318
3268,3268,12.938,3268
732,732,11.349,732
1855,1855,0.0,1855
2564,2564,18.117,2564
3143,3143,2128.0,3143
1343,1343,1417.0,1343
3179,3179,2112.0,3179
3572,3572,24.979,3572
4981,4981,866.0,4981
1996,1996,11.639,1996
856,856,13.772,856
593,593,2109.0,593
2962,2962,12.923,2962
2940,2940,15.727,2940
4015,4015,2154.0,4015
1055,1055,0.0,1055
1965,1965,2096.0,1965
2573,2573,1457.0,2573
995,995,2353.0,995
4312,4312,13.957,4312
3492,3492,14.428,3492
2021,2021,2382.0,2021
1547,1547,657.0,1547
4766,4766,18.387,4766
2832,2832,15.793,2832
1563,1563,178.0,1563
1096,1096,13.323,1096
4108,4108,11.497,4108
3926,3926,23.991,3926
1485,1485,1141.0,1485
4645,4645,0.0,4645
2419,2419,531.0,2419
3426,3426,16.135,3426
1329,1329,1904.0,1329
1026,1026,12.729,1026
4462,4462,103.674,4462
1543,1543,1623.0,1543
2544,2544,12.281,2544
3018,3018,12.977,3018
1257,1257,195.0,1257
3947,3947,503.0,3947
1939,1939,828.0,1939
1551,1551,132.0,1551
2308,2308,12.157,2308
4430,4430,18.208,4430
1136,1136,20.645,1136
4758,4758,16.715,4758
2524,2524,17.136,2524
4170,4170,13.283,4170
4994,4994,10.954,4994
2639,2639,2244.0,2639
5278,5278,10.555,5278
4050,4050,11.158,4050
881,881,1214.0,881
3946,3946,11.701,3946
4987,4987,2088.0,4987
5056,5056,11.390999999999998,5056
4411,4411,2362.0,4411
2437,2437,0.0,2437
3785,3785,1722.0,3785
3125,3125,2208.0,3125
3491,3491,1266.0,3491
726,726,19.558,726
5235,5235,418.0,5235
2986,2986,11.279000000000002,2986
1155,1155,969.0,1155
1392,1392,17.866,1392
1455,1455,0.0,1455
2911,2911,164.0,2911
4799,4799,368.0,4799
1933,1933,1846.0,1933
1528,1528,19.932,1528
4256,4256,10.894,4256
4686,4686,11.4,4686
4232,4232,15.541,4232
2155,2155,1201.0,2155
4143,4143,325.0,4143
756,756,19.295,756
3503,3503,168.0,3503
3134,3134,15.304,3134
2634,2634,148.59799999999996,2634
1940,1940,15.994000000000002,1940
1569,1569,477.0,1569
1216,1216,16.660999999999998,1216
2527,2527,1930.0,2527
4005,4005,266.0,4005
4700,4700,12.091,4700
1229,1229,377.0,1229
1409,1409,1351.0,1409
1910,1910,26.165,1910
547,547,2464.0,547
3149,3149,788.0,3149
611,611,0.0,611
1156,1156,12.015999999999998,1156
3388,3388,14.634,3388
909,909,277.0,909
3836,3836,14.317,3836
4119,4119,2079.0,4119
4369,4369,1466.0,4369
2955,2955,2084.0,2955
3592,3592,11.78,3592
2288,2288,11.614,2288
1391,1391,1021.0,1391
1721,1721,1052.0,1721
3685,3685,0.0,3685
2937,2937,46.0,2937
4905,4905,2141.0,4905
2794,2794,11.368,2794
1813,1813,1444.0,1813
3133,3133,1220.0,3133
2831,2831,2016.0,2831
1388,1388,17.285999999999998,1388
943,943,1092.0,943
4228,4228,66.517,4228
1238,1238,21.142,1238
3091,3091,1346.0,3091
1864,1864,14.408,1864
4852,4852,14.705,4852
3462,3462,13.103,3462
3130,3130,12.371,3130
1006,1006,14.407,1006
4632,4632,12.594,4632
3890,3890,11.127,3890
2670,2670,180.892,2670
3205,3205,2032.0,3205
2961,2961,1833.0,2961
3566,3566,17.73,3566
3264,3264,20.536,3264
508,508,13.58,508
4515,4515,1552.0,4515
4323,4323,932.0,4323
514,514,12.399,514
3467,3467,0.0,3467
1695,1695,1536.0,1695
5005,5005,984.0,5005
2380,2380,14.323,2380
2497,2497,785.0,2497
668,668,18.56,668
3703,3703,842.0,3703
2923,2923,489.0,2923
1273,1273,0.0,1273
4774,4774,15.637,4774
688,688,15.181,688
4260,4260,10.361,4260
5062,5062,21.265,5062
4070,4070,172.66099999999997,4070
3405,3405,2336.0,3405
582,582,11.514,582
1926,1926,26.1,1926
3468,3468,10.868,3468
3887,3887,2140.0,3887
4090,4090,203.283,4090
4455,4455,1977.0,4455
922,922,21.437,922
3498,3498,27.114,3498
963,963,2205.0,963
2710,2710,15.535,2710
3324,3324,11.5,3324
2284,2284,11.662,2284
2914,2914,11.569,2914
3224,3224,23.034,3224
2985,2985,874.0,2985
1722,1722,13.81,1722
3761,3761,1390.0,3761
4996,4996,10.536,4996
3522,3522,16.018,3522
4781,4781,1912.0,4781
3096,3096,16.31,3096
3447,3447,1174.0,3447
2883,2883,2139.0,2883
3407,3407,1878.0,3407
3876,3876,14.675,3876
4574,4574,202.879,4574
1583,1583,663.0,1583
4816,4816,18.412,4816
1905,1905,165.0,1905
4631,4631,484.0,4631
2805,2805,0.0,2805
1241,1241,2236.0,1241
4012,4012,13.86,4012
2064,2064,18.504,2064
3286,3286,13.042,3286
3511,3511,1221.0,3511
2246,2246,15.257,2246
635,635,872.0,635
3253,3253,468.0,3253
3418,3418,24.526,3418
1230,1230,13.77,1230
3861,3861,2377.0,3861
3906,3906,14.249,3906
2508,2508,149.043,2508
4413,4413,563.0,4413
910,910,15.65,910
3827,3827,2490.0,3827
3561,3561,317.0,3561
2325,2325,406.0,2325
1061,1061,1576.0,1061
3530,3530,12.786,3530
4594,4594,11.351,4594
2317,2317,1398.0,2317
2328,2328,14.972,2328
1966,1966,12.829,1966
4094,4094,21.118,4094
3164,3164,11.661,3164
1203,1203,941.0,1203
4554,4554,12.086,4554
2262,2262,13.863,2262
4073,4073,1642.0,4073
1305,1305,1297.0,1305
3555,3555,1387.0,3555
4593,4593,1720.0,4593
4873,4873,1994.0,4873
2190,2190,24.68,2190
2847,2847,0.0,2847
1559,1559,2319.0,1559
798,798,18.519,798
4690,4690,194.872,4690
1212,1212,13.005999999999998,1212
4009,4009,2131.0,4009
1968,1968,17.789,1968
4214,4214,11.389,4214
2970,2970,10.911,2970
2496,2496,21.141,2496
2096,2096,11.536,2096
2600,2600,10.661,2600
4331,4331,1876.0,4331
2200,2200,15.645,2200
3549,3549,198.0,3549
2509,2509,2441.0,2509
3198,3198,11.55,3198
4991,4991,0.0,4991
2290,2290,12.842,2290
1552,1552,14.619000000000002,1552
3275,3275,2284.0,3275
4159,4159,1855.0,4159
999,999,602.0,999
3235,3235,603.0,3235
1994,1994,12.326,1994
2736,2736,11.247,2736
2767,2767,0.0,2767
4562,4562,206.534,4562
1102,1102,23.142,1102
4683,4683,2352.0,4683
4663,4663,894.0,4663
717,717,2152.0,717
3000,3000,12.45,3000
1751,1751,1932.0,1751
3912,3912,15.594,3912
3397,3397,1790.0,3397
3328,3328,11.831,3328
4802,4802,12.933,4802
2776,2776,11.449000000000002,2776
1655,1655,1007.0,1655
1182,1182,18.562,1182
2259,2259,2046.0,2259
3493,3493,483.0,3493
4058,4058,13.834,4058
1770,1770,12.727,1770
1694,1694,16.097,1694
3699,3699,805.0,3699
3813,3813,324.0,3813
2735,2735,0.0,2735
4673,4673,2077.0,4673
2665,2665,1642.0,2665
3222,3222,13.569,3222
5174,5174,11.775,5174
3305,3305,2183.0,3305
1438,1438,16.999000000000002,1438
1039,1039,2532.0,1039
2828,2828,12.077,2828
3121,3121,0.0,3121
1643,1643,107.0,1643
4541,4541,1514.0,4541
838,838,10.378,838
3232,3232,21.329,3232
532,532,11.161,532
2603,2603,0.0,2603
3428,3428,12.974,3428
1511,1511,169.0,1511
5182,5182,11.842,5182
3248,3248,15.288,3248
559,559,899.0,559
1877,1877,0.0,1877
1672,1672,15.072,1672
3159,3159,0.0,3159
5026,5026,14.28,5026
3361,3361,165.0,3361
1147,1147,570.0,1147
2133,2133,1017.0,2133
1929,1929,2549.0,1929
3662,3662,11.187,3662
1404,1404,17.912,1404
2546,2546,17.381,2546
1082,1082,11.855,1082
1181,1181,0.0,1181
3334,3334,10.668,3334
1106,1106,14.58,1106
5212,5212,11.171,5212
3442,3442,11.973,3442
3601,3601,938.0,3601
3304,3304,16.182000000000002,3304
4482,4482,177.49900000000005,4482
5287,5287,1453.0,5287
2001,2001,271.0,2001
4969,4969,1202.0,4969
3500,3500,25.415,3500
1637,1637,1486.0,1637
1920,1920,19.164,1920
3841,3841,1133.0,3841
749,749,382.0,749
4830,4830,16.055999999999994,4830
3444,3444,10.998,3444
808,808,13.128,808
3483,3483,1426.0,3483
537,537,1532.0,537
2737,2737,2299.0,2737
3472,3472,11.102,3472
3071,3071,2133.0,3071
5247,5247,1226.0,5247
2103,2103,0.0,2103
2238,2238,14.629,2238
5292,5292,26.158,5292
4358,4358,18.257,4358
2398,2398,12.140999999999998,2398
1202,1202,14.805,1202
1285,1285,1097.0,1285
2480,2480,16.544,2480
1696,1696,15.912,1696
3400,3400,11.961,3400
3239,3239,2174.0,3239
2089,2089,2341.0,2089
4747,4747,539.0,4747
1007,1007,2498.0,1007
5267,5267,2035.0,5267
2796,2796,11.329,2796
4858,4858,13.279000000000002,4858
2427,2427,2236.0,2427
2625,2625,213.0,2625
2968,2968,10.473,2968
4880,4880,14.496,4880
967,967,1434.0,967
2052,2052,12.317,2052
5239,5239,1385.0,5239
2637,2637,1148.0,2637
1922,1922,14.525,1922
3438,3438,12.795,3438
1209,1209,2403.0,1209
2044,2044,11.32,2044
2890,2890,14.081,2890
1663,1663,886.0,1663
751,751,401.0,751
5028,5028,21.315,5028
2043,2043,960.0,2043
2514,2514,16.455,2514
519,519,1321.0,519
500,500,14.129,500
1465,1465,2434.0,1465
3655,3655,2405.0,3655
4062,4062,21.096,4062
3627,3627,2034.0,3627
914,914,18.894,914
3673,3673,572.0,3673
1384,1384,16.182000000000002,1384
5225,5225,2392.0,5225
728,728,15.649,728
5295,5295,1506.0,5295
1046,1046,18.043,1046
4595,4595,321.0,4595
1179,1179,2093.0,1179
4899,4899,0.0,4899
3711,3711,815.0,3711
734,734,15.553,734
3677,3677,0.0,3677
4660,4660,11.656,4660
2775,2775,409.0,2775
2868,2868,16.250999999999998,2868
3354,3354,10.802,3354
3098,3098,15.26,3098
5088,5088,11.048,5088
2289,2289,1338.0,2289
1870,1870,11.07,1870
2976,2976,13.37,2976
1980,1980,19.234,1980
1830,1830,14.26,1830
2462,2462,11.193,2462
3101,3101,1606.0,3101
548,548,19.656,548
5175,5175,244.0,5175
1167,1167,2279.0,1167
2892,2892,15.213,2892
4992,4992,11.216,4992
3082,3082,13.559,3082
1482,1482,26.444000000000006,1482
4268,4268,11.377,4268
2363,2363,935.0,2363
4304,4304,11.884,4304
3153,3153,1978.0,3153
4868,4868,11.178,4868
1063,1063,1935.0,1063
1195,1195,1743.0,1195
1081,1081,359.0,1081
2299,2299,580.0,2299
2909,2909,1190.0,2909
2426,2426,14.672,2426
2145,2145,340.0,2145
4590,4590,18.751,4590
3337,3337,578.0,3337
3587,3587,1770.0,3587
2998,2998,12.332,2998
3350,3350,12.976,3350
3371,3371,1184.0,3371
1974,1974,14.936,1974
1051,1051,714.0,1051
3959,3959,1952.0,3959
4704,4704,180.867,4704
4788,4788,12.126,4788
1412,1412,40.722,1412
3594,3594,17.691,3594
2241,2241,766.0,2241
822,822,14.711,822
3021,3021,1267.0,3021
4715,4715,1593.0,4715
675,675,444.0,675
4857,4857,665.0,4857
1352,1352,22.319000000000006,1352
5173,5173,2245.0,5173
1906,1906,17.653,1906
2708,2708,13.062,2708
4041,4041,2201.0,4041
3266,3266,11.44,3266
3515,3515,468.0,3515
3872,3872,17.993,3872
2161,2161,53.0,2161
1839,1839,1924.0,1839
1729,1729,325.0,1729
621,621,699.0,621
5138,5138,13.901,5138
4100,4100,13.289,4100
4638,4638,19.827,4638
2788,2788,12.227,2788
3339,3339,140.0,3339
5009,5009,1230.0,5009
3417,3417,276.0,3417
3523,3523,181.0,3523
3410,3410,14.739,3410
2538,2538,45.394,2538
1697,1697,1136.0,1697
2374,2374,17.111,2374
3982,3982,20.952,3982
3382,3382,12.511,3382
1072,1072,11.394,1072
3499,3499,330.0,3499
4086,4086,12.083,4086
4301,4301,729.0,4301
558,558,12.423,558
5122,5122,18.303,5122
3901,3901,0.0,3901
4662,4662,11.416,4662
3356,3356,10.245,3356
2811,2811,0.0,2811
2199,2199,1923.0,2199
3534,3534,10.957,3534
2409,2409,0.0,2409
2120,2120,12.366,2120
1535,1535,2050.0,1535
4657,4657,849.0,4657
1601,1601,2168.0,1601
2452,2452,15.563,2452
3802,3802,10.685,3802
4616,4616,16.717,4616
2925,2925,2549.0,2925
513,513,1940.0,513
4940,4940,24.607,4940
2470,2470,13.178,2470
623,623,2186.0,623
5145,5145,1128.0,5145
3269,3269,0.0,3269
3182,3182,10.402,3182
3362,3362,16.91,3362
727,727,541.0,727
1335,1335,272.0,1335
2964,2964,10.46,2964
3310,3310,10.765,3310
3206,3206,12.762,3206
4102,4102,179.64700000000005,4102
3800,3800,10.445,3800
3687,3687,2334.0,3687
1742,1742,18.057,1742
3788,3788,179.644,3788
1984,1984,10.442,1984
855,855,34.0,855
1550,1550,19.061,1550
3042,3042,19.495,3042
3576,3576,16.172,3576
4342,4342,10.824000000000002,4342
5129,5129,2234.0,5129
1523,1523,0.0,1523
2174,2174,11.727,2174
3254,3254,14.062,3254
4602,4602,11.978,4602
3488,3488,13.502,3488
1373,1373,942.0,1373
5180,5180,10.612,5180
4318,4318,14.862,4318
3934,3934,22.31,3934
5293,5293,0.0,5293
4112,4112,208.255,4112
2298,2298,12.835,2298
3919,3919,2363.0,3919
3384,3384,14.406,3384
2466,2466,12.164,2466
3927,3927,2201.0,3927
1326,1326,21.264,1326
2758,2758,11.796,2758
3989,3989,2053.0,3989
2313,2313,723.0,2313
2690,2690,26.259,2690
2575,2575,787.0,2575
2635,2635,131.0,2635
3629,3629,896.0,3629
4069,4069,1312.0,4069
3031,3031,1966.0,3031
763,763,885.0,763
905,905,2339.0,905
1141,1141,1609.0,1141
3154,3154,19.496,3154
604,604,13.327,604
695,695,1273.0,695
4378,4378,12.470999999999998,4378
2406,2406,12.069,2406
2414,2414,12.137,2414
879,879,371.0,879
4330,4330,11.484000000000002,4330
3949,3949,514.0,3949
2989,2989,2228.0,2989
1275,1275,892.0,1275
1935,1935,0.0,1935
1244,1244,14.213,1244
778,778,11.88,778
4919,4919,518.0,4919
3882,3882,10.588,3882
1206,1206,14.515999999999998,1206
3844,3844,14.244000000000002,3844
978,978,15.855,978
4659,4659,1361.0,4659
2623,2623,1476.0,2623
4779,4779,1164.0,4779
1376,1376,13.967,1376
733,733,1328.0,733
2711,2711,1260.0,2711
3025,3025,578.0,3025
1191,1191,2187.0,1191
1419,1419,1696.0,1419
1174,1174,12.851,1174
3033,3033,1286.0,3033
812,812,23.616,812
3545,3545,1805.0,3545
1450,1450,11.73,1450
4192,4192,12.469,4192
1807,1807,1923.0,1807
2908,2908,16.835,2908
4093,4093,248.0,4093
1252,1252,14.99,1252
4152,4152,14.904000000000002,4152
2945,2945,1526.0,2945
5110,5110,12.459,5110
5130,5130,14.443,5130
1732,1732,16.558,1732
3261,3261,0.0,3261
2093,2093,1360.0,2093
1043,1043,0.0,1043
4130,4130,10.778,4130
3694,3694,10.66,3694
2550,2550,12.824000000000002,2550
4194,4194,13.545,4194
3045,3045,1980.0,3045
2412,2412,15.423,2412
2057,2057,2428.0,2057
2091,2091,2221.0,2091
2123,2123,1460.0,2123
2905,2905,1129.0,2905
4749,4749,478.0,4749
5107,5107,1130.0,5107
4334,4334,11.614,4334
2745,2745,2272.0,2745
1297,1297,1725.0,1297
4277,4277,1511.0,4277
1706,1706,16.143,1706
1808,1808,14.003,1808
3749,3749,572.0,3749
4340,4340,24.132,4340
3398,3398,11.261,3398
2612,2612,11.683,2612
3127,3127,1905.0,3127
773,773,580.0,773
2706,2706,14.737,2706
4021,4021,105.0,4021
2653,2653,1722.0,2653
2164,2164,20.891,2164
720,720,14.956,720
1323,1323,1944.0,1323
4917,4917,670.0,4917
644,644,22.731,644
2032,2032,15.504,2032
4997,4997,2205.0,4997
4008,4008,10.974,4008
752,752,15.318,752
2589,2589,1126.0,2589
770,770,19.236,770
4998,4998,12.005,4998
4730,4730,13.477,4730
1709,1709,997.0,1709
3370,3370,31.117,3370
3251,3251,154.0,3251
1981,1981,2383.0,1981
4370,4370,12.561,4370
1364,1364,19.925,1364
3695,3695,358.0,3695
1882,1882,14.253,1882
3380,3380,13.204,3380
5264,5264,10.625,5264
2838,2838,18.789,2838
5051,5051,419.0,5051
3902,3902,12.276,3902
2772,2772,10.557,2772
2009,2009,1397.0,2009
740,740,16.936,740
4810,4810,18.533,4810
5191,5191,47.0,5191
3883,3883,2510.0,3883
2478,2478,16.092,2478
1417,1417,150.0,1417
1712,1712,11.411,1712
2559,2559,0.0,2559
5118,5118,11.042,5118
4007,4007,1719.0,4007
659,659,1400.0,659
1584,1584,11.380999999999998,1584
1658,1658,14.89,1658
1256,1256,13.42,1256
877,877,806.0,877
4918,4918,12.630999999999998,4918
1738,1738,10.901,1738
2860,2860,15.09,2860
2261,2261,2256.0,2261
2354,2354,11.557,2354
951,951,935.0,951
2680,2680,18.159,2680
3987,3987,504.0,3987
955,955,161.0,955
2846,2846,15.535,2846
4049,4049,1677.0,4049
5071,5071,543.0,5071
1239,1239,893.0,1239
3408,3408,15.132,3408
1741,1741,630.0,1741
1289,1289,1967.0,1289
1377,1377,2448.0,1377
2819,2819,270.0,2819
5222,5222,11.087,5222
2734,2734,12.923,2734
1108,1108,24.357,1108
2548,2548,12.536,2548
5031,5031,1406.0,5031
2978,2978,10.612,2978
2365,2365,1857.0,2365
2657,2657,1356.0,2657
598,598,10.555,598
5081,5081,1277.0,5081
3009,3009,590.0,3009
1789,1789,700.0,1789
1580,1580,13.357,1580
1717,1717,1806.0,1717
4953,4953,285.0,4953
4043,4043,1685.0,4043
5032,5032,13.368,5032
1711,1711,2434.0,1711
3461,3461,909.0,3461
4028,4028,13.453,4028
5214,5214,11.798,5214
2507,2507,2179.0,2507
3358,3358,11.44,3358
2929,2929,607.0,2929
1018,1018,11.171,1018
566,566,11.349,566
3559,3559,1627.0,3559
5265,5265,966.0,5265
3977,3977,2537.0,3977
3840,3840,13.17,3840
651,651,1687.0,651
5285,5285,1342.0,5285
1844,1844,15.828,1844
2421,2421,594.0,2421
5019,5019,255.0,5019
4577,4577,2530.0,4577
3990,3990,200.422,3990
1029,1029,1388.0,1029
2627,2627,293.0,2627
4273,4273,1760.0,4273
3089,3089,894.0,3089
4255,4255,341.0,4255
2621,2621,1650.0,2621
1761,1761,2161.0,1761
2440,2440,12.625,2440
1699,1699,2532.0,1699
5200,5200,11.566,5200
2108,2108,12.936,2108
1193,1193,1585.0,1193
2178,2178,11.811,2178
2140,2140,16.113,2140
3712,3712,10.639,3712
1691,1691,2498.0,1691
4222,4222,11.533,4222
1574,1574,16.679000000000002,1574
3054,3054,29.335,3054
5149,5149,863.0,5149
2864,2864,12.579,2864
1858,1858,12.354,1858
5142,5142,16.162,5142
3873,3873,0.0,3873
1915,1915,706.0,1915
4444,4444,14.146,4444
4855,4855,512.0,4855
5085,5085,0.0,5085
1524,1524,29.198,1524
933,933,867.0,933
2855,2855,657.0,2855
4892,4892,11.672,4892
2303,2303,2417.0,2303
1934,1934,11.967,1934
5215,5215,1266.0,5215
4584,4584,17.362000000000002,4584
4723,4723,691.0,4723
4667,4667,204.0,4667
3292,3292,15.646,3292
3891,3891,2093.0,3891
3720,3720,17.959,3720
2358,2358,19.034,2358
2887,2887,586.0,2887
2782,2782,11.303,2782
4376,4376,22.85,4376
885,885,2371.0,885
5095,5095,1792.0,5095
1311,1311,81.0,1311
1525,1525,2313.0,1525
4465,4465,2450.0,4465
3765,3765,2189.0,3765
2433,2433,1412.0,2433
1290,1290,13.587,1290
3608,3608,21.506,3608
1362,1362,17.585,1362
1557,1557,932.0,1557
1759,1759,1308.0,1759
1171,1171,0.0,1171
589,589,994.0,589
5053,5053,1796.0,5053
1468,1468,23.216,1468
718,718,15.495,718
1306,1306,15.425,1306
3282,3282,11.022,3282
2331,2331,1811.0,2331
1255,1255,607.0,1255
4259,4259,2481.0,4259
2681,2681,468.0,2681
1578,1578,15.969,1578
1067,1067,499.0,1067
3855,3855,752.0,3855
4346,4346,12.738,4346
2808,2808,19.485,2808
4986,4986,12.011,4986
4841,4841,894.0,4841
1192,1192,16.874000000000002,1192
2373,2373,0.0,2373
1594,1594,14.421,1594
4103,4103,2489.0,4103
2432,2432,14.138,2432
1442,1442,13.953,1442
4136,4136,15.804,4136
4960,4960,15.515999999999998,4960
4772,4772,13.065,4772
3603,3603,1737.0,3603
4569,4569,966.0,4569
2891,2891,0.0,2891
4746,4746,18.457,4746
1571,1571,1323.0,1571
4495,4495,0.0,4495
3055,3055,1404.0,3055
3650,3650,11.728,3650
1429,1429,1634.0,1429
4623,4623,778.0,4623
5250,5250,11.101,5250
2532,2532,174.981,2532
4105,4105,573.0,4105
2582,2582,15.261,2582
4468,4468,14.617,4468
1205,1205,637.0,1205
4884,4884,11.205,4884
2175,2175,1590.0,2175
4724,4724,14.204,4724
4198,4198,175.361,4198
776,776,11.628,776
4247,4247,210.0,4247
5230,5230,22.654,5230
4576,4576,16.583,4576
1510,1510,13.758,1510
700,700,16.999000000000002,700
1846,1846,23.306,1846
3744,3744,24.97,3744
5103,5103,1875.0,5103
4131,4131,1660.0,4131
3519,3519,1945.0,3519
523,523,1526.0,523
2347,2347,585.0,2347
3335,3335,1471.0,3335
3271,3271,488.0,3271
4658,4658,10.577,4658
2153,2153,1077.0,2153
4601,4601,765.0,4601
1919,1919,1941.0,1919
714,714,14.207,714
5156,5156,10.607,5156
3501,3501,1457.0,3501
4165,4165,1730.0,4165
3928,3928,10.872,3928
3783,3783,1068.0,3783
2135,2135,385.0,2135
4291,4291,1672.0,4291
2034,2034,20.549,2034
3760,3760,166.503,3760
4847,4847,0.0,4847
2304,2304,12.189,2304
4843,4843,0.0,4843
950,950,11.983,950
504,504,12.985,504
2335,2335,2550.0,2335
1947,1947,1110.0,1947
1509,1509,2544.0,1509
5011,5011,434.0,5011
4803,4803,1542.0,4803
5209,5209,2438.0,5209
3980,3980,20.666,3980
1843,1843,1922.0,1843
4837,4837,557.0,4837
2936,2936,13.73,2936
4726,4726,200.895,4726
1749,1749,1441.0,1749
2011,2011,1031.0,2011
1685,1685,833.0,1685
3571,3571,881.0,3571
1822,1822,21.467,1822
1941,1941,2352.0,1941
708,708,12.086,708
3466,3466,10.737,3466
4797,4797,1822.0,4797
911,911,1926.0,911
3665,3665,1954.0,3665
4113,4113,2131.0,4113
3470,3470,10.675,3470
3233,3233,431.0,3233
4914,4914,10.781,4914
3067,3067,1179.0,3067
4737,4737,1016.0,4737
4038,4038,140.575,4038
1577,1577,1173.0,1577
4579,4579,154.0,4579
4460,4460,12.075,4460
3365,3365,793.0,3365
784,784,14.876,784
1765,1765,1084.0,1765
2185,2185,1342.0,2185
4047,4047,1443.0,4047
2568,2568,13.882,2568
3294,3294,10.281,3294
2874,2874,18.119,2874
5078,5078,20.925,5078
2917,2917,1052.0,2917
1869,1869,1658.0,1869
3250,3250,18.28,3250
3680,3680,11.619000000000002,3680
672,672,21.912,672
2154,2154,11.702,2154
3288,3288,14.411,3288
3440,3440,15.166,3440
2402,2402,15.742,2402
4052,4052,13.437,4052
3490,3490,10.72,3490
3929,3929,606.0,3929
3085,3085,2063.0,3085
2944,2944,14.089,2944
1670,1670,11.352,1670
1862,1862,10.995,1862
5253,5253,2064.0,5253
4583,4583,2496.0,4583
4483,4483,2001.0,4483
1395,1395,1743.0,1395
4398,4398,14.919,4398
897,897,1683.0,897
3678,3678,13.502,3678
1616,1616,21.653,1616
2769,2769,547.0,2769
2722,2722,14.755999999999998,2722
4072,4072,15.237,4072
4478,4478,176.329,4478
1158,1158,11.633,1158
3614,3614,190.41,3614
2938,2938,16.19,2938
3866,3866,11.873,3866
4287,4287,1920.0,4287
4640,4640,11.736,4640
3869,3869,1034.0,3869
3860,3860,208.643,3860
3839,3839,1071.0,3839
4558,4558,170.39700000000005,4558
2342,2342,11.008,2342
4817,4817,483.0,4817
3081,3081,343.0,3081
4408,4408,26.938,4408
3243,3243,2516.0,3243
4275,4275,509.0,4275
2157,2157,712.0,2157
571,571,1893.0,571
562,562,13.316,562
3809,3809,1722.0,3809
4252,4252,10.824000000000002,4252
1768,1768,20.034,1768
4853,4853,303.0,4853
3590,3590,14.459,3590
5150,5150,11.153,5150
2520,2520,181.628,2520
2056,2056,11.48,2056
2913,2913,1170.0,2913
3257,3257,0.0,3257
977,977,1153.0,977
4288,4288,17.524,4288
737,737,1139.0,737
3907,3907,0.0,3907
1924,1924,17.474,1924
1161,1161,250.0,1161
4599,4599,1374.0,4599
754,754,11.698,754
1890,1890,16.348,1890
2762,2762,10.28,2762
3817,3817,549.0,3817
2558,2558,205.029,2558
3449,3449,1114.0,3449
1558,1558,10.93,1558
5288,5288,19.851,5288
1307,1307,241.0,1307
2515,2515,628.0,2515
592,592,11.049,592
4696,4696,12.764,4696
3772,3772,18.866,3772
1436,1436,15.063,1436
4059,4059,978.0,4059
3524,3524,15.379,3524
521,521,0.0,521
5089,5089,1614.0,5089
1138,1138,14.831,1138
2701,2701,314.0,2701
2196,2196,17.009,2196
787,787,2069.0,787
2040,2040,12.237,2040
2829,2829,1282.0,2829
1094,1094,14.664,1094
4480,4480,18.743,4480
1291,1291,2020.0,1291
4979,4979,464.0,4979
3843,3843,0.0,3843
4921,4921,2284.0,4921
641,641,2401.0,641
509,509,741.0,509
4412,4412,13.521,4412
3766,3766,14.171,3766
902,902,19.02,902
3758,3758,67.756,3758
2882,2882,14.47,2882
1619,1619,2464.0,1619
3619,3619,0.0,3619
3369,3369,73.0,3369
2707,2707,1821.0,2707
3200,3200,15.478,3200
2747,2747,0.0,2747
5206,5206,11.397,5206
3464,3464,11.818,3464
3846,3846,16.378,3846
1648,1648,13.355,1648
1458,1458,14.942,1458
3880,3880,13.361,3880
3563,3563,453.0,3563
4893,4893,0.0,4893
3652,3652,10.895,3652
3778,3778,17.762999999999995,3778
4863,4863,1000.0,4863
3881,3881,929.0,3881
2272,2272,14.154000000000002,2272
1630,1630,16.172,1630
569,569,1642.0,569
4410,4410,10.666,4410
2314,2314,11.604,2314
2206,2206,20.555,2206
2906,2906,11.152,2906
1382,1382,18.179,1382
1988,1988,10.575,1988
3110,3110,16.564,3110
4732,4732,10.857,4732
1372,1372,12.519,1372
4703,4703,2017.0,4703
2203,2203,1391.0,2203
2830,2830,11.835,2830
2951,2951,257.0,2951
1885,1885,0.0,1885
4212,4212,12.173,4212
2000,2000,12.717,2000
4339,4339,1994.0,4339
4910,4910,11.469,4910
775,775,0.0,775
2686,2686,10.709,2686
4267,4267,2233.0,4267
4745,4745,1746.0,4745
2529,2529,2082.0,2529
2476,2476,12.812,2476
5004,5004,11.691,5004
4467,4467,99.0,4467
3340,3340,11.966,3340
4442,4442,12.493,4442
1501,1501,2215.0,1501
1536,1536,20.69,1536
5015,5015,0.0,5015
3992,3992,11.114,3992
772,772,18.591,772
3184,3184,16.227999999999998,3184
4096,4096,21.526,4096
1437,1437,2376.0,1437
5269,5269,485.0,5269
3747,3747,2023.0,3747
1990,1990,15.217,1990
1250,1250,14.039,1250
2318,2318,14.446,2318
803,803,0.0,803
4329,4329,1404.0,4329
3610,3610,23.921,3610
2728,2728,21.845,2728
2715,2715,1562.0,2715
1842,1842,14.845,1842
3664,3664,12.445,3664
4860,4860,13.783,4860
1633,1633,2372.0,1633
2012,2012,24.078000000000007,2012
1019,1019,2013.0,1019
1680,1680,12.874,1680
4729,4729,1586.0,4729
1838,1838,14.114,1838
1036,1036,12.409,1036
3201,3201,1676.0,3201
1099,1099,178.0,1099
572,572,13.589,572
2673,2673,768.0,2673
1299,1299,0.0,1299
4522,4522,181.231,4522
3507,3507,1299.0,3507
3053,3053,1267.0,3053
2088,2088,13.248,2088
4449,4449,895.0,4449
4902,4902,13.901,4902
5208,5208,14.449000000000002,5208
1139,1139,1447.0,1139
1624,1624,22.305,1624
2820,2820,20.877,2820
4017,4017,2533.0,4017
3532,3532,19.065,3532
1210,1210,14.716,1210
2565,2565,2499.0,2565
4621,4621,2305.0,4621
4933,4933,898.0,4933
3116,3116,14.368,3116
1733,1733,81.0,1733
2953,2953,1425.0,2953
3730,3730,95.158,3730
1427,1427,391.0,1427
2341,2341,503.0,2341
3824,3824,16.037,3824
2144,2144,11.087,2144
1620,1620,18.734,1620
2880,2880,14.67,2880
1493,1493,989.0,1493
2528,2528,20.739,2528
2741,2741,878.0,2741
1573,1573,2049.0,1573
1186,1186,19.053,1186
2429,2429,558.0,2429
5132,5132,16.972,5132
3315,3315,492.0,3315
5190,5190,11.816,5190
4710,4710,20.132,4710
2682,2682,19.376,2682
1554,1554,14.122,1554
2142,2142,11.76,2142
3874,3874,11.43,3874
852,852,10.48,852
3805,3805,1558.0,3805
1851,1851,1945.0,1851
4423,4423,1878.0,4423
2815,2815,641.0,2815
1538,1538,11.193,1538
931,931,1768.0,931
4542,4542,195.43,4542
3638,3638,11.287,3638
1478,1478,18.548,1478
2678,2678,11.727,2678
2176,2176,10.4,2176
2750,2750,14.529000000000002,2750
867,867,2511.0,867
1805,1805,698.0,1805
3451,3451,407.0,3451
1097,1097,0.0,1097
3123,3123,201.0,3123
4381,4381,931.0,4381
3994,3994,16.289,3994
5084,5084,19.489,5084
1665,1665,2261.0,1665
4931,4931,2178.0,4931
3644,3644,57.089,3644
707,707,378.0,707
2283,2283,541.0,2283
3978,3978,202.717,3978
3988,3988,14.674,3988
3204,3204,12.284,3204
1414,1414,54.122,1414
4367,4367,1305.0,4367
3191,3191,2087.0,3191
3485,3485,842.0,3485
2615,2615,485.0,2615
4387,4387,2133.0,4387
1686,1686,16.83,1686
1801,1801,2121.0,1801
4572,4572,24.746,4572
4533,4533,2538.0,4533
5283,5283,2199.0,5283
3714,3714,12.157,3714
5229,5229,567.0,5229
5033,5033,949.0,5033
506,506,11.843,506
1763,1763,644.0,1763
3455,3455,404.0,3455
4883,4883,59.0,4883
4985,4985,180.0,4985
3538,3538,13.044,3538
4441,4441,1246.0,4441
3764,3764,11.501,3764
4000,4000,11.758,4000
4537,4537,2114.0,4537
5144,5144,10.716,5144
3406,3406,11.214,3406
875,875,1080.0,875
1690,1690,13.805,1690
1639,1639,2302.0,1639
2152,2152,26.495,2152
1001,1001,1671.0,1001
4820,4820,15.345999999999998,4820
2118,2118,16.534000000000002,2118
3077,3077,1764.0,3077
1148,1148,27.406,1148
2022,2022,22.45,2022
619,619,1822.0,619
4355,4355,2509.0,4355
3190,3190,10.825,3190
3283,3283,407.0,3283
3152,3152,17.048,3152
1344,1344,15.937,1344
4075,4075,2478.0,4075
1634,1634,48.739,1634
3221,3221,1877.0,3221
3853,3853,1685.0,3853
3413,3413,1323.0,3413
4424,4424,156.856,4424
3357,3357,1792.0,3357
1293,1293,323.0,1293
4823,4823,2503.0,4823
2648,2648,11.523,2648
3911,3911,2066.0,3911
568,568,12.773,568
4819,4819,688.0,4819
3790,3790,13.403,3790
4848,4848,22.645,4848
1794,1794,14.866,1794
5002,5002,19.13,5002
811,811,1737.0,811
2867,2867,1909.0,2867
1456,1456,11.436,1456
4769,4769,1796.0,4769
3172,3172,14.729,3172
2090,2090,16.187,2090
684,684,18.431,684
2484,2484,14.276,2484
1401,1401,1515.0,1401
1593,1593,577.0,1593
3281,3281,0.0,3281
3804,3804,15.488,3804
3194,3194,14.376,3194
4296,4296,17.867,4296
924,924,16.213,924
557,557,0.0,557
1267,1267,2512.0,1267
1346,1346,10.3,1346
3724,3724,25.581,3724
1754,1754,11.117,1754
3838,3838,13.966,3838
844,844,14.921,844
1014,1014,13.094,1014
4325,4325,1593.0,4325
833,833,644.0,833
4254,4254,11.274,4254
1827,1827,1190.0,1827
1743,1743,1881.0,1743
2516,2516,11.507,2516
4888,4888,10.894,4888
3737,3737,803.0,3737
1982,1982,18.946,1982
3533,3533,1573.0,3533
2450,2450,14.115,2450
1542,1542,13.144,1542
4272,4272,10.979,4272
1762,1762,13.082,1762
958,958,10.585,958
1928,1928,12.547,1928
3027,3027,674.0,3027
4627,4627,1608.0,4627
3528,3528,10.861,3528
738,738,11.378,738
1585,1585,1588.0,1585
3220,3220,21.761,3220
3606,3606,20.182,3606
3666,3666,154.434,3666
716,716,15.79,716
2869,2869,519.0,2869
1603,1603,775.0,1603
1317,1317,1585.0,1317
2571,2571,2037.0,2571
1027,1027,1413.0,1027
1714,1714,18.609,1714
4435,4435,1891.0,4435
2213,2213,0.0,2213
1246,1246,14.895,1246
2122,2122,11.13,2122
2957,2957,362.0,2957
1452,1452,24.625,1452
834,834,12.205,834
4530,4530,197.222,4530
3359,3359,1037.0,3359
1090,1090,13.152,1090
3203,3203,145.0,3203
935,935,1931.0,935
5119,5119,935.0,5119
2843,2843,0.0,2843
4314,4314,14.737,4314
1178,1178,12.931,1178
545,545,2435.0,545
3669,3669,809.0,3669
5153,5153,1812.0,5153
2669,2669,1514.0,2669
2709,2709,292.0,2709
609,609,72.0,609
815,815,2300.0,815
3833,3833,1210.0,3833
3381,3381,0.0,3381
2392,2392,18.571,2392
4209,4209,2408.0,4209
5049,5049,682.0,5049
1066,1066,10.537,1066
4295,4295,1996.0,4295
5263,5263,2363.0,5263
4241,4241,1785.0,4241
1720,1720,16.735,1720
3414,3414,12.673,3414
4754,4754,14.782,4754
4971,4971,66.0,4971
2939,2939,675.0,2939
1597,1597,1814.0,1597
4390,4390,15.585,4390
1184,1184,16.074,1184
3556,3556,11.941,3556
1909,1909,0.0,1909
918,918,22.191,918
1262,1262,13.843,1262
1568,1568,15.608,1568
1003,1003,2104.0,1003
595,595,1484.0,595
4909,4909,116.0,4909
988,988,11.157,988
2858,2858,19.219,2858
2499,2499,2339.0,2499
3637,3637,1121.0,3637
3675,3675,1103.0,3675
3048,3048,19.555,3048
1859,1859,1511.0,1859
1248,1248,15.742,1248
1415,1415,1328.0,1415
5075,5075,1390.0,5075
4674,4674,14.781,4674
4077,4077,2211.0,4077
1247,1247,313.0,1247
5254,5254,15.144,5254
2214,2214,12.263,2214
1035,1035,1551.0,1035
4687,4687,1920.0,4687
4383,4383,1163.0,4383
4500,4500,16.658,4500
3682,3682,19.686,3682
2774,2774,11.358,2774
1710,1710,12.345999999999998,1710
4081,4081,2474.0,4081
3968,3968,12.136,3968
1592,1592,15.165,1592
3683,3683,1395.0,3683
1111,1111,2489.0,1111
3372,3372,14.37,3372
3390,3390,15.399,3390
2818,2818,24.423,2818
4226,4226,13.213,4226
925,925,0.0,925
4906,4906,13.73,4906
4164,4164,107.395,4164
617,617,1520.0,617
4002,4002,190.348,4002
2803,2803,1790.0,2803
5187,5187,218.0,5187
1170,1170,11.749,1170
4618,4618,192.014,4618
2814,2814,24.05,2814
5275,5275,1733.0,5275
1176,1176,11.898,1176
565,565,2253.0,565
960,960,10.771,960
2344,2344,11.816,2344
5243,5243,1701.0,5243
2316,2316,12.951,2316
3307,3307,545.0,3307
4422,4422,14.217,4422
3270,3270,10.991,3270
4101,4101,1349.0,4101
1893,1893,708.0,1893
5140,5140,10.362,5140
2733,2733,0.0,2733
1878,1878,12.149,1878
2349,2349,2512.0,2349
596,596,16.037,596
3419,3419,2418.0,3419
4773,4773,2187.0,4773
1218,1218,11.634,1218
1183,1183,763.0,1183
2329,2329,2042.0,2329
4341,4341,1772.0,4341
2264,2264,11.435,2264
2235,2235,1130.0,2235
4824,4824,13.899,4824
5160,5160,11.135,5160
3208,3208,16.81,3208
1481,1481,1915.0,1481
3148,3148,14.318,3148
4959,4959,1210.0,4959
4335,4335,1234.0,4335
4587,4587,1369.0,4587
1513,1513,2159.0,1513
848,848,14.277,848
1165,1165,260.0,1165
3971,3971,608.0,3971
2935,2935,2336.0,2935
3226,3226,12.363,3226
4257,4257,2180.0,4257
3755,3755,2228.0,3755
997,997,0.0,997
683,683,545.0,683
915,915,884.0,915
637,637,1664.0,637
828,828,22.115,828
5260,5260,11.485,5260
1879,1879,1884.0,1879
4821,4821,950.0,4821
2460,2460,13.996,2460
4055,4055,180.0,4055
970,970,13.088,970
992,992,10.634,992
3505,3505,164.0,3505
2076,2076,24.414,2076
3786,3786,22.835,3786
3479,3479,1260.0,3479
821,821,218.0,821
4229,4229,0.0,4229
4379,4379,2465.0,4379
1444,1444,11.245,1444
3173,3173,2394.0,3173
2016,2016,10.94,2016
4145,4145,1204.0,4145
1337,1337,1964.0,1337
3228,3228,22.647,3228
2661,2661,551.0,2661
3320,3320,12.736,3320
3557,3557,1154.0,3557
4249,4249,2409.0,4249
4213,4213,706.0,4213
2025,2025,455.0,2025
4196,4196,11.515999999999998,4196
5044,5044,11.94,5044
5257,5257,1153.0,5257
3704,3704,10.522,3704
4630,4630,12.557,4630
5117,5117,242.0,5117
1315,1315,47.0,1315
5297,5297,915.0,5297
2826,2826,17.404,2826
2411,2411,2339.0,2411
1278,1278,14.209,1278
4804,4804,13.651,4804
5154,5154,12.927,5154
3113,3113,2419.0,3113
1788,1788,11.61,1788
1612,1612,14.528,1612
3807,3807,378.0,3807
4320,4320,20.018,4320
5105,5105,503.0,5105
1798,1798,13.366,1798
842,842,12.034,842
4076,4076,16.605999999999998,4076
2493,2493,1713.0,2493
4984,4984,11.145,4984
4234,4234,18.532,4234
2871,2871,1941.0,2871
5255,5255,948.0,5255
747,747,1921.0,747
1271,1271,0.0,1271
736,736,23.325,736
3236,3236,22.573,3236
524,524,11.36,524
3983,3983,1714.0,3983
2801,2801,0.0,2801
2770,2770,11.849,2770
824,824,17.198,824
3641,3641,794.0,3641
3272,3272,11.849,3272
872,872,11.694,872
4283,4283,1969.0,4283
4937,4937,524.0,4937
1423,1423,482.0,1423
2194,2194,28.336,2194
5045,5045,663.0,5045
3151,3151,1170.0,3151
3036,3036,12.517,3036
4975,4975,1138.0,4975
3924,3924,14.518,3924
5268,5268,12.329,5268
4270,4270,11.227,4270
3280,3280,11.304,3280
3688,3688,11.319,3688
2813,2813,1432.0,2813
2301,2301,1912.0,2301
1810,1810,18.016,1810
3276,3276,10.852,3276
1052,1052,13.005,1052
1967,1967,0.0,1967
5217,5217,1291.0,5217
1867,1867,974.0,1867
2777,2777,1555.0,2777
2180,2180,11.912,2180
1814,1814,21.97,1814
2663,2663,2522.0,2663
3752,3752,12.193,3752
4218,4218,10.476,4218
4886,4886,16.137999999999998,4886
2793,2793,0.0,2793
4692,4692,135.161,4692
2109,2109,1557.0,2109
4261,4261,2041.0,4261
761,761,1763.0,761
634,634,16.936,634
1881,1881,2280.0,1881
1208,1208,15.806,1208
5023,5023,2381.0,5023
3999,3999,648.0,3999
3144,3144,15.253,3144
2779,2779,621.0,2779
4446,4446,12.443,4446
1213,1213,405.0,1213
4743,4743,1590.0,4743
886,886,11.703,886
2535,2535,48.0,2535
2086,2086,12.864,2086
3580,3580,25.147,3580
4399,4399,938.0,4399
1116,1116,11.53,1116
1951,1951,2192.0,1951
3300,3300,11.386,3300
2243,2243,1155.0,2243
3469,3469,2414.0,3469
4566,4566,135.774,4566
1227,1227,1528.0,1227
536,536,12.404000000000002,536
3541,3541,0.0,3541
3913,3913,950.0,3913
1997,1997,1513.0,1997
5233,5233,1281.0,5233
3105,3105,2486.0,3105
3422,3422,19.743,3422
2617,2617,0.0,2617
758,758,17.752,758
3759,3759,760.0,3759
4605,4605,1529.0,4605
2160,2160,11.317,2160
3896,3896,14.949000000000002,3896
3435,3435,0.0,3435
2785,2785,2334.0,2785
4964,4964,17.768,4964
4374,4374,14.527,4374
1251,1251,731.0,1251
2252,2252,11.798,2252
3656,3656,11.017,3656
4469,4469,667.0,4469
1487,1487,1123.0,1487
2672,2672,11.028,2672
3061,3061,176.0,3061
588,588,15.508,588
2146,2146,15.792,2146
3756,3756,10.702,3756
4753,4753,1885.0,4753
809,809,1963.0,809
3128,3128,14.937,3128
2310,2310,11.663,2310
3258,3258,11.231,3258
2336,2336,11.734000000000002,2336
3387,3387,1584.0,3387
2007,2007,938.0,2007
4606,4606,17.896,4606
1473,1473,0.0,1473
3412,3412,17.267,3412
2211,2211,1757.0,2211
3244,3244,13.239,3244
4531,4531,1018.0,4531
1647,1647,63.0,1647
2533,2533,1148.0,2533
2457,2457,1509.0,2457
2247,2247,576.0,2247
1646,1646,11.664,1646
4303,4303,1072.0,4303
4188,4188,14.197,4188
4313,4313,2194.0,4313
4054,4054,19.366,4054
4728,4728,14.916,4728
3543,3543,710.0,3543
1588,1588,44.957,1588
3784,3784,15.311,3784
4380,4380,37.994,4380
1925,1925,2495.0,1925
3343,3343,503.0,3343
3707,3707,0.0,3707
878,878,12.918,878
1835,1835,1057.0,1835
2638,2638,16.36,2638
1012,1012,15.644,1012
3954,3954,13.244000000000002,3954
1972,1972,11.725,1972
2115,2115,429.0,2115
3249,3249,1404.0,3249
3596,3596,10.469,3596
2810,2810,14.173,2810
2473,2473,857.0,2473
3176,3176,11.187,3176
1640,1640,39.418,1640
2020,2020,13.457,2020
722,722,22.625,722
1918,1918,27.132,1918
3938,3938,12.052,3938
677,677,0.0,677
1590,1590,11.928,1590
2458,2458,14.595999999999998,2458
3043,3043,1909.0,3043
5272,5272,10.749,5272
2066,2066,24.616,2066
669,669,166.0,669
4476,4476,14.379,4476
2960,2960,10.453,2960
2656,2656,11.024,2656
553,553,1461.0,553
1020,1020,17.507,1020
883,883,1420.0,883
3626,3626,23.853,3626
4037,4037,27.0,4037
517,517,850.0,517
1328,1328,12.806,1328
2208,2208,11.448,2208
5133,5133,2257.0,5133
4157,4157,1901.0,4157
1735,1735,565.0,1735
3698,3698,40.877,3698
2553,2553,1516.0,2553
946,946,11.642,946
3850,3850,11.107,3850
3214,3214,15.113,3214
4895,4895,232.0,4895
2506,2506,255.544,2506
4236,4236,18.27,4236
4193,4193,1155.0,4193
2590,2590,42.715,2590
4088,4088,20.262,4088
3459,3459,2095.0,3459
2102,2102,13.258,2102
2449,2449,522.0,2449
2116,2116,15.868,2116
2130,2130,10.62,2130
5164,5164,11.114,5164
1433,1433,1543.0,1433
606,606,12.390999999999998,606
663,663,1015.0,663
1059,1059,105.0,1059
4395,4395,2454.0,4395
986,986,15.428,986
5281,5281,1207.0,5281
4420,4420,11.031,4420
1379,1379,2215.0,1379
5216,5216,11.367,5216
4928,4928,23.089,4928
4221,4221,2222.0,4221
1615,1615,74.0,1615
4084,4084,193.941,4084
966,966,16.418,966
2763,2763,767.0,2763
2912,2912,21.428,2912
2346,2346,13.468,2346
2997,2997,921.0,2997
5238,5238,15.078,5238
3957,3957,2154.0,3957
2405,2405,1223.0,2405
1300,1300,17.035999999999998,1300
2704,2704,13.777,2704
1296,1296,15.05,1296
1705,1705,1472.0,1705
2114,2114,15.063,2114
2530,2530,21.012,2530
1258,1258,14.705,1258
4626,4626,13.286,4626
1572,1572,15.833,1572
873,873,1821.0,873
3207,3207,1415.0,3207
3593,3593,793.0,3593
5261,5261,1861.0,5261
3717,3717,1305.0,3717
5120,5120,16.555,5120
4636,4636,20.658,4636
4676,4676,11.507,4676
2387,2387,0.0,2387
4763,4763,1115.0,4763
2836,2836,16.817,2836
3216,3216,14.083,3216
1464,1464,10.759,1464
3923,3923,2142.0,3923
2453,2453,2176.0,2453
628,628,13.975,628
3794,3794,10.532,3794
4201,4201,1402.0,4201
2444,2444,12.644,2444
4067,4067,717.0,4067
5111,5111,1662.0,5111
4870,4870,14.493,4870
4813,4813,332.0,4813
4600,4600,13.005,4600
4549,4549,631.0,4549
2746,2746,16.523,2746
4639,4639,137.0,4639
1400,1400,20.185,1400
1378,1378,14.337,1378
5290,5290,13.765,5290
2265,2265,442.0,2265
3086,3086,14.4,3086
4048,4048,11.122,4048
4373,4373,948.0,4373
1953,1953,1988.0,1953
2921,2921,253.0,2921
4239,4239,526.0,4239
4107,4107,503.0,4107
2714,2714,16.327,2714
2248,2248,17.314,2248
1962,1962,14.202,1962
3588,3588,11.454,3588
4409,4409,2258.0,4409
1899,1899,0.0,1899
1863,1863,767.0,1863
1954,1954,11.429,1954
2919,2919,1270.0,2919
1381,1381,2099.0,1381
4053,4053,2191.0,4053
2699,2699,2352.0,2699
3404,3404,15.618,3404
4801,4801,2407.0,4801
1098,1098,16.695,1098
4474,4474,15.326,4474
629,629,391.0,629
2620,2620,15.136,2620
899,899,2513.0,899
1912,1912,18.92,1912
1185,1185,359.0,1185
1591,1591,2274.0,1591
1367,1367,1207.0,1367
3542,3542,11.292,3542
4945,4945,2502.0,4945
2492,2492,15.324000000000002,2492
1627,1627,228.0,1627
3180,3180,11.003,3180
797,797,2056.0,797
4565,4565,812.0,4565
771,771,1350.0,771
3072,3072,11.37,3072
3429,3429,378.0,3429
3277,3277,469.0,3277
4354,4354,11.765,4354
3979,3979,2160.0,3979
1013,1013,1675.0,1013
3209,3209,899.0,3209
2902,2902,14.956,2902
1338,1338,16.523,1338
1249,1249,158.0,1249
3762,3762,200.769,3762
2468,2468,13.119000000000002,2468
4253,4253,1520.0,4253
3885,3885,639.0,3885
4351,4351,2423.0,4351
1937,1937,1263.0,1937
1531,1531,2364.0,1531
4796,4796,11.048,4796
2357,2357,1987.0,2357
3753,3753,933.0,3753
1499,1499,661.0,1499
3212,3212,12.54,3212
2321,2321,1941.0,2321
2338,2338,16.98,2338
4473,4473,1323.0,4473
1151,1151,1671.0,1151
518,518,15.276,518
4842,4842,23.533,4842
4293,4293,1584.0,4293
1868,1868,15.972,1868
4036,4036,11.072,4036
3450,3450,11.146,3450
5196,5196,14.355,5196
4190,4190,18.731,4190
2067,2067,999.0,2067
2488,2488,13.595,2488
4010,4010,16.906,4010
2599,2599,896.0,2599
4099,4099,968.0,4099
2435,2435,1116.0,2435
1169,1169,1892.0,1169
3806,3806,94.982,3806
2848,2848,21.724,2848
1945,1945,0.0,1945
1403,1403,981.0,1403
1841,1841,621.0,1841
1015,1015,2324.0,1015
2705,2705,1995.0,2705
835,835,995.0,835
3884,3884,11.283,3884
4591,4591,212.0,4591
3894,3894,13.719,3894
2959,2959,1413.0,2959
4389,4389,1398.0,4389
1084,1084,14.832,1084
1964,1964,17.828,1964
3471,3471,1637.0,3471
4897,4897,2431.0,4897
2451,2451,1389.0,2451
4180,4180,14.357,4180
639,639,2035.0,639
3389,3389,2214.0,3389
1121,1121,1904.0,1121
1649,1649,389.0,1649
4795,4795,836.0,4795
4172,4172,19.763,4172
1159,1159,2174.0,1159
3189,3189,949.0,3189
4665,4665,554.0,4665
3661,3661,1976.0,3661
2202,2202,26.091,2202
4019,4019,59.0,4019
5282,5282,13.559,5282
4784,4784,10.474,4784
3965,3965,2368.0,3965
3597,3597,1574.0,3597
1993,1993,1722.0,1993
2760,2760,11.556,2760
3818,3818,16.320999999999998,3818
4596,4596,13.814,4596
2049,2049,2350.0,2049
3616,3616,15.677,3616
2789,2789,2299.0,2789
1480,1480,21.679,1480
4039,4039,1694.0,4039
2327,2327,0.0,2327
2781,2781,0.0,2781
1266,1266,14.795,1266
1976,1976,16.274,1976
2232,2232,12.071,2232
4695,4695,445.0,4695
4210,4210,11.687,4210
829,829,2504.0,829
1565,1565,2216.0,1565
4276,4276,12.827,4276
2384,2384,19.055,2384
2773,2773,840.0,2773
3773,3773,2439.0,3773
1804,1804,23.986,1804
4109,4109,1942.0,4109
1496,1496,10.802,1496
3715,3715,48.0,3715
1441,1441,1760.0,1441
3139,3139,741.0,3139
1500,1500,13.36,1500
2385,2385,2103.0,2385
4822,4822,13.994000000000002,4822
4206,4206,11.707,4206
3648,3648,74.31,3648
3956,3956,17.526,3956
1529,1529,982.0,1529
1331,1331,785.0,1331
4347,4347,1895.0,4347
1504,1504,20.118,1504
541,541,2351.0,541
4790,4790,11.282,4790
2438,2438,13.005,2438
534,534,12.321,534
3453,3453,1861.0,3453
1949,1949,1667.0,1949
1609,1609,2356.0,1609
1375,1375,2045.0,1375
1779,1779,679.0,1779
626,626,21.968000000000004,626
3080,3080,15.758,3080
1776,1776,21.885,1776
2578,2578,23.921,2578
853,853,1747.0,853
1831,1831,1451.0,1831
1407,1407,477.0,1407
882,882,11.28,882
4337,4337,0.0,4337
3734,3734,66.527,3734
4553,4553,2388.0,4553
1088,1088,22.969,1088
4840,4840,22.208,4840
3366,3366,14.703,3366
2873,2873,714.0,2873
4684,4684,80.306,4684
4881,4881,1879.0,4881
1162,1162,11.209,1162
4504,4504,21.932,4504
1112,1112,14.035,1112
3849,3849,1833.0,3849
4118,4118,11.281,4118
2217,2217,1692.0,2217
817,817,1320.0,817
4999,4999,1120.0,4999
610,610,12.005,610
725,725,734.0,725
1769,1769,1205.0,1769
1825,1825,1925.0,1825
2487,2487,1021.0,2487
1897,1897,583.0,1897
1137,1137,415.0,1137
2539,2539,2283.0,2539
4035,4035,0.0,4035
994,994,17.093,994
4230,4230,10.988,4230
575,575,0.0,575
4738,4738,13.34,4738
2850,2850,11.72,2850
3831,3831,0.0,3831
2266,2266,12.714,2266
1747,1747,726.0,1747
3575,3575,1516.0,3575
1420,1420,15.103,1420
4083,4083,2377.0,4083
4867,4867,1221.0,4867
1243,1243,2134.0,1243
594,594,11.017,594
1231,1231,930.0,1231
5274,5274,10.978,5274
3347,3347,1933.0,3347
613,613,730.0,613
3112,3112,15.486,3112
4685,4685,328.0,4685
3834,3834,11.476,3834
2534,2534,183.282,2534
2228,2228,12.475,2228
2078,2078,14.892,2078
570,570,11.792,570
5093,5093,1724.0,5093
1128,1128,20.147,1128
3083,3083,1525.0,3083
5211,5211,192.0,5211
3167,3167,1186.0,3167
2128,2128,11.619000000000002,2128
4861,4861,1752.0,4861
2244,2244,14.067,2244
605,605,2037.0,605
3993,3993,1592.0,3993
3774,3774,15.813,3774
2605,2605,113.0,2605
2606,2606,11.247,2606
1132,1132,24.825,1132
2069,2069,2114.0,2069
5082,5082,14.753,5082
4521,4521,0.0,4521
730,730,11.158,730
2300,2300,11.594,2300
2434,2434,12.103,2434
2647,2647,2280.0,2647
3825,3825,599.0,3825
4911,4911,1862.0,4911
4493,4493,1868.0,4493
2371,2371,532.0,2371
1853,1853,0.0,1853
3713,3713,1738.0,3713
938,938,12.445,938
4934,4934,26.768,4934
2474,2474,13.537,2474
4064,4064,11.841,4064
4846,4846,13.267,4846
2933,2933,360.0,2933
2992,2992,13.97,2992
3217,3217,1137.0,3217
1276,1276,12.444,1276
4438,4438,171.335,4438
2723,2723,1606.0,2723
3692,3692,11.189,3692
2727,2727,1348.0,2727
5006,5006,11.068,5006
2903,2903,1867.0,2903
3582,3582,14.933,3582
3171,3171,0.0,3171
1673,1673,557.0,1673
4137,4137,728.0,4137
2079,2079,1883.0,2079
2003,2003,1588.0,2003
3331,3331,413.0,3331
5134,5134,28.028,5134
3103,3103,2423.0,3103
4913,4913,1237.0,4913
3368,3368,14.45,3368
2201,2201,1798.0,2201
2613,2613,0.0,2613
3570,3570,14.203,3570
4597,4597,1139.0,4597
3038,3038,15.887,3038
2583,2583,856.0,2583
4575,4575,2124.0,4575
2168,2168,13.578,2168
1302,1302,21.217,1302
3022,3022,13.359000000000002,3022
2061,2061,168.0,2061
5203,5203,910.0,5203
1689,1689,257.0,1689
3290,3290,10.595999999999998,3290
2181,2181,614.0,2181
3185,3185,810.0,3185
3481,3481,1724.0,3481
4706,4706,19.258,4706
3642,3642,177.763,3642
1875,1875,963.0,1875
1582,1582,14.258,1582
2172,2172,10.418,2172
1432,1432,19.255,1432
2332,2332,19.934,2332
1519,1519,2095.0,1519
2812,2812,11.569,2812
5046,5046,11.91,5046
744,744,10.496,744
5124,5124,11.916,5124
4592,4592,194.693,4592
3409,3409,709.0,3409
5147,5147,1805.0,5147
3341,3341,302.0,3341
4087,4087,2292.0,4087
2604,2604,11.672,2604
574,574,10.5,574
799,799,1935.0,799
4092,4092,15.354,4092
3293,3293,2385.0,3293
4856,4856,16.522000000000002,4856
4932,4932,22.14,4932
2479,2479,1765.0,2479
1114,1114,11.364,1114
3175,3175,2206.0,3175
831,831,0.0,831
2084,2084,11.192,2084
3640,3640,11.554,3640
2184,2184,11.088,2184
5237,5237,1272.0,5237
1175,1175,2030.0,1175
1815,1815,2104.0,1815
2511,2511,0.0,2511
4988,4988,11.732,4988
5091,5091,437.0,5091
3674,3674,14.374,3674
1083,1083,1289.0,1083
535,535,666.0,535
2726,2726,14.755999999999998,2726
1793,1793,2201.0,1793
2761,2761,2311.0,2761
2099,2099,1481.0,2099
993,993,926.0,993
1078,1078,13.189,1078
4161,4161,1690.0,4161
4798,4798,15.818,4798
3667,3667,2164.0,3667
2378,2378,14.49,2378
5036,5036,11.767,5036
1716,1716,15.021,1716
698,698,17.627,698
4187,4187,1532.0,4187
3858,3858,198.092,3858
793,793,2048.0,793
4936,4936,16.317,4936
5232,5232,25.536,5232
4694,4694,15.235,4694
4215,4215,1484.0,4215
900,900,15.488,900
4418,4418,14.503,4418
4952,4952,10.844,4952
2055,2055,2192.0,2055
3274,3274,11.809,3274
5054,5054,26.518,5054
949,949,2289.0,949
2223,2223,2527.0,2223
5066,5066,18.783,5066
4543,4543,1107.0,4543
2082,2082,10.965,2082
5094,5094,11.274,5094
1129,1129,2480.0,1129
522,522,13.538,522
3329,3329,2322.0,3329
3551,3551,1205.0,3551
2355,2355,1693.0,2355
699,699,1472.0,699
854,854,12.093,854
2963,2963,0.0,2963
884,884,10.765,884
1180,1180,11.013,1180
1871,1871,601.0,1871
3245,3245,1545.0,3245
1617,1617,1578.0,1617
4727,4727,1125.0,4727
5072,5072,11.025,5072
1661,1661,1009.0,1661
2269,2269,1159.0,2269
796,796,23.534,796
1467,1467,0.0,1467
2969,2969,256.0,2969
4151,4151,859.0,4151
4777,4777,649.0,4777
903,903,903.0,903
3441,3441,56.0,3441
3126,3126,15.239,3126
4175,4175,2206.0,4175
2659,2659,392.0,2659
729,729,434.0,729
647,647,207.0,647
1142,1142,11.785,1142
2993,2993,651.0,2993
3267,3267,1898.0,3267
599,599,368.0,599
2870,2870,11.787,2870
1955,1955,2337.0,1955
2390,2390,25.458,2390
3402,3402,10.973,3402
2907,2907,2124.0,2907
4978,4978,12.741,4978
721,721,1445.0,721
1780,1780,18.307,1780
3567,3567,1111.0,3567
1416,1416,51.947,1416
2971,2971,1595.0,2971
5014,5014,17.917,5014
2382,2382,15.64,2382
880,880,18.993,880
3099,3099,0.0,3099
2552,2552,10.455,2552
1518,1518,19.321,1518
2287,2287,1987.0,2287
1321,1321,2111.0,1321
4061,4061,2350.0,4061
913,913,1712.0,913
4372,4372,14.419,4372
4570,4570,12.863,4570
1406,1406,11.581,1406
3746,3746,14.698,3746
4505,4505,1456.0,4505
5181,5181,238.0,5181
3710,3710,11.38,3710
3579,3579,2337.0,3579
3087,3087,1311.0,3087
4528,4528,25.638,4528
4382,4382,15.466,4382
1024,1024,17.332,1024
849,849,1122.0,849
5003,5003,1766.0,5003
3620,3620,22.068,3620
5184,5184,15.269,5184
5223,5223,407.0,5223
2765,2765,1511.0,2765
4368,4368,10.622,4368
1850,1850,16.542,1850
4947,4947,434.0,4947
1829,1829,1503.0,1829
4835,4835,1057.0,4835
2139,2139,2060.0,2139
1781,1781,435.0,1781
1021,1021,836.0,1021
3063,3063,2465.0,3063
5189,5189,707.0,5189
1645,1645,1177.0,1645
2267,2267,0.0,2267
4443,4443,545.0,4443
4371,4371,455.0,4371
800,800,12.853,800
4924,4924,16.477999999999998,4924
2036,2036,13.157,2036
4023,4023,992.0,4023
1353,1353,1364.0,1353
4624,4624,11.15,4624
1077,1077,2438.0,1077
2827,2827,951.0,2827
3129,3129,952.0,3129
4326,4326,13.282,4326
788,788,17.736,788
620,620,16.176,620
2807,2807,812.0,2807
4217,4217,2118.0,4217
2309,2309,0.0,2309
2004,2004,11.23,2004
3647,3647,2337.0,3647
4512,4512,13.157,4512
3645,3645,653.0,3645
1719,1719,2315.0,1719
4671,4671,880.0,4671
2237,2237,1237.0,2237
3918,3918,12.8,3918
2295,2295,179.0,2295
4174,4174,19.637,4174
2227,2227,1206.0,2227
1999,1999,1798.0,1999
3308,3308,11.526,3308
3376,3376,15.48,3376
5041,5041,0.0,5041
4128,4128,15.617,4128
531,531,901.0,531
1895,1895,0.0,1895
3229,3229,976.0,3229
3583,3583,1845.0,3583
5271,5271,123.0,5271
4927,4927,1998.0,4927
3265,3265,494.0,3265
3109,3109,675.0,3109
5256,5256,12.156,5256
2469,2469,971.0,2469
2748,2748,14.734000000000002,2748
4280,4280,17.383,4280
4124,4124,17.965999999999994,4124
4650,4650,10.866,4650
4496,4496,13.859000000000002,4496
3218,3218,24.378,3218
1589,1589,1639.0,1589
1883,1883,0.0,1883
5242,5242,24.069000000000006,5242
1852,1852,11.255,1852
5077,5077,1192.0,5077
975,975,2510.0,975
2285,2285,0.0,2285
1752,1752,14.878,1752
2991,2991,2448.0,2991
4677,4677,2516.0,4677
1604,1604,50.839,1604
2080,2080,13.434,2080
1101,1101,554.0,1101
1723,1723,2509.0,1723
4394,4394,136.915,4394
4237,4237,135.0,4237
3877,3877,923.0,3877
1796,1796,13.46,1796
1775,1775,2369.0,1775
4771,4771,835.0,4771
4120,4120,140.244,4120
2786,2786,12.812,2786
2302,2302,14.307,2302
4345,4345,460.0,4345
2554,2554,15.102,2554
2156,2156,20.438,2156
1380,1380,13.52,1380
4176,4176,14.066,4176
3068,3068,11.509,3068
3403,3403,178.0,3403
1396,1396,20.259,1396
3052,3052,13.093,3052
2268,2268,11.539,2268
5022,5022,13.777,5022
3247,3247,2066.0,3247
5076,5076,21.885,5076
3984,3984,15.814,3984
3991,3991,1992.0,3991
2695,2695,167.0,2695
3801,3801,810.0,3801
3799,3799,1177.0,3799
2068,2068,22.842,2068
985,985,1566.0,985
3962,3962,14.095999999999998,3962
3632,3632,14.899,3632
1349,1349,262.0,1349
3502,3502,15.729,3502
2983,2983,298.0,2983
2924,2924,10.96,2924
2896,2896,19.311,2896
5097,5097,767.0,5097
1826,1826,15.786,1826
1109,1109,0.0,1109
1316,1316,14.47,1316
3165,3165,648.0,3165
3605,3605,635.0,3605
1470,1470,17.995,1470
5061,5061,1910.0,5061
2744,2744,22.923,2744
2051,2051,361.0,2051
4024,4024,11.140999999999998,4024
2588,2588,11.555,2588
4513,4513,1181.0,4513
1817,1817,2380.0,1817
4333,4333,639.0,4333
3985,3985,2341.0,3985
3433,3433,731.0,3433
1294,1294,15.427,1294
1533,1533,2446.0,1533
1728,1728,17.613,1728
4516,4516,13.947,4516
1434,1434,19.903,1434
3998,3998,15.004,3998
1103,1103,0.0,1103
5010,5010,15.193,5010
3332,3332,11.785,3332
5236,5236,13.568,5236
2063,2063,206.0,2063
633,633,142.0,633
689,689,1097.0,689
3005,3005,564.0,3005
1199,1199,1533.0,1199
2195,2195,155.0,2195
3748,3748,14.659,3748
4617,4617,1673.0,4617
4845,4845,2134.0,4845
1596,1596,14.53,1596
1369,1369,951.0,1369
4776,4776,13.998,4776
2618,2618,150.704,2618
4503,4503,1519.0,4503
987,987,703.0,987
2797,2797,1761.0,2797
646,646,14.964,646
4332,4332,13.816,4332
3917,3917,322.0,3917
2188,2188,17.742,2188
671,671,1280.0,671
4197,4197,264.0,4197
750,750,11.66,750
1772,1772,13.847,1772
1607,1607,2288.0,1607
1447,1447,0.0,1447
1936,1936,11.84,1936
2834,2834,18.215,2834
1652,1652,13.94,1652
4736,4736,11.057,4736
2501,2501,1811.0,2501
2694,2694,14.874,2694
1040,1040,12.901,1040
3578,3578,10.853,3578
1440,1440,22.61,1440
4839,4839,516.0,4839
3599,3599,1581.0,3599
3136,3136,15.13,3136
2270,2270,11.483,2270
1991,1991,177.0,1991
3521,3521,2340.0,3521
4278,4278,11.606,4278
4450,4450,65.153,4450
4501,4501,1712.0,4501
1613,1613,432.0,1613
3738,3738,21.531,3738
2749,2749,241.0,2749
603,603,38.0,603
4071,4071,1861.0,4071
3298,3298,11.755999999999998,3298
627,627,2396.0,627
4610,4610,11.53,4610
1880,1880,16.062,1880
660,660,10.791,660
2436,2436,14.647,2436
4930,4930,16.32,4930
5025,5025,1128.0,5025
1104,1104,14.683,1104
3870,3870,11.384,3870
4538,4538,76.048,4538
5183,5183,1316.0,5183
1272,1272,13.627,1272
1892,1892,18.563,1892
622,622,19.082,622
3690,3690,11.152,3690
4419,4419,1866.0,4419
2718,2718,13.219,2718
3255,3255,2540.0,3255
1131,1131,466.0,1131
4425,4425,213.0,4425
1595,1595,1164.0,1595
4983,4983,1845.0,4983
4951,4951,207.0,4951
3671,3671,978.0,3671
2416,2416,10.894,2416
3672,3672,10.979,3672
4859,4859,416.0,4859
1214,1214,31.37,1214
1495,1495,300.0,1495
794,794,12.954,794
2928,2928,11.034,2928
1451,1451,1330.0,1451
4871,4871,867.0,4871
3314,3314,10.944,3314
4263,4263,2551.0,4263
2835,2835,1208.0,2835
1503,1503,1540.0,1503
2448,2448,11.784,2448
871,871,2413.0,871
3740,3740,11.411,3740
3160,3160,14.593,3160
2339,2339,0.0,2339
625,625,1778.0,625
5007,5007,1001.0,5007
3718,3718,15.182,3718
1042,1042,18.23,1042
3111,3111,1677.0,3111
5148,5148,14.366,5148
2292,2292,12.932,2292
942,942,10.59,942
4778,4778,11.517,4778
4573,4573,999.0,4573
4445,4445,1315.0,4445
1821,1821,1482.0,1821
4548,4548,200.743,4548
2852,2852,16.589000000000002,2852
2691,2691,234.0,2691
4628,4628,11.309,4628
4666,4666,10.735,4666
1952,1952,11.68,1952
3439,3439,1291.0,3439
2901,2901,0.0,2901
715,715,0.0,715
3006,3006,15.435,3006
1674,1674,13.588,1674
2394,2394,19.376,2394
2522,2522,13.213,2522
3609,3609,1105.0,3609
1560,1560,18.186,1560
4205,4205,47.0,4205
5064,5064,11.077,5064
4202,4202,19.148,4202
5135,5135,1582.0,5135
785,785,2424.0,785
1025,1025,643.0,1025
888,888,11.332,888
3940,3940,11.174,3940
1448,1448,16.183,1448
2319,2319,107.0,2319
2408,2408,11.599,2408
1948,1948,15.247,1948
2878,2878,13.218,2878
1207,1207,1833.0,1207
3477,3477,1257.0,3477
4126,4126,11.804,4126
4397,4397,2379.0,4397
2974,2974,13.424,2974
4689,4689,1660.0,4689
1288,1288,14.685,1288
5286,5286,10.854,5286
4022,4022,12.93,4022
790,790,20.185,790
5098,5098,16.621,5098
1215,1215,1058.0,1215
4181,4181,1422.0,4181
1413,1413,2492.0,1413
3589,3589,1245.0,3589
3862,3862,14.989,3862
4782,4782,14.394,4782
3743,3743,469.0,3743
4244,4244,16.167,4244
2622,2622,12.335,2622
777,777,2388.0,777
4794,4794,12.691,4794
1466,1466,17.965999999999994,1466
1737,1737,2369.0,1737
2326,2326,12.384,2326
2410,2410,13.73,2410
2150,2150,16.651,2150
5047,5047,882.0,5047
1421,1421,0.0,1421
3057,3057,563.0,3057
3157,3157,1952.0,3157
4719,4719,160.0,4719
2952,2952,20.255,2952
4943,4943,2290.0,4943
1120,1120,26.491,1120
1792,1792,13.525,1792
4116,4116,10.472,4116
3822,3822,19.057,3822
4938,4938,15.21,4938
1979,1979,1303.0,1979
1693,1693,0.0,1693
4499,4499,706.0,4499
3333,3333,2419.0,3333
3188,3188,14.182,3188
5220,5220,12.218,5220
4033,4033,2090.0,4033
3852,3852,170.873,3852
4668,4668,11.24,4668
2842,2842,15.57,2842
3568,3568,24.257,3568
2053,2053,0.0,2053
3223,3223,2148.0,3223
1734,1734,19.545,1734
4872,4872,20.106,4872
2551,2551,647.0,2551
1277,1277,238.0,1277
969,969,2467.0,969
3137,3137,1403.0,3137
4609,4609,2050.0,4609
1430,1430,12.53,1430
4681,4681,830.0,4681
1259,1259,0.0,1259
1745,1745,951.0,1745
2753,2753,1501.0,2753
1653,1653,760.0,1653
2029,2029,776.0,2029
3452,3452,11.687,3452
4508,4508,14.458,4508
4669,4669,1569.0,4669
1512,1512,69.405,1512
2975,2975,0.0,2975
4338,4338,13.906,4338
3196,3196,14.869000000000002,3196
2712,2712,17.16,2712
1911,1911,782.0,1911
4864,4864,15.827,4864
2676,2676,19.554,2676
1166,1166,10.582,1166
2946,2946,12.97,2946
731,731,113.0,731
2041,2041,2090.0,2041
4042,4042,12.031,4042
2400,2400,13.074000000000002,2400
2198,2198,13.953,2198
3921,3921,1539.0,3921
1204,1204,21.67,1204
894,894,10.558,894
3242,3242,12.115,3242
939,939,2222.0,939
4091,4091,1158.0,4091
1537,1537,0.0,1537
3611,3611,1322.0,3611
2755,2755,0.0,2755
2442,2442,11.522,2442
1995,1995,1228.0,1995
920,920,14.978,920
4901,4901,2269.0,4901
3260,3260,14.68,3260
1313,1313,1276.0,1313
4011,4011,1757.0,4011
3721,3721,2320.0,3721
1095,1095,428.0,1095
4018,4018,15.618,4018
2098,2098,27.381,2098
2060,2060,15.17,2060
3635,3635,619.0,3635
2046,2046,23.03,2046
4160,4160,154.888,4160
2994,2994,17.169,2994
4179,4179,2220.0,4179
1236,1236,13.569,1236
3798,3798,11.372,3798
4185,4185,0.0,4185
612,612,11.543,612
2019,2019,2049.0,2019
1360,1360,21.166,1360
4289,4289,0.0,4289
1985,1985,2278.0,1985
4625,4625,1026.0,4625
4290,4290,17.739,4290
3465,3465,1789.0,3465
3066,3066,11.476,3066
3448,3448,11.333,3448
2277,2277,2049.0,2277
1038,1038,12.332,1038
1489,1489,440.0,1489
3252,3252,14.529000000000002,3252
4869,4869,354.0,4869
3195,3195,1590.0,3195
3995,3995,1692.0,3995
552,552,14.809,552
3457,3457,1810.0,3457
3964,3964,11.751,3964
5258,5258,16.544,5258
3939,3939,335.0,3939
2018,2018,11.117,2018
3950,3950,175.882,3950
3399,3399,2523.0,3399
1784,1784,25.86,1784
2027,2027,2535.0,2027
1791,1791,2547.0,1791
2664,2664,12.238,2664
764,764,13.101,764
3630,3630,91.105,3630
2038,2038,15.031,2038
923,923,2092.0,923
2352,2352,15.837,2352
687,687,121.0,687
837,837,1147.0,837
2865,2865,2327.0,2865
782,782,18.6,782
2279,2279,0.0,2279
4580,4580,14.782,4580
5115,5115,1513.0,5115
5050,5050,11.352,5050
901,901,1536.0,901
4426,4426,19.202,4426
2752,2752,13.216,2752
2513,2513,1477.0,2513
3117,3117,2497.0,3117
3565,3565,1703.0,3565
1320,1320,13.902,1320
1154,1154,12.129,1154
600,600,11.461,600
2100,2100,10.671,2100
3941,3941,0.0,3941
2652,2652,14.98,2652
4647,4647,1159.0,4647
1245,1245,1759.0,1245
2294,2294,12.329,2294
3215,3215,494.0,3215
4874,4874,10.509,4874
2641,2641,0.0,2641
4675,4675,0.0,4675
767,767,192.0,767
2191,2191,2333.0,2191
5113,5113,0.0,5113
1713,1713,1523.0,1713
3771,3771,1771.0,3771
580,580,10.871,580
4818,4818,15.163,4818
3933,3933,1308.0,3933
4220,4220,152.03799999999995,4220
1795,1795,1560.0,1795
4629,4629,620.0,4629
2930,2930,12.286,2930
3525,3525,0.0,3525
3974,3974,199.521,3974
706,706,15.219,706
2845,2845,2284.0,2845
3330,3330,13.807,3330
4074,4074,11.062,4074
2081,2081,506.0,2081
1755,1755,1723.0,1755
3574,3574,15.677,3574
3070,3070,12.63,3070
3612,3612,20.189,3612
3851,3851,1937.0,3851
1333,1333,0.0,1333
5126,5126,16.016,5126
3797,3797,684.0,3797
1150,1150,11.966,1150
1348,1348,12.786,1348
1960,1960,11.423,1960
3353,3353,0.0,3353
5244,5244,13.758,5244
2171,2171,1317.0,2171
965,965,2082.0,965
5207,5207,2385.0,5207
1366,1366,16.465999999999998,1366
1854,1854,12.48,1854
4336,4336,13.749,4336
691,691,1389.0,691
4396,4396,173.40900000000005,4396
4536,4536,11.073,4536
5197,5197,1542.0,5197
1517,1517,625.0,1517
1668,1668,14.454,1668
5221,5221,263.0,5221
4646,4646,14.449000000000002,4646
1133,1133,1547.0,1133
3820,3820,10.825,3820
4375,4375,615.0,4375
2809,2809,0.0,2809
4403,4403,1864.0,4403
4750,4750,11.63,4750
2107,2107,192.0,2107
3437,3437,186.0,3437
4308,4308,15.333,4308
581,581,565.0,581
1561,1561,793.0,1561
4162,4162,187.764,4162
952,952,12.216,952
3016,3016,14.261,3016
3709,3709,1322.0,3709
5171,5171,0.0,5171
1140,1140,13.91,1140
2491,2491,513.0,2491
567,567,2502.0,567
1034,1034,16.031,1034
1005,1005,1400.0,1005
1973,1973,460.0,1973
1105,1105,2510.0,1105
1635,1635,2242.0,1635
538,538,26.426,538
591,591,1766.0,591
3529,3529,1667.0,3529
1832,1832,12.281,1832
1887,1887,721.0,1887
4122,4122,14.007,4122
1969,1969,1783.0,1969
1030,1030,13.645,1030
4915,4915,1126.0,4915
4976,4976,11.161,4976
1902,1902,15.209,1902
1983,1983,1054.0,1983
1303,1303,443.0,1303
3273,3273,36.0,3273
5055,5055,1196.0,5055
561,561,713.0,561
2141,2141,365.0,2141
3460,3460,11.479,3460
2754,2754,12.906,2754
1806,1806,12.941,1806
2367,2367,2257.0,2367
4679,4679,2306.0,4679
1225,1225,519.0,1225
2577,2577,0.0,2577
3581,3581,1373.0,3581
1679,1679,210.0,1679
3636,3636,11.425,3636
1023,1023,1886.0,1023
3973,3973,1802.0,3973
1638,1638,10.588,1638
3494,3494,11.623,3494
3373,3373,929.0,3373
4972,4972,12.397,4972
1587,1587,783.0,1587
3323,3323,1144.0,3323
1562,1562,12.23,1562
2035,2035,406.0,2035
1242,1242,13.058,1242
2948,2948,12.584,2948
1901,1901,1841.0,1901
2023,2023,1758.0,2023
1476,1476,18.37,1476
1539,1539,1904.0,1539
2403,2403,2380.0,2403
3937,3937,663.0,3937
556,556,15.88,556
4401,4401,967.0,4401
4894,4894,15.476,4894
5020,5020,11.220999999999998,5020
4056,4056,132.602,4056
4555,4555,2313.0,4555
2455,2455,2449.0,2455
1127,1127,1449.0,1127
3952,3952,14.536,3952
3796,3796,25.558000000000003,3796
1950,1950,12.404000000000002,1950
2307,2307,0.0,2307
739,739,0.0,739
4437,4437,1455.0,4437
1515,1515,181.0,1515
2333,2333,920.0,2333
4707,4707,1560.0,4707
2125,2125,1859.0,2125
4457,4457,1708.0,4457
2481,2481,1918.0,2481
3729,3729,0.0,3729
3660,3660,11.324000000000002,3660
3377,3377,1362.0,3377
505,505,0.0,505
4526,4526,17.629,4526
3736,3736,15.194,3736
4414,4414,131.218,4414
4154,4154,11.890999999999998,4154
4654,4654,14.457,4654
3975,3975,903.0,3975
4962,4962,15.973,4962
4812,4812,17.643,4812
2070,2070,22.994,2070
5284,5284,12.615,5284
3842,3842,13.87,3842
539,539,1923.0,539
4051,4051,2414.0,4051
3178,3178,16.639,3178
4477,4477,838.0,4477
3757,3757,739.0,3757
4392,4392,24.746,4392
3327,3327,1238.0,3327
3676,3676,11.097,3676
4581,4581,1326.0,4581
602,602,14.105,602
1092,1092,24.015,1092
4890,4890,13.977,4890
1264,1264,15.767,1264
2229,2229,1867.0,2229
1917,1917,426.0,1917
1110,1110,12.397,1110
2720,2720,12.277,2720
3420,3420,19.35,3420
4065,4065,703.0,4065
1963,1963,1065.0,1963
2973,2973,370.0,2973
5167,5167,1853.0,5167
4271,4271,1405.0,4271
2525,2525,1212.0,2525
4123,4123,178.0,4123
3146,3146,13.093,3146
3819,3819,1779.0,3819
3312,3312,16.147000000000002,3312
3898,3898,10.73,3898
4980,4980,11.441,4980
1834,1834,13.356,1834
846,846,13.553,846
3060,3060,12.593,3060
980,980,12.396,980
3480,3480,15.445,3480
3708,3708,46.195,3708
2897,2897,1473.0,2897
4082,4082,21.027,4082
2703,2703,2045.0,2703
4550,4550,11.635,4550
2369,2369,0.0,2369
2941,2941,2324.0,2941
3654,3654,11.369000000000002,3654
3416,3416,13.145,3416
1687,1687,353.0,1687
5245,5245,1495.0,5245
516,516,11.234000000000002,516
3816,3816,17.765,3816
2456,2456,13.931,2456
972,972,15.902,972
3510,3510,19.613,3510
2042,2042,13.821,2042
804,804,14.504,804
1056,1056,22.197,1056
3526,3526,27.411,3526
4242,4242,18.928,4242
4556,4556,138.58700000000002,4556
1402,1402,11.108,1402
1422,1422,10.955,1422
3367,3367,1092.0,3367
4391,4391,575.0,4391
3193,3193,2473.0,3193
4678,4678,13.630999999999998,4678
4366,4366,11.716,4366
5086,5086,21.087,5086
3865,3865,1833.0,3865
4134,4134,15.49,4134
2475,2475,135.0,2475
1797,1797,1834.0,1797
3301,3301,1829.0,3301
2280,2280,12.703,2280
631,631,1909.0,631
4761,4761,823.0,4761
2862,2862,14.896,2862
5193,5193,2460.0,5193
3430,3430,16.164,3430
4709,4709,2305.0,4709
4510,4510,12.074000000000002,4510
3830,3830,12.228,3830
3104,3104,11.116,3104
3624,3624,17.88,3624
4111,4111,266.0,4111
1033,1033,1085.0,1033
2183,2183,1801.0,2183
658,658,16.029,658
908,908,12.842,908
4405,4405,2549.0,4405
961,961,1898.0,961
676,676,14.998,676
2949,2949,0.0,2949
507,507,552.0,507
5039,5039,1850.0,5039
4891,4891,2126.0,4891
4882,4882,10.879,4882
4965,4965,0.0,4965
1361,1361,1620.0,1361
4127,4127,1597.0,4127
1702,1702,14.643,1702
4166,4166,189.591,4166
5294,5294,10.743,5294
1217,1217,2361.0,1217
4238,4238,11.895,4238
1345,1345,1427.0,1345
1160,1160,13.186,1160
2557,2557,1120.0,2557
1764,1764,15.64,1764
927,927,2533.0,927
1540,1540,12.617,1540
3119,3119,2118.0,3119
4199,4199,897.0,4199
4783,4783,578.0,4783
5080,5080,21.134,5080
615,615,665.0,615
2006,2006,13.211,2006
4604,4604,11.175999999999998,4604
3454,3454,11.092,3454
3791,3791,0.0,3791
4306,4306,13.058,4306
2173,2173,0.0,2173
2033,2033,1671.0,2033
1865,1865,49.0,1865
2256,2256,13.958,2256
3065,3065,618.0,3065
551,551,1494.0,551
1397,1397,0.0,1397
1312,1312,14.133,1312
3628,3628,20.923,3628
4644,4644,142.715,4644
860,860,15.264,860
1085,1085,551.0,1085
2958,2958,10.68,2958
685,685,1913.0,685
1459,1459,1269.0,1459
2293,2293,799.0,2293
686,686,18.6,686
1091,1091,1534.0,1091
1683,1683,406.0,1683
1283,1283,1376.0,1283
657,657,2189.0,657
4235,4235,0.0,4235
2225,2225,1575.0,2225
4608,4608,15.071,4608
4708,4708,21.139,4708
745,745,1297.0,745
3554,3554,10.543,3554
2742,2742,15.742,2742
653,653,1133.0,653
1058,1058,24.135,1058
4586,4586,17.7,4586
2136,2136,12.817,2136
4752,4752,14.121,4752
839,839,207.0,839
4705,4705,413.0,4705
4511,4511,1670.0,4511
4182,4182,12.604,4182
762,762,18.379,762
2790,2790,16.35,2790
1071,1071,2375.0,1071
1802,1802,15.958,1802
4402,4402,12.390999999999998,4402
2431,2431,1766.0,2431
4834,4834,17.340999999999998,4834
4827,4827,0.0,4827
3001,3001,2144.0,3001
2601,2601,1072.0,2601
2482,2482,16.205,2482
667,667,1867.0,667
2465,2465,398.0,2465
5001,5001,2240.0,5001
3905,3905,837.0,3905
780,780,17.941,780
4770,4770,13.299,4770
1292,1292,12.727,1292
1475,1475,2159.0,1475
957,957,391.0,957
1700,1700,11.406,1700
3355,3355,0.0,3355
3395,3395,2279.0,3395
1541,1541,1227.0,1541
3811,3811,2524.0,3811
5249,5249,664.0,5249
2674,2674,17.512,2674
3886,3886,14.161,3886
5008,5008,10.201,5008
2645,2645,328.0,2645
1975,1975,1613.0,1975
2337,2337,408.0,2337
921,921,1945.0,921
3735,3735,0.0,3735
1145,1145,487.0,1145
996,996,16.579,996
2700,2700,13.139,2700
4153,4153,851.0,4153
807,807,374.0,807
806,806,13.067,806
4027,4027,810.0,4027
2126,2126,13.707,2126
5038,5038,17.874000000000006,5038
3062,3062,12.942,3062
1477,1477,1732.0,1477
3792,3792,12.315,3792
4150,4150,14.017,4150
4353,4353,405.0,4353
5279,5279,1470.0,5279
5226,5226,12.133,5226
694,694,20.237,694
4169,4169,1274.0,4169
2054,2054,12.286,2054
3059,3059,1922.0,3059
1483,1483,0.0,1483
638,638,17.47,638
2567,2567,1619.0,2567
1386,1386,18.898,1386
3231,3231,519.0,3231
2216,2216,11.475,2216
1445,1445,1216.0,1445
4866,4866,22.042,4866
2383,2383,1178.0,2383
3289,3289,2279.0,3289
1740,1740,11.913,1740
2189,2189,941.0,2189
3936,3936,10.416,3936
2644,2644,12.267,2644
2254,2254,17.185,2254
2751,2751,1185.0,2751
1774,1774,15.140999999999998,1774
4475,4475,1276.0,4475
1927,1927,794.0,1927
2340,2340,10.445,2340
4622,4622,11.387,4622
3914,3914,160.481,3914
645,645,1506.0,645
3916,3916,177.08599999999996,3916
4532,4532,73.362,4532
3895,3895,824.0,3895
2866,2866,10.6,2866
1222,1222,14.565,1222
825,825,0.0,825
976,976,14.448,976
892,892,10.741,892
564,564,12.446,564
4826,4826,10.463,4826
769,769,415.0,769
4912,4912,14.003,4912
2800,2800,17.9,2800
4540,4540,195.957,4540
4186,4186,11.847,4186
1546,1546,23.682,1546
4484,4484,14.249,4484
3187,3187,0.0,3187
3050,3050,12.44,3050
3600,3600,11.527,3600
2143,2143,1420.0,2143
1944,1944,16.819000000000006,1944
2407,2407,1359.0,2407
1847,1847,2005.0,1847
4168,4168,11.598,4168
1107,1107,2395.0,1107
3296,3296,10.546,3296
2050,2050,10.563,2050
1233,1233,1348.0,1233
4805,4805,2529.0,4805
3227,3227,1739.0,3227
586,586,14.528,586
4089,4089,1360.0,4089
1502,1502,14.84,1502
893,893,739.0,893
937,937,615.0,937
4563,4563,164.0,4563
4284,4284,15.175,4284
4949,4949,1360.0,4949
4561,4561,0.0,4561
4117,4117,2325.0,4117
4534,4534,10.13,4534
1069,1069,938.0,1069
2495,2495,787.0,2495
4223,4223,1681.0,4223
973,973,0.0,973
1605,1605,681.0,1605
550,550,20.596,550
4274,4274,17.735,4274
3321,3321,2163.0,3321
2784,2784,12.023,2784
1625,1625,0.0,1625
549,549,1660.0,549
2646,2646,12.625,2646
4362,4362,153.366,4362
682,682,12.576,682
3309,3309,1270.0,3309
5037,5037,1230.0,5037
2149,2149,2241.0,2149
4384,4384,13.202,4384
1494,1494,18.834,1494
3814,3814,169.998,3814
1773,1773,1155.0,1773
1914,1914,15.183,1914
3445,3445,2461.0,3445
3585,3585,1160.0,3585
795,795,1110.0,795
3425,3425,187.0,3425
3745,3745,2057.0,3745
1439,1439,2545.0,1439
554,554,15.267,554
1708,1708,13.999,1708
4319,4319,1046.0,4319
2286,2286,21.161,2286
4908,4908,13.162,4908
1032,1032,18.818,1032
4956,4956,16.104,4956
1857,1857,2126.0,1857
1002,1002,11.014,1002
930,930,11.993,930
2692,2692,11.21,2692
723,723,248.0,723
4740,4740,15.367,4740
1028,1028,22.651,1028
4233,4233,1109.0,4233
2498,2498,19.207,2498
2607,2607,2096.0,2607
5259,5259,0.0,5259
3723,3723,2187.0,3723
774,774,16.340999999999998,774
1325,1325,1649.0,1325
3142,3142,13.618,3142
5227,5227,852.0,5227
1778,1778,11.081,1778
2147,2147,0.0,2147
4463,4463,1787.0,4463
3546,3546,11.569,3546
3942,3942,11.581,3942
3808,3808,11.53,3808
2999,2999,370.0,2999
1393,1393,0.0,1393
2467,2467,2255.0,2467
2396,2396,13.026,2396
3910,3910,139.702,3910
3131,3131,787.0,3131
2563,2563,2358.0,2563
4309,4309,1123.0,4309
4388,4388,19.549,4388
2485,2485,1911.0,2485
2591,2591,2358.0,2591
3925,3925,325.0,3925
2799,2799,852.0,2799
5166,5166,14.447,5166
3246,3246,14.438,3246
3434,3434,12.98,3434
4456,4456,97.724,4456
3299,3299,1436.0,3299
5170,5170,12.601,5170
3963,3963,2004.0,3963
1201,1201,2533.0,1201
4829,4829,2474.0,4829
1787,1787,2291.0,1787
3295,3295,948.0,3295
1356,1356,16.415,1356
4286,4286,10.733,4286
4282,4282,12.503,4282
2616,2616,15.378,2616
2320,2320,13.01,2320
3023,3023,1875.0,3023
4929,4929,988.0,4929
2837,2837,2340.0,2837
4560,4560,175.75400000000005,4560
4328,4328,12.729,4328
3074,3074,17.788,3074
1739,1739,0.0,1739
3789,3789,1635.0,3789
1884,1884,17.031,1884
4649,4649,2533.0,4649
3508,3508,21.421,3508
2817,2817,34.0,2817
3823,3823,558.0,3823
4429,4429,96.0,4429
4106,4106,10.328,4106
1497,1497,1621.0,1497
1753,1753,1193.0,1753
5273,5273,1092.0,5273
4849,4849,625.0,4849
4725,4725,621.0,4725
4748,4748,11.351,4748
3012,3012,14.511,3012
1785,1785,117.0,1785
1845,1845,810.0,1845
4589,4589,1929.0,4589
1958,1958,11.615,1958
1365,1365,1071.0,1365
2857,2857,1320.0,2857
1530,1530,19.592,1530
3651,3651,0.0,3651
1507,1507,2347.0,1507
2239,2239,1892.0,2239
3097,3097,1958.0,3097
2234,2234,12.737,2234
1426,1426,17.688,1426
515,515,1402.0,515
4807,4807,398.0,4807
3115,3115,1390.0,3115
2417,2417,1119.0,2417
4171,4171,1365.0,4171
4701,4701,2056.0,4701
1856,1856,10.75,1856
4670,4670,13.297,4670
4896,4896,17.135,4896
2386,2386,10.579,2386
1153,1153,2480.0,1153
4768,4768,19.004,4768
3810,3810,11.405,3810
713,713,615.0,713
2255,2255,1481.0,2255
5016,5016,11.188,5016
4808,4808,16.666,4808
3915,3915,0.0,3915
2372,2372,25.931,2372
2650,2650,11.593,2650
1135,1135,606.0,1135
4147,4147,601.0,4147
2947,2947,1412.0,2947
4494,4494,13.128,4494
1017,1017,904.0,1017
3795,3795,1633.0,3795
2977,2977,1781.0,2977
1398,1398,16.823,1398
3026,3026,13.099,3026
1060,1060,23.774,1060
2087,2087,717.0,2087
5068,5068,10.869000000000002,5068
3953,3953,0.0,3953
2222,2222,11.147,2222
597,597,720.0,597
4489,4489,774.0,4489
4651,4651,744.0,4651
4316,4316,12.106,4316
543,543,2076.0,543
2381,2381,1478.0,2381
2158,2158,18.666,2158
2072,2072,15.56,2072
2566,2566,14.061,2566
3706,3706,15.147,3706
1703,1703,2226.0,1703
1200,1200,13.746,1200
4876,4876,10.86,4876
1534,1534,18.333,1534
3770,3770,13.702,3770
1898,1898,16.473,1898
1978,1978,17.064,1978
3374,3374,14.99,3374
4279,4279,1169.0,4279
3285,3285,340.0,3285
1008,1008,15.059,1008
661,661,2012.0,661
3607,3607,815.0,3607
1526,1526,59.299,1526
932,932,22.985,932
3311,3311,0.0,3311
4578,4578,13.197,4578
1310,1310,25.177,1310
1888,1888,14.372,1888
2311,2311,1775.0,2311
2219,2219,126.0,2219
5112,5112,11.167,5112
601,601,0.0,601
3960,3960,10.428,3960
3657,3657,1247.0,3657
2531,2531,2261.0,2531
711,711,2095.0,711
4302,4302,14.543,4302
3864,3864,181.132,3864
2399,2399,284.0,2399
5277,5277,1327.0,5277
4472,4472,13.352,4472
1959,1959,835.0,1959
1443,1443,155.0,1443
5123,5123,113.0,5123
3090,3090,10.856,3090
5224,5224,11.38,5224
2420,2420,10.8,2420
3618,3618,17.683,3618
2376,2376,23.654,2376
4227,4227,1606.0,4227
2854,2854,24.291,2854
1849,1849,1302.0,1849
3981,3981,275.0,3981
4040,4040,189.842,4040
3763,3763,2075.0,3763
1363,1363,0.0,1363
2628,2628,10.890999999999998,2628
4612,4612,12.993,4612
2725,2725,1889.0,2725
4485,4485,890.0,4485
3102,3102,14.44,3102
2932,2932,13.675,2932
2368,2368,21.846,2368
2031,2031,0.0,2031
4030,4030,26.239,4030
971,971,824.0,971
1115,1115,1735.0,1115
3336,3336,11.961,3336
2224,2224,14.794,2224
3489,3489,1236.0,3489
1767,1767,1353.0,1767
674,674,13.645,674
3716,3716,10.777,3716
959,959,325.0,959
1314,1314,15.220999999999998,1314
1656,1656,14.628,1656
5165,5165,2323.0,5165
3010,3010,13.86,3010
3013,3013,1387.0,3013
2282,2282,15.932,2282
4356,4356,10.826,4356
1748,1748,15.424,1748
3955,3955,416.0,3955
4619,4619,0.0,4619
1065,1065,1855.0,1065
2002,2002,10.773,2002
1942,1942,17.375999999999998,1942
4479,4479,1858.0,4479
3411,3411,1886.0,3411
1555,1555,2051.0,1555
4518,4518,17.358,4518
3156,3156,32.929,3156
2536,2536,11.28,2536
2193,2193,0.0,2193
4789,4789,0.0,4789
1727,1727,379.0,1727
3240,3240,21.965,3240
2881,2881,820.0,2881
3553,3553,295.0,3553
2215,2215,0.0,2215
4085,4085,2531.0,4085
4357,4357,0.0,4357
2401,2401,649.0,2401
3385,3385,176.0,3385
1173,1173,386.0,1173
4311,4311,774.0,4311
2885,2885,1719.0,2885
4098,4098,12.294,4098
2220,2220,12.075,2220
947,947,1905.0,947
4156,4156,22.869,4156
1904,1904,15.685,1904
5296,5296,12.151,5296
584,584,12.33,584
5280,5280,10.61,5280
4178,4178,15.111,4178
1100,1100,20.168,1100
2675,2675,1780.0,2675
3832,3832,16.685,3832
1221,1221,505.0,1221
1211,1211,0.0,1211
2654,2654,10.624,2654
2981,2981,814.0,2981
678,678,12.518,678
1840,1840,14.890999999999998,1840
2477,2477,0.0,2477
3922,3922,21.215,3922
814,814,20.245,814
1387,1387,1049.0,1387
2995,2995,1544.0,2995
1457,1457,0.0,1457
3781,3781,756.0,3781
1783,1783,1750.0,1783
3888,3888,11.181,3888
3535,3535,470.0,3535
2104,2104,13.505999999999998,2104
1474,1474,15.464,1474
2253,2253,2449.0,2253
2101,2101,0.0,2101
4491,4491,893.0,4491
2655,2655,2152.0,2655
4941,4941,967.0,4941
3342,3342,12.407,3342
904,904,16.039,904
3486,3486,11.472,3486
3487,3487,1191.0,3487
3875,3875,2097.0,3875
1053,1053,848.0,1053
1050,1050,11.16,1050
4582,4582,17.957,4582
3659,3659,0.0,3659
1622,1622,14.56,1622
2927,2927,1984.0,2927
4806,4806,14.486,4806
1819,1819,0.0,1819
2075,2075,407.0,2075
5246,5246,13.129,5246
3079,3079,1807.0,3079
929,929,1206.0,929
3722,3722,10.982,3722
3297,3297,1593.0,3297
4365,4365,1633.0,4365
5168,5168,11.449000000000002,5168
3008,3008,16.502,3008
2560,2560,14.989,2560
1932,1932,11.339,1932
3035,3035,533.0,3035
1068,1068,10.712,1068
2445,2445,450.0,2445
1157,1157,2023.0,1157
3829,3829,0.0,3829
3889,3889,1370.0,3889
664,664,15.12,664
5291,5291,0.0,5291
4939,4939,948.0,4939
4525,4525,2502.0,4525
2085,2085,1655.0,2085
2759,2759,2198.0,2759
2388,2388,23.893,2388
5169,5169,1275.0,5169
4020,4020,10.534,4020
2312,2312,13.133,2312
4611,4611,1851.0,4611
1599,1599,800.0,1599
3041,3041,2012.0,3041
3689,3689,379.0,3689
2489,2489,265.0,2489
832,832,10.349,832
712,712,11.248,712
865,865,2063.0,865
3019,3019,2359.0,3019
3230,3230,12.569,3230
2197,2197,151.0,2197
1816,1816,14.422,1816
5035,5035,723.0,5035
4642,4642,10.371,4642
3302,3302,11.209,3302
1119,1119,0.0,1119
3972,3972,12.908,3972
4492,4492,16.794,4492
1253,1253,2072.0,1253
636,636,14.878,636
940,940,10.486,940
650,650,22.918000000000006,650
2356,2356,12.306,2356
2415,2415,2064.0,2415
3540,3540,18.822,3540
4585,4585,1266.0,4585
896,896,11.424,896
2322,2322,11.914,2322
1666,1666,20.387,1666
5021,5021,1984.0,5021
3421,3421,2441.0,3421
4968,4968,11.098,4968
5065,5065,1223.0,5065
2996,2996,23.793000000000006,2996
2984,2984,14.595,2984
2798,2798,17.564,2798
2523,2523,2443.0,2523
4454,4454,109.168,4454
2965,2965,1172.0,2965
4942,4942,13.002,4942
4950,4950,11.189,4950
3181,3181,390.0,3181
3828,3828,11.303,3828
4189,4189,1669.0,4189
2888,2888,16.602,2888
1707,1707,0.0,1707
1074,1074,12.489,1074
2982,2982,12.729,2982
3211,3211,2479.0,3211
2859,2859,162.0,2859
2893,2893,2402.0,2893
4699,4699,358.0,4699
2630,2630,11.568,2630
3856,3856,196.116,3856
510,510,13.044,510
3094,3094,13.432,3094
1411,1411,76.0,1411
1187,1187,0.0,1187
2922,2922,15.277,2922
2792,2792,13.9,2792
3562,3562,17.570999999999998,3562
3107,3107,0.0,3107
2274,2274,13.461,2274
2231,2231,359.0,2231
3544,3544,12.439,3544
4731,4731,1259.0,4731
4377,4377,623.0,4377
3030,3030,18.527,3030
2210,2210,11.550999999999998,2210
2121,2121,2204.0,2121
2851,2851,1391.0,2851
3527,3527,2490.0,3527
1486,1486,15.831,1486
4524,4524,14.453,4524
4637,4637,1121.0,4637
3076,3076,14.079,3076
2593,2593,0.0,2593
1608,1608,18.676,1608
4173,4173,0.0,4173
1261,1261,2143.0,1261
4243,4243,1476.0,4243
3539,3539,1694.0,3539
1125,1125,544.0,1125
4793,4793,1874.0,4793
5270,5270,13.323,5270
5204,5204,11.571,5204
4712,4712,12.091,4712
2305,2305,912.0,2305
1355,1355,1241.0,1355
3653,3653,1452.0,3653
4514,4514,11.375,4514
990,990,14.11,990
4400,4400,12.047,4400
3003,3003,1948.0,3003
3815,3815,2046.0,3815
3586,3586,17.628,3586
4191,4191,1514.0,4191
4967,4967,956.0,4967
3456,3456,12.779000000000002,3456
1799,1799,1028.0,1799
1782,1782,15.985,1782
503,503,891.0,503
2884,2884,11.744000000000002,2884
4415,4415,889.0,4415
3291,3291,0.0,3291
2030,2030,12.259,2030
4506,4506,14.459,4506
4324,4324,11.419,4324
4003,4003,631.0,4003
3058,3058,19.01,3058
746,746,11.467,746
2931,2931,1827.0,2931
1469,1469,2169.0,1469
3908,3908,11.249,3908
3897,3897,888.0,3897
2668,2668,14.886,2668
2990,2990,13.47,2990
1682,1682,12.678,1682
530,530,14.536,530
1757,1757,368.0,1757
779,779,2510.0,779
1164,1164,12.132,1164
3776,3776,14.68,3776
1818,1818,25.703000000000007,1818
1223,1223,1583.0,1223
3363,3363,1805.0,3363
