,time,rtt,id
1552,1552,52.933,1552
2043,2043,2624.0,2043
659,659,2201.0,659
1573,1573,671.0,1573
3130,3130,56.96,3130
2418,2418,61.87600000000001,2418
776,776,56.148,776
953,953,2375.0,953
2643,2643,2737.0,2643
2559,2559,2830.0,2559
2174,2174,57.738,2174
2453,2453,910.0,2453
2350,2350,168.77700000000004,2350
1167,1167,1683.0,1167
1124,1124,61.075,1124
1864,1864,58.881,1864
2441,2441,1140.0,2441
2112,2112,60.401,2112
528,528,54.234,528
2387,2387,1011.0,2387
2116,2116,55.221,2116
1390,1390,53.003,1390
3549,3549,0.0,3549
1680,1680,56.038,1680
3131,3131,1505.0,3131
3315,3315,950.0,3315
964,964,57.224,964
1286,1286,60.994,1286
1332,1332,52.968,1332
3554,3554,53.46100000000001,3554
2131,2131,1117.0,2131
2966,2966,51.742,2966
1890,1890,51.70399999999999,1890
2735,2735,1651.0,2735
3346,3346,55.355,3346
2688,2688,51.827,2688
861,861,0.0,861
2341,2341,0.0,2341
2275,2275,3465.0,2275
1928,1928,55.53100000000001,1928
2959,2959,3361.0,2959
3492,3492,51.295,3492
2272,2272,53.207,2272
775,775,3469.0,775
1364,1364,65.87899999999999,1364
604,604,51.754,604
2687,2687,3570.0,2687
3154,3154,60.772,3154
1545,1545,2388.0,1545
874,874,53.298,874
1994,1994,54.548,1994
1521,1521,1506.0,1521
1147,1147,3608.0,1147
1639,1639,2480.0,1639
2397,2397,2477.0,2397
3416,3416,57.434,3416
3101,3101,1051.0,3101
2929,2929,0.0,2929
704,704,53.06100000000001,704
2124,2124,60.551,2124
1712,1712,52.242,1712
2108,2108,55.996,2108
1394,1394,53.048,1394
2827,2827,2974.0,2827
2128,2128,59.157,2128
3479,3479,111.0,3479
1510,1510,56.611,1510
1376,1376,53.36600000000001,1376
3534,3534,90.012,3534
680,680,51.974,680
2902,2902,53.4,2902
532,532,54.104,532
2000,2000,56.31800000000001,2000
2587,2587,1901.0,2587
3119,3119,3452.0,3119
941,941,3361.0,941
3314,3314,56.187,3314
2578,2578,53.37,2578
982,982,56.066,982
2047,2047,336.0,2047
2694,2694,51.984,2694
1019,1019,2333.0,1019
2820,2820,55.555,2820
2371,2371,458.0,2371
3570,3570,59.98,3570
1930,1930,51.773,1930
1766,1766,54.155,1766
2332,2332,51.951,2332
1036,1036,52.242,1036
2631,2631,615.0,2631
1491,1491,284.0,1491
2165,2165,2468.0,2165
1099,1099,1673.0,1099
870,870,55.50899999999999,870
1324,1324,56.926,1324
989,989,1617.0,989
1628,1628,54.494,1628
2187,2187,0.0,2187
1939,1939,2193.0,1939
2025,2025,898.0,2025
533,533,194.0,533
1389,1389,2403.0,1389
3499,3499,2979.0,3499
2911,2911,2446.0,2911
1756,1756,54.065,1756
3463,3463,2315.0,3463
3050,3050,54.315,3050
2113,2113,3192.0,2113
2588,2588,52.679,2588
1373,1373,3407.0,1373
2094,2094,53.264,2094
772,772,55.213,772
2745,2745,1419.0,2745
632,632,51.942,632
2325,2325,1636.0,2325
2579,2579,2467.0,2579
1239,1239,0.0,1239
1965,1965,1702.0,1965
1699,1699,1356.0,1699
3016,3016,52.095,3016
2264,2264,53.049,2264
1798,1798,52.057,1798
1824,1824,61.646,1824
1461,1461,3018.0,1461
3277,3277,0.0,3277
851,851,374.0,851
3205,3205,2206.0,3205
1578,1578,55.01300000000001,1578
1838,1838,56.062,1838
3436,3436,56.115,3436
2635,2635,120.0,2635
3325,3325,1790.0,3325
3046,3046,209.626,3046
1186,1186,52.124,1186
2836,2836,58.06399999999999,2836
2273,2273,3049.0,2273
2262,2262,54.403,2262
1660,1660,58.035,1660
2969,2969,3030.0,2969
3018,3018,53.383,3018
1630,1630,51.916,1630
1118,1118,53.285,1118
1851,1851,1323.0,1851
1427,1427,1769.0,1427
852,852,55.701,852
1327,1327,3504.0,1327
934,934,52.573,934
983,983,1453.0,983
3092,3092,52.353,3092
1399,1399,2162.0,1399
2659,2659,2581.0,2659
514,514,55.92100000000001,514
3460,3460,60.37300000000001,3460
931,931,0.0,931
1968,1968,61.092,1968
740,740,58.31100000000001,740
1352,1352,64.063,1352
630,630,56.097,630
1152,1152,58.503,1152
702,702,55.539,702
867,867,3691.0,867
781,781,1031.0,781
2212,2212,52.732,2212
1097,1097,3285.0,1097
1490,1490,53.424,1490
1633,1633,1308.0,1633
1721,1721,582.0,1721
1139,1139,2471.0,1139
576,576,52.987,576
3360,3360,53.984,3360
3480,3480,52.978,3480
3424,3424,57.187,3424
2758,2758,51.326,2758
2994,2994,52.664,2994
1885,1885,326.0,1885
2736,2736,52.794,2736
2308,2308,52.56,2308
3164,3164,54.043,3164
3348,3348,56.817,3348
2291,2291,1799.0,2291
889,889,583.0,889
2599,2599,771.0,2599
3560,3560,52.33600000000001,3560
1984,1984,53.87,1984
1577,1577,138.0,1577
1758,1758,52.904,1758
1240,1240,52.174,1240
3577,3577,1905.0,3577
1962,1962,52.157,1962
948,948,92.557,948
2845,2845,2400.0,2845
1877,1877,3183.0,1877
1255,1255,2677.0,1255
662,662,63.355,662
2714,2714,57.056,2714
2749,2749,3258.0,2749
655,655,2499.0,655
1905,1905,2214.0,1905
3185,3185,2017.0,3185
3506,3506,56.872,3506
2907,2907,1292.0,2907
2370,2370,52.932,2370
1041,1041,1808.0,1041
2480,2480,52.63,2480
1335,1335,2086.0,1335
1907,1907,1224.0,1907
1790,1790,53.205,1790
2429,2429,1083.0,2429
2728,2728,51.352,2728
2545,2545,1760.0,2545
2298,2298,51.493,2298
3270,3270,55.806,3270
1923,1923,313.0,1923
695,695,2342.0,695
1886,1886,60.444,1886
2078,2078,66.17,2078
3445,3445,1407.0,3445
1945,1945,2859.0,1945
1479,1479,2010.0,1479
2734,2734,54.587,2734
2666,2666,52.113,2666
2575,2575,1478.0,2575
875,875,866.0,875
1915,1915,551.0,1915
1428,1428,55.746,1428
2543,2543,0.0,2543
1102,1102,55.426,1102
2074,2074,53.493,2074
1001,1001,3652.0,1001
3015,3015,2842.0,3015
1094,1094,55.306,1094
1244,1244,58.307,1244
2737,2737,765.0,2737
2233,2233,1783.0,2233
1993,1993,1305.0,1993
1148,1148,54.738,1148
2878,2878,57.54,2878
619,619,1715.0,619
3538,3538,57.915,3538
3239,3239,1836.0,3239
2348,2348,53.647,2348
2494,2494,231.027,2494
1563,1563,0.0,1563
2829,2829,0.0,2829
2609,2609,3470.0,2609
2537,2537,1588.0,2537
1935,1935,2636.0,1935
1749,1749,2841.0,1749
2170,2170,56.582,2170
1909,1909,759.0,1909
641,641,1063.0,641
2665,2665,106.0,2665
2662,2662,152.67,2662
3301,3301,609.0,3301
1241,1241,0.0,1241
2151,2151,3018.0,2151
3020,3020,52.652,3020
3070,3070,60.252,3070
3220,3220,55.13,3220
3418,3418,67.251,3418
3295,3295,0.0,3295
568,568,56.852,568
1026,1026,54.212,1026
2840,2840,143.45,2840
1559,1559,2734.0,1559
2109,2109,0.0,2109
1553,1553,2650.0,1553
2943,2943,1735.0,2943
811,811,2039.0,811
819,819,1635.0,819
2154,2154,52.16,2154
2986,2986,52.154,2986
2868,2868,53.341,2868
3147,3147,2942.0,3147
684,684,52.147,684
1941,1941,202.0,1941
1392,1392,51.57899999999999,1392
1136,1136,66.046,1136
2426,2426,51.974,2426
1677,1677,138.0,1677
1878,1878,57.735,1878
2683,2683,1828.0,2683
924,924,52.714,924
1629,1629,1219.0,1629
2501,2501,3533.0,2501
1267,1267,1737.0,1267
2248,2248,54.996,2248
2186,2186,52.862,2186
3045,3045,1065.0,3045
3098,3098,52.834,3098
2205,2205,0.0,2205
3333,3333,2208.0,3333
500,500,54.146,500
844,844,52.508,844
3289,3289,3569.0,3289
1014,1014,99.572,1014
1362,1362,56.984,1362
2217,2217,1537.0,2217
2730,2730,56.348,2730
833,833,686.0,833
1581,1581,0.0,1581
2342,2342,181.033,2342
1062,1062,52.81399999999999,1062
719,719,134.0,719
2263,2263,542.0,2263
2796,2796,55.573,2796
2530,2530,53.793,2530
2612,2612,55.779,2612
1704,1704,51.702,1704
1498,1498,55.875,1498
2956,2956,54.21100000000001,2956
3323,3323,2094.0,3323
1684,1684,193.006,1684
2493,2493,2417.0,2493
2114,2114,55.31100000000001,2114
2769,2769,1264.0,2769
1970,1970,56.03,1970
3396,3396,54.62300000000001,3396
1786,1786,51.192,1786
979,979,3655.0,979
801,801,3075.0,801
3296,3296,52.647,3296
3124,3124,54.06399999999999,3124
2708,2708,72.775,2708
1525,1525,0.0,1525
3246,3246,52.933,3246
583,583,540.0,583
1593,1593,339.0,1593
3233,3233,3496.0,3233
2653,2653,572.0,2653
716,716,55.82100000000001,716
1641,1641,0.0,1641
579,579,556.0,579
2976,2976,53.349,2976
1334,1334,52.415,1334
1317,1317,1429.0,1317
3311,3311,599.0,3311
3174,3174,61.728,3174
1027,1027,2349.0,1027
3347,3347,0.0,3347
2572,2572,54.97,2572
690,690,51.761,690
3420,3420,57.242,3420
3049,3049,1964.0,3049
2168,2168,65.461,2168
1246,1246,53.799,1246
1990,1990,54.57899999999999,1990
2781,2781,3179.0,2781
909,909,1590.0,909
1452,1452,51.62,1452
834,834,53.135,834
654,654,55.243,654
1230,1230,55.64,1230
1714,1714,98.414,1714
1090,1090,55.853,1090
502,502,64.366,502
1472,1472,53.187,1472
1696,1696,51.575,1696
3468,3468,52.325,3468
3383,3383,3186.0,3383
3063,3063,3162.0,3063
2357,2357,3232.0,2357
2805,2805,2523.0,2805
501,501,2991.0,501
898,898,57.603,898
3163,3163,2205.0,3163
545,545,2299.0,545
1171,1171,2456.0,1171
1011,1011,0.0,1011
2814,2814,60.24,2814
2808,2808,58.284,2808
2810,2810,195.043,2810
621,621,0.0,621
1574,1574,53.383,1574
3496,3496,53.525,3496
815,815,1476.0,815
3306,3306,58.764,3306
1731,1731,174.0,1731
1368,1368,51.92,1368
3218,3218,53.066,3218
2547,2547,2883.0,2547
1066,1066,61.44600000000001,1066
2822,2822,51.606,2822
3146,3146,60.883,3146
3464,3464,57.01,3464
2507,2507,2389.0,2507
2571,2571,3333.0,2571
2581,2581,588.0,2581
3324,3324,52.04600000000001,3324
2935,2935,1292.0,2935
1580,1580,61.203,1580
1801,1801,341.0,1801
2056,2056,54.935,2056
863,863,814.0,863
2877,2877,1538.0,2877
2473,2473,3422.0,2473
2785,2785,2886.0,2785
1329,1329,1951.0,1329
1988,1988,55.369,1988
2992,2992,61.057,2992
573,573,237.0,573
1054,1054,54.697,1054
1184,1184,55.094,1184
1879,1879,3112.0,1879
1750,1750,62.695,1750
918,918,53.937,918
1262,1262,64.815,1262
544,544,55.142,544
2324,2324,55.011,2324
1003,1003,724.0,1003
595,595,3518.0,595
1672,1672,55.048,1672
810,810,56.14,810
1564,1564,51.532,1564
2194,2194,54.709,2194
1000,1000,61.315,1000
3061,3061,3161.0,3061
1415,1415,0.0,1415
2921,2921,1649.0,2921
2783,2783,1328.0,2783
1247,1247,1358.0,1247
1616,1616,61.839,1616
2392,2392,60.816,2392
2344,2344,177.29,2344
2804,2804,55.073,2804
2565,2565,0.0,2565
2642,2642,51.869,2642
2346,2346,53.642,2346
726,726,55.119,726
3004,3004,54.50100000000001,3004
1685,1685,2967.0,1685
3129,3129,0.0,3129
3252,3252,52.438,3252
1508,1508,54.536,1508
1412,1412,58.133,1412
1711,1711,3002.0,1711
3281,3281,1948.0,3281
770,770,57.537,770
3473,3473,2777.0,3473
1280,1280,55.294,1280
617,617,1164.0,617
3245,3245,2073.0,3245
2184,2184,54.27,2184
755,755,704.0,755
1732,1732,52.043,1732
3561,3561,155.0,3561
1202,1202,58.01600000000001,1202
2540,2540,55.418,2540
2973,2973,2457.0,2973
766,766,55.611,766
2045,2045,3235.0,2045
1176,1176,56.137,1176
1925,1925,2820.0,1925
960,960,51.427,960
2201,2201,1097.0,2201
1671,1671,81.0,1671
2276,2276,61.941,2276
1951,1951,0.0,1951
3369,3369,1520.0,3369
2923,2923,532.0,2923
2811,2811,1002.0,2811
3275,3275,3278.0,3275
596,596,57.165,596
3497,3497,0.0,3497
1218,1218,58.774,1218
1183,1183,1175.0,1183
2568,2568,239.303,2568
3195,3195,432.0,3195
2998,2998,222.97,2998
2826,2826,53.029,2826
1481,1481,2841.0,1481
3350,3350,57.455,3350
2780,2780,69.202,2780
3409,3409,1844.0,3409
3558,3558,51.815,3558
1676,1676,51.918,1676
1189,1189,230.0,1189
1513,1513,1197.0,1513
1744,1744,52.562,1744
1165,1165,0.0,1165
1450,1450,52.548,1450
887,887,391.0,887
1178,1178,52.74,1178
2208,2208,54.124,2208
2166,2166,57.038,2166
997,997,2088.0,997
683,683,2235.0,683
2214,2214,53.408,2214
637,637,89.0,637
828,828,56.746,828
2375,2375,0.0,2375
2005,2005,1414.0,2005
970,970,54.602,970
992,992,58.003,992
1924,1924,53.785,1924
1809,1809,3552.0,1809
821,821,1908.0,821
2564,2564,203.568,2564
2384,2384,56.813,2384
3282,3282,60.13,3282
3531,3531,2748.0,3531
2200,2200,52.702,2200
2066,2066,51.619,2066
2958,2958,51.753,2958
2794,2794,52.8,2794
3395,3395,0.0,3395
2690,2690,56.997,2690
1358,1358,56.132,1358
2576,2576,51.299,2576
1903,1903,0.0,1903
3028,3028,53.00100000000001,3028
1290,1290,51.621,1290
3238,3238,51.44,3238
2077,2077,1596.0,2077
2017,2017,125.0,2017
3367,3367,782.0,3367
1315,1315,107.0,1315
3491,3491,933.0,3491
2948,2948,54.724,2948
3567,3567,1797.0,3567
2954,2954,56.712,2954
1278,1278,56.127,1278
752,752,56.754,752
2867,2867,1517.0,2867
3312,3312,59.215,3312
3305,3305,1548.0,3305
1893,1893,3647.0,1893
1768,1768,55.419,1768
2860,2860,51.993,2860
842,842,52.053,842
3437,3437,0.0,3437
2024,2024,54.768,2024
3214,3214,55.441,3214
823,823,2016.0,823
2163,2163,0.0,2163
747,747,2967.0,747
3471,3471,3123.0,3471
1913,1913,816.0,1913
1188,1188,63.913,1188
524,524,52.865,524
1612,1612,55.734,1612
2856,2856,106.471,2856
3155,3155,1330.0,3155
2898,2898,61.457,2898
824,824,53.195,824
3145,3145,368.0,3145
1372,1372,56.278,1372
1224,1224,57.677,1224
3475,3475,3228.0,3475
2887,2887,772.0,2887
3152,3152,58.06,3152
2065,2065,3255.0,2065
2835,2835,3646.0,2835
3051,3051,657.0,3051
3280,3280,56.745,3280
2890,2890,192.393,2890
988,988,58.422,988
2894,2894,53.447,2894
2236,2236,57.994,2236
2899,2899,1705.0,2899
2586,2586,53.458,2586
1232,1232,56.024,1232
2680,2680,56.799,2680
765,765,0.0,765
3260,3260,58.215,3260
1228,1228,56.012,1228
1052,1052,53.768,1052
2232,2232,53.488,2232
2838,2838,53.379,2838
2592,2592,52.933,2592
2110,2110,55.679,2110
1311,1311,3116.0,1311
2828,2828,148.41899999999995,2828
3071,3071,1394.0,3071
2855,2855,410.0,2855
2673,2673,756.0,2673
1695,1695,0.0,1695
761,761,0.0,761
634,634,56.386,634
1410,1410,56.032,1410
3017,3017,3070.0,3017
1972,1972,58.951,1972
1096,1096,60.909,1096
2997,2997,0.0,2997
1297,1297,1260.0,1297
2970,2970,52.673,2970
1213,1213,1805.0,1213
1237,1237,645.0,1237
1788,1788,53.894,1788
886,886,57.916,886
1516,1516,51.202,1516
1718,1718,209.91,1718
2651,2651,2546.0,2651
1116,1116,55.583,1116
1252,1252,59.452,1252
1279,1279,661.0,1279
2919,2919,2138.0,2919
536,536,58.675,536
3380,3380,52.528,3380
1760,1760,55.20399999999999,1760
2941,2941,2990.0,2941
1057,1057,2038.0,1057
3527,3527,1027.0,3527
569,569,0.0,569
758,758,55.06399999999999,758
2249,2249,3137.0,2249
2209,2209,3022.0,2209
1866,1866,54.68,1866
737,737,1870.0,737
2447,2447,182.0,2447
1971,1971,3392.0,1971
3203,3203,2353.0,3203
3100,3100,52.393,3100
624,624,52.285,624
1980,1980,52.76600000000001,1980
588,588,51.448,588
3483,3483,2086.0,3483
2930,2930,53.819,2930
3272,3272,52.01300000000001,3272
3371,3371,412.0,3371
1080,1080,57.447,1080
1210,1210,57.979,1210
1339,1339,1708.0,1339
2764,2764,52.78100000000001,2764
1697,1697,136.0,1697
2479,2479,698.0,2479
1196,1196,62.24100000000001,1196
1647,1647,855.0,1647
1646,1646,219.988,1646
2281,2281,415.0,2281
2532,2532,51.587,2532
2637,2637,566.0,2637
1789,1789,743.0,1789
1588,1588,55.547,1588
2095,2095,3087.0,2095
2603,2603,1114.0,2603
1295,1295,2449.0,1295
2020,2020,58.852,2020
878,878,55.628,878
2963,2963,2855.0,2963
1733,1733,2242.0,1733
590,590,52.432,590
2062,2062,56.787,2062
2487,2487,3676.0,2487
1391,1391,995.0,1391
2722,2722,183.741,2722
2379,2379,662.0,2379
3340,3340,53.258,3340
1908,1908,56.055,1908
1640,1640,51.475,1640
1631,1631,1333.0,1631
722,722,53.34,722
2250,2250,56.361,2250
677,677,3092.0,677
1590,1590,53.964,1590
995,995,1391.0,995
2862,2862,53.334,2862
669,669,891.0,669
1746,1746,54.474,1746
2693,2693,3503.0,2693
912,912,55.203,912
608,608,55.425,608
3133,3133,2701.0,3133
2374,2374,52.267,2374
883,883,2502.0,883
3265,3265,453.0,3265
2944,2944,240.667,2944
2353,2353,2559.0,2353
517,517,0.0,517
2345,2345,1374.0,2345
3384,3384,52.032,3384
2492,2492,55.897,2492
3227,3227,518.0,3227
2552,2552,53.552,2552
946,946,53.983,946
2606,2606,185.787,2606
3054,3054,52.05,3054
2510,2510,231.418,2510
3208,3208,67.171,3208
542,542,52.429,542
2413,2413,3030.0,2413
3505,3505,1410.0,3505
3310,3310,52.106,3310
2496,2496,188.762,2496
1848,1848,54.243,1848
663,663,3116.0,663
1059,1059,2721.0,1059
2892,2892,59.088,2892
986,986,59.77,986
1010,1010,58.047,1010
3459,3459,0.0,3459
1611,1611,243.0,1611
1379,1379,2195.0,1379
3117,3117,2463.0,3117
1615,1615,399.0,1615
2409,2409,0.0,2409
1720,1720,54.995,1720
966,966,58.025,966
2556,2556,51.65600000000001,2556
864,864,53.017,864
2202,2202,52.753,2202
3535,3535,0.0,3535
1566,1566,63.952,1566
1632,1632,53.844,1632
3072,3072,56.651,3072
1761,1761,1329.0,1761
1300,1300,53.174,1300
3482,3482,52.149,3482
656,656,55.19,656
1296,1296,55.681,1296
1705,1705,0.0,1705
1807,1807,0.0,1807
1620,1620,249.816,1620
1258,1258,55.75899999999999,1258
3043,3043,1599.0,3043
3320,3320,64.585,3320
2001,2001,1256.0,2001
1967,1967,1243.0,1967
3039,3039,0.0,3039
3262,3262,54.966,3262
3373,3373,1350.0,3373
2103,2103,409.0,2103
2883,2883,0.0,2883
2301,2301,1691.0,2301
1168,1168,52.222,1168
1464,1464,56.774,1464
3173,3173,1710.0,3173
1493,1493,2912.0,1493
2806,2806,55.099,2806
628,628,55.679,628
2704,2704,201.39,2704
2546,2546,52.06399999999999,2546
606,606,51.62300000000001,606
3526,3526,58.77,3526
3466,3466,52.34,3466
2791,2791,1480.0,2791
2773,2773,2083.0,2773
1400,1400,60.216,1400
1378,1378,53.345,1378
2009,2009,2581.0,2009
3269,3269,2736.0,3269
2711,2711,3564.0,2711
2602,2602,53.029,2602
1351,1351,3519.0,1351
873,873,1570.0,873
2118,2118,52.816,2118
2439,2439,1029.0,2439
666,666,53.529,666
1729,1729,0.0,1729
1814,1814,56.282,1814
1771,1771,3144.0,1771
2258,2258,56.242,2258
1863,1863,518.0,1863
3322,3322,61.067,3322
1894,1894,52.335,1894
3201,3201,0.0,3201
651,651,3443.0,651
2760,2760,51.7,2760
1820,1820,53.112,1820
2991,2991,1089.0,2991
1098,1098,55.948,1098
2691,2691,2667.0,2691
3321,3321,3434.0,3321
572,572,51.387,572
899,899,149.0,899
1185,1185,2047.0,1185
1591,1591,2732.0,1591
1367,1367,1719.0,1367
3052,3052,53.93600000000001,3052
1556,1556,52.901,1556
1862,1862,56.606,1862
1627,1627,2702.0,1627
1846,1846,54.727,1846
2111,2111,1364.0,2111
2512,2512,51.926,2512
1282,1282,55.235,1282
771,771,1376.0,771
2378,2378,187.868,2378
1381,1381,3052.0,1381
1229,1229,3564.0,1229
1013,1013,2841.0,1013
1161,1161,2919.0,1161
3519,3519,0.0,3519
1338,1338,54.977,1338
1249,1249,3483.0,1249
2432,2432,273.406,2432
2335,2335,0.0,2335
3066,3066,59.298,3066
3518,3518,53.50899999999999,3518
2245,2245,2970.0,2245
2574,2574,55.465,2574
2980,2980,51.37600000000001,2980
2067,2067,1858.0,2067
1499,1499,0.0,1499
3576,3576,59.07,3576
1151,1151,2568.0,1151
518,518,52.74100000000001,518
736,736,55.643,736
1089,1089,2549.0,1089
1868,1868,52.83600000000001,1868
2658,2658,54.565,2658
2443,2443,3010.0,2443
1492,1492,54.417,1492
2515,2515,251.0,2515
2321,2321,3437.0,2321
2847,2847,0.0,2847
2672,2672,59.87,2672
1808,1808,59.078,1808
2621,2621,2745.0,2621
2119,2119,1637.0,2119
2500,2500,52.002,2500
3522,3522,52.181,3522
1403,1403,2074.0,1403
1841,1841,692.0,1841
3229,3229,0.0,3229
2864,2864,185.437,2864
835,835,3482.0,835
2605,2605,1554.0,2605
2757,2757,3649.0,2757
2906,2906,180.447,2906
911,911,2603.0,911
3298,3298,51.716,3298
1423,1423,1592.0,1423
3175,3175,2235.0,3175
2521,2521,1422.0,2521
2309,2309,1595.0,2309
1736,1736,54.789,1736
639,639,265.0,639
1341,1341,830.0,1341
3151,3151,666.0,3151
1649,1649,2604.0,1649
818,818,53.844,818
2511,2511,2463.0,2511
3386,3386,54.331,3386
1141,1141,399.0,1141
2483,2483,3146.0,2483
2831,2831,2665.0,2831
2924,2924,53.988,2924
1688,1688,58.902,1688
2331,2331,2367.0,2331
3563,3563,363.0,3563
703,703,3051.0,703
3510,3510,51.342,3510
1717,1717,3325.0,1717
1549,1549,2944.0,1549
3200,3200,61.12600000000001,3200
2132,2132,51.216,2132
3165,3165,3632.0,3165
1931,1931,135.0,1931
1568,1568,52.434,1568
741,741,307.0,741
1480,1480,53.245,1480
2355,2355,409.0,2355
2971,2971,3478.0,2971
1966,1966,58.449,1966
3126,3126,56.07899999999999,3126
2920,2920,57.495,2920
1691,1691,1763.0,1691
1986,1986,54.831,1986
643,643,713.0,643
3274,3274,51.404,3274
829,829,3050.0,829
1565,1565,2788.0,1565
3337,3337,1532.0,3337
1896,1896,53.197,1896
2901,2901,2706.0,2901
2167,2167,349.0,2167
2684,2684,52.264,2684
2435,2435,0.0,2435
1441,1441,310.0,1441
3498,3498,57.56399999999999,3498
1500,1500,55.842,1500
1179,1179,595.0,1179
2550,2550,52.357,2550
1876,1876,55.181,1876
3559,3559,3421.0,3559
2358,2358,56.01300000000001,2358
1529,1529,3268.0,1529
1331,1331,2702.0,1331
1504,1504,54.622,1504
3398,3398,51.51,3398
2979,2979,1751.0,2979
534,534,62.677,534
1405,1405,1605.0,1405
1947,1947,0.0,1947
2905,2905,1134.0,2905
1609,1609,1005.0,1609
1375,1375,2024.0,1375
1992,1992,53.605,1992
1779,1779,2345.0,1779
626,626,56.919,626
2052,2052,56.772,2052
1776,1776,51.47,1776
3571,3571,2118.0,3571
2196,2196,56.484,2196
1831,1831,2656.0,1831
1407,1407,177.0,1407
882,882,55.822,882
2620,2620,241.765,2620
2338,2338,52.58600000000001,2338
3093,3093,3369.0,3093
2476,2476,52.655,2476
1570,1570,54.279,1570
1318,1318,53.782,1318
2983,2983,1670.0,2983
2159,2159,0.0,2159
2863,2863,0.0,2863
1162,1162,58.959,1162
2425,2425,1296.0,2425
2985,2985,0.0,2985
2164,2164,58.931,2164
2778,2778,51.725,2778
817,817,259.0,817
2427,2427,820.0,2427
3443,3443,2695.0,3443
610,610,52.437,610
725,725,3359.0,725
3318,3318,53.287,3318
1769,1769,1845.0,1769
1825,1825,1065.0,1825
1777,1777,1173.0,1777
1897,1897,321.0,1897
3080,3080,57.386,3080
2351,2351,3164.0,2351
994,994,58.035,994
2251,2251,358.0,2251
575,575,2084.0,575
3362,3362,57.077,3362
802,802,68.236,802
2145,2145,2502.0,2145
1747,1747,272.0,1747
3111,3111,3406.0,3111
1420,1420,55.599,1420
2127,2127,1650.0,2127
2903,2903,2779.0,2903
2953,2953,2475.0,2953
3073,3073,356.0,3073
1243,1243,2877.0,1243
594,594,51.98,594
1231,1231,2951.0,1231
836,836,53.86600000000001,836
1299,1299,1643.0,1299
2016,2016,56.596,2016
613,613,2714.0,613
1064,1064,57.631,1064
2850,2850,53.54,2850
2148,2148,52.019,2148
2535,2535,2502.0,2535
2172,2172,52.152,2172
1938,1938,55.42100000000001,1938
1337,1337,567.0,1337
2848,2848,56.049,2848
1035,1035,740.0,1035
3159,3159,2629.0,3159
3454,3454,63.753,3454
3064,3064,52.466,3064
3423,3423,490.0,3423
3489,3489,2692.0,3489
2555,2555,1967.0,2555
2304,2304,58.976000000000006,2304
3118,3118,68.312,3118
557,557,3435.0,557
558,558,52.085,558
1132,1132,55.42100000000001,1132
2069,2069,1357.0,2069
2724,2724,55.652,2724
730,730,54.078,730
2238,2238,55.786,2238
3507,3507,3476.0,3507
3121,3121,2232.0,3121
3392,3392,52.334,3392
3183,3183,1401.0,3183
1853,1853,1049.0,1853
1665,1665,2849.0,1665
938,938,52.412,938
2438,2438,52.93600000000001,2438
3257,3257,1204.0,3257
2611,2611,1468.0,2611
2137,2137,2308.0,2137
885,885,1750.0,885
2411,2411,687.0,2411
944,944,56.81800000000001,944
1169,1169,3571.0,1169
3196,3196,62.33600000000001,3196
2671,2671,3273.0,2671
675,675,642.0,675
1644,1644,185.718,1644
679,679,289.0,679
3287,3287,343.0,3287
855,855,1283.0,855
3374,3374,55.731,3374
1804,1804,55.279,1804
1123,1123,704.0,1123
1673,1673,877.0,1673
2472,2472,246.596,2472
2079,2079,968.0,2079
2235,2235,2707.0,2235
2861,2861,2231.0,2861
1438,1438,61.958,1438
1055,1055,2898.0,1055
2026,2026,54.832,2026
3127,3127,1861.0,3127
2570,2570,107.34,2570
565,565,3395.0,565
3332,3332,56.032,3332
1833,1833,3106.0,1833
3009,3009,0.0,3009
3540,3540,51.56399999999999,3540
2176,2176,52.408,2176
2752,2752,54.685,2752
1302,1302,54.53,1302
3368,3368,57.062,3368
974,974,94.556,974
2061,2061,220.0,2061
2180,2180,51.293,2180
1689,1689,0.0,1689
2721,2721,782.0,2721
1137,1137,1269.0,1137
3264,3264,51.767,3264
2873,2873,3240.0,2873
1594,1594,53.734,1594
3149,3149,2147.0,3149
1875,1875,0.0,1875
1582,1582,54.39,1582
3397,3397,620.0,3397
3001,3001,1408.0,3001
2761,2761,847.0,2761
2246,2246,55.57100000000001,2246
2638,2638,52.083,2638
2663,2663,391.0,2663
744,744,55.785,744
1487,1487,1882.0,1487
2904,2904,59.458,2904
2813,2813,2144.0,2813
1031,1031,3291.0,1031
1293,1293,1805.0,1293
2336,2336,60.25,2336
2203,2203,0.0,2203
3344,3344,58.65,3344
3184,3184,53.788,3184
799,799,2576.0,799
2314,2314,52.307,2314
3381,3381,0.0,3381
2849,2849,871.0,2849
2363,2363,2752.0,2363
1114,1114,54.238,1114
2726,2726,58.79600000000001,2726
2731,2731,1930.0,2731
831,831,3122.0,831
2962,2962,184.907,2962
2739,2739,3561.0,2739
2803,2803,1887.0,2803
1592,1592,53.338,1592
1811,1811,1108.0,1811
2909,2909,0.0,2909
1175,1175,1532.0,1175
1815,1815,3650.0,1815
1018,1018,55.181,1018
1626,1626,55.804,1626
1083,1083,945.0,1083
535,535,3655.0,535
2661,2661,1330.0,2661
1954,1954,62.125,1954
1793,1793,0.0,1793
3193,3193,3538.0,3193
3541,3541,0.0,3541
993,993,3131.0,993
3448,3448,54.067,3448
2228,2228,59.394,2228
3085,3085,465.0,3085
3478,3478,52.78100000000001,3478
1619,1619,2029.0,1619
1716,1716,55.926,1716
698,698,51.307,698
3258,3258,53.471,3258
1810,1810,60.725,1810
793,793,981.0,793
2390,2390,56.997,2390
1514,1514,56.848,1514
3539,3539,0.0,3539
853,853,0.0,853
2310,2310,90.339,2310
1049,1049,1158.0,1049
2055,2055,2964.0,2055
1226,1226,54.90600000000001,1226
2361,2361,1128.0,2361
949,949,2154.0,949
3104,3104,51.347,3104
2460,2460,52.778,2460
3349,3349,1792.0,3349
3336,3336,53.342,3336
3060,3060,57.027,3060
522,522,51.73,522
1281,1281,2924.0,1281
2534,2534,57.567,2534
699,699,1350.0,699
2117,2117,1448.0,2117
3488,3488,53.607,3488
915,915,984.0,915
884,884,52.203,884
1180,1180,56.853,1180
1871,1871,2859.0,1871
1197,1197,1083.0,1197
1617,1617,1417.0,1617
2265,2265,2134.0,2265
1661,1661,2426.0,1661
796,796,54.986,796
1467,1467,3357.0,1467
2926,2926,51.398,2926
2486,2486,57.778,2486
903,903,2155.0,903
3125,3125,2918.0,3125
1078,1078,57.003,1078
2059,2059,506.0,2059
2516,2516,52.371,2516
611,611,0.0,611
729,729,2473.0,729
3405,3405,349.0,3405
1142,1142,55.21100000000001,1142
2003,2003,1678.0,2003
945,945,0.0,945
1219,1219,1996.0,1219
599,599,3468.0,599
822,822,86.17399999999998,822
1955,1955,936.0,1955
1354,1354,57.139,1354
859,859,80.0,859
2707,2707,2823.0,2707
721,721,102.0,721
1780,1780,52.053,1780
1519,1519,3128.0,1519
3408,3408,51.582,3408
1416,1416,52.073,1416
2640,2640,51.576,2640
1263,1263,204.0,1263
3279,3279,3031.0,3279
1051,1051,3426.0,1051
504,504,54.351000000000006,504
1518,1518,51.43899999999999,1518
1321,1321,740.0,1321
2528,2528,53.584,2528
913,913,3143.0,913
2260,2260,53.163,2260
2946,2946,55.355,2946
1406,1406,60.496,1406
1698,1698,56.93,1698
2715,2715,2700.0,2715
1182,1182,56.418,1182
3286,3286,52.417,3286
1531,1531,991.0,1531
1039,1039,2093.0,1039
933,933,1776.0,933
1024,1024,55.5,1024
849,849,252.0,849
1722,1722,59.081,1722
1572,1572,54.035,1572
582,582,51.132,582
830,830,63.956,830
717,717,1287.0,717
1916,1916,52.667,1916
1850,1850,65.204,1850
809,809,2517.0,809
2360,2360,51.45399999999999,2360
2139,2139,1853.0,2139
1781,1781,1109.0,1781
1021,1021,1062.0,1021
1015,1015,2554.0,1015
2974,2974,52.851000000000006,2974
3253,3253,2195.0,3253
2876,2876,55.4,2876
3187,3187,2833.0,3187
3351,3351,1998.0,3351
3401,3401,1797.0,3401
2241,2241,3261.0,2241
3186,3186,56.31800000000001,3186
707,707,3057.0,707
2036,2036,64.516,2036
2334,2334,51.707,2334
1353,1353,2431.0,1353
3103,3103,104.0,3103
1077,1077,388.0,1077
3573,3573,1595.0,3573
2910,2910,54.01600000000001,2910
2614,2614,53.278,2614
2385,2385,1436.0,2385
2891,2891,228.0,2891
620,620,56.512,620
2879,2879,3607.0,2879
958,958,96.774,958
2004,2004,55.865,2004
3433,3433,3017.0,3433
1867,1867,1819.0,1867
1597,1597,192.0,1597
3451,3451,1464.0,3451
900,900,56.269,900
2237,2237,2468.0,2237
1870,1870,56.306,1870
2634,2634,52.996,2634
2295,2295,2888.0,2295
2514,2514,53.006,2514
2227,2227,909.0,2227
1999,1999,3298.0,1999
1260,1260,57.984,1260
1328,1328,52.453,1328
3276,3276,53.13399999999999,3276
2462,2462,51.788,2462
531,531,2097.0,531
2951,2951,3175.0,2951
1181,1181,0.0,1181
1535,1535,2210.0,1535
3548,3548,53.288,3548
2257,2257,0.0,2257
1741,1741,971.0,1741
2818,2818,56.926,2818
3278,3278,53.794,3278
1408,1408,61.802,1408
700,700,51.382,700
3040,3040,57.572,3040
3328,3328,52.727,3328
2057,2057,0.0,2057
2809,2809,1312.0,2809
3389,3389,3445.0,3389
2709,2709,2339.0,2709
1170,1170,57.00899999999999,1170
1589,1589,2107.0,1589
1883,1883,1331.0,1883
803,803,1197.0,803
1852,1852,54.371,1852
2157,2157,3240.0,2157
3228,3228,55.302,3228
2696,2696,53.968,2696
975,975,1547.0,975
2285,2285,0.0,2285
2084,2084,55.112,2084
1752,1752,61.843,1752
943,943,1251.0,943
2554,2554,252.027,2554
1604,1604,62.72,1604
2080,2080,53.923,2080
1101,1101,1107.0,1101
2622,2622,53.019,2622
1723,1723,2236.0,1723
2266,2266,52.083,2266
1429,1429,2163.0,1429
1829,1829,2128.0,1829
2949,2949,962.0,2949
1796,1796,52.507,1796
1775,1775,3482.0,1775
2288,2288,52.899,2288
519,519,0.0,519
2452,2452,53.33,2452
738,738,57.478,738
2302,2302,59.033,2302
2520,2520,252.774,2520
506,506,53.675,506
2156,2156,73.01,2156
1380,1380,52.67100000000001,1380
2517,2517,1032.0,2517
1020,1020,56.89,1020
3537,3537,2686.0,3537
1396,1396,60.415,1396
1004,1004,55.746,1004
3515,3515,2220.0,3515
1912,1912,52.595,1912
2179,2179,144.0,2179
2440,2440,154.118,2440
3317,3317,3466.0,3317
2464,2464,53.15600000000001,2464
1943,1943,1785.0,1943
2135,2135,1938.0,2135
2267,2267,0.0,2267
2140,2140,51.716,2140
647,647,2085.0,647
2373,2373,1851.0,2373
3150,3150,54.593,3150
1751,1751,518.0,1751
2068,2068,55.394,2068
985,985,1639.0,985
2327,2327,2190.0,2327
3059,3059,453.0,3059
1584,1584,52.117,1584
1349,1349,1896.0,1349
1454,1454,53.683,1454
935,935,2961.0,935
876,876,99.041,876
848,848,93.518,848
2428,2428,52.065,2428
3161,3161,782.0,3161
2816,2816,63.772,2816
1316,1316,54.29,1316
3255,3255,602.0,3255
1557,1557,0.0,1557
1470,1470,61.484,1470
3402,3402,52.172,3402
696,696,60.47,696
2051,2051,503.0,2051
1976,1976,53.624,1976
540,540,51.84,540
2718,2718,55.20399999999999,2718
2938,2938,52.717,2938
2365,2365,601.0,2365
1817,1817,1904.0,1817
2211,2211,0.0,2211
1212,1212,56.904,1212
2629,2629,3673.0,2629
1937,1937,0.0,1937
2539,2539,2273.0,2539
1385,1385,1992.0,1385
1294,1294,57.933,1294
1533,1533,2839.0,1533
1728,1728,204.908,1728
2753,2753,792.0,2753
1434,1434,56.109,1434
2412,2412,61.937,2412
2732,2732,52.099,2732
1103,1103,2970.0,1103
2076,2076,60.41,2076
3244,3244,51.355,3244
3430,3430,51.658,3430
2775,2775,0.0,2775
3116,3116,53.61600000000001,3116
633,633,1434.0,633
2942,2942,200.847,2942
2914,2914,54.55,2914
1199,1199,1353.0,1199
2195,2195,1050.0,2195
2915,2915,3271.0,2915
2776,2776,61.386,2776
598,598,56.838,598
1596,1596,63.795,1596
1369,1369,626.0,1369
1251,1251,1847.0,1251
570,570,61.629,570
529,529,1728.0,529
987,987,3075.0,987
749,749,568.0,749
2470,2470,57.45399999999999,2470
3223,3223,2953.0,3223
1869,1869,0.0,1869
2762,2762,52.324,2762
2188,2188,51.93,2188
671,671,0.0,671
3543,3543,0.0,3543
750,750,54.827,750
1772,1772,56.765,1772
2469,2469,2605.0,2469
1607,1607,1780.0,1607
2830,2830,76.446,2830
1936,1936,53.813,1936
3087,3087,0.0,3087
786,786,51.591,786
1652,1652,51.04600000000001,1652
1307,1307,3355.0,1307
2362,2362,51.865,2362
646,646,54.807,646
1040,1040,54.635,1040
3168,3168,51.565,3168
1440,1440,52.56399999999999,1440
3038,3038,51.81399999999999,3038
1551,1551,590.0,1551
1088,1088,56.098,1088
2270,2270,52.852,2270
1991,1991,874.0,1991
1473,1473,0.0,1473
1285,1285,2051.0,1285
2679,2679,1836.0,2679
2712,2712,51.835,2712
1613,1613,628.0,1613
1690,1690,55.588,1690
701,701,1696.0,701
3500,3500,51.283,3500
2723,2723,671.0,2723
1250,1250,56.139,1250
627,627,816.0,627
1462,1462,63.55,1462
1880,1880,57.56,1880
660,660,56.957,660
2436,2436,59.149,2436
1460,1460,54.37300000000001,1460
2395,2395,2606.0,2395
2134,2134,55.703,2134
3136,3136,60.395,3136
2819,2819,2227.0,2819
1822,1822,59.328,1822
2290,2290,58.673,2290
2670,2670,57.919,2670
3446,3446,52.417,3446
1272,1272,51.708,1272
1892,1892,52.537,1892
622,622,58.034,622
1642,1642,51.995,1642
2123,2123,3210.0,2123
2789,2789,1143.0,2789
670,670,55.072,670
2569,2569,1604.0,2569
1131,1131,1253.0,1131
2871,2871,3165.0,2871
3566,3566,55.279,3566
1595,1595,178.0,1595
3516,3516,51.902,3516
978,978,56.736,978
3170,3170,55.652,3170
1623,1623,0.0,1623
2416,2416,55.72,2416
1624,1624,55.506,1624
1377,1377,2387.0,1377
1214,1214,61.749,1214
1495,1495,850.0,1495
794,794,53.668,794
2162,2162,51.76600000000001,2162
880,880,56.452,880
2398,2398,56.058,2398
3225,3225,1969.0,3225
1451,1451,2423.0,1451
3077,3077,2765.0,3077
1266,1266,52.19,1266
2583,2583,3605.0,2583
787,787,1492.0,787
1503,1503,1428.0,1503
2448,2448,59.985,2448
3544,3544,54.63800000000001,3544
1692,1692,51.52,1692
3123,3123,0.0,3123
3065,3065,2858.0,3065
2339,2339,0.0,2339
625,625,451.0,625
2689,2689,3326.0,2689
1670,1670,52.955,1670
1042,1042,54.738,1042
1063,1063,1262.0,1063
3400,3400,51.67100000000001,3400
2292,2292,57.192,2292
942,942,52.801,942
2750,2750,53.12600000000001,2750
2676,2676,59.18899999999999,2676
1821,1821,2878.0,1821
2740,2740,56.206,2740
2788,2788,229.991,2788
2832,2832,52.534,2832
1952,1952,53.701,1952
715,715,2986.0,715
1674,1674,52.828,1674
2394,2394,53.569,2394
2522,2522,60.731,2522
1560,1560,52.374,1560
3224,3224,52.62300000000001,3224
785,785,2636.0,785
1025,1025,826.0,1025
888,888,56.535,888
1448,1448,53.657,1448
2319,2319,3249.0,2319
2408,2408,52.38,2408
1948,1948,61.492,1948
3271,3271,2258.0,3271
2934,2934,108.685,2934
2853,2853,781.0,2853
1288,1288,51.628,1288
790,790,53.572,790
3341,3341,2277.0,3341
3553,3553,1146.0,3553
1413,1413,2789.0,1413
777,777,1903.0,777
1466,1466,52.904,1466
1737,1737,1114.0,1737
3557,3557,2711.0,3557
2410,2410,52.65600000000001,2410
2150,2150,53.423,2150
2772,2772,65.462,2772
1421,1421,1634.0,1421
3160,3160,53.761,3160
1120,1120,54.021,1120
3364,3364,51.798,3364
1979,1979,2124.0,1979
1693,1693,2279.0,1693
2710,2710,51.622,2710
3067,3067,3525.0,3067
1734,1734,52.18,1734
2551,2551,0.0,2551
3025,3025,2169.0,3025
3476,3476,51.842,3476
2768,2768,55.904,2768
1430,1430,65.219,1430
2846,2846,51.762,2846
1259,1259,1644.0,1259
1745,1745,2991.0,1745
1653,1653,724.0,1653
3579,3579,3309.0,3579
1512,1512,51.555,1512
1911,1911,0.0,1911
2610,2610,55.063,2610
3084,3084,57.018,3084
731,731,885.0,731
2041,2041,981.0,2041
2400,2400,52.411,2400
2824,2824,64.56,2824
1204,1204,57.949,1204
894,894,58.475,894
3447,3447,1138.0,3447
1537,1537,2581.0,1537
2442,2442,55.082,2442
1995,1995,530.0,1995
920,920,56.613,920
3178,3178,55.92100000000001,3178
1313,1313,3527.0,1313
1095,1095,304.0,1095
2098,2098,53.48,2098
2060,2060,56.07,2060
2046,2046,55.94300000000001,2046
1236,1236,56.045,1236
612,612,59.683,612
2019,2019,3090.0,2019
1360,1360,56.972,1360
1985,1985,1947.0,1985
2277,2277,3624.0,2277
2771,2771,2807.0,2771
1489,1489,0.0,1489
3457,3457,810.0,3457
552,552,55.396,552
2018,2018,51.826,2018
3135,3135,3571.0,3135
2027,2027,0.0,2027
1791,1791,345.0,1791
764,764,58.178,764
2038,2038,55.305,2038
923,923,1698.0,923
3177,3177,3577.0,3177
2933,2933,1885.0,2933
837,837,3375.0,837
782,782,59.69300000000001,782
2279,2279,3625.0,2279
3366,3366,52.684,3366
901,901,0.0,901
2513,2513,2173.0,2513
3096,3096,52.543,3096
3441,3441,2657.0,3441
600,600,57.37300000000001,600
2100,2100,53.106,2100
2652,2652,57.857,2652
2807,2807,2443.0,2807
3458,3458,52.775,3458
3293,3293,1528.0,3293
2917,2917,1122.0,2917
2641,2641,2460.0,2641
3426,3426,53.723,3426
2191,2191,0.0,2191
3358,3358,57.27,3358
1713,1713,1322.0,1713
580,580,52.29,580
1795,1795,1761.0,1795
706,706,51.223,706
2081,2081,2210.0,2081
2989,2989,1687.0,2989
1333,1333,1516.0,1333
3406,3406,57.569,3406
1150,1150,63.566,1150
1348,1348,58.799,1348
1960,1960,53.225,1960
3521,3521,3000.0,3521
2171,2171,1525.0,2171
965,965,537.0,965
1366,1366,52.827,1366
1854,1854,60.234,1854
691,691,3321.0,691
2733,2733,876.0,2733
1517,1517,3634.0,1517
1668,1668,54.084,1668
1133,1133,370.0,1133
3551,3551,1010.0,3551
2107,2107,2142.0,2107
581,581,866.0,581
1561,1561,2100.0,1561
952,952,53.06,952
3431,3431,1791.0,3431
1140,1140,56.147,1140
2491,2491,293.0,2491
567,567,0.0,567
1034,1034,51.269,1034
1005,1005,1718.0,1005
1973,1973,3122.0,1973
1105,1105,2755.0,1105
1635,1635,2436.0,1635
538,538,60.272,538
591,591,3509.0,591
1832,1832,56.282,1832
1887,1887,2906.0,1887
1969,1969,2361.0,1969
1030,1030,63.592,1030
3128,3128,57.253,3128
1902,1902,56.524,1902
1983,1983,1005.0,1983
1303,1303,2117.0,1303
3290,3290,53.17100000000001,3290
561,561,2623.0,561
2141,2141,970.0,2141
1806,1806,51.99100000000001,1806
2367,2367,2599.0,2367
2843,2843,2361.0,2843
1225,1225,2287.0,1225
2577,2577,0.0,2577
1679,1679,3036.0,1679
1023,1023,1152.0,1023
1638,1638,53.969,1638
1587,1587,1514.0,1587
3242,3242,52.788,3242
2035,2035,126.0,2035
1242,1242,56.82,1242
3484,3484,51.565,3484
2023,2023,305.0,2023
1476,1476,56.432,1476
1539,1539,1769.0,1539
2403,2403,158.0,2403
556,556,51.942,556
3109,3109,1069.0,3109
2870,2870,55.32899999999999,2870
2865,2865,506.0,2865
2833,2833,0.0,2833
1950,1950,51.577,1950
2307,2307,3189.0,2307
739,739,2471.0,739
1515,1515,1274.0,1515
3236,3236,59.429,3236
2874,2874,56.008,2874
2125,2125,847.0,2125
2481,2481,546.0,2481
505,505,2875.0,505
2812,2812,52.94,2812
3134,3134,54.00899999999999,3134
3006,3006,52.882,3006
2070,2070,56.934,2070
3565,3565,80.0,3565
539,539,3163.0,539
602,602,56.257,602
1092,1092,55.43600000000001,1092
1264,1264,53.029,1264
2229,2229,2836.0,2229
1917,1917,2172.0,1917
1110,1110,52.244,1110
2720,2720,190.395,2720
3313,3313,3603.0,3313
2525,2525,3410.0,2525
1834,1834,53.59,1834
3486,3486,51.61,3486
980,980,56.207,980
2872,2872,186.859,2872
2703,2703,1361.0,2703
1934,1934,55.444,1934
2369,2369,1427.0,2369
1687,1687,69.0,1687
3283,3283,0.0,3283
967,967,995.0,967
2456,2456,57.359,2456
1554,1554,58.892,1554
972,972,52.096,972
2719,2719,3287.0,2719
2042,2042,57.532,2042
1038,1038,57.392,1038
804,804,65.396,804
1056,1056,53.427,1056
2022,2022,55.024,2022
3047,3047,987.0,3047
1402,1402,60.05,1402
1422,1422,55.945,1422
2450,2450,157.21,2450
2842,2842,60.99100000000001,2842
1618,1618,55.25,1618
1156,1156,56.01300000000001,1156
841,841,415.0,841
2402,2402,198.795,2402
2271,2271,250.0,2271
2503,2503,679.0,2503
2475,2475,2590.0,2475
1940,1940,54.956,1940
1797,1797,1345.0,1797
2664,2664,237.476,2664
2280,2280,53.893,2280
2964,2964,51.481,2964
631,631,2354.0,631
3462,3462,51.466,3462
2549,2549,975.0,2549
2875,2875,3304.0,2875
1370,1370,53.773,1370
3169,3169,2328.0,3169
1417,1417,3559.0,1417
840,840,52.855,840
2323,2323,2827.0,2323
3419,3419,725.0,3419
1033,1033,0.0,1033
2940,2940,51.479,2940
658,658,55.832,658
908,908,56.121,908
1813,1813,2113.0,1813
961,961,896.0,961
676,676,52.519,676
507,507,800.0,507
1569,1569,3332.0,1569
3091,3091,0.0,3091
3190,3190,56.56100000000001,3190
3140,3140,51.918,3140
1235,1235,169.0,1235
1465,1465,689.0,1465
1109,1109,1954.0,1109
1702,1702,51.707,1702
1217,1217,576.0,1217
1104,1104,55.128,1104
1238,1238,51.587,1238
1106,1106,70.391,1106
2597,2597,2390.0,2597
2747,2747,2895.0,2747
3209,3209,1593.0,3209
1345,1345,161.0,1345
3083,3083,2493.0,3083
1844,1844,55.922,1844
2557,2557,3160.0,2557
1344,1344,53.675,1344
1447,1447,841.0,1447
1764,1764,55.809,1764
927,927,3428.0,927
1127,1127,2428.0,1127
1540,1540,56.236,1540
3415,3415,386.0,3415
3217,3217,3261.0,3217
2968,2968,52.984,2968
615,615,0.0,615
3449,3449,541.0,3449
508,508,54.606,508
3470,3470,55.467,3470
2173,2173,1505.0,2173
3414,3414,52.103,3414
1160,1160,57.587,1160
1865,1865,276.0,1865
3053,3053,865.0,3053
551,551,1915.0,551
1128,1128,53.728,1128
1397,1397,379.0,1397
1312,1312,54.24100000000001,1312
548,548,56.078,548
860,860,53.242,860
1085,1085,3456.0,1085
685,685,134.0,685
1459,1459,3299.0,1459
2293,2293,938.0,2293
686,686,52.88399999999999,686
1009,1009,528.0,1009
1091,1091,542.0,1091
1683,1683,1089.0,1683
1283,1283,197.0,1283
1651,1651,3383.0,1651
3089,3089,398.0,3089
657,657,0.0,657
2455,2455,3271.0,2455
2225,2225,1600.0,2225
512,512,69.116,512
2993,2993,156.0,2993
745,745,548.0,745
2955,2955,586.0,2955
797,797,1061.0,797
767,767,782.0,767
653,653,3305.0,653
1058,1058,53.665,1058
2136,2136,54.851000000000006,2136
3254,3254,51.861,3254
857,857,0.0,857
998,998,60.38,998
759,759,1157.0,759
839,839,781.0,839
1548,1548,58.899,1548
609,609,0.0,609
2613,2613,3565.0,2613
2928,2928,51.773,2928
762,762,56.595,762
3158,3158,58.666,3158
1071,1071,2740.0,1071
2299,2299,1011.0,2299
1802,1802,51.302,1802
2431,2431,3075.0,2431
788,788,51.495,788
3033,3033,573.0,3033
3027,3027,2593.0,3027
3206,3206,61.386,3206
2596,2596,57.215,2596
2083,2083,3173.0,2083
2787,2787,3104.0,2787
3294,3294,51.988,3294
2601,2601,353.0,2601
1404,1404,54.76,1404
2482,2482,82.395,2482
667,667,2626.0,667
2465,2465,3472.0,2465
1012,1012,51.904,1012
1949,1949,3122.0,1949
2207,2207,2743.0,2207
2502,2502,53.377,2502
3234,3234,55.726000000000006,3234
2952,2952,55.803,2952
1081,1081,219.0,1081
1292,1292,56.899,1292
3215,3215,1455.0,3215
1475,1475,3495.0,1475
957,957,2162.0,957
1700,1700,51.717,1700
1541,1541,2227.0,1541
3528,3528,51.13,3528
1794,1794,51.896,1794
3452,3452,54.865,3452
2190,2190,54.093,2190
2674,2674,59.535,2674
2645,2645,258.0,2645
1401,1401,2169.0,1401
1975,1975,781.0,1975
2337,2337,940.0,2337
921,921,3238.0,921
1145,1145,3332.0,1145
996,996,59.148,996
2700,2700,52.034,2700
807,807,1516.0,807
1112,1112,59.832,1112
3180,3180,56.198,3180
687,687,2424.0,687
2649,2649,945.0,2649
806,806,54.701,806
1681,1681,1766.0,1681
2126,2126,52.934,2126
3273,3273,3290.0,3273
1477,1477,0.0,1477
2183,2183,3621.0,2183
2889,2889,2859.0,2889
689,689,3472.0,689
3503,3503,1461.0,3503
1800,1800,51.279,1800
694,694,62.938,694
2748,2748,57.249,2748
2054,2054,62.575,2054
1663,1663,2204.0,1663
3357,3357,2701.0,3357
3268,3268,53.694,3268
1895,1895,1298.0,1895
638,638,57.28100000000001,638
2567,2567,2505.0,2567
778,778,55.112,778
2742,2742,51.653,2742
1762,1762,63.478,1762
1386,1386,51.79,1386
2216,2216,54.944,2216
2013,2013,1200.0,2013
1998,1998,53.992,1998
1445,1445,0.0,1445
2383,2383,2823.0,2383
1740,1740,54.834,1740
2189,2189,2999.0,2189
1468,1468,52.941,1468
2644,2644,52.58600000000001,2644
1536,1536,56.793,1536
2254,2254,62.74100000000001,2254
1694,1694,56.572,1694
2751,2751,2519.0,2751
1774,1774,53.402,1774
1927,1927,3465.0,1927
2340,2340,51.50899999999999,2340
2706,2706,191.805,2706
526,526,51.53,526
645,645,2147.0,645
2618,2618,60.173,2618
2705,2705,134.0,2705
2866,2866,188.542,2866
1222,1222,63.007,1222
1645,1645,1698.0,1645
2283,2283,0.0,2283
825,825,2809.0,825
976,976,52.496,976
2538,2538,55.49800000000001,2538
1538,1538,54.72,1538
2584,2584,59.05,2584
892,892,55.124,892
1755,1755,2817.0,1755
564,564,56.507,564
3024,3024,51.455,3024
891,891,761.0,891
2585,2585,2731.0,2585
769,769,0.0,769
2800,2800,171.509,2800
3410,3410,51.646,3410
3086,3086,57.117,3086
2743,2743,758.0,2743
1706,1706,52.869,1706
1546,1546,51.913,1546
2623,2623,1027.0,2623
3042,3042,61.08,3042
2099,2099,2936.0,2099
2406,2406,52.872,2406
1343,1343,1383.0,1343
2143,2143,0.0,2143
1944,1944,56.31,1944
3377,3377,3266.0,3377
3032,3032,53.224,3032
1847,1847,3123.0,1847
1107,1107,2259.0,1107
2790,2790,53.856,2790
2701,2701,1710.0,2701
2050,2050,54.24800000000001,2050
1233,1233,2236.0,1233
709,709,3539.0,709
1208,1208,68.352,1208
1855,1855,0.0,1855
1154,1154,63.323,1154
586,586,52.502,586
2049,2049,1095.0,2049
2600,2600,54.308,2600
1502,1502,55.08,1502
893,893,363.0,893
1277,1277,2474.0,1277
3216,3216,54.077,3216
937,937,1700.0,937
1374,1374,52.284,1374
1276,1276,54.72,1276
2268,2268,52.99800000000001,2268
2897,2897,2134.0,2897
2407,2407,3672.0,2407
1069,1069,2606.0,1069
2495,2495,3683.0,2495
2777,2777,2820.0,2777
973,973,1109.0,973
1605,1605,3120.0,1605
550,550,54.114,550
1458,1458,53.234,1458
1163,1163,3621.0,1163
2354,2354,52.593,2354
1193,1193,460.0,1193
3523,3523,3499.0,3523
1625,1625,589.0,1625
1346,1346,58.928,1346
549,549,0.0,549
1496,1496,52.502,1496
2646,2646,53.447,2646
682,682,51.993,682
1997,1997,1477.0,1997
2149,2149,1687.0,2149
1494,1494,55.017,1494
2256,2256,57.222,2256
3137,3137,3024.0,3137
916,916,55.982,916
2490,2490,52.042,2490
2697,2697,867.0,2697
879,879,1011.0,879
1914,1914,51.40600000000001,1914
1129,1129,0.0,1129
1248,1248,53.667,1248
2115,2115,2957.0,2115
795,795,340.0,795
1439,1439,0.0,1439
2153,2153,2901.0,2153
2627,2627,3583.0,2627
2053,2053,2004.0,2053
2716,2716,53.295,2716
554,554,51.658,554
1708,1708,54.081,1708
2869,2869,408.0,2869
2286,2286,56.441,2286
1032,1032,53.172,1032
3176,3176,52.269,3176
1857,1857,2976.0,1857
1002,1002,54.021,1002
930,930,52.604,930
2692,2692,83.715,2692
723,723,0.0,723
2133,2133,487.0,2133
644,644,55.005,644
1028,1028,52.06100000000001,1028
2844,2844,54.803,2844
1166,1166,51.929,1166
2498,2498,51.925,2498
2607,2607,443.0,2607
3536,3536,63.569,3536
3099,3099,416.0,3099
774,774,55.493,774
1483,1483,255.0,1483
1325,1325,331.0,1325
827,827,2862.0,827
2741,2741,1442.0,2741
1320,1320,53.699,1320
2880,2880,64.919,2880
3504,3504,54.583,3504
1778,1778,56.057,1778
2639,2639,67.0,2639
1273,1273,3202.0,1273
2147,2147,0.0,2147
1567,1567,2270.0,1567
1701,1701,3048.0,1701
1192,1192,54.813,1192
2727,2727,2371.0,2727
2999,2999,205.0,2999
1347,1347,2436.0,1347
1393,1393,2822.0,1393
2467,2467,444.0,2467
2396,2396,105.569,2396
3198,3198,56.691,3198
3352,3352,56.774,3352
2563,2563,2073.0,2563
2316,2316,235.135,2316
3148,3148,56.83600000000001,3148
2591,2591,3524.0,2591
2063,2063,927.0,2063
2799,2799,848.0,2799
3467,3467,1105.0,3467
3319,3319,337.0,3319
1195,1195,284.0,1195
1201,1201,0.0,1201
2821,2821,3624.0,2821
3564,3564,51.937,3564
2632,2632,60.911,2632
3509,3509,1512.0,3509
733,733,2694.0,733
1787,1787,2309.0,1787
1356,1356,53.707,1356
2616,2616,52.099,2616
2320,2320,56.4,2320
1823,1823,649.0,1823
3023,3023,3469.0,3023
3141,3141,2148.0,3141
2837,2837,2641.0,2837
1784,1784,52.639,1784
3074,3074,58.104,3074
1773,1773,2279.0,1773
1739,1739,447.0,1739
1884,1884,54.507,1884
1361,1361,605.0,1361
553,553,3503.0,553
3399,3399,1231.0,3399
1792,1792,53.243,1792
3404,3404,54.007,3404
3113,3113,2814.0,3113
2817,2817,316.0,2817
1497,1497,2430.0,1497
3546,3546,54.635,3546
2034,2034,62.365,2034
1753,1753,3324.0,1753
1121,1121,3528.0,1121
3550,3550,52.602,3550
2779,2779,3024.0,2779
951,951,2792.0,951
753,753,312.0,753
629,629,2603.0,629
652,652,60.39100000000001,652
3012,3012,52.166,3012
1785,1785,2318.0,1785
1845,1845,1305.0,1845
1826,1826,55.353,1826
1205,1205,1865.0,1205
1598,1598,55.832,1598
1958,1958,51.506,1958
2269,2269,1127.0,2269
1365,1365,123.0,1365
2857,2857,2588.0,2857
1530,1530,53.01,1530
1507,1507,3009.0,1507
2239,2239,1110.0,2239
2090,2090,75.42699999999998,2090
3263,3263,1129.0,3263
2234,2234,63.324,2234
1426,1426,62.74100000000001,1426
3432,3432,53.525,3432
3259,3259,1009.0,3259
2352,2352,53.57100000000001,2352
3115,3115,0.0,3115
2417,2417,1212.0,2417
1662,1662,54.855,1662
605,605,676.0,605
907,907,1981.0,907
1856,1856,55.414,1856
574,574,52.922,574
2636,2636,56.224,2636
800,800,56.872,800
2386,2386,98.181,2386
1215,1215,652.0,1215
3105,3105,2638.0,3105
1153,1153,1348.0,1153
672,672,53.413,672
2573,2573,291.0,2573
713,713,2516.0,713
2130,2130,51.833,2130
1388,1388,53.28,1388
3029,3029,1898.0,3029
2255,2255,1583.0,2255
3465,3465,3503.0,3465
3248,3248,55.813,3248
3439,3439,0.0,3439
2372,2372,52.629,2372
3533,3533,2890.0,3533
968,968,55.124,968
2650,2650,56.849,2650
3338,3338,52.08600000000001,3338
1135,1135,1289.0,1135
2682,2682,51.643,2682
2947,2947,1098.0,2947
2198,2198,56.39,2198
1017,1017,3079.0,1017
1543,1543,1964.0,1543
2977,2977,2758.0,2977
3455,3455,0.0,3455
3026,3026,54.048,3026
1234,1234,53.163,1234
1060,1060,61.007,1060
2087,2087,1265.0,2087
3307,3307,2392.0,3307
3438,3438,52.721,3438
2222,2222,54.596,2222
597,597,194.0,597
555,555,2932.0,555
543,543,3510.0,543
3304,3304,62.32,3304
2381,2381,2993.0,2381
2158,2158,51.118,2158
2072,2072,56.478,2072
2566,2566,54.268,2566
3308,3308,59.181,3308
1703,1703,0.0,1703
1200,1200,53.387,1200
2048,2048,62.167,2048
1981,1981,598.0,1981
780,780,51.597,780
1534,1534,53.029,1534
2333,2333,430.0,2333
3569,3569,2081.0,3569
3575,3575,1388.0,3575
1978,1978,56.006,1978
2457,2457,91.0,2457
2978,2978,56.431,2978
1562,1562,55.269,1562
1008,1008,58.289,1008
661,661,2712.0,661
2594,2594,57.282,2594
1526,1526,56.125,1526
932,932,58.881,932
1310,1310,61.284,1310
1888,1888,54.62600000000001,1888
3267,3267,964.0,3267
2311,2311,3163.0,2311
1111,1111,824.0,1111
2219,2219,630.0,2219
3356,3356,61.593,3356
1117,1117,3530.0,1117
601,601,1413.0,601
3288,3288,55.822,3288
2531,2531,295.0,2531
711,711,2871.0,711
1715,1715,2460.0,1715
2399,2399,2013.0,2399
3556,3556,52.238,3556
3097,3097,589.0,3097
1433,1433,0.0,1433
1959,1959,885.0,1959
1463,1463,2722.0,1463
1443,1443,236.0,1443
3090,3090,53.357,3090
3501,3501,1091.0,3501
1177,1177,1891.0,1177
1207,1207,3232.0,1207
2420,2420,52.313,2420
2376,2376,53.839,2376
1634,1634,52.268,1634
2854,2854,61.148,2854
1849,1849,3450.0,1849
3213,3213,300.0,3213
1061,1061,2339.0,1061
2526,2526,62.222,2526
1363,1363,0.0,1363
2628,2628,52.941,2628
3300,3300,67.202,3300
516,516,52.74800000000001,516
2725,2725,2681.0,2725
3102,3102,55.926,3102
2932,2932,53.683,2932
1326,1326,56.573,1326
2368,2368,50.832,2368
2031,2031,615.0,2031
971,971,2640.0,971
1115,1115,1297.0,1115
2224,2224,51.272,2224
2294,2294,51.729,2294
1767,1767,2792.0,1767
2972,2972,51.848,2972
2088,2088,61.42,2088
674,674,51.569,674
1084,1084,54.572,1084
1435,1435,928.0,1435
1444,1444,53.233,1444
1926,1926,53.324,1926
1227,1227,3079.0,1227
959,959,679.0,959
1314,1314,52.874,1314
1656,1656,65.322,1656
3010,3010,54.43600000000001,3010
3013,3013,3644.0,3013
2282,2282,52.442,2282
1748,1748,54.43899999999999,1748
1710,1710,51.965,1710
523,523,3168.0,523
1065,1065,3533.0,1065
1963,1963,3661.0,1963
2002,2002,59.11,2002
1357,1357,3664.0,1357
2089,2089,3547.0,2089
1942,1942,56.002,1942
2032,2032,55.807,2032
1555,1555,395.0,1555
1860,1860,56.0,1860
3156,3156,53.776,3156
2536,2536,56.715,2536
3069,3069,2939.0,3069
2193,2193,573.0,2193
693,693,3119.0,693
1727,1727,351.0,1727
3202,3202,64.056,3202
3240,3240,58.354,3240
2881,2881,1364.0,2881
2215,2215,2906.0,2215
3453,3453,513.0,3453
1522,1522,51.73,1522
2152,2152,53.51,2152
2401,2401,1278.0,2401
2252,2252,54.04,2252
1173,1173,100.0,1173
2589,2589,829.0,2589
1882,1882,54.44,1882
3365,3365,377.0,3365
2885,2885,2428.0,2885
2220,2220,52.628,2220
947,947,920.0,947
1340,1340,54.137,1340
1904,1904,57.798,1904
3578,3578,57.258,3578
2553,2553,91.0,2553
584,584,51.308,584
1075,1075,1901.0,1075
2082,2082,53.106,2082
1100,1100,57.054,1100
2675,2675,1348.0,2675
1527,1527,0.0,1527
1221,1221,2150.0,1221
1211,1211,2352.0,1211
2654,2654,56.01600000000001,2654
2981,2981,0.0,2981
2343,2343,889.0,2343
678,678,52.414,678
1072,1072,58.057,1072
1149,1149,552.0,1149
1257,1257,2795.0,1257
2916,2916,162.936,2916
2029,2029,1476.0,2029
3143,3143,3177.0,3143
1840,1840,56.361,1840
2477,2477,0.0,2477
814,814,57.379,814
1836,1836,56.734,1836
2433,2433,332.0,2433
1387,1387,2274.0,1387
2580,2580,53.543,2580
2995,2995,2744.0,2995
1457,1457,1406.0,1457
3235,3235,1809.0,3235
1783,1783,1664.0,1783
2104,2104,52.71100000000001,2104
1474,1474,51.95399999999999,1474
2253,2253,2172.0,2253
2101,2101,2580.0,2101
3292,3292,52.102,3292
2655,2655,1006.0,2655
845,845,0.0,845
3342,3342,54.997,3342
904,904,60.163,904
2071,2071,492.0,2071
1159,1159,789.0,1159
1053,1053,3429.0,1053
3413,3413,1353.0,3413
2218,2218,51.503,2218
1050,1050,52.472,1050
1622,1622,52.77,1622
2713,2713,2052.0,2713
2927,2927,2311.0,2927
710,710,56.395,710
1819,1819,702.0,1819
2075,2075,2005.0,2075
1432,1432,55.937,1432
3525,3525,2977.0,3525
3079,3079,1384.0,3079
929,929,678.0,929
2313,2313,2922.0,2313
3297,3297,215.0,3297
3403,3403,3089.0,3403
1827,1827,414.0,1827
3427,3427,1738.0,3427
3008,3008,52.889,3008
2560,2560,52.072,2560
1932,1932,59.761,1932
3035,3035,3112.0,3035
1068,1068,55.119,1068
2445,2445,1003.0,2445
3513,3513,1371.0,3513
1157,1157,338.0,1157
2033,2033,0.0,2033
3250,3250,59.804,3250
2303,2303,0.0,2303
3088,3088,55.772,3088
2120,2120,59.243,2120
664,664,64.45,664
1431,1431,105.0,1431
3572,3572,56.409,3572
843,843,2005.0,843
1735,1735,3145.0,1735
1842,1842,60.326,1842
2085,2085,0.0,2085
2759,2759,806.0,2759
2388,2388,55.997,2388
2405,2405,1023.0,2405
1073,1073,1274.0,1073
1284,1284,62.764,1284
2312,2312,53.977,2312
515,515,2069.0,515
1599,1599,3143.0,1599
3041,3041,1198.0,3041
2489,2489,1212.0,2489
832,832,56.905,832
3334,3334,52.254,3334
2839,2839,749.0,2839
712,712,66.404,712
865,865,2553.0,865
3019,3019,0.0,3019
3062,3062,58.352,3062
3230,3230,54.355,3230
2925,2925,3214.0,2925
2197,2197,3575.0,2197
1816,1816,56.451,1816
939,939,183.0,939
2349,2349,1070.0,2349
2006,2006,55.752,2006
546,546,56.067,546
3555,3555,434.0,3555
3302,3302,53.887,3302
1654,1654,57.834,1654
1119,1119,2020.0,1119
1398,1398,61.149,1398
3388,3388,52.282,3388
3075,3075,1421.0,3075
3552,3552,52.078,3552
1253,1253,3012.0,1253
636,636,56.773,636
940,940,56.982,940
650,650,55.355,650
2356,2356,58.812,2356
2415,2415,0.0,2415
1550,1550,57.111,1550
3335,3335,2738.0,3335
3425,3425,1996.0,3425
3261,3261,3159.0,3261
896,896,55.484,896
2322,2322,105.194,2322
1271,1271,3184.0,1271
1666,1666,55.631,1666
925,925,3003.0,925
3421,3421,1786.0,3421
872,872,55.359,872
969,969,2522.0,969
2996,2996,234.655,2996
2984,2984,232.525,2984
2798,2798,52.559,2798
3542,3542,54.06399999999999,3542
2523,2523,1377.0,2523
2667,2667,2203.0,2667
2744,2744,55.592,2744
1901,1901,2874.0,1901
2965,2965,996.0,2965
846,846,56.174,846
3493,3493,1364.0,3493
854,854,55.566,854
3181,3181,1343.0,3181
2888,2888,60.294,2888
1707,1707,2479.0,1707
1074,1074,54.087,1074
3309,3309,0.0,3309
2982,2982,53.466,2982
3211,3211,1531.0,3211
2882,2882,66.874,2882
1759,1759,2068.0,1759
2859,2859,366.0,2859
2893,2893,725.0,2893
603,603,0.0,603
2630,2630,51.91,2630
1528,1528,57.411,1528
510,510,63.563,510
3094,3094,52.18899999999999,3094
1411,1411,2186.0,1411
1187,1187,927.0,1187
2922,2922,205.86900000000003,2922
2792,2792,51.553,2792
3107,3107,2093.0,3107
2274,2274,51.292,2274
2231,2231,2582.0,2231
635,635,3319.0,635
3354,3354,52.988,3354
1889,1889,3314.0,1889
3030,3030,51.479,3030
2210,2210,52.113,2210
2121,2121,280.0,2121
1542,1542,53.802,1542
2213,2213,2356.0,2213
2851,2851,2648.0,2851
1486,1486,55.057,1486
1610,1610,66.34899999999999,1610
2784,2784,51.919,2784
2988,2988,51.681,2988
541,541,81.0,541
3076,3076,58.562,3076
2593,2593,3556.0,2593
1608,1608,65.979,1608
1520,1520,51.137,1520
1261,1261,1336.0,1261
1125,1125,0.0,1125
697,697,2179.0,697
3547,3547,1560.0,3547
1108,1108,56.565,1108
616,616,53.122,616
2305,2305,1683.0,2305
1355,1355,1735.0,1355
3472,3472,52.788,3472
3167,3167,1526.0,3167
990,990,60.463,990
3003,3003,0.0,3003
1989,1989,3079.0,1989
2542,2542,159.295,2542
871,871,927.0,871
3007,3007,3076.0,3007
2485,2485,1637.0,2485
3456,3456,58.636,3456
1799,1799,837.0,1799
1782,1782,51.687,1782
503,503,455.0,503
2884,2884,111.093,2884
1245,1245,958.0,1245
3188,3188,52.753,3188
3291,3291,2828.0,3291
1719,1719,0.0,1719
2030,2030,58.119,2030
2326,2326,247.474,2326
2841,2841,2178.0,2841
1600,1600,60.591,1600
2287,2287,559.0,2287
2086,2086,64.60300000000001,2086
3058,3058,51.966,3058
746,746,52.24100000000001,746
2931,2931,524.0,2931
1469,1469,3003.0,1469
2404,2404,59.674,2404
2668,2668,53.398,2668
2990,2990,52.986,2990
1898,1898,55.691,1898
1682,1682,135.929,1682
530,530,52.778,530
1757,1757,335.0,1757
779,779,770.0,779
3237,3237,1697.0,3237
2541,2541,1365.0,2541
1164,1164,52.941,1164
1818,1818,60.71,1818
1223,1223,2431.0,1223
3363,3363,3191.0,3363
