,Client,Elastic Ellipse
0,dataset_00.csv,0.621301775147929
1,dataset_01.csv,0.6348387096774193
2,dataset_02.csv,0.636923076923077
3,dataset_03.csv,0.642962962962963
4,dataset_04.csv,0.6416275430359938
