,Client,Mean + 2SD F1
0,dataset_00.csv,0.9315673289183223
1,dataset_01.csv,0.9534883720930233
2,dataset_02.csv,0.23703703703703702
3,dataset_03.csv,0.9619686800894856
4,dataset_04.csv,0.9411764705882353
