,Client,EE-LOF F1
0,dataset_00.csv,0.970954357
1,dataset_01.csv,0.962025316
2,dataset_02.csv,0.241758242
3,dataset_03.csv,0.991341991
4,dataset_04.csv,0.98405467
5,dataset_05.csv,0.995555556
6,dataset_06.csv,0.986376022
7,dataset_07.csv,0.309859155
8,dataset_08.csv,0.982300885
9,dataset_09.csv,0.951501155
10,dataset_10.csv,0.875
11,dataset_11.csv,0.997229917
12,dataset_12.csv,0.997590361
13,dataset_13.csv,0.982367758
14,dataset_14.csv,0.903677758
15,dataset_15.csv,0.929032258
16,dataset_16.csv,0.915401302
17,dataset_17.csv,0.967871486
18,dataset_18.csv,0.988871224
19,dataset_19.csv,0.917857143
20,dataset_20.csv,0.943396226
21,dataset_21.csv,0.961145194
22,dataset_22.csv,0.982378855
23,dataset_23.csv,0.323287671
24,dataset_24.csv,0.976909414
25,dataset_25.csv,0.962601626
26,dataset_26.csv,0.970350404
27,dataset_27.csv,0.938461538