1	25.767 25.767
2	573.0 573.0
3	30.967 30.967
4	332.0 332.0
5	23.331 23.331
6	79.0 79.0
7	29.044 29.044
8	632.0 632.0
9	33.331 33.331
10	57.0 57.0
11	31.338 31.338
12	261.0 261.0
13	33.67 33.67
14	584.0 584.0
15	26.163 26.163
16	409.0 409.0
17	24.416 24.416
18	648.0 648.0
19	25.841 25.841
20	689.0 689.0
21	23.707 23.707
22	39.0 39.0
23	29.908 29.908
24	59.0 59.0
25	36.22 36.22
26	738.0 738.0
27	24.401 24.401
28	357.0 357.0
29	23.502 23.502
30	816.0 816.0
31	30.227 30.227
32	574.0 574.0
33	22.821 22.821
34	407.0 407.0
35	27.73 27.73
36	628.0 628.0
37	23.743 23.743
38	668.0 668.0
39	32.349 32.349
40	400.0 400.0
41	24.122 24.122
42	104.0 104.0
43	27.146 27.146
44	507.0 507.0
45	24.324 24.324
46	540.0 540.0
47	25.785 25.785
48	348.0 348.0
49	26.363 26.363
50	107.0 107.0
51	30.427 30.427
52	281.0 281.0
53	29.986 29.986
54	793.0 793.0
55	30.152 30.152
56	800.0 800.0
57	24.884 24.884
58	108.0 108.0
59	25.751 25.751
60	821.0 821.0
61	30.112 30.112
62	563.0 563.0
63	24.676 24.676
64	726.0 726.0
65	25.411 25.411
66	75.0 75.0
67	26.372 26.372
68	74.0 74.0
69	36.477 36.477
70	91.0 91.0
71	24.652 24.652
72	780.0 780.0
73	26.801 26.801
74	601.0 601.0
75	28.403 28.403
76	207.0 207.0
77	26.407 26.407
78	337.0 337.0
79	30.556 30.556
80	525.0 525.0
81	26.249 26.249
82	467.0 467.0
83	23.323 23.323
84	736.0 736.0
85	27.807 27.807
86	590.0 590.0
87	25.956 25.956
88	39.0 39.0
89	25.991 25.991
90	296.0 296.0
91	30.395 30.395
92	605.0 605.0
93	32.591 32.591
94	584.0 584.0
95	25.959 25.959
96	445.0 445.0
97	31.774 31.774
98	782.0 782.0
99	25.484 25.484
100	300.0 300.0
101	30.655 30.655
102	50.0 50.0
103	26.611 26.611
104	123.0 123.0
105	25.948 25.948
106	134.0 134.0
107	24.13 24.13
108	652.0 652.0
109	22.82 22.82
110	252.0 252.0
111	36.904 36.904
112	445.0 445.0
113	23.525 23.525
114	226.0 226.0
115	25.416 25.416
116	250.0 250.0
117	23.818 23.818
118	745.0 745.0
119	25.339 25.339
120	652.0 652.0
121	25.951 25.951
122	62.0 62.0
123	29.175 29.175
124	217.0 217.0
125	25.888 25.888
126	630.0 630.0
127	26.059 26.059
128	194.0 194.0
129	25.139 25.139
130	265.0 265.0
131	23.437 23.437
132	270.0 270.0
133	25.112 25.112
134	835.0 835.0
135	24.553 24.553
136	421.0 421.0
137	26.078 26.078
138	565.0 565.0
139	86.455 86.455
140	319.0 319.0
141	99.109 99.109
142	106.0 106.0
143	28.588 28.588
144	539.0 539.0
145	28.068 28.068
146	250.0 250.0
147	26.548 26.548
148	152.0 152.0
149	24.781 24.781
150	135.0 135.0
151	27.222 27.222
152	635.0 635.0
153	57.437 57.437
154	700.0 700.0
155	34.416 34.416
156	330.0 330.0
157	37.018 37.018
158	212.0 212.0
159	27.99 27.99
160	167.0 167.0
161	24.551 24.551
162	669.0 669.0
163	26.726 26.726
164	758.0 758.0
165	27.254 27.254
166	615.0 615.0
167	28.065 28.065
168	92.0 92.0
169	24.921 24.921
170	48.0 48.0
171	32.963 32.963
172	228.0 228.0
173	27.038 27.038
174	610.0 610.0
175	25.274 25.274
176	545.0 545.0
177	23.291 23.291
178	188.0 188.0
179	23.459 23.459
180	58.0 58.0
181	24.294 24.294
182	65.0 65.0
183	25.756 25.756
184	404.0 404.0
185	22.952 22.952
186	736.0 736.0
187	24.291 24.291
188	426.0 426.0
189	24.714 24.714
190	345.0 345.0
191	23.607 23.607
192	656.0 656.0
193	23.891 23.891
194	436.0 436.0
195	23.624 23.624
196	388.0 388.0
197	25.958 25.958
198	607.0 607.0
199	23.47 23.47
200	101.0 101.0
201	22.633 22.633
202	201.0 201.0
203	25.212 25.212
204	527.0 527.0
205	25.127 25.127
206	688.0 688.0
207	24.243 24.243
208	599.0 599.0
209	24.075 24.075
210	215.0 215.0
211	26.963 26.963
212	579.0 579.0
213	24.45 24.45
214	761.0 761.0
215	22.846 22.846
216	812.0 812.0
217	24.304 24.304
218	52.0 52.0
219	27.641 27.641
220	161.0 161.0
221	32.531 32.531
222	117.0 117.0
223	30.874 30.874
224	75.0 75.0
225	25.554 25.554
226	651.0 651.0
227	26.555 26.555
228	254.0 254.0
229	25.747 25.747
230	217.0 217.0
231	23.459 23.459
232	473.0 473.0
233	22.557 22.557
234	703.0 703.0
235	26.65 26.65
236	725.0 725.0
237	28.636 28.636
238	565.0 565.0
239	24.252 24.252
240	688.0 688.0
241	24.481 24.481
242	196.0 196.0
243	32.16 32.16
244	761.0 761.0
245	29.892 29.892
246	769.0 769.0
247	30.463 30.463
248	809.0 809.0
249	28.424 28.424
250	592.0 592.0
251	23.944 23.944
252	222.0 222.0
253	23.554 23.554
254	389.0 389.0
255	22.963 22.963
256	410.0 410.0
257	22.998 22.998
258	502.0 502.0
259	23.484 23.484
260	276.0 276.0
261	24.086 24.086
262	772.0 772.0
263	23.344 23.344
264	369.0 369.0
265	27.608 27.608
266	83.0 83.0
267	23.371 23.371
268	146.0 146.0
269	22.72 22.72
270	630.0 630.0
271	25.98 25.98
272	139.0 139.0
273	26.562 26.562
274	498.0 498.0
275	23.467 23.467
276	109.0 109.0
277	23.494 23.494
278	602.0 602.0
279	26.482 26.482
280	352.0 352.0
281	29.716 29.716
282	37.0 37.0
283	24.045 24.045
284	789.0 789.0
285	30.623 30.623
286	407.0 407.0
287	26.248 26.248
288	805.0 805.0
289	25.723 25.723
290	504.0 504.0
291	23.343 23.343
292	45.0 45.0
293	25.711 25.711
294	623.0 623.0
295	25.497 25.497
296	458.0 458.0
297	27.499 27.499
298	293.0 293.0
299	33.706 33.706
300	668.0 668.0
301	39.71 39.71
302	762.0 762.0
303	33.808 33.808
304	511.0 511.0
305	26.752 26.752
306	280.0 280.0
307	32.002 32.002
308	372.0 372.0
309	35.36 35.36
310	727.0 727.0
311	34.578 34.578
312	523.0 523.0
313	34.085 34.085
314	837.0 837.0
315	35.167 35.167
316	108.0 108.0
317	28.998 28.998
318	756.0 756.0
319	25.004 25.004
320	788.0 788.0
321	24.063 24.063
322	720.0 720.0
323	29.253 29.253
324	40.0 40.0
325	27.82 27.82
326	497.0 497.0
327	27.642 27.642
328	401.0 401.0
329	27.01 27.01
330	530.0 530.0
331	26.879 26.879
332	252.0 252.0
333	25.173 25.173
334	249.0 249.0
335	35.953 35.953
336	360.0 360.0
337	32.377 32.377
338	345.0 345.0
339	31.164 31.164
340	73.0 73.0
341	30.94 30.94
342	96.0 96.0
343	25.293 25.293
344	130.0 130.0
345	24.426 24.426
346	268.0 268.0
347	34.26 34.26
348	824.0 824.0
349	26.504 26.504
350	583.0 583.0
351	29.599 29.599
352	548.0 548.0
353	26.186 26.186
354	185.0 185.0
355	27.999 27.999
356	506.0 506.0
357	25.843 25.843
358	250.0 250.0
359	24.525 24.525
360	434.0 434.0
361	23.363 23.363
362	593.0 593.0
363	30.752 30.752
364	612.0 612.0
365	26.53 26.53
366	41.0 41.0
367	32.971 32.971
368	116.0 116.0
369	26.47 26.47
370	224.0 224.0
371	31.432 31.432
372	698.0 698.0
373	26.605 26.605
374	695.0 695.0
375	42.516 42.516
376	63.0 63.0
377	24.037 24.037
378	712.0 712.0
379	29.717 29.717
380	170.0 170.0
381	23.967 23.967
382	801.0 801.0
383	23.614 23.614
384	340.0 340.0
385	23.534 23.534
386	530.0 530.0
387	22.857 22.857
388	759.0 759.0
389	23.289 23.289
390	315.0 315.0
391	24.454 24.454
392	115.0 115.0
393	27.393 27.393
394	816.0 816.0
395	25.469 25.469
396	426.0 426.0
397	26.181 26.181
398	50.0 50.0
399	23.649 23.649
400	634.0 634.0
401	24.31 24.31
402	258.0 258.0
403	24.036 24.036
404	638.0 638.0
405	26.103 26.103
406	301.0 301.0
407	25.412 25.412
408	355.0 355.0
409	23.512 23.512
410	141.0 141.0
411	24.004 24.004
412	288.0 288.0
413	22.75 22.75
414	234.0 234.0
415	23.416 23.416
416	91.0 91.0
417	23.353 23.353
418	442.0 442.0
419	23.933 23.933
420	473.0 473.0
421	23.17 23.17
422	786.0 786.0
423	27.307 27.307
424	492.0 492.0
425	22.93 22.93
426	512.0 512.0
427	26.806 26.806
428	382.0 382.0
429	27.007 27.007
430	521.0 521.0
431	25.672 25.672
432	398.0 398.0
433	38.418 38.418
434	765.0 765.0
435	45.476 45.476
436	247.0 247.0
437	35.803 35.803
438	736.0 736.0
439	27.234 27.234
440	649.0 649.0
441	29.629 29.629
442	472.0 472.0
443	27.412 27.412
444	178.0 178.0
445	28.17 28.17
446	320.0 320.0
447	22.988 22.988
448	105.0 105.0
449	23.167 23.167
450	612.0 612.0
451	28.782 28.782
452	745.0 745.0
453	26.873 26.873
454	563.0 563.0
455	27.895 27.895
456	345.0 345.0
457	26.804 26.804
458	298.0 298.0
459	31.939 31.939
460	95.0 95.0
461	26.08 26.08
462	557.0 557.0
463	30.364 30.364
464	344.0 344.0
465	32.375 32.375
466	555.0 555.0
467	35.968 35.968
468	417.0 417.0
469	23.695 23.695
470	376.0 376.0
471	22.765 22.765
472	637.0 637.0
473	23.996 23.996
474	584.0 584.0
475	27.794 27.794
476	119.0 119.0
477	30.521 30.521
478	269.0 269.0
479	24.88 24.88
480	797.0 797.0
481	24.041 24.041
482	275.0 275.0
483	37.386 37.386
484	139.0 139.0
485	27.985 27.985
486	758.0 758.0
487	29.987 29.987
488	260.0 260.0
489	24.774 24.774
490	314.0 314.0
491	31.687 31.687
492	428.0 428.0
493	27.446 27.446
494	713.0 713.0
495	25.711 25.711
496	464.0 464.0
497	27.434 27.434
498	437.0 437.0
499	25.726 25.726
500	81.0 81.0
501	29.887 29.887
502	549.0 549.0
503	23.777 23.777
504	211.0 211.0
505	25.7 25.7
506	820.0 820.0
507	30.898 30.898
508	665.0 665.0
509	27.399 27.399
510	819.0 819.0
511	26.461 26.461
512	401.0 401.0
513	31.225 31.225
514	208.0 208.0
515	26.36 26.36
516	339.0 339.0
517	23.363 23.363
518	187.0 187.0
519	25.469 25.469
520	386.0 386.0
521	25.089 25.089
522	740.0 740.0
523	24.039 24.039
524	127.0 127.0
525	25.473 25.473
526	196.0 196.0
527	25.857 25.857
528	141.0 141.0
529	26.35 26.35
530	776.0 776.0
531	25.764 25.764
532	138.0 138.0
533	25.869 25.869
534	167.0 167.0
535	37.605 37.605
536	804.0 804.0
537	25.17 25.17
538	324.0 324.0
539	25.899 25.899
540	493.0 493.0
541	35.949 35.949
542	136.0 136.0
543	34.907 34.907
544	56.0 56.0
545	35.254 35.254
546	284.0 284.0
547	30.619 30.619
548	227.0 227.0
549	25.56 25.56
550	620.0 620.0
551	23.62 23.62
552	348.0 348.0
553	23.684 23.684
554	203.0 203.0
555	23.627 23.627
556	609.0 609.0
557	22.774 22.774
558	206.0 206.0
559	27.129 27.129
560	668.0 668.0
561	24.7 24.7
562	251.0 251.0
563	23.222 23.222
564	544.0 544.0
565	26.7 26.7
566	209.0 209.0
567	25.537 25.537
568	571.0 571.0
569	27.636 27.636
570	443.0 443.0
571	25.105 25.105
572	536.0 536.0
573	36.648 36.648
574	173.0 173.0
575	30.175 30.175
576	134.0 134.0
577	25.156 25.156
578	92.0 92.0
579	32.882 32.882
580	282.0 282.0
581	23.131 23.131
582	719.0 719.0
583	37.182 37.182
584	748.0 748.0
585	22.761 22.761
586	142.0 142.0
587	24.138 24.138
588	83.0 83.0
589	23.833 23.833
590	321.0 321.0
591	23.389 23.389
592	81.0 81.0
593	23.155 23.155
594	431.0 431.0
595	23.403 23.403
596	155.0 155.0
597	26.28 26.28
598	95.0 95.0
599	23.939 23.939
600	182.0 182.0
601	23.228 23.228
602	651.0 651.0
603	24.131 24.131
604	615.0 615.0
605	28.414 28.414
606	532.0 532.0
607	27.644 27.644
608	709.0 709.0
609	26.909 26.909
610	762.0 762.0
611	24.154 24.154
612	153.0 153.0
613	23.598 23.598
614	272.0 272.0
615	27.454 27.454
616	253.0 253.0
617	24.603 24.603
618	159.0 159.0
619	24.133 24.133
620	664.0 664.0
621	28.624 28.624
622	298.0 298.0
623	27.951 27.951
624	205.0 205.0
625	24.218 24.218
626	743.0 743.0
627	27.562 27.562
628	427.0 427.0
629	28.763 28.763
630	185.0 185.0
631	29.949 29.949
632	281.0 281.0
633	27.16 27.16
634	536.0 536.0
635	29.031 29.031
636	829.0 829.0
637	29.236 29.236
638	226.0 226.0
639	30.101 30.101
640	209.0 209.0
641	24.335 24.335
642	628.0 628.0
643	27.477 27.477
644	207.0 207.0
645	29.905 29.905
646	711.0 711.0
647	29.651 29.651
648	844.0 844.0
649	24.773 24.773
650	658.0 658.0
651	27.95 27.95
652	754.0 754.0
653	23.804 23.804
654	373.0 373.0
655	28.52 28.52
656	446.0 446.0
657	26.2 26.2
658	105.0 105.0
659	23.199 23.199
660	133.0 133.0
661	23.17 23.17
662	552.0 552.0
663	27.164 27.164
664	220.0 220.0
665	24.262 24.262
666	751.0 751.0
667	29.86 29.86
668	448.0 448.0
669	28.62 28.62
670	413.0 413.0
671	37.578 37.578
672	47.0 47.0
673	26.831 26.831
674	444.0 444.0
675	26.165 26.165
676	786.0 786.0
677	25.238 25.238
678	453.0 453.0
679	26.099 26.099
680	366.0 366.0
681	30.758 30.758
682	315.0 315.0
683	25.351 25.351
684	150.0 150.0
685	32.658 32.658
686	245.0 245.0
687	27.561 27.561
688	482.0 482.0
689	32.419 32.419
690	429.0 429.0
691	26.782 26.782
692	680.0 680.0
693	26.449 26.449
694	770.0 770.0
695	32.387 32.387
696	216.0 216.0
697	24.758 24.758
698	500.0 500.0
699	27.582 27.582
700	63.0 63.0
701	23.638 23.638
702	228.0 228.0
703	30.44 30.44
704	291.0 291.0
705	143.332 143.332
706	658.0 658.0
707	25.672 25.672
708	459.0 459.0
709	24.682 24.682
710	741.0 741.0
711	25.383 25.383
712	671.0 671.0
713	23.078 23.078
714	126.0 126.0
715	26.169 26.169
716	683.0 683.0
717	23.954 23.954
718	830.0 830.0
719	23.392 23.392
720	776.0 776.0
721	23.438 23.438
722	180.0 180.0
723	23.086 23.086
724	487.0 487.0
725	23.89 23.89
726	463.0 463.0
727	23.436 23.436
728	277.0 277.0
729	30.3 30.3
730	521.0 521.0
731	25.149 25.149
732	66.0 66.0
733	25.463 25.463
734	808.0 808.0
735	31.192 31.192
736	95.0 95.0
737	27.522 27.522
738	636.0 636.0
739	34.574 34.574
740	511.0 511.0
741	33.851 33.851
742	136.0 136.0
743	28.15 28.15
744	826.0 826.0
745	26.417 26.417
746	668.0 668.0
747	24.929 24.929
748	790.0 790.0
749	26.626 26.626
750	624.0 624.0
751	32.242 32.242
752	308.0 308.0
753	24.74 24.74
754	513.0 513.0
755	25.769 25.769
756	93.0 93.0
757	27.111 27.111
758	794.0 794.0
759	27.478 27.478
760	540.0 540.0
761	26.333 26.333
762	422.0 422.0
763	27.173 27.173
764	496.0 496.0
765	26.141 26.141
766	643.0 643.0
767	37.126 37.126
768	80.0 80.0
769	33.602 33.602
770	326.0 326.0
771	26.001 26.001
772	293.0 293.0
773	32.363 32.363
774	806.0 806.0
775	33.593 33.593
776	281.0 281.0
777	36.385 36.385
778	275.0 275.0
779	24.855 24.855
780	448.0 448.0
781	24.384 24.384
782	163.0 163.0
783	27.158 27.158
784	749.0 749.0
785	25.49 25.49
786	311.0 311.0
787	24.682 24.682
788	453.0 453.0
789	24.533 24.533
790	242.0 242.0
791	23.419 23.419
792	587.0 587.0
793	24.57 24.57
794	400.0 400.0
795	26.401 26.401
796	381.0 381.0
797	28.248 28.248
798	603.0 603.0
799	25.495 25.495
800	195.0 195.0
801	23.9 23.9
802	131.0 131.0
803	25.063 25.063
804	460.0 460.0
805	25.23 25.23
806	151.0 151.0
807	27.721 27.721
808	247.0 247.0
809	24.386 24.386
810	634.0 634.0
811	26.811 26.811
812	342.0 342.0
813	27.62 27.62
814	303.0 303.0
815	28.088 28.088
816	79.0 79.0
817	30.665 30.665
818	630.0 630.0
819	27.252 27.252
820	493.0 493.0
821	26.269 26.269
822	758.0 758.0
823	27.723 27.723
824	507.0 507.0
825	26.705 26.705
826	44.0 44.0
827	24.559 24.559
828	704.0 704.0
829	26.016 26.016
830	224.0 224.0
831	26.575 26.575
832	416.0 416.0
833	26.653 26.653
834	678.0 678.0
835	26.195 26.195
836	762.0 762.0
837	26.034 26.034
838	150.0 150.0
839	23.692 23.692
840	537.0 537.0
841	27.494 27.494
842	670.0 670.0
843	27.007 27.007
844	423.0 423.0
845	26.153 26.153
846	474.0 474.0
847	28.103 28.103
848	354.0 354.0
849	29.602 29.602
850	739.0 739.0
851	30.424 30.424
852	479.0 479.0
853	23.866 23.866
854	695.0 695.0
855	25.594 25.594
856	63.0 63.0
857	25.545 25.545
858	671.0 671.0
859	30.785 30.785
860	433.0 433.0
861	28.535 28.535
862	112.0 112.0
863	24.011 24.011
864	622.0 622.0
865	28.06 28.06
866	393.0 393.0
867	26.476 26.476
868	221.0 221.0
869	27.026 27.026
870	586.0 586.0
871	25.017 25.017
872	269.0 269.0
873	25.94 25.94
874	283.0 283.0
875	27.098 27.098
876	434.0 434.0
877	24.023 24.023
878	364.0 364.0
879	25.87 25.87
880	678.0 678.0
881	26.17 26.17
882	40.0 40.0
883	27.042 27.042
884	383.0 383.0
885	36.694 36.694
886	434.0 434.0
887	26.341 26.341
888	294.0 294.0
889	27.266 27.266
890	792.0 792.0
891	26.492 26.492
892	454.0 454.0
893	28.321 28.321
894	426.0 426.0
895	26.956 26.956
896	625.0 625.0
897	23.15 23.15
898	150.0 150.0
899	34.023 34.023
900	39.0 39.0
901	28.14 28.14
902	678.0 678.0
903	27.002 27.002
904	774.0 774.0
905	26.529 26.529
906	163.0 163.0
907	33.037 33.037
908	44.0 44.0
909	26.78 26.78
910	359.0 359.0
911	23.255 23.255
912	153.0 153.0
913	31.03 31.03
914	502.0 502.0
915	25.978 25.978
916	735.0 735.0
917	23.21 23.21
918	686.0 686.0
919	30.029 30.029
920	498.0 498.0
921	25.926 25.926
922	160.0 160.0
923	25.574 25.574
924	258.0 258.0
925	25.176 25.176
926	363.0 363.0
927	27.945 27.945
928	294.0 294.0
929	26.068 26.068
930	102.0 102.0
931	28.627 28.627
932	632.0 632.0
933	26.799 26.799
934	97.0 97.0
935	26.849 26.849
936	561.0 561.0
937	37.861 37.861
938	669.0 669.0
939	25.304 25.304
940	314.0 314.0
941	27.217 27.217
942	158.0 158.0
943	41.335 41.335
944	624.0 624.0
945	24.757 24.757
946	307.0 307.0
947	33.364 33.364
948	537.0 537.0
949	28.249 28.249
950	693.0 693.0
951	27.319 27.319
952	304.0 304.0
953	27.565 27.565
954	603.0 603.0
955	25.741 25.741
956	253.0 253.0
957	28.625 28.625
958	720.0 720.0
959	26.396 26.396
960	587.0 587.0
961	23.635 23.635
962	194.0 194.0
963	25.444 25.444
964	395.0 395.0
965	25.875 25.875
966	500.0 500.0
967	26.901 26.901
968	579.0 579.0
969	24.058 24.058
970	283.0 283.0
971	30.951 30.951
972	676.0 676.0
973	22.762 22.762
974	326.0 326.0
975	29.232 29.232
976	71.0 71.0
977	23.615 23.615
978	101.0 101.0
979	30.168 30.168
980	832.0 832.0
981	24.835 24.835
982	462.0 462.0
983	28.628 28.628
984	192.0 192.0
985	26.645 26.645
986	590.0 590.0
987	32.168 32.168
988	822.0 822.0
989	23.672 23.672
990	156.0 156.0
991	30.519 30.519
992	227.0 227.0
993	31.052 31.052
994	511.0 511.0
995	34.876 34.876
996	389.0 389.0
997	30.428 30.428
998	578.0 578.0
999	23.497 23.497
1000	392.0 392.0
1001	22.856 22.856
1002	566.0 566.0
1003	27.052 27.052
1004	515.0 515.0
1005	27.45 27.45
1006	832.0 832.0
1007	26.774 26.774
1008	108.0 108.0
1009	24.49 24.49
1010	426.0 426.0
1011	26.952 26.952
1012	111.0 111.0
1013	25.807 25.807
1014	223.0 223.0
1015	26.462 26.462
1016	726.0 726.0
1017	26.795 26.795
1018	373.0 373.0
1019	22.849 22.849
1020	511.0 511.0
1021	34.312 34.312
1022	341.0 341.0
1023	28.995 28.995
1024	684.0 684.0
1025	27.202 27.202
1026	197.0 197.0
1027	30.633 30.633
1028	837.0 837.0
1029	34.67 34.67
1030	82.0 82.0
1031	26.974 26.974
1032	59.0 59.0
1033	25.849 25.849
1034	371.0 371.0
1035	34.516 34.516
1036	319.0 319.0
1037	33.718 33.718
1038	209.0 209.0
1039	24.262 24.262
1040	342.0 342.0
1041	27.117 27.117
1042	809.0 809.0
1043	27.082 27.082
1044	265.0 265.0
1045	32.413 32.413
1046	738.0 738.0
1047	30.734 30.734
1048	153.0 153.0
1049	23.281 23.281
1050	88.0 88.0
1051	24.751 24.751
1052	227.0 227.0
1053	25.782 25.782
1054	607.0 607.0
1055	28.254 28.254
1056	558.0 558.0
1057	28.959 28.959
1058	807.0 807.0
1059	26.525 26.525
1060	817.0 817.0
1061	28.142 28.142
1062	176.0 176.0
1063	48.564 48.564
1064	690.0 690.0
1065	52.988 52.988
1066	148.0 148.0
1067	25.375 25.375
1068	299.0 299.0
1069	33.04 33.04
1070	526.0 526.0
1071	25.693 25.693
1072	379.0 379.0
1073	24.042 24.042
1074	558.0 558.0
1075	29.125 29.125
1076	134.0 134.0
1077	28.437 28.437
1078	508.0 508.0
1079	26.704 26.704
1080	58.0 58.0
1081	23.173 23.173
1082	274.0 274.0
1083	27.12 27.12
1084	656.0 656.0
1085	23.288 23.288
1086	298.0 298.0
1087	27.802 27.802
1088	360.0 360.0
1089	26.587 26.587
1090	707.0 707.0
1091	26.437 26.437
1092	767.0 767.0
1093	26.789 26.789
1094	719.0 719.0
1095	28.376 28.376
1096	422.0 422.0
1097	28.414 28.414
1098	641.0 641.0
1099	33.424 33.424
1100	157.0 157.0
1101	34.178 34.178
1102	335.0 335.0
1103	26.316 26.316
1104	744.0 744.0
1105	28.266 28.266
1106	598.0 598.0
1107	25.738 25.738
1108	352.0 352.0
1109	27.384 27.384
1110	55.0 55.0
1111	56.498 56.498
1112	577.0 577.0
1113	29.958 29.958
1114	335.0 335.0
1115	28.194 28.194
1116	505.0 505.0
1117	31.722 31.722
1118	121.0 121.0
1119	85.688 85.688
1120	777.0 777.0
1121	22.87 22.87
1122	704.0 704.0
1123	26.88 26.88
1124	440.0 440.0
1125	27.546 27.546
1126	728.0 728.0
1127	40.098 40.098
1128	147.0 147.0
1129	23.543 23.543
1130	174.0 174.0
1131	71.994 71.994
1132	45.0 45.0
1133	27.537 27.537
1134	326.0 326.0
1135	26.485 26.485
1136	414.0 414.0
1137	23.551 23.551
1138	273.0 273.0
1139	33.583 33.583
1140	679.0 679.0
1141	24.11 24.11
1142	365.0 365.0
1143	24.904 24.904
1144	220.0 220.0
1145	26.21 26.21
1146	842.0 842.0
1147	27.286 27.286
1148	755.0 755.0
1149	25.707 25.707
1150	797.0 797.0
1151	24.715 24.715
1152	460.0 460.0
1153	24.692 24.692
1154	358.0 358.0
1155	22.848 22.848
1156	517.0 517.0
1157	28.301 28.301
1158	636.0 636.0
1159	30.238 30.238
1160	393.0 393.0
1161	25.663 25.663
1162	397.0 397.0
1163	28.643 28.643
1164	71.0 71.0
1165	32.704 32.704
1166	551.0 551.0
1167	26.499 26.499
1168	781.0 781.0
1169	27.111 27.111
1170	365.0 365.0
1171	26.542 26.542
1172	304.0 304.0
1173	26.763 26.763
1174	105.0 105.0
1175	27.063 27.063
1176	554.0 554.0
1177	25.099 25.099
1178	703.0 703.0
1179	23.841 23.841
1180	413.0 413.0
1181	33.866 33.866
1182	328.0 328.0
1183	24.363 24.363
1184	321.0 321.0
1185	25.201 25.201
1186	395.0 395.0
1187	28.874 28.874
1188	621.0 621.0
1189	28.508 28.508
1190	559.0 559.0
1191	24.558 24.558
1192	372.0 372.0
1193	26.121 26.121
1194	659.0 659.0
1195	26.347 26.347
1196	577.0 577.0
1197	27.143 27.143
1198	71.0 71.0
1199	27.011 27.011
1200	523.0 523.0
1201	69.296 69.296
1202	414.0 414.0
1203	47.583 47.583
1204	379.0 379.0
1205	24.838 24.838
1206	265.0 265.0
1207	27.516 27.516
1208	824.0 824.0
1209	33.179 33.179
1210	653.0 653.0
1211	26.709 26.709
1212	835.0 835.0
1213	59.558 59.558
1214	797.0 797.0
1215	25.821 25.821
1216	610.0 610.0
1217	41.93 41.93
1218	432.0 432.0
1219	27.944 27.944
1220	456.0 456.0
1221	25.751 25.751
1222	591.0 591.0
1223	26.653 26.653
1224	696.0 696.0
1225	25.948 25.948
1226	437.0 437.0
1227	27.349 27.349
1228	523.0 523.0
1229	25.328 25.328
1230	81.0 81.0
1231	26.352 26.352
1232	722.0 722.0
1233	26.659 26.659
1234	189.0 189.0
1235	26.021 26.021
1236	296.0 296.0
1237	27.253 27.253
1238	680.0 680.0
1239	26.813 26.813
1240	322.0 322.0
1241	25.816 25.816
1242	703.0 703.0
1243	63.545 63.545
1244	788.0 788.0
1245	64.857 64.857
1246	366.0 366.0
1247	33.32 33.32
1248	674.0 674.0
1249	28.021 28.021
1250	740.0 740.0
1251	72.681 72.681
1252	507.0 507.0
1253	78.397 78.397
1254	304.0 304.0
1255	25.92 25.92
1256	669.0 669.0
1257	35.2 35.2
1258	693.0 693.0
1259	25.427 25.427
1260	699.0 699.0
1261	23.479 23.479
1262	192.0 192.0
1263	34.007 34.007
1264	703.0 703.0
1265	26.063 26.063
1266	649.0 649.0
1267	25.946 25.946
1268	464.0 464.0
1269	26.339 26.339
1270	287.0 287.0
1271	35.507 35.507
1272	302.0 302.0
1273	27.88 27.88
1274	94.0 94.0
1275	25.381 25.381
1276	652.0 652.0
1277	24.238 24.238
1278	816.0 816.0
1279	25.582 25.582
1280	594.0 594.0
1281	39.795 39.795
1282	635.0 635.0
1283	24.877 24.877
1284	206.0 206.0
1285	34.605 34.605
1286	699.0 699.0
1287	26.46 26.46
1288	723.0 723.0
1289	25.642 25.642
1290	354.0 354.0
1291	24.69 24.69
1292	692.0 692.0
1293	25.684 25.684
1294	769.0 769.0
1295	28.903 28.903
1296	433.0 433.0
1297	35.595 35.595
1298	50.0 50.0
1299	24.859 24.859
1300	497.0 497.0
1301	27.142 27.142
1302	173.0 173.0
1303	25.628 25.628
1304	797.0 797.0
1305	24.219 24.219
1306	185.0 185.0
1307	24.083 24.083
1308	816.0 816.0
1309	31.302 31.302
1310	628.0 628.0
1311	31.711 31.711
1312	612.0 612.0
1313	36.277 36.277
1314	689.0 689.0
1315	28.924 28.924
1316	335.0 335.0
1317	26.403 26.403
1318	458.0 458.0
1319	28.011 28.011
1320	454.0 454.0
1321	41.68 41.68
1322	794.0 794.0
1323	25.657 25.657
1324	228.0 228.0
1325	26.386 26.386
1326	318.0 318.0
1327	24.126 24.126
1328	289.0 289.0
1329	27.144 27.144
1330	539.0 539.0
1331	32.57 32.57
1332	720.0 720.0
1333	26.017 26.017
1334	348.0 348.0
1335	25.085 25.085
1336	313.0 313.0
1337	31.692 31.692
1338	837.0 837.0
1339	31.198 31.198
1340	345.0 345.0
1341	31.306 31.306
1342	221.0 221.0
1343	33.353 33.353
1344	259.0 259.0
1345	27.467 27.467
1346	609.0 609.0
1347	23.78 23.78
1348	457.0 457.0
1349	25.461 25.461
1350	631.0 631.0
1351	24.643 24.643
1352	62.0 62.0
1353	38.332 38.332
1354	416.0 416.0
1355	23.279 23.279
1356	355.0 355.0
1357	23.466 23.466
1358	166.0 166.0
1359	27.581 27.581
1360	674.0 674.0
1361	25.041 25.041
1362	558.0 558.0
1363	24.472 24.472
1364	315.0 315.0
1365	24.577 24.577
1366	320.0 320.0
1367	27.754 27.754
1368	232.0 232.0
1369	24.407 24.407
1370	772.0 772.0
1371	25.0 25.0
1372	811.0 811.0
1373	28.705 28.705
1374	310.0 310.0
1375	23.085 23.085
1376	103.0 103.0
1377	24.289 24.289
1378	268.0 268.0
1379	27.061 27.061
1380	646.0 646.0
1381	32.369 32.369
1382	257.0 257.0
1383	23.567 23.567
1384	488.0 488.0
1385	29.919 29.919
1386	671.0 671.0
1387	31.884 31.884
1388	339.0 339.0
1389	28.255 28.255
1390	649.0 649.0
1391	24.366 24.366
1392	435.0 435.0
1393	29.84 29.84
1394	355.0 355.0
1395	24.686 24.686
1396	299.0 299.0
1397	33.446 33.446
1398	400.0 400.0
1399	28.981 28.981
1400	424.0 424.0
1401	25.187 25.187
1402	777.0 777.0
1403	30.579 30.579
1404	670.0 670.0
1405	33.314 33.314
1406	262.0 262.0
1407	32.328 32.328
1408	491.0 491.0
1409	25.138 25.138
1410	775.0 775.0
1411	28.735 28.735
1412	700.0 700.0
1413	23.884 23.884
1414	340.0 340.0
1415	29.472 29.472
1416	540.0 540.0
1417	28.613 28.613
1418	363.0 363.0
1419	29.021 29.021
1420	696.0 696.0
1421	24.168 24.168
1422	556.0 556.0
1423	24.489 24.489
1424	355.0 355.0
1425	26.721 26.721
1426	771.0 771.0
1427	24.712 24.712
1428	527.0 527.0
1429	23.905 23.905
1430	496.0 496.0
1431	23.235 23.235
1432	570.0 570.0
1433	24.676 24.676
1434	479.0 479.0
1435	31.839 31.839
1436	478.0 478.0
1437	28.608 28.608
1438	739.0 739.0
1439	28.676 28.676
1440	262.0 262.0
1441	36.842 36.842
1442	601.0 601.0
1443	23.216 23.216
1444	639.0 639.0
1445	25.27 25.27
1446	562.0 562.0
1447	28.617 28.617
1448	726.0 726.0
1449	33.499 33.499
1450	551.0 551.0
1451	30.261 30.261
1452	453.0 453.0
1453	28.479 28.479
1454	136.0 136.0
1455	26.507 26.507
1456	443.0 443.0
1457	29.342 29.342
1458	440.0 440.0
1459	23.461 23.461
1460	165.0 165.0
1461	23.451 23.451
1462	554.0 554.0
1463	27.153 27.153
1464	731.0 731.0
1465	26.24 26.24
1466	70.0 70.0
1467	31.969 31.969
1468	779.0 779.0
1469	26.491 26.491
1470	189.0 189.0
1471	25.849 25.849
1472	437.0 437.0
1473	26.853 26.853
1474	99.0 99.0
1475	27.298 27.298
1476	794.0 794.0
1477	24.299 24.299
1478	603.0 603.0
1479	25.514 25.514
1480	264.0 264.0
1481	25.855 25.855
1482	288.0 288.0
1483	25.518 25.518
1484	523.0 523.0
1485	24.425 24.425
1486	840.0 840.0
1487	23.219 23.219
1488	599.0 599.0
1489	25.359 25.359
1490	50.0 50.0
1491	27.485 27.485
1492	375.0 375.0
1493	23.566 23.566
1494	398.0 398.0
1495	27.378 27.378
1496	215.0 215.0
1497	24.589 24.589
1498	624.0 624.0
1499	26.902 26.902
1500	250.0 250.0
1501	24.244 24.244
1502	770.0 770.0
1503	24.888 24.888
1504	189.0 189.0
1505	24.915 24.915
1506	80.0 80.0
1507	26.771 26.771
1508	387.0 387.0
1509	28.098 28.098
1510	56.0 56.0
1511	26.821 26.821
1512	628.0 628.0
1513	23.161 23.161
1514	600.0 600.0
1515	23.587 23.587
1516	704.0 704.0
1517	26.365 26.365
1518	404.0 404.0
1519	28.436 28.436
1520	694.0 694.0
1521	26.721 26.721
1522	729.0 729.0
1523	34.546 34.546
1524	113.0 113.0
1525	32.558 32.558
1526	154.0 154.0
1527	25.369 25.369
1528	394.0 394.0
1529	32.194 32.194
1530	652.0 652.0
1531	27.092 27.092
1532	549.0 549.0
1533	36.466 36.466
1534	662.0 662.0
1535	23.84 23.84
1536	538.0 538.0
1537	22.904 22.904
1538	67.0 67.0
1539	27.854 27.854
1540	393.0 393.0
1541	28.808 28.808
1542	97.0 97.0
1543	23.851 23.851
1544	132.0 132.0
1545	26.598 26.598
1546	413.0 413.0
1547	28.154 28.154
1548	682.0 682.0
1549	28.859 28.859
1550	531.0 531.0
1551	25.88 25.88
1552	645.0 645.0
1553	24.3 24.3
1554	487.0 487.0
1555	25.511 25.511
1556	250.0 250.0
1557	24.864 24.864
1558	119.0 119.0
1559	37.984 37.984
1560	441.0 441.0
1561	23.16 23.16
1562	704.0 704.0
1563	23.222 23.222
1564	142.0 142.0
1565	26.093 26.093
1566	524.0 524.0
1567	28.868 28.868
1568	392.0 392.0
1569	27.267 27.267
1570	166.0 166.0
1571	29.787 29.787
1572	57.0 57.0
1573	31.975 31.975
1574	631.0 631.0
1575	26.221 26.221
1576	636.0 636.0
1577	33.971 33.971
1578	261.0 261.0
1579	25.801 25.801
1580	141.0 141.0
1581	37.144 37.144
1582	429.0 429.0
1583	25.621 25.621
1584	136.0 136.0
1585	46.664 46.664
1586	843.0 843.0
1587	29.772 29.772
1588	183.0 183.0
1589	25.776 25.776
1590	265.0 265.0
1591	36.503 36.503
1592	122.0 122.0
1593	29.517 29.517
1594	558.0 558.0
1595	22.924 22.924
1596	683.0 683.0
1597	27.006 27.006
1598	128.0 128.0
1599	35.504 35.504
1600	839.0 839.0
1601	29.603 29.603
1602	188.0 188.0
1603	29.376 29.376
1604	458.0 458.0
1605	27.051 27.051
1606	389.0 389.0
1607	26.326 26.326
1608	643.0 643.0
1609	35.163 35.163
1610	609.0 609.0
1611	28.06 28.06
1612	444.0 444.0
1613	29.06 29.06
1614	122.0 122.0
1615	24.362 24.362
1616	246.0 246.0
1617	35.627 35.627
1618	418.0 418.0
1619	34.684 34.684
1620	630.0 630.0
1621	24.66 24.66
1622	774.0 774.0
1623	26.224 26.224
1624	559.0 559.0
1625	26.79 26.79
1626	188.0 188.0
1627	29.041 29.041
1628	40.0 40.0
1629	25.375 25.375
1630	111.0 111.0
1631	25.881 25.881
1632	446.0 446.0
1633	27.856 27.856
1634	39.0 39.0
1635	26.412 26.412
1636	407.0 407.0
1637	23.207 23.207
1638	118.0 118.0
1639	35.079 35.079
1640	466.0 466.0
1641	24.297 24.297
1642	507.0 507.0
1643	23.51 23.51
1644	397.0 397.0
1645	23.704 23.704
1646	447.0 447.0
1647	27.715 27.715
1648	70.0 70.0
1649	28.379 28.379
1650	277.0 277.0
1651	25.789 25.789
1652	691.0 691.0
1653	28.957 28.957
1654	115.0 115.0
1655	26.966 26.966
1656	110.0 110.0
1657	26.472 26.472
1658	319.0 319.0
1659	27.091 27.091
1660	762.0 762.0
1661	29.875 29.875
1662	793.0 793.0
1663	28.203 28.203
1664	273.0 273.0
1665	25.449 25.449
1666	372.0 372.0
1667	28.277 28.277
1668	566.0 566.0
1669	28.813 28.813
1670	621.0 621.0
1671	26.995 26.995
1672	602.0 602.0
1673	26.236 26.236
1674	118.0 118.0
1675	23.589 23.589
1676	711.0 711.0
1677	24.265 24.265
1678	353.0 353.0
1679	25.129 25.129
1680	714.0 714.0
1681	24.879 24.879
1682	663.0 663.0
1683	23.931 23.931
1684	332.0 332.0
1685	25.82 25.82
1686	735.0 735.0
1687	23.492 23.492
1688	802.0 802.0
1689	29.457 29.457
1690	377.0 377.0
1691	23.681 23.681
1692	459.0 459.0
1693	30.686 30.686
1694	54.0 54.0
1695	34.153 34.153
1696	39.0 39.0
1697	23.346 23.346
1698	502.0 502.0
1699	32.741 32.741
1700	225.0 225.0
1701	25.661 25.661
1702	316.0 316.0
1703	26.972 26.972
1704	98.0 98.0
1705	24.346 24.346
1706	816.0 816.0
1707	25.126 25.126
1708	289.0 289.0
1709	26.728 26.728
1710	662.0 662.0
1711	24.761 24.761
1712	807.0 807.0
1713	27.912 27.912
1714	37.0 37.0
1715	32.946 32.946
1716	102.0 102.0
1717	26.601 26.601
1718	321.0 321.0
1719	28.029 28.029
1720	167.0 167.0
1721	27.858 27.858
1722	83.0 83.0
1723	24.698 24.698
1724	590.0 590.0
1725	24.108 24.108
1726	640.0 640.0
1727	23.52 23.52
1728	688.0 688.0
1729	27.95 27.95
1730	82.0 82.0
1731	23.822 23.822
1732	266.0 266.0
1733	27.986 27.986
1734	771.0 771.0
1735	25.211 25.211
1736	319.0 319.0
1737	36.705 36.705
1738	584.0 584.0
1739	32.043 32.043
1740	63.0 63.0
1741	34.561 34.561
1742	446.0 446.0
1743	33.292 33.292
1744	508.0 508.0
1745	22.991 22.991
1746	705.0 705.0
1747	23.124 23.124
1748	257.0 257.0
1749	23.782 23.782
1750	411.0 411.0
1751	28.66 28.66
1752	44.0 44.0
1753	23.061 23.061
1754	448.0 448.0
1755	25.637 25.637
1756	506.0 506.0
1757	23.54 23.54
1758	105.0 105.0
1759	28.748 28.748
1760	377.0 377.0
1761	23.169 23.169
1762	101.0 101.0
1763	23.81 23.81
1764	642.0 642.0
1765	24.017 24.017
1766	728.0 728.0
1767	28.179 28.179
1768	105.0 105.0
1769	24.496 24.496
1770	781.0 781.0
1771	26.043 26.043
1772	296.0 296.0
1773	24.687 24.687
1774	567.0 567.0
1775	25.007 25.007
1776	431.0 431.0
1777	25.79 25.79
1778	393.0 393.0
1779	26.233 26.233
1780	393.0 393.0
1781	25.041 25.041
1782	427.0 427.0
1783	24.175 24.175
1784	411.0 411.0
1785	25.471 25.471
1786	221.0 221.0
1787	25.712 25.712
1788	340.0 340.0
1789	27.224 27.224
1790	99.0 99.0
1791	25.417 25.417
1792	213.0 213.0
1793	28.637 28.637
1794	270.0 270.0
1795	24.434 24.434
1796	797.0 797.0
1797	26.239 26.239
1798	842.0 842.0
1799	28.21 28.21
1800	75.0 75.0
1801	30.368 30.368
1802	322.0 322.0
1803	35.931 35.931
1804	294.0 294.0
1805	25.362 25.362
1806	502.0 502.0
1807	23.921 23.921
1808	275.0 275.0
1809	36.005 36.005
1810	538.0 538.0
1811	31.416 31.416
1812	619.0 619.0
1813	34.123 34.123
1814	577.0 577.0
1815	26.036 26.036
1816	386.0 386.0
1817	25.972 25.972
1818	576.0 576.0
1819	23.899 23.899
1820	347.0 347.0
1821	25.164 25.164
1822	634.0 634.0
1823	26.869 26.869
1824	143.0 143.0
1825	103.557 103.557
1826	65.0 65.0
1827	202.282 202.282
1828	344.0 344.0
1829	201.794 201.794
1830	521.0 521.0
1831	31.362 31.362
1832	81.0 81.0
1833	44.709 44.709
1834	394.0 394.0
1835	23.676 23.676
1836	172.0 172.0
1837	25.013 25.013
1838	810.0 810.0
1839	160.676 160.676
1840	610.0 610.0
1841	27.345 27.345
1842	466.0 466.0
1843	160.323 160.323
1844	591.0 591.0
1845	24.015 24.015
1846	286.0 286.0
1847	31.805 31.805
1848	468.0 468.0
1849	31.584 31.584
1850	242.0 242.0
1851	29.621 29.621
1852	481.0 481.0
1853	25.136 25.136
1854	94.0 94.0
1855	26.433 26.433
1856	241.0 241.0
1857	30.415 30.415
1858	366.0 366.0
1859	23.452 23.452
1860	631.0 631.0
1861	23.67 23.67
1862	560.0 560.0
1863	23.767 23.767
1864	784.0 784.0
1865	31.465 31.465
1866	193.0 193.0
1867	24.466 24.466
1868	139.0 139.0
1869	37.234 37.234
1870	394.0 394.0
1871	32.493 32.493
1872	400.0 400.0
1873	23.78 23.78
1874	590.0 590.0
1875	24.404 24.404
1876	214.0 214.0
1877	22.888 22.888
1878	393.0 393.0
1879	23.848 23.848
1880	299.0 299.0
1881	31.802 31.802
1882	790.0 790.0
1883	25.342 25.342
1884	584.0 584.0
1885	23.726 23.726
1886	388.0 388.0
1887	25.313 25.313
1888	399.0 399.0
1889	24.568 24.568
1890	285.0 285.0
1891	24.004 24.004
1892	155.0 155.0
1893	25.656 25.656
1894	227.0 227.0
1895	25.973 25.973
1896	842.0 842.0
1897	25.005 25.005
1898	97.0 97.0
1899	24.486 24.486
1900	245.0 245.0
1901	34.624 34.624
1902	842.0 842.0
1903	185.314 185.314
1904	87.0 87.0
1905	33.562 33.562
1906	757.0 757.0
1907	25.465 25.465
1908	348.0 348.0
1909	26.658 26.658
1910	314.0 314.0
1911	25.414 25.414
1912	423.0 423.0
1913	32.172 32.172
1914	237.0 237.0
1915	32.079 32.079
1916	174.0 174.0
1917	28.957 28.957
1918	54.0 54.0
1919	35.611 35.611
1920	356.0 356.0
1921	31.321 31.321
1922	130.0 130.0
1923	23.42 23.42
1924	165.0 165.0
1925	29.638 29.638
1926	140.0 140.0
1927	25.925 25.925
1928	232.0 232.0
1929	23.406 23.406
1930	295.0 295.0
1931	166.437 166.437
1932	74.0 74.0
1933	162.943 162.943
1934	536.0 536.0
1935	24.626 24.626
1936	166.0 166.0
1937	27.416 27.416
1938	189.0 189.0
1939	30.026 30.026
1940	588.0 588.0
1941	117.715 117.715
1942	356.0 356.0
1943	28.739 28.739
1944	157.0 157.0
1945	148.684 148.684
1946	791.0 791.0
1947	180.683 180.683
1948	792.0 792.0
1949	24.899 24.899
1950	179.0 179.0
1951	25.948 25.948
1952	221.0 221.0
1953	24.172 24.172
1954	582.0 582.0
1955	23.501 23.501
1956	246.0 246.0
1957	25.22 25.22
1958	435.0 435.0
1959	22.609 22.609
1960	68.0 68.0
1961	211.832 211.832
1962	194.0 194.0
1963	30.628 30.628
1964	441.0 441.0
1965	48.864 48.864
1966	399.0 399.0
1967	24.774 24.774
1968	739.0 739.0
1969	185.025 185.025
1970	198.0 198.0
1971	175.809 175.809
1972	799.0 799.0
1973	28.372 28.372
1974	586.0 586.0
1975	25.33 25.33
1976	166.0 166.0
1977	35.074 35.074
1978	131.0 131.0
1979	138.219 138.219
1980	688.0 688.0
1981	25.747 25.747
1982	305.0 305.0
1983	25.952 25.952
1984	716.0 716.0
1985	28.102 28.102
1986	402.0 402.0
1987	27.126 27.126
1988	822.0 822.0
1989	26.544 26.544
1990	400.0 400.0
1991	25.982 25.982
1992	469.0 469.0
1993	26.024 26.024
1994	646.0 646.0
1995	27.294 27.294
1996	96.0 96.0
1997	26.865 26.865
1998	358.0 358.0
1999	26.771 26.771
2000	764.0 764.0
2001	28.412 28.412
2002	624.0 624.0
2003	32.693 32.693
2004	243.0 243.0
2005	29.292 29.292
2006	383.0 383.0
2007	27.921 27.921
2008	80.0 80.0
2009	24.785 24.785
2010	382.0 382.0
2011	31.721 31.721
2012	749.0 749.0
2013	25.146 25.146
2014	757.0 757.0
2015	26.606 26.606
2016	682.0 682.0
2017	29.415 29.415
2018	404.0 404.0
2019	26.909 26.909
2020	569.0 569.0
2021	26.513 26.513
2022	393.0 393.0
2023	26.484 26.484
2024	530.0 530.0
2025	27.806 27.806
2026	95.0 95.0
2027	27.219 27.219
2028	333.0 333.0
2029	23.495 23.495
2030	94.0 94.0
2031	24.554 24.554
2032	459.0 459.0
2033	25.534 25.534
2034	266.0 266.0
2035	23.278 23.278
2036	832.0 832.0
2037	23.762 23.762
2038	730.0 730.0
2039	23.058 23.058
2040	483.0 483.0
2041	23.405 23.405
2042	648.0 648.0
2043	25.723 25.723
2044	661.0 661.0
2045	24.034 24.034
2046	403.0 403.0
2047	23.503 23.503
2048	589.0 589.0
2049	24.32 24.32
2050	64.0 64.0
2051	23.042 23.042
2052	312.0 312.0
2053	23.42 23.42
2054	644.0 644.0
2055	26.538 26.538
2056	738.0 738.0
2057	27.729 27.729
2058	414.0 414.0
2059	25.599 25.599
2060	73.0 73.0
2061	26.185 26.185
2062	242.0 242.0
2063	26.721 26.721
2064	741.0 741.0
2065	24.25 24.25
2066	687.0 687.0
2067	29.794 29.794
2068	324.0 324.0
2069	27.092 27.092
2070	528.0 528.0
2071	25.151 25.151
2072	804.0 804.0
2073	32.974 32.974
2074	260.0 260.0
2075	34.679 34.679
2076	487.0 487.0
2077	32.467 32.467
2078	63.0 63.0
2079	31.62 31.62
2080	737.0 737.0
2081	33.783 33.783
2082	792.0 792.0
2083	24.128 24.128
2084	369.0 369.0
2085	27.271 27.271
2086	408.0 408.0
2087	27.015 27.015
2088	596.0 596.0
2089	24.288 24.288
2090	336.0 336.0
2091	25.799 25.799
2092	239.0 239.0
2093	24.308 24.308
2094	414.0 414.0
2095	24.877 24.877
2096	150.0 150.0
2097	23.762 23.762
2098	55.0 55.0
2099	26.327 26.327
2100	632.0 632.0
2101	26.695 26.695
2102	431.0 431.0
2103	25.19 25.19
2104	800.0 800.0
2105	33.717 33.717
2106	87.0 87.0
2107	29.565 29.565
2108	695.0 695.0
2109	24.281 24.281
2110	221.0 221.0
2111	24.69 24.69
2112	720.0 720.0
2113	24.428 24.428
2114	388.0 388.0
2115	34.259 34.259
2116	149.0 149.0
2117	30.804 30.804
2118	549.0 549.0
2119	28.113 28.113
2120	581.0 581.0
2121	26.391 26.391
2122	317.0 317.0
2123	23.341 23.341
2124	708.0 708.0
2125	33.224 33.224
2126	205.0 205.0
2127	31.57 31.57
2128	641.0 641.0
2129	25.796 25.796
2130	795.0 795.0
2131	27.892 27.892
2132	356.0 356.0
2133	28.203 28.203
2134	401.0 401.0
2135	27.017 27.017
2136	555.0 555.0
2137	23.161 23.161
2138	145.0 145.0
2139	29.073 29.073
2140	579.0 579.0
2141	26.096 26.096
2142	598.0 598.0
2143	27.861 27.861
2144	715.0 715.0
2145	26.907 26.907
2146	613.0 613.0
2147	23.673 23.673
2148	578.0 578.0
2149	25.704 25.704
2150	359.0 359.0
2151	23.292 23.292
2152	47.0 47.0
2153	24.571 24.571
2154	834.0 834.0
2155	26.626 26.626
2156	58.0 58.0
2157	28.041 28.041
2158	196.0 196.0
2159	28.714 28.714
2160	299.0 299.0
2161	27.993 27.993
2162	737.0 737.0
2163	26.899 26.899
2164	415.0 415.0
2165	32.641 32.641
2166	788.0 788.0
2167	29.113 29.113
2168	115.0 115.0
2169	29.436 29.436
2170	306.0 306.0
2171	24.04 24.04
2172	460.0 460.0
2173	24.994 24.994
2174	651.0 651.0
2175	26.148 26.148
2176	471.0 471.0
2177	29.599 29.599
2178	113.0 113.0
2179	23.557 23.557
2180	559.0 559.0
2181	29.284 29.284
2182	830.0 830.0
2183	26.557 26.557
2184	146.0 146.0
2185	23.812 23.812
2186	487.0 487.0
2187	26.263 26.263
2188	449.0 449.0
2189	25.228 25.228
2190	295.0 295.0
2191	25.034 25.034
2192	386.0 386.0
2193	30.865 30.865
2194	743.0 743.0
2195	22.79 22.79
2196	219.0 219.0
2197	23.236 23.236
2198	693.0 693.0
2199	23.614 23.614
2200	210.0 210.0
2201	27.41 27.41
2202	747.0 747.0
2203	25.541 25.541
2204	735.0 735.0
2205	26.356 26.356
2206	653.0 653.0
2207	31.025 31.025
2208	421.0 421.0
2209	28.926 28.926
2210	620.0 620.0
2211	31.312 31.312
2212	307.0 307.0
2213	29.446 29.446
2214	761.0 761.0
2215	28.396 28.396
2216	221.0 221.0
2217	29.788 29.788
2218	687.0 687.0
2219	28.7 28.7
2220	202.0 202.0
2221	23.106 23.106
2222	178.0 178.0
2223	27.129 27.129
2224	528.0 528.0
2225	24.833 24.833
2226	107.0 107.0
2227	27.318 27.318
2228	379.0 379.0
2229	23.53 23.53
2230	534.0 534.0
2231	23.239 23.239
2232	182.0 182.0
2233	27.729 27.729
2234	648.0 648.0
2235	24.385 24.385
2236	536.0 536.0
2237	27.804 27.804
2238	373.0 373.0
2239	24.254 24.254
2240	120.0 120.0
2241	24.497 24.497
2242	842.0 842.0
2243	23.575 23.575
2244	178.0 178.0
2245	28.379 28.379
2246	346.0 346.0
2247	29.209 29.209
2248	404.0 404.0
2249	25.426 25.426
2250	742.0 742.0
2251	25.291 25.291
2252	731.0 731.0
2253	24.724 24.724
2254	476.0 476.0
2255	28.103 28.103
2256	102.0 102.0
2257	26.198 26.198
2258	769.0 769.0
2259	26.803 26.803
2260	809.0 809.0
2261	28.096 28.096
2262	569.0 569.0
2263	28.541 28.541
2264	376.0 376.0
2265	25.166 25.166
2266	713.0 713.0
2267	24.947 24.947
2268	137.0 137.0
2269	27.572 27.572
2270	349.0 349.0
2271	27.599 27.599
2272	145.0 145.0
2273	28.603 28.603
2274	467.0 467.0
2275	26.227 26.227
2276	377.0 377.0
2277	23.653 23.653
2278	214.0 214.0
2279	27.084 27.084
2280	714.0 714.0
2281	26.908 26.908
2282	169.0 169.0
2283	25.814 25.814
2284	65.0 65.0
2285	26.494 26.494
2286	508.0 508.0
2287	25.056 25.056
2288	420.0 420.0
2289	25.579 25.579
2290	633.0 633.0
2291	24.361 24.361
2292	44.0 44.0
2293	30.549 30.549
2294	171.0 171.0
2295	25.827 25.827
2296	325.0 325.0
2297	23.951 23.951
2298	683.0 683.0
2299	27.965 27.965
2300	687.0 687.0
2301	27.516 27.516
2302	78.0 78.0
2303	27.429 27.429
2304	140.0 140.0
2305	26.319 26.319
2306	66.0 66.0
2307	28.729 28.729
2308	717.0 717.0
2309	28.349 28.349
2310	708.0 708.0
2311	26.965 26.965
2312	822.0 822.0
2313	26.603 26.603
2314	800.0 800.0
2315	26.482 26.482
2316	254.0 254.0
2317	29.003 29.003
2318	148.0 148.0
2319	23.372 23.372
2320	767.0 767.0
2321	24.485 24.485
2322	730.0 730.0
2323	26.723 26.723
2324	295.0 295.0
2325	30.635 30.635
2326	47.0 47.0
2327	28.562 28.562
2328	506.0 506.0
2329	27.499 27.499
2330	375.0 375.0
2331	23.987 23.987
2332	281.0 281.0
2333	25.887 25.887
2334	285.0 285.0
2335	26.694 26.694
2336	605.0 605.0
2337	27.416 27.416
2338	544.0 544.0
2339	29.573 29.573
2340	339.0 339.0
2341	27.357 27.357
2342	548.0 548.0
2343	35.62 35.62
2344	396.0 396.0
2345	28.999 28.999
2346	750.0 750.0
2347	26.437 26.437
2348	79.0 79.0
2349	33.85 33.85
2350	354.0 354.0
2351	37.343 37.343
2352	642.0 642.0
2353	26.613 26.613
2354	524.0 524.0
2355	28.914 28.914
2356	329.0 329.0
2357	24.923 24.923
2358	544.0 544.0
2359	33.283 33.283
2360	556.0 556.0
2361	26.51 26.51
2362	809.0 809.0
2363	26.946 26.946
2364	361.0 361.0
2365	27.7 27.7
2366	288.0 288.0
2367	26.447 26.447
2368	343.0 343.0
2369	26.723 26.723
2370	358.0 358.0
2371	27.385 27.385
2372	643.0 643.0
2373	33.017 33.017
2374	677.0 677.0
2375	24.512 24.512
2376	71.0 71.0
2377	24.986 24.986
2378	652.0 652.0
2379	25.969 25.969
2380	746.0 746.0
2381	30.919 30.919
2382	326.0 326.0
2383	35.085 35.085
2384	577.0 577.0
2385	29.08 29.08
2386	640.0 640.0
2387	24.84 24.84
2388	524.0 524.0
2389	26.803 26.803
2390	271.0 271.0
2391	22.977 22.977
2392	420.0 420.0
2393	30.54 30.54
2394	396.0 396.0
2395	25.343 25.343
2396	742.0 742.0
2397	164.566 164.566
2398	291.0 291.0
2399	27.57 27.57
2400	394.0 394.0
2401	28.536 28.536
2402	578.0 578.0
2403	26.671 26.671
2404	60.0 60.0
2405	27.498 27.498
2406	36.0 36.0
2407	26.84 26.84
2408	393.0 393.0
2409	27.546 27.546
2410	153.0 153.0
2411	26.932 26.932
2412	514.0 514.0
2413	23.129 23.129
2414	712.0 712.0
2415	23.383 23.383
2416	494.0 494.0
2417	28.617 28.617
2418	148.0 148.0
2419	26.061 26.061
2420	230.0 230.0
2421	24.192 24.192
2422	687.0 687.0
2423	27.795 27.795
2424	55.0 55.0
2425	26.716 26.716
2426	321.0 321.0
2427	43.089 43.089
2428	493.0 493.0
2429	32.263 32.263
2430	778.0 778.0
2431	34.37 34.37
2432	483.0 483.0
2433	26.103 26.103
2434	626.0 626.0
2435	24.438 24.438
2436	675.0 675.0
2437	32.501 32.501
2438	120.0 120.0
2439	23.848 23.848
2440	611.0 611.0
2441	32.311 32.311
2442	309.0 309.0
2443	34.114 34.114
2444	835.0 835.0
2445	22.765 22.765
2446	438.0 438.0
2447	23.785 23.785
2448	288.0 288.0
2449	29.468 29.468
2450	641.0 641.0
2451	24.684 24.684
2452	836.0 836.0
2453	23.803 23.803
2454	697.0 697.0
2455	27.889 27.889
2456	400.0 400.0
2457	26.088 26.088
2458	704.0 704.0
2459	30.609 30.609
2460	763.0 763.0
2461	26.668 26.668
2462	295.0 295.0
2463	31.737 31.737
2464	469.0 469.0
2465	24.72 24.72
2466	647.0 647.0
2467	34.085 34.085
2468	157.0 157.0
2469	25.776 25.776
2470	679.0 679.0
2471	29.951 29.951
2472	552.0 552.0
2473	26.134 26.134
2474	780.0 780.0
2475	31.151 31.151
2476	714.0 714.0
2477	27.857 27.857
2478	604.0 604.0
2479	23.849 23.849
2480	578.0 578.0
2481	23.677 23.677
2482	554.0 554.0
2483	28.474 28.474
2484	47.0 47.0
2485	27.471 27.471
2486	45.0 45.0
2487	22.982 22.982
2488	192.0 192.0
2489	24.056 24.056
2490	760.0 760.0
2491	25.412 25.412
2492	176.0 176.0
2493	22.962 22.962
2494	674.0 674.0
2495	23.164 23.164
2496	745.0 745.0
2497	24.139 24.139
2498	172.0 172.0
2499	24.104 24.104
2500	726.0 726.0
2501	23.357 23.357
2502	635.0 635.0
2503	33.143 33.143
2504	435.0 435.0
2505	23.951 23.951
2506	478.0 478.0
2507	23.884 23.884
2508	477.0 477.0
2509	23.594 23.594
2510	302.0 302.0
2511	31.814 31.814
2512	711.0 711.0
2513	28.558 28.558
2514	796.0 796.0
2515	29.599 29.599
2516	548.0 548.0
2517	31.193 31.193
2518	312.0 312.0
2519	28.13 28.13
2520	719.0 719.0
2521	28.098 28.098
2522	391.0 391.0
2523	29.496 29.496
2524	809.0 809.0
2525	25.041 25.041
2526	689.0 689.0
2527	23.924 23.924
2528	128.0 128.0
2529	25.908 25.908
2530	676.0 676.0
2531	23.785 23.785
2532	171.0 171.0
2533	24.761 24.761
2534	146.0 146.0
2535	28.731 28.731
2536	79.0 79.0
2537	24.065 24.065
2538	246.0 246.0
2539	23.715 23.715
2540	378.0 378.0
2541	23.68 23.68
2542	394.0 394.0
2543	23.361 23.361
2544	396.0 396.0
2545	29.955 29.955
2546	366.0 366.0
2547	23.835 23.835
2548	446.0 446.0
2549	25.002 25.002
2550	794.0 794.0
2551	34.898 34.898
2552	543.0 543.0
2553	25.946 25.946
2554	267.0 267.0
2555	26.553 26.553
2556	839.0 839.0
2557	26.19 26.19
2558	205.0 205.0
2559	26.741 26.741
2560	439.0 439.0
2561	34.77 34.77
2562	269.0 269.0
2563	23.408 23.408
2564	555.0 555.0
2565	23.743 23.743
2566	337.0 337.0
2567	26.089 26.089
2568	135.0 135.0
2569	25.43 25.43
2570	288.0 288.0
2571	24.192 24.192
2572	343.0 343.0
2573	23.446 23.446
2574	829.0 829.0
2575	25.922 25.922
2576	838.0 838.0
2577	23.373 23.373
2578	735.0 735.0
2579	24.213 24.213
2580	422.0 422.0
2581	23.753 23.753
2582	158.0 158.0
2583	25.941 25.941
2584	167.0 167.0
2585	26.429 26.429
2586	271.0 271.0
2587	26.536 26.536
2588	256.0 256.0
2589	25.594 25.594
2590	97.0 97.0
2591	32.822 32.822
2592	725.0 725.0
2593	24.774 24.774
2594	767.0 767.0
2595	25.131 25.131
2596	438.0 438.0
2597	28.888 28.888
2598	206.0 206.0
2599	25.461 25.461
2600	511.0 511.0
2601	24.52 24.52
2602	629.0 629.0
2603	25.755 25.755
2604	49.0 49.0
2605	33.709 33.709
2606	305.0 305.0
2607	25.127 25.127
2608	89.0 89.0
2609	24.1 24.1
2610	448.0 448.0
2611	22.987 22.987
2612	166.0 166.0
2613	23.21 23.21
2614	645.0 645.0
2615	25.153 25.153
2616	748.0 748.0
2617	23.75 23.75
2618	808.0 808.0
2619	26.612 26.612
2620	768.0 768.0
2621	23.096 23.096
2622	552.0 552.0
2623	26.675 26.675
2624	664.0 664.0
2625	24.295 24.295
2626	336.0 336.0
2627	22.745 22.745
2628	739.0 739.0
2629	845.452 845.452
2630	462.0 462.0
2631	26.788 26.788
2632	151.0 151.0
2633	27.416 27.416
2634	271.0 271.0
2635	27.26 27.26
2636	598.0 598.0
2637	28.37 28.37
2638	48.0 48.0
2639	22.817 22.817
2640	253.0 253.0
2641	25.632 25.632
2642	364.0 364.0
2643	24.77 24.77
2644	103.0 103.0
2645	26.425 26.425
2646	778.0 778.0
2647	23.047 23.047
2648	426.0 426.0
2649	24.813 24.813
2650	127.0 127.0
2651	22.867 22.867
2652	139.0 139.0
2653	36.689 36.689
2654	625.0 625.0
2655	29.083 29.083
2656	461.0 461.0
2657	27.459 27.459
2658	649.0 649.0
2659	32.765 32.765
2660	808.0 808.0
2661	38.367 38.367
2662	339.0 339.0
2663	36.855 36.855
2664	414.0 414.0
2665	28.706 28.706
2666	773.0 773.0
2667	40.612 40.612
2668	383.0 383.0
2669	34.681 34.681
2670	210.0 210.0
2671	23.327 23.327
2672	427.0 427.0
2673	31.588 31.588
2674	440.0 440.0
2675	23.549 23.549
2676	123.0 123.0
2677	24.791 24.791
2678	665.0 665.0
2679	23.725 23.725
2680	827.0 827.0
2681	23.767 23.767
2682	688.0 688.0
2683	24.924 24.924
2684	660.0 660.0
2685	25.59 25.59
2686	284.0 284.0
2687	23.555 23.555
2688	401.0 401.0
2689	29.555 29.555
2690	124.0 124.0
2691	24.869 24.869
2692	767.0 767.0
2693	28.974 28.974
2694	491.0 491.0
2695	26.411 26.411
2696	450.0 450.0
2697	27.675 27.675
2698	490.0 490.0
2699	31.117 31.117
2700	598.0 598.0
2701	23.35 23.35
2702	546.0 546.0
2703	25.138 25.138
2704	210.0 210.0
2705	28.439 28.439
2706	244.0 244.0
2707	30.071 30.071
2708	664.0 664.0
2709	23.826 23.826
2710	348.0 348.0
2711	27.805 27.805
2712	406.0 406.0
2713	233.162 233.162
2714	348.0 348.0
2715	103.296 103.296
2716	838.0 838.0
2717	23.205 23.205
2718	539.0 539.0
2719	26.553 26.553
2720	121.0 121.0
2721	23.699 23.699
2722	682.0 682.0
2723	69.101 69.101
2724	301.0 301.0
2725	23.528 23.528
2726	255.0 255.0
2727	26.014 26.014
2728	330.0 330.0
2729	24.116 24.116
2730	733.0 733.0
2731	23.179 23.179
2732	541.0 541.0
2733	27.817 27.817
2734	198.0 198.0
2735	25.751 25.751
2736	162.0 162.0
2737	33.298 33.298
2738	152.0 152.0
2739	28.59 28.59
2740	441.0 441.0
2741	36.295 36.295
2742	684.0 684.0
2743	30.566 30.566
2744	803.0 803.0
2745	29.796 29.796
2746	391.0 391.0
2747	143.228 143.228
2748	811.0 811.0
2749	25.199 25.199
2750	257.0 257.0
2751	25.052 25.052
2752	411.0 411.0
2753	163.192 163.192
2754	349.0 349.0
2755	23.893 23.893
2756	185.0 185.0
2757	24.04 24.04
2758	271.0 271.0
2759	27.573 27.573
2760	203.0 203.0
2761	24.091 24.091
2762	530.0 530.0
2763	25.794 25.794
2764	447.0 447.0
2765	29.83 29.83
2766	104.0 104.0
2767	22.806 22.806
2768	756.0 756.0
2769	23.63 23.63
2770	599.0 599.0
2771	24.928 24.928
2772	302.0 302.0
2773	28.626 28.626
2774	185.0 185.0
2775	27.657 27.657
2776	560.0 560.0
2777	23.042 23.042
2778	417.0 417.0
2779	50.489 50.489
2780	647.0 647.0
2781	22.883 22.883
2782	409.0 409.0
2783	23.737 23.737
2784	720.0 720.0
2785	24.034 24.034
2786	541.0 541.0
2787	23.197 23.197
2788	272.0 272.0
2789	29.239 29.239
2790	622.0 622.0
2791	25.418 25.418
2792	360.0 360.0
2793	25.997 25.997
2794	285.0 285.0
2795	27.427 27.427
2796	625.0 625.0
2797	147.027 147.027
2798	825.0 825.0
2799	23.718 23.718
2800	486.0 486.0
2801	23.052 23.052
2802	789.0 789.0
2803	52.115 52.115
2804	457.0 457.0
2805	32.16 32.16
2806	251.0 251.0
2807	24.51 24.51
2808	767.0 767.0
2809	24.126 24.126
2810	56.0 56.0
2811	24.823 24.823
2812	340.0 340.0
2813	23.889 23.889
2814	388.0 388.0
2815	23.906 23.906
2816	639.0 639.0
2817	24.06 24.06
2818	842.0 842.0
2819	23.271 23.271
2820	480.0 480.0
2821	24.413 24.413
2822	647.0 647.0
2823	26.029 26.029
2824	301.0 301.0
2825	31.349 31.349
2826	203.0 203.0
2827	30.364 30.364
2828	93.0 93.0
2829	26.449 26.449
2830	636.0 636.0
2831	34.872 34.872
2832	720.0 720.0
2833	187.932 187.932
2834	692.0 692.0
2835	27.776 27.776
2836	668.0 668.0
2837	33.685 33.685
2838	792.0 792.0
2839	24.122 24.122
2840	359.0 359.0
2841	26.763 26.763
2842	301.0 301.0
2843	26.936 26.936
2844	97.0 97.0
2845	36.803 36.803
2846	124.0 124.0
2847	23.164 23.164
2848	451.0 451.0
2849	29.887 29.887
2850	619.0 619.0
2851	35.27 35.27
2852	717.0 717.0
2853	23.288 23.288
2854	720.0 720.0
2855	28.033 28.033
2856	111.0 111.0
2857	23.788 23.788
2858	440.0 440.0
2859	25.514 25.514
2860	400.0 400.0
2861	26.023 26.023
2862	705.0 705.0
2863	30.344 30.344
2864	760.0 760.0
2865	29.289 29.289
2866	420.0 420.0
2867	34.321 34.321
2868	44.0 44.0
2869	23.096 23.096
2870	550.0 550.0
2871	23.142 23.142
2872	404.0 404.0
2873	28.33 28.33
2874	344.0 344.0
2875	27.75 27.75
2876	205.0 205.0
2877	24.273 24.273
2878	182.0 182.0
2879	26.047 26.047
2880	553.0 553.0
2881	44.306 44.306
2882	718.0 718.0
2883	23.736 23.736
2884	115.0 115.0
2885	23.246 23.246
2886	839.0 839.0
2887	24.923 24.923
2888	487.0 487.0
2889	188.942 188.942
2890	501.0 501.0
2891	23.381 23.381
2892	771.0 771.0
2893	25.005 25.005
2894	842.0 842.0
2895	151.395 151.395
2896	590.0 590.0
2897	181.273 181.273
2898	792.0 792.0
2899	127.517 127.517
2900	447.0 447.0
2901	27.174 27.174
2902	597.0 597.0
2903	23.267 23.267
2904	330.0 330.0
2905	28.621 28.621
2906	165.0 165.0
2907	23.816 23.816
2908	799.0 799.0
2909	30.834 30.834
2910	200.0 200.0
2911	28.686 28.686
2912	648.0 648.0
2913	25.621 25.621
2914	485.0 485.0
2915	89.767 89.767
2916	822.0 822.0
2917	28.349 28.349
2918	542.0 542.0
2919	31.084 31.084
2920	104.0 104.0
2921	28.254 28.254
2922	591.0 591.0
2923	28.248 28.248
2924	697.0 697.0
2925	25.635 25.635
2926	535.0 535.0
2927	25.464 25.464
2928	170.0 170.0
2929	23.053 23.053
2930	537.0 537.0
2931	25.635 25.635
2932	380.0 380.0
2933	149.4 149.4
2934	765.0 765.0
2935	26.257 26.257
2936	695.0 695.0
2937	124.988 124.988
2938	673.0 673.0
2939	150.783 150.783
2940	796.0 796.0
2941	79.767 79.767
2942	89.0 89.0
2943	210.001 210.001
2944	367.0 367.0
2945	24.216 24.216
2946	455.0 455.0
2947	29.994 29.994
2948	770.0 770.0
2949	28.721 28.721
2950	756.0 756.0
2951	24.731 24.731
2952	691.0 691.0
2953	27.925 27.925
2954	348.0 348.0
2955	30.758 30.758
2956	173.0 173.0
2957	27.579 27.579
2958	390.0 390.0
2959	28.2 28.2
2960	537.0 537.0
2961	25.075 25.075
2962	260.0 260.0
2963	196.943 196.943
2964	649.0 649.0
2965	34.02 34.02
2966	134.0 134.0
2967	27.616 27.616
2968	342.0 342.0
2969	27.076 27.076
2970	830.0 830.0
2971	182.916 182.916
2972	426.0 426.0
2973	23.087 23.087
2974	126.0 126.0
2975	31.959 31.959
2976	844.0 844.0
2977	23.243 23.243
2978	409.0 409.0
2979	23.867 23.867
2980	239.0 239.0
2981	31.352 31.352
2982	785.0 785.0
2983	30.743 30.743
2984	644.0 644.0
2985	27.627 27.627
2986	668.0 668.0
2987	23.821 23.821
2988	152.0 152.0
2989	23.48 23.48
2990	101.0 101.0
2991	23.429 23.429
2992	166.0 166.0
2993	23.457 23.457
2994	814.0 814.0
2995	23.464 23.464
2996	421.0 421.0
2997	24.158 24.158
2998	127.0 127.0
2999	23.606 23.606
3000	112.0 112.0
3001	32.194 32.194
3002	785.0 785.0
3003	23.764 23.764
3004	287.0 287.0
3005	26.936 26.936
3006	774.0 774.0
3007	27.909 27.909
3008	355.0 355.0
3009	25.337 25.337
3010	688.0 688.0
3011	149.431 149.431
3012	89.0 89.0
3013	30.289 30.289
3014	687.0 687.0
3015	30.552 30.552
3016	693.0 693.0
3017	31.636 31.636
3018	821.0 821.0
3019	28.871 28.871
3020	180.0 180.0
3021	29.661 29.661
3022	714.0 714.0
3023	24.221 24.221
3024	121.0 121.0
3025	27.165 27.165
3026	176.0 176.0
3027	243.848 243.848
3028	80.0 80.0
3029	29.681 29.681
3030	675.0 675.0
3031	23.671 23.671
3032	152.0 152.0
3033	22.84 22.84
3034	182.0 182.0
3035	23.015 23.015
3036	694.0 694.0
3037	23.069 23.069
3038	56.0 56.0
3039	26.082 26.082
3040	571.0 571.0
3041	29.073 29.073
3042	193.0 193.0
3043	49.362 49.362
3044	511.0 511.0
3045	25.192 25.192
3046	83.0 83.0
3047	24.567 24.567
3048	454.0 454.0
3049	23.195 23.195
3050	145.0 145.0
3051	94.714 94.714
3052	606.0 606.0
3053	25.393 25.393
3054	564.0 564.0
3055	28.726 28.726
3056	339.0 339.0
3057	27.045 27.045
3058	517.0 517.0
3059	25.307 25.307
3060	602.0 602.0
3061	24.743 24.743
3062	172.0 172.0
3063	23.83 23.83
3064	112.0 112.0
3065	25.826 25.826
3066	305.0 305.0
3067	24.12 24.12
3068	727.0 727.0
3069	25.039 25.039
3070	120.0 120.0
3071	28.83 28.83
3072	503.0 503.0
3073	23.414 23.414
3074	686.0 686.0
3075	24.64 24.64
3076	717.0 717.0
3077	23.227 23.227
3078	277.0 277.0
3079	121.501 121.501
3080	99.0 99.0
3081	203.71 203.71
3082	275.0 275.0
3083	23.265 23.265
3084	130.0 130.0
3085	29.099 29.099
3086	693.0 693.0
3087	30.774 30.774
3088	433.0 433.0
3089	28.214 28.214
3090	84.0 84.0
3091	26.708 26.708
3092	488.0 488.0
3093	28.55 28.55
3094	180.0 180.0
3095	23.695 23.695
3096	433.0 433.0
3097	28.083 28.083
3098	806.0 806.0
3099	30.278 30.278
3100	706.0 706.0
3101	41.979 41.979
3102	764.0 764.0
3103	28.914 28.914
3104	338.0 338.0
3105	31.257 31.257
3106	463.0 463.0
3107	25.035 25.035
3108	52.0 52.0
3109	157.312 157.312
3110	116.0 116.0
3111	187.49 187.49
3112	219.0 219.0
3113	24.479 24.479
3114	502.0 502.0
3115	23.434 23.434
3116	318.0 318.0
3117	65.619 65.619
3118	106.0 106.0
3119	31.571 31.571
3120	125.0 125.0
3121	220.329 220.329
3122	744.0 744.0
3123	26.993 26.993
3124	677.0 677.0
3125	32.185 32.185
3126	627.0 627.0
3127	41.825 41.825
3128	400.0 400.0
3129	28.294 28.294
3130	238.0 238.0
3131	28.137 28.137
3132	266.0 266.0
3133	26.363 26.363
3134	634.0 634.0
3135	26.744 26.744
3136	774.0 774.0
3137	189.331 189.331
3138	41.0 41.0
3139	23.037 23.037
3140	392.0 392.0
3141	27.185 27.185
3142	484.0 484.0
3143	25.847 25.847
3144	772.0 772.0
3145	34.994 34.994
3146	181.0 181.0
3147	211.974 211.974
3148	90.0 90.0
3149	24.859 24.859
3150	102.0 102.0
3151	22.885 22.885
3152	732.0 732.0
3153	204.854 204.854
3154	182.0 182.0
3155	23.831 23.831
3156	621.0 621.0
3157	32.65 32.65
3158	686.0 686.0
3159	26.891 26.891
3160	771.0 771.0
3161	26.602 26.602
3162	267.0 267.0
3163	140.312 140.312
3164	503.0 503.0
3165	33.29 33.29
3166	730.0 730.0
3167	186.945 186.945
3168	131.0 131.0
3169	35.231 35.231
3170	526.0 526.0
3171	90.958 90.958
3172	283.0 283.0
3173	29.967 29.967
3174	167.0 167.0
3175	30.601 30.601
3176	560.0 560.0
3177	25.61 25.61
3178	105.0 105.0
3179	27.824 27.824
3180	384.0 384.0
3181	28.419 28.419
3182	477.0 477.0
3183	29.714 29.714
3184	291.0 291.0
3185	26.869 26.869
3186	421.0 421.0
3187	26.377 26.377
3188	540.0 540.0
3189	26.805 26.805
3190	735.0 735.0
3191	24.341 24.341
3192	636.0 636.0
3193	27.018 27.018
3194	451.0 451.0
3195	27.666 27.666
3196	354.0 354.0
3197	27.646 27.646
3198	351.0 351.0
3199	24.742 24.742
3200	701.0 701.0
3201	29.868 29.868
3202	697.0 697.0
3203	264.318 264.318
3204	365.0 365.0
3205	250.357 250.357
3206	167.0 167.0
3207	29.429 29.429
3208	179.0 179.0
3209	27.107 27.107
3210	282.0 282.0
3211	27.434 27.434
3212	98.0 98.0
3213	23.874 23.874
3214	717.0 717.0
3215	34.33 34.33
3216	538.0 538.0
3217	30.871 30.871
3218	271.0 271.0
3219	24.153 24.153
3220	432.0 432.0
3221	69.753 69.753
3222	836.0 836.0
3223	27.326 27.326
3224	158.0 158.0
3225	170.082 170.082
3226	305.0 305.0
3227	159.37 159.37
3228	43.0 43.0
3229	22.701 22.701
3230	765.0 765.0
3231	25.138 25.138
3232	377.0 377.0
3233	22.912 22.912
3234	721.0 721.0
3235	153.201 153.201
3236	673.0 673.0
3237	194.212 194.212
3238	350.0 350.0
3239	119.726 119.726
3240	596.0 596.0
3241	37.034 37.034
3242	371.0 371.0
3243	23.874 23.874
3244	783.0 783.0
3245	165.199 165.199
3246	291.0 291.0
3247	33.324 33.324
3248	151.0 151.0
3249	28.291 28.291
3250	826.0 826.0
3251	23.991 23.991
3252	424.0 424.0
3253	22.386 22.386
3254	120.0 120.0
3255	27.46 27.46
3256	667.0 667.0
3257	27.839 27.839
3258	85.0 85.0
3259	26.183 26.183
3260	199.0 199.0
3261	23.988 23.988
3262	183.0 183.0
3263	29.465 29.465
3264	590.0 590.0
3265	23.589 23.589
3266	171.0 171.0
3267	26.089 26.089
3268	793.0 793.0
3269	24.961 24.961
3270	253.0 253.0
3271	25.919 25.919
3272	541.0 541.0
3273	29.481 29.481
3274	828.0 828.0
3275	24.007 24.007
3276	407.0 407.0
3277	25.55 25.55
3278	269.0 269.0
3279	24.388 24.388
3280	810.0 810.0
3281	29.447 29.447
3282	150.0 150.0
3283	23.237 23.237
3284	224.0 224.0
3285	23.809 23.809
3286	452.0 452.0
3287	28.77 28.77
3288	232.0 232.0
3289	23.043 23.043
3290	585.0 585.0
3291	22.705 22.705
3292	559.0 559.0
3293	26.979 26.979
3294	671.0 671.0
3295	28.55 28.55
3296	591.0 591.0
3297	29.158 29.158
3298	49.0 49.0
3299	29.968 29.968
3300	599.0 599.0
3301	28.63 28.63
3302	280.0 280.0
3303	29.389 29.389
3304	727.0 727.0
3305	30.908 30.908
3306	337.0 337.0
3307	27.484 27.484
3308	499.0 499.0
3309	22.89 22.89
3310	677.0 677.0
3311	24.03 24.03
3312	468.0 468.0
3313	25.866 25.866
3314	647.0 647.0
3315	32.862 32.862
3316	497.0 497.0
3317	25.462 25.462
3318	319.0 319.0
3319	27.058 27.058
3320	658.0 658.0
3321	24.434 24.434
3322	835.0 835.0
3323	26.148 26.148
3324	639.0 639.0
3325	26.607 26.607
3326	623.0 623.0
3327	30.577 30.577
3328	752.0 752.0
3329	23.14 23.14
3330	569.0 569.0
3331	24.746 24.746
3332	717.0 717.0
3333	23.19 23.19
3334	403.0 403.0
3335	24.717 24.717
3336	192.0 192.0
3337	24.084 24.084
3338	769.0 769.0
3339	23.441 23.441
3340	498.0 498.0
3341	25.048 25.048
3342	615.0 615.0
3343	24.803 24.803
3344	196.0 196.0
3345	146.948 146.948
3346	209.0 209.0
3347	23.553 23.553
3348	534.0 534.0
3349	25.311 25.311
3350	585.0 585.0
3351	107.056 107.056
3352	371.0 371.0
3353	25.319 25.319
3354	61.0 61.0
3355	31.52 31.52
3356	801.0 801.0
3357	26.078 26.078
3358	539.0 539.0
3359	31.18 31.18
3360	334.0 334.0
3361	23.463 23.463
3362	472.0 472.0
3363	28.954 28.954
3364	830.0 830.0
3365	45.729 45.729
3366	794.0 794.0
3367	57.098 57.098
3368	46.0 46.0
3369	25.617 25.617
3370	273.0 273.0
3371	26.676 26.676
3372	654.0 654.0
3373	26.842 26.842
3374	445.0 445.0
3375	29.877 29.877
3376	369.0 369.0
3377	25.003 25.003
3378	348.0 348.0
3379	27.988 27.988
3380	36.0 36.0
3381	27.415 27.415
3382	558.0 558.0
3383	24.71 24.71
3384	705.0 705.0
3385	136.535 136.535
3386	123.0 123.0
3387	189.704 189.704
3388	277.0 277.0
3389	28.022 28.022
3390	167.0 167.0
3391	188.639 188.639
3392	633.0 633.0
3393	28.405 28.405
3394	657.0 657.0
3395	27.568 27.568
3396	363.0 363.0
3397	23.995 23.995
3398	146.0 146.0
3399	23.489 23.489
3400	755.0 755.0
3401	23.012 23.012
3402	324.0 324.0
3403	86.696 86.696
3404	452.0 452.0
3405	23.327 23.327
3406	109.0 109.0
3407	26.449 26.449
3408	796.0 796.0
3409	170.937 170.937
3410	143.0 143.0
3411	150.674 150.674
3412	551.0 551.0
3413	27.462 27.462
3414	762.0 762.0
3415	39.629 39.629
3416	726.0 726.0
3417	28.657 28.657
3418	702.0 702.0
3419	28.548 28.548
3420	836.0 836.0
3421	29.934 29.934
3422	772.0 772.0
3423	26.073 26.073
3424	140.0 140.0
3425	27.318 27.318
3426	417.0 417.0
3427	23.593 23.593
3428	631.0 631.0
3429	25.448 25.448
3430	112.0 112.0
3431	23.088 23.088
3432	238.0 238.0
3433	23.677 23.677
3434	536.0 536.0
3435	27.691 27.691
3436	276.0 276.0
3437	25.524 25.524
3438	835.0 835.0
3439	23.873 23.873
3440	742.0 742.0
3441	27.168 27.168
3442	407.0 407.0
3443	23.541 23.541
3444	240.0 240.0
3445	22.914 22.914
3446	447.0 447.0
3447	128.665 128.665
3448	249.0 249.0
3449	28.16 28.16
3450	476.0 476.0
3451	28.468 28.468
3452	566.0 566.0
3453	124.551 124.551
3454	706.0 706.0
3455	32.505 32.505
3456	247.0 247.0
3457	23.255 23.255
3458	88.0 88.0
3459	26.406 26.406
3460	546.0 546.0
3461	35.317 35.317
3462	123.0 123.0
3463	166.707 166.707
3464	707.0 707.0
3465	46.777 46.777
3466	44.0 44.0
3467	33.566 33.566
3468	726.0 726.0
3469	155.873 155.873
3470	118.0 118.0
3471	25.528 25.528
3472	698.0 698.0
3473	160.816 160.816
3474	60.0 60.0
3475	28.636 28.636
3476	260.0 260.0
3477	26.8 26.8
3478	532.0 532.0
3479	26.949 26.949
3480	465.0 465.0
3481	25.69 25.69
3482	463.0 463.0
3483	28.324 28.324
3484	229.0 229.0
3485	23.566 23.566
3486	153.0 153.0
3487	29.416 29.416
3488	795.0 795.0
3489	25.489 25.489
3490	113.0 113.0
3491	32.844 32.844
3492	187.0 187.0
3493	37.05 37.05
3494	91.0 91.0
3495	22.636 22.636
3496	392.0 392.0
3497	24.716 24.716
3498	294.0 294.0
3499	27.254 27.254
3500	570.0 570.0
3501	22.707 22.707
3502	709.0 709.0
3503	25.434 25.434
3504	812.0 812.0
3505	27.501 27.501
3506	629.0 629.0
3507	23.11 23.11
3508	606.0 606.0
3509	23.183 23.183
3510	613.0 613.0
3511	26.089 26.089
3512	441.0 441.0
3513	32.195 32.195
3514	150.0 150.0
3515	23.791 23.791
3516	838.0 838.0
3517	28.493 28.493
3518	509.0 509.0
3519	33.413 33.413
3520	789.0 789.0
3521	23.808 23.808
3522	369.0 369.0
3523	94.511 94.511
3524	656.0 656.0
3525	27.452 27.452
3526	344.0 344.0
3527	151.702 151.702
3528	366.0 366.0
3529	24.074 24.074
3530	579.0 579.0
3531	29.967 29.967
3532	760.0 760.0
3533	32.646 32.646
3534	539.0 539.0
3535	24.737 24.737
3536	123.0 123.0
3537	24.472 24.472
3538	609.0 609.0
3539	199.804 199.804
3540	38.0 38.0
3541	26.039 26.039
3542	809.0 809.0
3543	38.991 38.991
3544	418.0 418.0
3545	61.981 61.981
3546	659.0 659.0
3547	24.595 24.595
3548	559.0 559.0
3549	25.778 25.778
3550	600.0 600.0
3551	28.027 28.027
3552	183.0 183.0
3553	24.627 24.627
3554	541.0 541.0
3555	123.718 123.718
3556	681.0 681.0
3557	31.461 31.461
3558	119.0 119.0
3559	26.017 26.017
3560	433.0 433.0
3561	29.493 29.493
3562	219.0 219.0
3563	30.608 30.608
3564	204.0 204.0
3565	30.447 30.447
3566	596.0 596.0
3567	28.939 28.939
3568	143.0 143.0
3569	29.68 29.68
3570	228.0 228.0
3571	30.641 30.641
3572	249.0 249.0
3573	24.084 24.084
3574	395.0 395.0
3575	25.782 25.782
3576	130.0 130.0
3577	71.864 71.864
3578	578.0 578.0
3579	40.513 40.513
3580	191.0 191.0
3581	24.87 24.87
3582	559.0 559.0
3583	24.535 24.535
3584	307.0 307.0
3585	24.442 24.442
3586	772.0 772.0
3587	26.64 26.64
3588	198.0 198.0
3589	23.911 23.911
3590	591.0 591.0
3591	157.452 157.452
3592	773.0 773.0
3593	23.229 23.229
3594	800.0 800.0
3595	37.707 37.707
3596	780.0 780.0
3597	30.487 30.487
3598	806.0 806.0
3599	31.256 31.256
3600	834.0 834.0
3601	24.979 24.979
3602	215.0 215.0
3603	23.487 23.487
3604	258.0 258.0
3605	24.535 24.535
3606	151.0 151.0
3607	125.35 125.35
3608	40.0 40.0
3609	23.015 23.015
3610	808.0 808.0
3611	23.529 23.529
3612	101.0 101.0
3613	23.686 23.686
3614	562.0 562.0
3615	32.333 32.333
3616	484.0 484.0
3617	181.04 181.04
3618	184.0 184.0
3619	23.36 23.36
3620	136.0 136.0
3621	27.132 27.132
3622	302.0 302.0
3623	24.626 24.626
3624	765.0 765.0
3625	24.528 24.528
3626	589.0 589.0
3627	25.572 25.572
3628	101.0 101.0
3629	127.419 127.419
3630	385.0 385.0
3631	26.54 26.54
3632	155.0 155.0
3633	24.442 24.442
3634	280.0 280.0
3635	24.343 24.343
3636	424.0 424.0
3637	24.001 24.001
3638	322.0 322.0
3639	25.095 25.095
3640	83.0 83.0
3641	23.952 23.952
3642	835.0 835.0
3643	31.012 31.012
3644	802.0 802.0
3645	30.326 30.326
3646	453.0 453.0
3647	24.437 24.437
3648	386.0 386.0
3649	29.383 29.383
3650	190.0 190.0
3651	22.872 22.872
3652	373.0 373.0
3653	28.517 28.517
3654	296.0 296.0
3655	27.928 27.928
3656	564.0 564.0
3657	24.324 24.324
3658	238.0 238.0
3659	24.165 24.165
3660	475.0 475.0
3661	24.319 24.319
3662	201.0 201.0
3663	27.439 27.439
3664	414.0 414.0
3665	27.035 27.035
3666	473.0 473.0
3667	26.939 26.939
3668	83.0 83.0
3669	24.382 24.382
3670	264.0 264.0
3671	29.607 29.607
3672	760.0 760.0
3673	28.817 28.817
3674	763.0 763.0
3675	24.806 24.806
3676	716.0 716.0
3677	23.453 23.453
3678	57.0 57.0
3679	27.995 27.995
3680	310.0 310.0
3681	25.129 25.129
3682	148.0 148.0
3683	23.04 23.04
3684	750.0 750.0
3685	23.437 23.437
3686	580.0 580.0
3687	29.342 29.342
3688	124.0 124.0
3689	23.566 23.566
3690	681.0 681.0
3691	23.782 23.782
3692	46.0 46.0
3693	26.736 26.736
3694	62.0 62.0
3695	38.192 38.192
3696	491.0 491.0
3697	25.566 25.566
3698	66.0 66.0
3699	27.948 27.948
3700	638.0 638.0
3701	36.199 36.199
3702	482.0 482.0
3703	27.163 27.163
3704	463.0 463.0
3705	27.465 27.465
3706	716.0 716.0
3707	25.302 25.302
3708	594.0 594.0
3709	23.9 23.9
3710	626.0 626.0
3711	24.242 24.242
3712	549.0 549.0
3713	25.984 25.984
3714	434.0 434.0
3715	34.8 34.8
3716	567.0 567.0
3717	25.465 25.465
3718	422.0 422.0
3719	29.089 29.089
3720	653.0 653.0
3721	28.3 28.3
3722	842.0 842.0
3723	23.136 23.136
3724	365.0 365.0
3725	25.809 25.809
3726	637.0 637.0
3727	28.799 28.799
3728	173.0 173.0
3729	27.7 27.7
3730	715.0 715.0
3731	27.578 27.578
3732	688.0 688.0
3733	24.35 24.35
3734	760.0 760.0
3735	23.819 23.819
3736	517.0 517.0
3737	24.511 24.511
3738	335.0 335.0
3739	33.79 33.79
3740	67.0 67.0
3741	25.107 25.107
3742	492.0 492.0
3743	26.399 26.399
3744	577.0 577.0
3745	23.549 23.549
3746	420.0 420.0
3747	23.093 23.093
3748	367.0 367.0
3749	24.648 24.648
3750	79.0 79.0
3751	23.59 23.59
3752	582.0 582.0
3753	25.565 25.565
3754	459.0 459.0
3755	27.35 27.35
3756	80.0 80.0
3757	30.73 30.73
3758	415.0 415.0
3759	24.543 24.543
3760	532.0 532.0
3761	28.123 28.123
3762	173.0 173.0
3763	24.796 24.796
3764	594.0 594.0
3765	24.241 24.241
3766	443.0 443.0
3767	27.735 27.735
3768	220.0 220.0
3769	23.955 23.955
3770	524.0 524.0
3771	23.777 23.777
3772	53.0 53.0
3773	25.301 25.301
3774	732.0 732.0
3775	33.85 33.85
3776	107.0 107.0
3777	31.924 31.924
3778	670.0 670.0
3779	37.665 37.665
3780	206.0 206.0
3781	23.343 23.343
3782	112.0 112.0
3783	24.606 24.606
3784	435.0 435.0
3785	24.188 24.188
3786	556.0 556.0
3787	24.872 24.872
3788	236.0 236.0
3789	23.847 23.847
3790	790.0 790.0
3791	25.192 25.192
3792	616.0 616.0
3793	24.264 24.264
3794	274.0 274.0
3795	23.326 23.326
3796	352.0 352.0
3797	27.223 27.223
3798	558.0 558.0
3799	28.302 28.302
3800	355.0 355.0
3801	36.404 36.404
3802	585.0 585.0
3803	27.862 27.862
3804	557.0 557.0
3805	33.983 33.983
3806	563.0 563.0
3807	27.666 27.666
3808	512.0 512.0
3809	35.142 35.142
3810	360.0 360.0
3811	38.006 38.006
3812	501.0 501.0
3813	37.72 37.72
3814	790.0 790.0
3815	31.095 31.095
3816	794.0 794.0
3817	34.442 34.442
3818	77.0 77.0
3819	27.767 27.767
3820	269.0 269.0
3821	25.065 25.065
3822	591.0 591.0
3823	25.835 25.835
3824	472.0 472.0
3825	27.332 27.332
3826	711.0 711.0
3827	25.951 25.951
3828	697.0 697.0
3829	24.183 24.183
3830	315.0 315.0
3831	23.837 23.837
3832	239.0 239.0
3833	26.744 26.744
3834	778.0 778.0
3835	28.521 28.521
3836	838.0 838.0
3837	25.501 25.501
3838	341.0 341.0
3839	25.329 25.329
3840	545.0 545.0
3841	22.911 22.911
3842	331.0 331.0
3843	24.562 24.562
3844	57.0 57.0
3845	25.95 25.95
3846	722.0 722.0
3847	25.327 25.327
3848	277.0 277.0
3849	26.981 26.981
3850	613.0 613.0
3851	23.858 23.858
3852	429.0 429.0
3853	28.439 28.439
3854	462.0 462.0
3855	23.147 23.147
3856	488.0 488.0
3857	23.56 23.56
3858	542.0 542.0
3859	25.554 25.554
3860	641.0 641.0
3861	25.898 25.898
3862	248.0 248.0
3863	30.99 30.99
3864	276.0 276.0
3865	27.404 27.404
3866	444.0 444.0
3867	27.437 27.437
3868	657.0 657.0
3869	23.812 23.812
3870	594.0 594.0
3871	23.074 23.074
3872	703.0 703.0
3873	30.864 30.864
3874	627.0 627.0
3875	23.576 23.576
3876	80.0 80.0
3877	26.884 26.884
3878	742.0 742.0
3879	25.196 25.196
3880	272.0 272.0
3881	23.278 23.278
3882	758.0 758.0
3883	30.568 30.568
3884	815.0 815.0
3885	30.017 30.017
3886	630.0 630.0
3887	30.629 30.629
3888	148.0 148.0
3889	31.202 31.202
3890	814.0 814.0
3891	24.896 24.896
3892	542.0 542.0
3893	30.06 30.06
3894	678.0 678.0
3895	22.929 22.929
3896	485.0 485.0
3897	23.539 23.539
3898	603.0 603.0
3899	23.539 23.539
3900	785.0 785.0
3901	23.011 23.011
3902	573.0 573.0
3903	25.25 25.25
3904	792.0 792.0
3905	23.864 23.864
3906	244.0 244.0
3907	24.401 24.401
3908	325.0 325.0
3909	23.342 23.342
3910	533.0 533.0
3911	28.687 28.687
3912	218.0 218.0
3913	33.335 33.335
3914	754.0 754.0
3915	26.894 26.894
3916	751.0 751.0
3917	30.762 30.762
3918	435.0 435.0
3919	24.117 24.117
3920	243.0 243.0
3921	28.406 28.406
3922	458.0 458.0
3923	24.15 24.15
3924	425.0 425.0
3925	23.484 23.484
3926	401.0 401.0
3927	24.099 24.099
3928	619.0 619.0
3929	23.178 23.178
3930	471.0 471.0
3931	23.597 23.597
3932	347.0 347.0
3933	25.382 25.382
3934	374.0 374.0
3935	23.354 23.354
3936	182.0 182.0
3937	22.616 22.616
3938	751.0 751.0
3939	23.623 23.623
3940	492.0 492.0
3941	26.261 26.261
3942	446.0 446.0
3943	22.928 22.928
3944	680.0 680.0
3945	26.151 26.151
3946	317.0 317.0
3947	27.746 27.746
3948	449.0 449.0
3949	27.889 27.889
3950	625.0 625.0
3951	28.847 28.847
3952	132.0 132.0
3953	24.072 24.072
3954	198.0 198.0
3955	23.42 23.42
3956	472.0 472.0
3957	23.745 23.745
3958	231.0 231.0
3959	22.592 22.592
3960	663.0 663.0
3961	23.391 23.391
3962	196.0 196.0
3963	24.06 24.06
3964	290.0 290.0
3965	26.675 26.675
3966	105.0 105.0
3967	25.921 25.921
3968	447.0 447.0
3969	24.678 24.678
3970	749.0 749.0
3971	23.77 23.77
3972	71.0 71.0
3973	26.888 26.888
3974	340.0 340.0
3975	25.649 25.649
3976	765.0 765.0
3977	25.865 25.865
3978	505.0 505.0
3979	28.397 28.397
3980	344.0 344.0
3981	28.765 28.765
3982	232.0 232.0
3983	23.836 23.836
3984	516.0 516.0
3985	26.437 26.437
3986	371.0 371.0
3987	29.382 29.382
3988	739.0 739.0
3989	24.678 24.678
3990	824.0 824.0
3991	23.548 23.548
3992	326.0 326.0
3993	23.313 23.313
3994	465.0 465.0
3995	27.028 27.028
3996	633.0 633.0
3997	23.573 23.573
3998	467.0 467.0
3999	22.982 22.982
4000	569.0 569.0
4001	24.104 24.104
4002	681.0 681.0
4003	25.041 25.041
4004	545.0 545.0
4005	24.954 24.954
4006	540.0 540.0
4007	26.841 26.841
4008	708.0 708.0
4009	27.837 27.837
4010	842.0 842.0
4011	27.069 27.069
4012	590.0 590.0
4013	25.298 25.298
4014	444.0 444.0
4015	30.995 30.995
4016	437.0 437.0
4017	23.812 23.812
4018	76.0 76.0
4019	27.46 27.46
4020	419.0 419.0
4021	30.222 30.222
4022	326.0 326.0
4023	24.198 24.198
4024	827.0 827.0
4025	24.614 24.614
4026	218.0 218.0
4027	23.191 23.191
4028	799.0 799.0
4029	25.878 25.878
4030	75.0 75.0
4031	34.615 34.615
4032	634.0 634.0
4033	30.216 30.216
4034	260.0 260.0
4035	24.738 24.738
4036	320.0 320.0
4037	24.436 24.436
4038	173.0 173.0
4039	25.331 25.331
4040	370.0 370.0
4041	32.842 32.842
4042	173.0 173.0
4043	33.108 33.108
4044	509.0 509.0
4045	26.159 26.159
4046	523.0 523.0
4047	31.835 31.835
4048	611.0 611.0
4049	25.357 25.357
4050	664.0 664.0
4051	35.324 35.324
4052	645.0 645.0
4053	24.138 24.138
4054	181.0 181.0
4055	26.81 26.81
4056	444.0 444.0
4057	26.018 26.018
4058	545.0 545.0
4059	24.646 24.646
4060	120.0 120.0
4061	23.05 23.05
4062	598.0 598.0
4063	23.209 23.209
4064	642.0 642.0
4065	23.288 23.288
4066	825.0 825.0
4067	29.644 29.644
4068	44.0 44.0
4069	24.161 24.161
4070	124.0 124.0
4071	26.7 26.7
4072	124.0 124.0
4073	31.882 31.882
4074	254.0 254.0
4075	23.396 23.396
4076	385.0 385.0
4077	23.33 23.33
4078	440.0 440.0
4079	27.09 27.09
4080	833.0 833.0
4081	26.595 26.595
4082	196.0 196.0
4083	24.227 24.227
4084	78.0 78.0
4085	22.941 22.941
4086	509.0 509.0
4087	23.242 23.242
4088	793.0 793.0
4089	23.922 23.922
4090	293.0 293.0
4091	25.684 25.684
4092	194.0 194.0
4093	23.127 23.127
4094	167.0 167.0
4095	25.142 25.142
4096	594.0 594.0
4097	24.545 24.545
4098	636.0 636.0
4099	23.746 23.746
4100	80.0 80.0
4101	24.064 24.064
4102	356.0 356.0
4103	27.732 27.732
4104	229.0 229.0
4105	24.781 24.781
4106	553.0 553.0
4107	23.433 23.433
4108	298.0 298.0
4109	26.298 26.298
4110	470.0 470.0
4111	23.555 23.555
4112	743.0 743.0
4113	24.317 24.317
4114	565.0 565.0
4115	37.611 37.611
4116	332.0 332.0
4117	27.188 27.188
4118	536.0 536.0
4119	26.85 26.85
4120	654.0 654.0
4121	27.423 27.423
4122	104.0 104.0
4123	26.076 26.076
4124	60.0 60.0
4125	23.153 23.153
4126	603.0 603.0
4127	23.56 23.56
4128	548.0 548.0
4129	23.288 23.288
4130	218.0 218.0
4131	23.276 23.276
4132	89.0 89.0
