,time,rtt,id
4508,4508,27.36,4508
4639,4639,3529.0,4639
2177,2177,3472.0,2177
789,789,0.0,789
2631,2631,0.0,2631
2242,2242,24.35,2242
943,943,1566.0,943
3511,3511,358.0,3511
2558,2558,25.422,2558
4133,4133,1097.0,4133
982,982,26.571,982
4253,4253,0.0,4253
1254,1254,36.836,1254
3978,3978,30.746,3978
3519,3519,693.0,3519
4666,4666,24.558000000000003,4666
4612,4612,24.138,4612
2308,2308,26.081,2308
4487,4487,1851.0,4487
3590,3590,23.646,3590
3790,3790,23.867,3790
4444,4444,24.412,4444
1860,1860,33.526,1860
4674,4674,23.476,4674
1970,1970,25.246,1970
1614,1614,31.13,1614
4440,4440,24.294,4440
4724,4724,27.039,4724
4561,4561,3414.0,4561
514,514,28.196,514
2708,2708,23.261,2708
3769,3769,2174.0,3769
954,954,24.903,954
3128,3128,23.391,3128
2745,2745,480.0,2745
668,668,26.114,668
3531,3531,261.0,3531
1786,1786,26.418000000000006,1786
1006,1006,27.902,1006
3709,3709,698.0,3709
2905,2905,767.0,2905
688,688,23.766,688
511,511,1620.0,511
3095,3095,0.0,3095
2071,2071,890.0,2071
1113,1113,65.0,1113
3697,3697,343.0,3697
2841,2841,3627.0,2841
2671,2671,624.0,2671
4346,4346,26.515,4346
4661,4661,1086.0,4661
2226,2226,25.952,2226
2985,2985,2293.0,2985
4058,4058,29.023000000000003,4058
3036,3036,26.685,3036
922,922,27.981,922
2568,2568,23.753,2568
963,963,1680.0,963
4621,4621,3223.0,4621
820,820,28.342,820
3279,3279,2977.0,3279
3523,3523,152.0,3523
3276,3276,188.644,3276
3428,3428,31.249,3428
3331,3331,0.0,3331
3715,3715,3517.0,3715
3879,3879,2980.0,3879
2200,2200,24.551,2200
3954,3954,25.592,3954
2441,2441,3261.0,2441
2430,2430,26.503,2430
4704,4704,27.792,4704
4110,4110,24.34,4110
1943,1943,3516.0,1943
1642,1642,29.816,1642
1938,1938,28.925,1938
2939,2939,1831.0,2939
3270,3270,179.69799999999995,3270
3911,3911,107.0,3911
1484,1484,24.874,1484
3887,3887,0.0,3887
1198,1198,29.082,1198
3748,3748,26.197,3748
2364,2364,31.578000000000007,2364
3583,3583,1623.0,3583
874,874,25.335,874
1334,1334,30.674,1334
3826,3826,26.92,3826
4635,4635,1311.0,4635
1986,1986,26.21,1986
2579,2579,1797.0,2579
4669,4669,2254.0,4669
4751,4751,3496.0,4751
2962,2962,23.005,2962
3931,3931,2656.0,3931
585,585,3679.0,585
881,881,841.0,881
2077,2077,3027.0,2077
3849,3849,1175.0,3849
1894,1894,25.969,1894
1241,1241,0.0,1241
4789,4789,2343.0,4789
3085,3085,1261.0,3085
2105,2105,1255.0,2105
3842,3842,26.915,3842
2250,2250,27.925,2250
1636,1636,29.613000000000003,1636
635,635,2810.0,635
4277,4277,2987.0,4277
3219,3219,186.0,3219
4138,4138,28.462,4138
4734,4734,32.494,4734
1408,1408,27.269,1408
1230,1230,26.776,1230
3570,3570,29.289,3570
3733,3733,176.0,3733
1350,1350,32.092,1350
2543,2543,3519.0,2543
1045,1045,2968.0,1045
4657,4657,3449.0,4657
3989,3989,1525.0,3989
3153,3153,3366.0,3153
1146,1146,24.338,1146
910,910,26.323,910
2950,2950,28.693,2950
3184,3184,26.269,3184
3271,3271,2264.0,3271
670,670,35.525,670
4570,4570,24.688,4570
2945,2945,0.0,2945
3935,3935,1644.0,3935
2389,2389,3607.0,2389
3862,3862,194.09,3862
577,577,951.0,577
4592,4592,28.112,4592
4497,4497,1981.0,4497
2954,2954,23.884,2954
1203,1203,3507.0,1203
4714,4714,23.936,4714
3838,3838,26.851,3838
2162,2162,84.765,2162
1305,1305,551.0,1305
4735,4735,1995.0,4735
3794,3794,24.432,3794
1336,1336,24.18,1336
4266,4266,27.696,4266
4395,4395,976.0,4395
624,624,28.476,624
2328,2328,28.002,2328
1460,1460,34.566,1460
2192,2192,23.772,2192
798,798,37.701,798
3578,3578,67.295,3578
1282,1282,32.429,1282
2175,2175,0.0,2175
3176,3176,23.609,3176
944,944,25.828000000000007,944
1383,1383,316.0,1383
2345,2345,2329.0,2345
3179,3179,0.0,3179
1583,1583,140.0,1583
3341,3341,2980.0,3341
3398,3398,29.157,3398
3334,3334,25.204,3334
3591,3591,63.0,3591
2350,2350,26.717,2350
2667,2667,888.0,2667
4787,4787,3272.0,4787
4196,4196,23.356,4196
4676,4676,23.244,4676
999,999,2234.0,999
2713,2713,2791.0,2713
1968,1968,26.25,1968
4572,4572,24.174,4572
2032,2032,29.838,2032
2010,2010,27.101,2010
4760,4760,28.792,4760
2494,2494,27.051,2494
3250,3250,24.603,3250
1811,1811,3010.0,1811
4378,4378,23.666,4378
2148,2148,30.457,2148
4090,4090,24.677,4090
3303,3303,669.0,3303
2044,2044,30.518,2044
2565,2565,1907.0,2565
3081,3081,2391.0,3081
4431,4431,1068.0,4431
4318,4318,24.463,4318
2702,2702,29.529,2702
2555,2555,3591.0,2555
1684,1684,26.096,1684
1438,1438,27.498,1438
1039,1039,1928.0,1039
2238,2238,25.626,2238
1994,1994,30.9,1994
2182,2182,201.693,2182
838,838,28.589,838
3294,3294,28.928,3294
532,532,27.371,532
1900,1900,26.147,1900
1511,1511,1641.0,1511
2874,2874,24.51,2874
3481,3481,1827.0,3481
559,559,3110.0,559
2614,2614,26.921,2614
2170,2170,28.542,2170
4149,4149,69.0,4149
4677,4677,1067.0,4677
1828,1828,25.983,1828
4758,4758,29.238000000000003,4758
2120,2120,25.789,2120
2788,2788,27.216,2788
4549,4549,1658.0,4549
3857,3857,2489.0,3857
4597,4597,2435.0,4597
3292,3292,27.497,3292
4687,4687,1779.0,4687
2944,2944,23.9,2944
2920,2920,27.756,2920
4361,4361,2586.0,4361
749,749,3485.0,749
2361,2361,2507.0,2361
3637,3637,0.0,3637
808,808,25.616,808
4764,4764,31.483,4764
537,537,0.0,537
2379,2379,2532.0,2379
2898,2898,33.167,2898
3392,3392,29.571,3392
4812,4812,31.64,4812
2876,2876,24.94,2876
1202,1202,28.673,1202
1285,1285,2675.0,1285
2186,2186,192.252,2186
2052,2052,24.857,2052
4246,4246,27.304,4246
1007,1007,3371.0,1007
2988,2988,24.088,2988
4763,4763,226.0,4763
4241,4241,1500.0,4241
4541,4541,2433.0,4541
3429,3429,3663.0,3429
4304,4304,23.518,4304
2544,2544,29.278,2544
4694,4694,24.329,4694
2867,2867,361.0,2867
1209,1209,197.0,1209
2074,2074,28.23,2074
3597,3597,3501.0,3597
4625,4625,832.0,4625
519,519,1823.0,519
500,500,23.804,500
2366,2366,24.067,2366
914,914,32.37,914
2635,2635,0.0,2635
3500,3500,29.908,3500
3056,3056,23.593000000000004,3056
728,728,23.969,728
1046,1046,27.228,1046
3088,3088,24.632,3088
1179,1179,637.0,1179
2521,2521,1571.0,2521
4109,4109,1778.0,4109
734,734,27.268,734
3762,3762,28.345,3762
3885,3885,3200.0,3885
1692,1692,28.528,1692
3648,3648,34.061,3648
3139,3139,1345.0,3139
3241,3241,2987.0,3241
4615,4615,3296.0,4615
1771,1771,2784.0,1771
3934,3934,27.182,3934
1167,1167,235.0,1167
2325,2325,1454.0,2325
4798,4798,24.884,4798
1482,1482,35.33,1482
1704,1704,28.377,1704
3485,3485,1391.0,3485
3147,3147,0.0,3147
4144,4144,28.548,4144
1877,1877,2645.0,1877
4332,4332,23.169,4332
2886,2886,27.599,2886
2657,2657,2488.0,2657
2833,2833,1070.0,2833
3939,3939,2517.0,3939
4325,4325,1835.0,4325
1966,1966,27.504,1966
4445,4445,2487.0,4445
3490,3490,23.696,3490
2486,2486,28.869,2486
1412,1412,26.408,1412
2940,2940,27.058000000000003,2940
822,822,31.64,822
3985,3985,1899.0,3985
2059,2059,2038.0,2059
3675,3675,1817.0,3675
4209,4209,1814.0,4209
2739,2739,2968.0,2739
1766,1766,27.537,1766
2113,2113,0.0,2113
621,621,2550.0,621
4670,4670,23.071,4670
2169,2169,874.0,2169
2165,2165,2516.0,2165
4504,4504,25.542,4504
1957,1957,0.0,1957
3656,3656,29.157,3656
1072,1072,23.746,1072
1896,1896,32.926,1896
2512,2512,31.42,2512
3669,3669,0.0,3669
3893,3893,1737.0,3893
2806,2806,29.427,2806
2861,2861,1860.0,2861
3760,3760,24.77,3760
2625,2625,1915.0,2625
1535,1535,1483.0,1535
1891,1891,541.0,1891
513,513,0.0,513
2979,2979,645.0,2979
3415,3415,3055.0,3415
623,623,2553.0,623
3616,3616,26.213,3616
2233,2233,2174.0,2233
727,727,2772.0,727
1335,1335,952.0,1335
1916,1916,29.253,1916
2814,2814,26.674,2814
2313,2313,1992.0,2313
3159,3159,3730.0,3159
855,855,1651.0,855
4313,4313,2838.0,4313
2556,2556,26.029,2556
2123,2123,2931.0,2123
1742,1742,32.524,1742
3042,3042,27.985,3042
4652,4652,26.35,4652
1373,1373,185.0,1373
2528,2528,24.427,2528
2178,2178,163.07299999999995,2178
4813,4813,2950.0,4813
2731,2731,1638.0,2731
1833,1833,3379.0,1833
2824,2824,23.943,2824
2470,2470,25.408,2470
2241,2241,0.0,2241
3440,3440,23.738000000000003,3440
2428,2428,24.217,2428
3316,3316,25.28,3316
4288,4288,25.836,4288
2956,2956,23.188,2956
4500,4500,23.445,4500
4292,4292,26.832,4292
3379,3379,3668.0,3379
3053,3053,3044.0,3053
763,763,516.0,763
905,905,0.0,905
1141,1141,3250.0,1141
2803,2803,609.0,2803
695,695,2058.0,695
3623,3623,0.0,3623
3640,3640,23.496,3640
4275,4275,1916.0,4275
3282,3282,84.242,3282
2480,2480,26.907,2480
1275,1275,2760.0,1275
4532,4532,24.144,4532
4081,4081,347.0,4081
3360,3360,24.158,3360
1206,1206,30.748,1206
3286,3286,24.925,3286
978,978,25.691,978
1931,1931,355.0,1931
1861,1861,1664.0,1861
1926,1926,26.621,1926
4340,4340,28.115,4340
2537,2537,2798.0,2537
1191,1191,1045.0,1191
1419,1419,621.0,1419
1174,1174,33.183,1174
2524,2524,23.996,2524
812,812,23.088,812
1450,1450,24.146,1450
4453,4453,3491.0,4453
2688,2688,36.558,2688
2863,2863,1321.0,2863
1252,1252,33.131,1252
1907,1907,0.0,1907
2008,2008,23.302,2008
1732,1732,32.292,1732
1043,1043,368.0,1043
3272,3272,28.07,3272
2653,2653,3740.0,2653
2772,2772,26.644,2772
4046,4046,23.376,4046
2505,2505,3677.0,2505
3594,3594,26.633000000000006,3594
1297,1297,174.0,1297
4143,4143,3087.0,4143
3854,3854,23.93,3854
2968,2968,25.285,2968
773,773,2855.0,773
4486,4486,23.161,4486
720,720,24.843000000000004,720
1323,1323,1340.0,1323
3816,3816,27.753,3816
4038,4038,25.188,4038
752,752,32.693000000000005,752
3449,3449,0.0,3449
770,770,23.325,770
4017,4017,0.0,4017
1709,1709,3184.0,1709
3210,3210,23.04,3210
1364,1364,80.085,1364
3077,3077,2234.0,3077
2818,2818,24.401,2818
1930,1930,25.522,1930
4239,4239,3053.0,4239
2137,2137,1444.0,2137
740,740,25.238000000000003,740
2262,2262,24.03,2262
4719,4719,2773.0,4719
2463,2463,3717.0,2463
3491,3491,1297.0,3491
1712,1712,24.426,1712
2043,2043,3485.0,2043
4651,4651,3239.0,4651
4711,4711,974.0,4711
2296,2296,33.934,2296
1584,1584,30.788,1584
1658,1658,28.256,1658
1256,1256,27.635,1256
2164,2164,141.296,2164
4654,4654,23.432,4654
1738,1738,24.431,1738
4383,4383,1498.0,4383
3325,3325,1585.0,3325
955,955,1517.0,955
4606,4606,25.271,4606
1239,1239,1108.0,1239
1741,1741,2094.0,1741
1289,1289,3105.0,1289
1377,1377,1196.0,1377
2230,2230,33.297,2230
4074,4074,24.701,4074
4326,4326,30.368,4326
2342,2342,30.764,2342
1935,1935,2797.0,1935
3809,3809,1362.0,3809
1987,1987,2030.0,1987
598,598,24.025,598
3205,3205,3719.0,3205
1789,1789,2709.0,1789
2257,2257,525.0,2257
1717,1717,2750.0,1717
3222,3222,35.382,3222
3896,3896,23.824,3896
1711,1711,238.0,1711
2980,2980,27.401,2980
2037,2037,1531.0,2037
1018,1018,26.221,1018
566,566,22.801,566
3251,3251,2440.0,3251
2497,2497,0.0,2497
3194,3194,24.025,3194
2669,2669,1410.0,2669
651,651,2526.0,651
1602,1602,24.123,1602
1601,1601,130.0,1601
2240,2240,25.535,2240
3359,3359,3375.0,3359
4796,4796,33.052,4796
4123,4123,2031.0,4123
3317,3317,1943.0,3317
1029,1029,2423.0,1029
1522,1522,25.245,1522
1939,1939,2544.0,1939
2218,2218,175.868,2218
4496,4496,24.172,4496
3408,3408,225.467,3408
690,690,28.693,690
3238,3238,37.981,3238
1761,1761,2015.0,1761
2710,2710,33.795,2710
4100,4100,25.753,4100
1699,1699,1843.0,1699
4728,4728,34.845,4728
906,906,25.777,906
4447,4447,482.0,4447
4130,4130,28.299,4130
1274,1274,34.585,1274
3091,3091,3594.0,3091
1691,1691,3295.0,1691
1188,1188,28.75,1188
4097,4097,971.0,4097
3507,3507,3195.0,3507
1574,1574,27.998,1574
4270,4270,28.705,4270
4817,4817,2427.0,4817
2353,2353,3318.0,2353
3472,3472,30.172,3472
783,783,2486.0,783
3220,3220,31.702,3220
2805,2805,1532.0,2805
3557,3557,3447.0,3557
2155,2155,3376.0,2155
3839,3839,3457.0,3839
2715,2715,1009.0,2715
1524,1524,23.113000000000003,1524
2276,2276,25.712,2276
1063,1063,2810.0,1063
3328,3328,26.495,3328
933,933,2561.0,933
4308,4308,25.544,4308
4352,4352,23.239,4352
1051,1051,1586.0,1051
4681,4681,2283.0,4681
3903,3903,851.0,3903
2045,2045,1638.0,2045
2167,2167,0.0,2167
877,877,240.0,877
2626,2626,39.084,2626
2619,2619,989.0,2619
3274,3274,28.077,3274
2849,2849,731.0,2849
4702,4702,26.124,4702
4540,4540,33.415,4540
4390,4390,29.437,4390
4347,4347,3104.0,4347
1848,1848,23.588,1848
3368,3368,24.576,3368
3621,3621,929.0,3621
2856,2856,23.466,2856
885,885,3722.0,885
748,748,35.143,748
2303,2303,761.0,2303
2589,2589,0.0,2589
3694,3694,27.684,3694
2117,2117,158.0,2117
3140,3140,30.788,3140
3025,3025,2013.0,3025
1290,1290,33.97,1290
1062,1062,28.413,1062
1929,1929,2529.0,1929
2159,2159,882.0,2159
1362,1362,28.926,1362
3345,3345,2985.0,3345
4686,4686,23.661,4686
1759,1759,795.0,1759
1171,1171,1575.0,1171
589,589,1882.0,589
3326,3326,30.263,3326
4805,4805,1223.0,4805
1553,1553,2826.0,1553
4556,4556,25.491,4556
2925,2925,96.0,2925
718,718,24.268,718
2868,2868,23.47,2868
4148,4148,26.328000000000007,4148
1376,1376,29.409,1376
1306,1306,29.234,1306
4166,4166,25.984,4166
2750,2750,31.403,2750
2395,2395,316.0,2395
1255,1255,3451.0,1255
3532,3532,28.618,3532
4801,4801,1446.0,4801
4418,4418,28.265,4418
1830,1830,28.176,1830
2014,2014,30.051,2014
3650,3650,28.863000000000003,3650
2432,2432,24.739,2432
1067,1067,2464.0,1067
1260,1260,34.135,1260
4464,4464,23.609,4464
1311,1311,1439.0,1311
4153,4153,0.0,4153
2518,2518,27.826,2518
2776,2776,27.145,2776
4052,4052,27.379,4052
4301,4301,1880.0,4301
1756,1756,23.761,1756
1566,1566,25.977,1566
2425,2425,679.0,2425
3891,3891,1692.0,3891
4043,4043,635.0,4043
1807,1807,3514.0,1807
2634,2634,30.631,2634
1594,1594,27.965,1594
2955,2955,3145.0,2955
1442,1442,25.055,1442
3435,3435,3330.0,3435
2640,2640,31.614,2640
1352,1352,23.337,1352
4084,4084,24.838,4084
4000,4000,23.955,4000
2221,2221,798.0,2221
3777,3777,1092.0,3777
2960,2960,24.046,2960
2324,2324,31.649,2324
1571,1571,3643.0,1571
3720,3720,114.181,3720
1544,1544,29.215,1544
1429,1429,1867.0,1429
3614,3614,28.92,3614
2918,2918,31.909,2918
3865,3865,377.0,3865
2454,2454,23.321,2454
3406,3406,30.985,3406
3071,3071,3410.0,3071
4210,4210,26.685,4210
4575,4575,2535.0,4575
3696,3696,32.575,3696
4537,4537,3046.0,4537
2707,2707,1735.0,2707
3263,3263,2511.0,3263
2009,2009,50.0,2009
3228,3228,27.845,3228
776,776,23.593000000000004,776
4269,4269,0.0,4269
1980,1980,26.089,1980
2245,2245,2702.0,2245
2515,2515,1155.0,2515
1510,1510,25.776,1510
4583,4583,0.0,4583
700,700,26.228,700
1846,1846,26.583,1846
4590,4590,25.814,4590
4636,4636,24.378,4636
2529,2529,2144.0,2529
4384,4384,30.426,4384
1182,1182,33.197,1182
523,523,3125.0,523
2426,2426,27.248,2426
861,861,2698.0,861
2236,2236,27.9,2236
3431,3431,3268.0,3431
1812,1812,25.208,1812
4510,4510,25.66,4510
3615,3615,0.0,3615
4640,4640,31.062,4640
4643,4643,0.0,4643
2592,2592,24.905,2592
3894,3894,23.766,3894
1919,1919,3320.0,1919
1910,1910,38.43,1910
3061,3061,276.0,3061
3422,3422,56.757,3422
2550,2550,34.065,2550
3872,3872,24.852,3872
4778,4778,28.827,4778
3264,3264,25.803,3264
2281,2281,556.0,2281
4786,4786,32.391,4786
4009,4009,1505.0,4009
3135,3135,1957.0,3135
4219,4219,1540.0,4219
4214,4214,27.549,4214
950,950,25.134,950
1580,1580,32.336,1580
504,504,23.771,504
1280,1280,32.273,1280
2393,2393,56.0,2393
1947,1947,2315.0,1947
1509,1509,3322.0,1509
3926,3926,27.999,3926
1971,1971,819.0,1971
2464,2464,33.922,2464
2574,2574,29.06,2574
1731,1731,1404.0,1731
4342,4342,25.709,4342
1016,1016,23.599,1016
4358,4358,23.143,4358
956,956,27.124,956
4536,4536,23.829,4536
1864,1864,35.732,1864
1843,1843,2384.0,1843
4201,4201,1489.0,4201
2758,2758,27.067,2758
1126,1126,35.936,1126
3761,3761,2512.0,3761
2681,2681,883.0,2681
1749,1749,1727.0,1749
2011,2011,2643.0,2011
4129,4129,2915.0,4129
1685,1685,2224.0,1685
2462,2462,26.467,2462
4359,4359,3569.0,4359
1822,1822,23.86,1822
1941,1941,3696.0,1941
4071,4071,3621.0,4071
708,708,26.773000000000003,708
675,675,1845.0,675
751,751,3528.0,751
4125,4125,908.0,4125
2730,2730,25.924,2730
4373,4373,287.0,4373
3634,3634,22.726,3634
2151,2151,2527.0,2151
3413,3413,1546.0,3413
3713,3713,0.0,3713
4268,4268,28.724,4268
2711,2711,2029.0,2711
3037,3037,1441.0,3037
2580,2580,23.602,2580
3774,3774,81.322,3774
1577,1577,3209.0,1577
2414,2414,34.23,2414
2514,2514,26.333,2514
2057,2057,0.0,2057
1301,1301,509.0,1301
4509,4509,2123.0,4509
2811,2811,2504.0,2811
784,784,24.318,784
1765,1765,2427.0,1765
4617,4617,3070.0,4617
3364,3364,23.077,3364
520,520,25.675,520
3884,3884,30.088,3884
2802,2802,30.639,2802
2306,2306,26.393,2306
3964,3964,23.455,3964
3078,3078,25.602,3078
2370,2370,26.93,2370
1869,1869,931.0,1869
4579,4579,401.0,4579
3064,3064,27.689,3064
4429,4429,912.0,4429
912,912,28.718000000000004,912
2433,2433,1743.0,2433
2289,2289,1963.0,2289
3997,3997,3105.0,3997
1876,1876,26.986,1876
941,941,700.0,941
2131,2131,107.0,2131
2409,2409,3315.0,2409
2413,2413,2083.0,2413
2187,2187,1547.0,2187
1670,1670,24.265,1670
2138,2138,24.716,2138
666,666,33.793,666
3710,3710,24.353,3710
2140,2140,28.903,2140
2496,2496,27.177,2496
3642,3642,23.625,3642
897,897,2650.0,897
1750,1750,23.882,1750
2756,2756,29.653,2756
4015,4015,2350.0,4015
1616,1616,27.66,1616
2134,2134,26.299,2134
2670,2670,27.815,2670
1637,1637,129.0,1637
1181,1181,0.0,1181
2906,2906,23.698,2906
1057,1057,3343.0,1057
1523,1523,666.0,1523
3380,3380,24.179,3380
4228,4228,34.622,4228
742,742,23.054,742
3705,3705,2664.0,3705
1158,1158,32.43,1158
3011,3011,1699.0,3011
2205,2205,3412.0,2205
2472,2472,25.657,2472
3214,3214,24.063,3214
819,819,541.0,819
3799,3799,833.0,3799
3020,3020,26.925,3020
3217,3217,1811.0,3217
3208,3208,25.199,3208
1862,1862,32.536,1862
3233,3233,514.0,3233
1395,1395,3728.0,1395
2500,2500,23.712,2500
3834,3834,34.886,3834
4159,4159,3606.0,4159
4493,4493,3143.0,4493
3646,3646,23.289,3646
2894,2894,34.258,2894
4111,4111,434.0,4111
4160,4160,23.661,4160
1000,1000,32.043,1000
593,593,422.0,593
2351,2351,2597.0,2351
4273,4273,2722.0,4273
3471,3471,854.0,3471
4220,4220,31.417,4220
4684,4684,24.057,4684
571,571,1877.0,571
1696,1696,23.356,1696
562,562,27.586,562
4274,4274,24.951,4274
1037,1037,2270.0,1037
1339,1339,1681.0,1339
2689,2689,3155.0,2689
1768,1768,26.195,1768
3125,3125,2971.0,3125
4776,4776,23.943,4776
2860,2860,25.361,2860
1462,1462,30.821,1462
1575,1575,2179.0,1575
3402,3402,219.398,3402
1147,1147,2902.0,1147
3998,3998,23.679,3998
2056,2056,22.818,2056
2362,2362,24.224,2362
3121,3121,2717.0,3121
1212,1212,30.467,1212
3666,3666,23.205,3666
977,977,1847.0,977
4250,4250,27.394,4250
4419,4419,562.0,4419
737,737,106.0,737
2290,2290,23.433000000000003,2290
4141,4141,309.0,4141
1161,1161,1233.0,1161
3114,3114,30.668000000000006,3114
754,754,32.194,754
1890,1890,33.452,1890
934,934,30.911,934
714,714,23.978,714
3610,3610,27.545,3610
3772,3772,29.296,3772
4069,4069,1498.0,4069
1155,1155,2422.0,1155
4470,4470,23.793000000000006,4470
1330,1330,26.913,1330
4281,4281,1949.0,4281
1558,1558,26.749,1558
3244,3244,185.073,3244
1307,1307,2137.0,1307
1946,1946,26.456,1946
3124,3124,22.949,3124
4571,4571,998.0,4571
4725,4725,341.0,4725
592,592,27.787,592
3947,3947,3663.0,3947
3262,3262,26.384,3262
1436,1436,26.558000000000003,1436
3632,3632,25.497,3632
4489,4489,1788.0,4489
2315,2315,3253.0,2315
2794,2794,33.209,2794
521,521,3487.0,521
2612,2612,25.325,2612
4457,4457,0.0,4457
1669,1669,2105.0,1669
3949,3949,530.0,3949
1138,1138,27.703000000000007,1138
3533,3533,380.0,3533
3180,3180,141.55200000000005,3180
2871,2871,3378.0,2871
3027,3027,1475.0,3027
2196,2196,29.532,2196
787,787,1572.0,787
2040,2040,24.357,2040
2174,2174,31.864,2174
2791,2791,491.0,2791
2519,2519,1249.0,2519
2735,2735,2288.0,2735
4039,4039,0.0,4039
3858,3858,24.234,3858
4086,4086,27.572,4086
1082,1082,26.137,1082
4376,4376,28.492,4376
1873,1873,3219.0,1873
1094,1094,27.258000000000006,1094
1004,1004,25.464,1004
3707,3707,2820.0,3707
1291,1291,2595.0,1291
4451,4451,132.0,4451
2951,2951,1692.0,2951
4742,4742,30.962,4742
2419,2419,3601.0,2419
641,641,2334.0,641
509,509,2105.0,509
3655,3655,1747.0,3655
3141,3141,797.0,3141
2783,2783,2120.0,2783
902,902,27.053,902
4618,4618,26.544,4618
2209,2209,1092.0,2209
3133,3133,0.0,3133
1672,1672,27.647,1672
1619,1619,2220.0,1619
2737,2737,63.0,2737
3982,3982,194.082,3982
659,659,2165.0,659
2683,2683,0.0,2683
2026,2026,25.461,2026
4031,4031,892.0,4031
4070,4070,28.745,4070
953,953,471.0,953
3933,3933,2280.0,3933
3198,3198,24.646,3198
2375,2375,2228.0,2375
1820,1820,24.145,1820
4298,4298,23.711,4298
2471,2471,3287.0,2471
4467,4467,2089.0,4467
3376,3376,25.944000000000006,3376
1124,1124,27.439,1124
1384,1384,22.88,1384
1648,1648,26.895,1648
4204,4204,30.395,4204
4223,4223,0.0,4223
2904,2904,31.012,2904
1552,1552,24.659,1552
741,741,289.0,741
3092,3092,28.188,3092
4252,4252,28.278,4252
3877,3877,2869.0,3877
2272,2272,187.086,2272
1630,1630,29.339,1630
569,569,597.0,569
2439,2439,0.0,2439
2206,2206,23.765,2206
2347,2347,562.0,2347
1382,1382,30.892,1382
1988,1988,31.858,1988
4689,4689,3728.0,4689
2461,2461,535.0,2461
1924,1924,35.527,1924
4021,4021,1168.0,4021
4588,4588,23.449,4588
1372,1372,27.137,1372
3959,3959,3612.0,3959
2203,2203,0.0,2203
4436,4436,29.958,4436
3630,3630,23.562,3630
3493,3493,3589.0,3493
4135,4135,0.0,4135
2846,2846,23.469,2846
2559,2559,3656.0,2559
1885,1885,0.0,1885
4499,4499,2983.0,4499
1730,1730,30.859,1730
3498,3498,31.361,3498
2000,2000,26.068,2000
1906,1906,28.785,1906
3596,3596,148.72899999999996,3596
582,582,23.402,582
775,775,741.0,775
3852,3852,25.275,3852
604,604,28.07,604
3046,3046,27.155,3046
4042,4042,212.691,4042
4768,4768,30.932,4768
4494,4494,23.627,4494
3055,3055,2859.0,3055
4293,4293,2322.0,4293
3678,3678,23.773000000000003,3678
1501,1501,3322.0,1501
4103,4103,1085.0,4103
3259,3259,2148.0,3259
3973,3973,112.0,3973
2391,2391,2282.0,2391
2673,2673,2527.0,2673
4221,4221,571.0,4221
1437,1437,789.0,1437
3209,3209,705.0,3209
3361,3361,2634.0,3361
1123,1123,1110.0,1123
4774,4774,26.846,4774
2665,2665,0.0,2665
4430,4430,24.206,4430
1990,1990,31.428,1990
974,974,28.909,974
1250,1250,28.043000000000006,1250
2318,2318,28.593000000000004,2318
803,803,589.0,803
3278,3278,104.939,3278
3986,3986,23.557,3986
4093,4093,991.0,4093
1108,1108,30.497,1108
680,680,31.696,680
4005,4005,612.0,4005
1556,1556,35.62,1556
1842,1842,23.617,1842
4018,4018,23.463,4018
3805,3805,53.0,3805
1633,1633,0.0,1633
1965,1965,1341.0,1965
3783,3783,2051.0,3783
1341,1341,3083.0,1341
1858,1858,33.611,1858
3913,3913,3244.0,3913
2012,2012,27.068,2012
4025,4025,963.0,4025
1019,1019,1170.0,1019
2404,2404,25.377,2404
4348,4348,27.935,4348
2722,2722,24.972,2722
4462,4462,23.725,4462
1838,1838,24.168000000000006,1838
1724,1724,24.311,1724
1036,1036,29.99,1036
2684,2684,37.162,2684
1839,1839,729.0,1839
911,911,0.0,911
1099,1099,1134.0,1099
870,870,23.766,870
2504,2504,25.767,2504
989,989,0.0,989
2736,2736,26.191,2736
1299,1299,198.0,1299
3243,3243,2429.0,3243
4775,4775,2456.0,4775
4354,4354,31.373,4354
2926,2926,28.268,2926
1557,1557,1511.0,1557
4701,4701,2967.0,4701
3995,3995,217.0,3995
887,887,1585.0,887
2771,2771,1613.0,2771
4595,4595,688.0,4595
3521,3521,1828.0,3521
2740,2740,30.766,2740
4481,4481,3088.0,4481
1139,1139,3539.0,1139
3031,3031,2234.0,3031
1624,1624,24.714,1624
4300,4300,24.595,4300
772,772,26.501,772
4044,4044,26.382,4044
2738,2738,33.754,2738
4692,4692,23.813,4692
1210,1210,31.275,1210
2875,2875,1792.0,2875
2679,2679,0.0,2679
2377,2377,2715.0,2377
3667,3667,1655.0,3667
4402,4402,23.709,4402
1733,1733,149.0,1733
1610,1610,23.35,1610
2423,2423,1379.0,2423
1680,1680,24.671,1680
4414,4414,23.696,4414
2575,2575,550.0,2575
1427,1427,3054.0,1427
2341,2341,1176.0,2341
4736,4736,25.584,4736
3337,3337,2898.0,3337
2144,2144,24.97,2144
1505,1505,3254.0,1505
1620,1620,32.581,1620
4105,4105,2893.0,4105
4706,4706,25.9,4706
1493,1493,1955.0,1493
3338,3338,26.923,3338
693,693,0.0,693
1573,1573,146.0,1573
1186,1186,26.717,1186
3609,3609,2538.0,3609
2795,2795,2668.0,2795
765,765,2543.0,765
4718,4718,27.492,4718
3212,3212,23.875,3212
3040,3040,27.975,3040
3812,3812,25.441,3812
2112,2112,23.579,2112
2142,2142,26.208,2142
3221,3221,2278.0,3221
3558,3558,33.621,3558
1578,1578,28.63,1578
852,852,28.912,852
4374,4374,24.468000000000004,4374
4594,4594,25.327,4594
983,983,3328.0,983
1851,1851,2110.0,1851
2576,2576,25.406,2576
4366,4366,23.604,4366
4128,4128,25.568,4128
1660,1660,23.87,1660
931,931,1897.0,931
3759,3759,941.0,3759
4007,4007,399.0,4007
1478,1478,29.438,1478
4716,4716,25.621,4716
630,630,27.643,630
2176,2176,24.654,2176
702,702,25.242,702
867,867,478.0,867
1805,1805,937.0,1805
2879,2879,0.0,2879
1097,1097,505.0,1097
4146,4146,25.744,4146
3956,3956,24.656,3956
3625,3625,460.0,3625
2163,2163,3517.0,2163
2542,2542,24.075,2542
1600,1600,24.162,1600
4484,4484,148.179,4484
1665,1665,1020.0,1665
2166,2166,25.338,2166
3322,3322,25.876,3322
4137,4137,1299.0,4137
1641,1641,1092.0,1641
4207,4207,2004.0,4207
3668,3668,24.219,3668
717,717,0.0,717
3938,3938,25.017,3938
2443,2443,466.0,2443
707,707,2057.0,707
1913,1913,188.0,1913
4124,4124,27.942,4124
3305,3305,2228.0,3305
608,608,26.009,608
2610,2610,27.626,2610
4441,4441,2256.0,4441
4187,4187,913.0,4187
3348,3348,24.496,3348
1414,1414,25.118,1414
2696,2696,27.871,2696
2677,2677,1476.0,2677
3122,3122,22.93,3122
2853,2853,3319.0,2853
3502,3502,32.262,3502
2964,2964,31.92,2964
3631,3631,1403.0,3631
3991,3991,728.0,3991
1686,1686,28.815,1686
1801,1801,654.0,1801
3779,3779,936.0,3779
3284,3284,24.494,3284
2872,2872,25.253,2872
3093,3093,342.0,3093
4752,4752,23.315,4752
4623,4623,3428.0,4623
506,506,24.063,506
2065,2065,423.0,2065
4211,4211,3627.0,4211
1763,1763,1419.0,1763
2989,2989,263.0,2989
4513,4513,2006.0,4513
3541,3541,1593.0,3541
572,572,23.267,572
3909,3909,1166.0,3909
4331,4331,1308.0,4331
4553,4553,1758.0,4553
1532,1532,24.968000000000004,1532
2793,2793,3205.0,2793
4259,4259,2205.0,4259
3677,3677,1164.0,3677
558,558,26.935,558
3226,3226,24.468000000000004,3226
2145,2145,0.0,2145
2508,2508,23.581,2508
1525,1525,1505.0,1525
3755,3755,2779.0,3755
4675,4675,3305.0,4675
3552,3552,28.047,3552
875,875,0.0,875
4771,4771,2233.0,4771
1690,1690,30.515,1690
1639,1639,1644.0,1639
2548,2548,25.202,2548
4355,4355,564.0,4355
1102,1102,35.713,1102
2152,2152,32.443000000000005,2152
1001,1001,1029.0,1001
4165,4165,1368.0,4165
2118,2118,25.739,2118
1244,1244,23.682,1244
3234,3234,179.28400000000005,3234
1671,1671,592.0,1671
4066,4066,24.799,4066
1148,1148,25.295,1148
3820,3820,23.64,3820
619,619,2647.0,619
2764,2764,24.848000000000006,2764
766,766,23.684,766
3034,3034,26.7,3034
2611,2611,2767.0,2611
3412,3412,85.708,3412
2766,2766,25.012,2766
4806,4806,34.628,4806
876,876,29.156,876
4562,4562,23.98,4562
4245,4245,2898.0,4245
4162,4162,24.363000000000003,4162
3202,3202,157.822,3202
2796,2796,30.626,2796
3663,3663,1329.0,3663
3319,3319,1619.0,3319
1293,1293,358.0,1293
4773,4773,0.0,4773
3249,3249,496.0,3249
568,568,30.883000000000006,568
4539,4539,886.0,4539
3075,3075,2427.0,3075
2768,2768,25.254,2768
4574,4574,24.739,4574
4490,4490,30.081,4490
811,811,3599.0,811
1456,1456,30.885,1456
4077,4077,3437.0,4077
2658,2658,24.089,2658
4406,4406,26.822,4406
684,684,32.55,684
2484,2484,26.896,2484
4041,4041,1049.0,4041
1593,1593,318.0,1593
4550,4550,28.167,4550
2813,2813,753.0,2813
2680,2680,25.387,2680
3563,3563,762.0,3563
924,924,34.632,924
557,557,2533.0,557
1267,1267,1235.0,1267
4215,4215,3709.0,4215
3166,3166,32.791,3166
1754,1754,23.139,1754
3192,3192,51.719,3192
844,844,28.456,844
1014,1014,26.087,1014
2733,2733,428.0,2733
833,833,666.0,833
2693,2693,2312.0,2693
4369,4369,532.0,4369
1743,1743,2833.0,1743
2516,2516,24.285,2516
2957,2957,184.0,2957
4413,4413,0.0,4413
1982,1982,29.207,1982
4737,4737,0.0,4737
1542,1542,34.763000000000005,1542
4083,4083,2767.0,4083
958,958,23.618,958
1928,1928,23.965,1928
3840,3840,25.737,3840
2943,2943,3689.0,2943
738,738,29.379,738
1585,1585,3478.0,1585
2643,2643,866.0,2643
3004,3004,24.109,3004
716,716,27.085,716
1603,1603,0.0,1603
1317,1317,2654.0,1317
2571,2571,3702.0,2571
1027,1027,444.0,1027
1714,1714,26.82,1714
3672,3672,23.438,3672
2213,2213,3434.0,2213
1246,1246,23.51,1246
2122,2122,25.903,2122
1452,1452,28.638,1452
834,834,26.202,834
3750,3750,27.492,3750
1090,1090,25.451,1090
2686,2686,35.833,2686
935,935,2511.0,935
1178,1178,26.438,1178
545,545,3728.0,545
3538,3538,29.341,3538
3976,3976,31.746,3976
815,815,2014.0,815
3324,3324,26.741,3324
2822,2822,26.428,2822
2392,2392,23.025,2392
1066,1066,30.842,1066
4755,4755,613.0,4755
4784,4784,23.031,4784
3522,3522,31.428,3522
1720,1720,22.982,1720
4056,4056,30.594,4056
3711,3711,1941.0,3711
1597,1597,925.0,1597
1184,1184,26.061,1184
2966,2966,23.237,2966
1909,1909,2313.0,1909
918,918,27.596,918
1262,1262,31.47,1262
1568,1568,29.173,1568
1003,1003,2460.0,1003
595,595,2305.0,595
3339,3339,2451.0,3339
988,988,24.266,988
2499,2499,1984.0,2499
3576,3576,23.705,3576
4061,4061,3680.0,4061
1859,1859,1150.0,1859
4236,4236,25.382,4236
1415,1415,1885.0,1415
4609,4609,0.0,4609
3806,3806,117.95,3806
3384,3384,27.125,3384
1247,1247,2578.0,1247
4777,4777,0.0,4777
2214,2214,24.985,2214
1035,1035,840.0,1035
3867,3867,0.0,3867
3627,3627,2292.0,3627
3725,3725,306.0,3725
3207,3207,3639.0,3207
1710,1710,24.94,1710
1592,1592,25.41,1592
3067,3067,384.0,3067
4519,4519,3314.0,4519
2815,2815,1419.0,2815
2826,2826,28.547,2826
2909,2909,2739.0,2909
925,925,1064.0,925
2864,2864,23.338,2864
3455,3455,2572.0,3455
617,617,2828.0,617
4715,4715,3087.0,4715
1170,1170,26.7,1170
3990,3990,26.783,3990
4527,4527,282.0,4527
1176,1176,34.868,1176
565,565,832.0,565
960,960,32.921,960
2344,2344,34.265,2344
4799,4799,2203.0,4799
2724,2724,30.555,2724
3403,3403,1789.0,3403
1893,1893,3621.0,1893
3047,3047,475.0,3047
1878,1878,27.317,1878
2349,2349,665.0,2349
596,596,27.643,596
3495,3495,2194.0,3495
2709,2709,0.0,2709
1218,1218,28.464,1218
1183,1183,1415.0,1183
2329,2329,2030.0,2329
3028,3028,27.805,3028
2264,2264,23.658,2264
2235,2235,2949.0,2235
3394,3394,27.247,3394
3186,3186,27.892,3186
1481,1481,3270.0,1481
2729,2729,3119.0,2729
4468,4468,23.75,4468
2770,2770,26.711,2770
1513,1513,1831.0,1513
848,848,27.57,848
1165,1165,1808.0,1165
3447,3447,761.0,3447
3237,3237,2303.0,3237
4312,4312,24.002,4312
997,997,3468.0,997
683,683,0.0,683
915,915,0.0,915
637,637,1587.0,637
828,828,30.165,828
4781,4781,3553.0,4781
1879,1879,1787.0,1879
3773,3773,0.0,3773
2460,2460,30.76,2460
970,970,29.035,970
992,992,26.782,992
3382,3382,23.949,3382
2076,2076,25.771,2076
821,821,3113.0,821
3512,3512,27.183000000000003,3512
3024,3024,32.066,3024
4577,4577,460.0,4577
2016,2016,32.242,2016
3999,3999,3484.0,3999
1337,1337,2932.0,1337
2661,2661,3453.0,2661
2775,2775,0.0,2775
4035,4035,1519.0,4035
4766,4766,30.677,4766
3499,3499,3346.0,3499
2025,2025,1338.0,2025
3483,3483,2062.0,3483
3138,3138,27.54,3138
4600,4600,23.922,4600
3086,3086,23.979,3086
3846,3846,25.354,3846
4650,4650,23.588,4650
1315,1315,3105.0,1315
2411,2411,805.0,2411
1278,1278,32.34,1278
4685,4685,312.0,4685
1788,1788,26.901,1788
1612,1612,30.642,1612
3258,3258,24.921,3258
3467,3467,3522.0,3467
1798,1798,25.779,1798
842,842,23.977,842
2493,2493,3194.0,2493
4184,4184,24.651,4184
3516,3516,29.611,3516
3752,3752,208.476,3752
747,747,1121.0,747
1271,1271,183.0,1271
736,736,27.751,736
524,524,26.509,524
3310,3310,23.615,3310
824,824,27.106,824
3120,3120,23.241,3120
872,872,25.392,872
4381,4381,3290.0,4381
1423,1423,262.0,1423
2194,2194,28.532,2194
4573,4573,1664.0,4573
3996,3996,23.777,3996
3479,3479,2814.0,3479
3543,3543,1500.0,3543
4620,4620,27.698,4620
2301,2301,3377.0,2301
1810,1810,27.214,1810
1052,1052,27.178,1052
1967,1967,2799.0,1967
4740,4740,30.681,4740
1867,1867,3434.0,1867
4473,4473,0.0,4473
2180,2180,191.437,2180
1814,1814,25.041,1814
2663,2663,1945.0,2663
2825,2825,2445.0,2825
3504,3504,32.041,3504
4296,4296,27.386,4296
3941,3941,1078.0,3941
2109,2109,3568.0,2109
3534,3534,24.182,3534
761,761,0.0,761
634,634,32.264,634
1881,1881,2004.0,1881
4167,4167,1937.0,4167
3045,3045,3323.0,3045
3737,3737,1225.0,3737
4382,4382,29.29,4382
3682,3682,23.4,3682
1213,1213,990.0,1213
886,886,26.129,886
2535,2535,1526.0,2535
2086,2086,34.649,2086
3381,3381,0.0,3381
3643,3643,3421.0,3643
1116,1116,25.709,1116
1951,1951,1120.0,1951
2243,2243,2965.0,2243
2895,2895,1690.0,2895
4172,4172,35.597,4172
536,536,35.569,536
2953,2953,2799.0,2953
4222,4222,33.918,4222
2617,2617,0.0,2617
758,758,22.542,758
3134,3134,23.926,3134
2160,2160,25.571,2160
2785,2785,3480.0,2785
4423,4423,1065.0,4423
4064,4064,24.372,4064
1251,1251,1107.0,1251
2252,2252,24.322,2252
3044,3044,27.451,3044
1487,1487,2702.0,1487
2672,2672,24.388,2672
588,588,27.265,588
2146,2146,29.084,2146
4049,4049,1513.0,4049
809,809,1729.0,809
2310,2310,27.161,2310
2336,2336,26.731,2336
2007,2007,838.0,2007
3807,3807,502.0,3807
1473,1473,1613.0,1473
2847,2847,416.0,2847
2211,2211,2832.0,2211
3751,3751,264.0,3751
1647,1647,925.0,1647
2533,2533,2653.0,2533
4498,4498,27.979,4498
2247,2247,557.0,2247
1646,1646,31.576,1646
3300,3300,28.953000000000007,3300
3476,3476,23.303,3476
3577,3577,1530.0,3577
4567,4567,127.0,4567
3515,3515,2331.0,3515
2882,2882,25.475,2882
1588,1588,25.719,1588
3863,3863,2388.0,3863
1925,1925,1972.0,1925
878,878,31.894,878
1835,1835,2696.0,1835
2638,2638,24.473000000000006,2638
4012,4012,25.063,4012
4551,4551,2766.0,4551
1972,1972,36.412,1972
4237,4237,2028.0,4237
2997,2997,495.0,2997
2810,2810,25.977,2810
2473,2473,1233.0,2473
1640,1640,25.921,1640
2020,2020,25.38,2020
722,722,26.017,722
1918,1918,26.583,1918
677,677,2451.0,677
1590,1590,29.774,1590
2458,2458,34.418,2458
4792,4792,26.852,4792
2066,2066,24.429,2066
669,669,1082.0,669
3945,3945,1893.0,3945
2656,2656,27.418000000000006,2656
4351,4351,967.0,4351
1020,1020,29.292,1020
883,883,2207.0,883
3170,3170,24.294,3170
3356,3356,24.746,3356
517,517,483.0,517
1328,1328,26.896,1328
2208,2208,25.143,2208
4665,4665,2657.0,4665
3450,3450,33.816,3450
1735,1735,2338.0,1735
3080,3080,26.558000000000003,3080
2553,2553,3589.0,2553
946,946,24.721,946
3200,3200,24.099,3200
3248,3248,24.88,3248
2506,2506,28.744,2506
4375,4375,1581.0,4375
3118,3118,24.579,3118
2590,2590,27.507,2590
3393,3393,2907.0,3393
2102,2102,33.183,2102
2449,2449,3261.0,2449
2116,2116,24.992,2116
4433,4433,1036.0,4433
4004,4004,23.41,4004
4545,4545,3632.0,4545
606,606,28.327,606
663,663,734.0,663
1059,1059,3673.0,1059
986,986,26.511,986
1379,1379,2450.0,1379
4739,4739,1362.0,4739
4362,4362,22.85,4362
4638,4638,23.254,4638
1615,1615,339.0,1615
3390,3390,22.962,3390
966,966,24.369,966
2763,2763,1854.0,2763
2346,2346,26.523000000000003,2346
3622,3622,23.652,3622
2405,2405,2249.0,2405
1300,1300,71.536,1300
2704,2704,28.001,2704
1296,1296,36.725,1296
1705,1705,1960.0,1705
2114,2114,22.844,2114
2530,2530,28.13,2530
1258,1258,25.584,1258
3433,3433,410.0,3433
1572,1572,25.45,1572
873,873,2146.0,873
3599,3599,731.0,3599
4703,4703,1680.0,4703
3096,3096,28.704,3096
4653,4653,92.0,4653
3855,3855,2169.0,3855
3161,3161,2854.0,3161
2387,2387,412.0,2387
4788,4788,26.754,4788
2836,2836,23.154,2836
1464,1464,32.513000000000005,1464
3396,3396,28.496,3396
2453,2453,317.0,2453
628,628,23.152,628
3509,3509,3639.0,3509
2444,2444,25.212,2444
4569,4569,658.0,4569
4644,4644,23.251,4644
4261,4261,1008.0,4261
4155,4155,1257.0,4155
3801,3801,2167.0,3801
2746,2746,26.746,2746
1400,1400,26.012,1400
1378,1378,28.711,1378
4810,4810,25.546,4810
2265,2265,363.0,2265
3365,3365,2779.0,3365
1953,1953,492.0,1953
2921,2921,1471.0,2921
3827,3827,2581.0,3827
2714,2714,26.143,2714
2248,2248,24.803,2248
1962,1962,23.802,1962
4808,4808,36.972,4808
1899,1899,3319.0,1899
1863,1863,3317.0,1863
1954,1954,27.166,1954
2919,2919,2069.0,2919
1381,1381,0.0,1381
3369,3369,0.0,3369
2699,2699,842.0,2699
4305,4305,2321.0,4305
1098,1098,29.192,1098
3701,3701,2225.0,3701
4385,4385,2924.0,4385
2620,2620,23.735,2620
899,899,3632.0,899
1912,1912,35.48699999999999,1912
1185,1185,229.0,1185
1591,1591,1509.0,1591
1367,1367,2994.0,1367
4396,4396,23.24,4396
2492,2492,26.839,2492
1627,1627,2425.0,1627
4333,4333,2728.0,4333
771,771,502.0,771
4568,4568,23.54,4568
3306,3306,24.148000000000003,3306
1013,1013,1972.0,1013
2902,2902,27.693,2902
1338,1338,26.006,1338
1249,1249,3638.0,1249
3560,3560,229.124,3560
2468,2468,25.753,2468
3335,3335,423.0,3335
3603,3603,1664.0,3603
1937,1937,2782.0,1937
1531,1531,2755.0,1531
4121,4121,3457.0,4121
2357,2357,301.0,2357
3315,3315,1673.0,3315
1499,1499,2946.0,1499
2321,2321,2490.0,2321
2338,2338,27.548,2338
3700,3700,27.361,3700
1151,1151,1011.0,1151
518,518,36.422,518
4213,4213,1695.0,4213
1868,1868,35.232,1868
3432,3432,151.55100000000004,3432
3478,3478,23.825,3478
2067,2067,0.0,2067
2488,2488,23.858,2488
3404,3404,151.252,3404
2599,2599,3059.0,2599
2435,2435,388.0,2435
1169,1169,2490.0,1169
3169,3169,1664.0,3169
2848,2848,24.947,2848
1945,1945,174.0,1945
1403,1403,1335.0,1403
1841,1841,546.0,1841
1015,1015,2575.0,1015
4119,4119,721.0,4119
835,835,108.0,835
4063,4063,2749.0,4063
3236,3236,24.475,3236
2959,2959,1444.0,2959
3633,3633,2204.0,3633
1084,1084,27.068,1084
1964,1964,25.109,1964
4315,4315,3223.0,4315
2451,2451,131.0,2451
639,639,106.0,639
4380,4380,30.766,4380
1649,1649,2706.0,1649
4120,4120,35.088,4120
3462,3462,25.898000000000003,3462
1159,1159,2057.0,1159
3899,3899,3692.0,3899
3049,3049,130.0,3049
2202,2202,26.549,2202
4802,4802,30.292,4802
4107,4107,1710.0,4107
3293,3293,1987.0,3293
1993,1993,3574.0,1993
2760,2760,27.58,2760
3797,3797,1386.0,3797
4175,4175,3316.0,4175
2789,2789,0.0,2789
1480,1480,28.225,1480
3358,3358,23.163,3358
2327,2327,3451.0,2327
2781,2781,0.0,2781
1266,1266,28.105,1266
1976,1976,23.568,1976
2232,2232,32.716,2232
3946,3946,214.107,3946
3496,3496,204.257,3496
829,829,840.0,829
1565,1565,981.0,1565
4299,4299,1961.0,4299
2384,2384,24.899,2384
2773,2773,0.0,2773
3148,3148,33.778,3148
1804,1804,26.564,1804
3410,3410,31.188,3410
3822,3822,27.094,3822
4291,4291,2136.0,4291
1441,1441,2207.0,1441
1500,1500,36.295,1500
2385,2385,0.0,2385
3492,3492,29.426,3492
1529,1529,1616.0,1529
1331,1331,612.0,1331
3164,3164,25.553,3164
1504,1504,29.674,1504
541,541,2668.0,541
3611,3611,3050.0,3611
2438,2438,27.21,2438
534,534,35.586,534
4013,4013,3455.0,4013
1609,1609,651.0,1609
1375,1375,3538.0,1375
1779,1779,181.0,1779
626,626,37.387,626
1776,1776,25.325,1776
2578,2578,29.91,2578
853,853,3642.0,853
1831,1831,1808.0,1831
1407,1407,0.0,1407
882,882,26.694000000000006,882
3595,3595,0.0,3595
4370,4370,24.953000000000007,4370
3766,3766,27.776,3766
1088,1088,26.503,1088
2873,2873,1808.0,2873
3928,3928,24.24,3928
3951,3951,1250.0,3951
1162,1162,23.252,1162
4050,4050,28.85,4050
3199,3199,3464.0,3199
3418,3418,23.354,3418
2217,2217,1690.0,2217
817,817,843.0,817
4482,4482,23.574,4482
610,610,25.715,610
725,725,941.0,725
1769,1769,2496.0,1769
1825,1825,3424.0,1825
2487,2487,2848.0,2487
1897,1897,3101.0,1897
1137,1137,3081.0,1137
2539,2539,0.0,2539
3354,3354,31.513,3354
994,994,23.491,994
3718,3718,23.795,3718
575,575,3087.0,575
4028,4028,146.167,4028
2850,2850,28.729,2850
3424,3424,147.387,3424
2266,2266,26.528,2266
1747,1747,2452.0,1747
1420,1420,26.785,1420
4205,4205,44.0,4205
4257,4257,2394.0,4257
1243,1243,3109.0,1243
594,594,26.233,594
1231,1231,0.0,1231
4794,4794,32.125,4794
613,613,3260.0,613
3112,3112,24.46,3112
3932,3932,25.909,3932
3190,3190,23.511,3190
2534,2534,27.81,2534
2228,2228,192.354,2228
2078,2078,23.562,2078
570,570,25.205,570
4055,4055,909.0,4055
3083,3083,2279.0,3083
4391,4391,266.0,4391
2128,2128,29.373,2128
4244,4244,27.953000000000007,4244
2244,2244,25.81,2244
4417,4417,2938.0,4417
3320,3320,201.003,3320
3149,3149,1629.0,3149
2605,2605,0.0,2605
2606,2606,24.462,2606
1132,1132,26.935,1132
2069,2069,0.0,2069
4616,4616,31.961,4616
3744,3744,26.75,3744
730,730,24.219,730
2300,2300,26.88,2300
2434,2434,25.162,2434
2647,2647,1413.0,2647
3182,3182,25.543000000000006,3182
4334,4334,23.483,4334
2371,2371,0.0,2371
1853,1853,3009.0,1853
938,938,28.548,938
3407,3407,1499.0,3407
2474,2474,26.298,2474
3318,3318,28.786,3318
2933,2933,3497.0,2933
2992,2992,27.011,2992
4738,4738,31.884,4738
4520,4520,24.45,4520
2723,2723,3581.0,2723
4535,4535,3456.0,4535
2903,2903,3293.0,2903
1673,1673,1717.0,1673
2079,2079,770.0,2079
2003,2003,0.0,2003
3103,3103,109.0,3103
4341,4341,2889.0,4341
2201,2201,3466.0,2201
4051,4051,2155.0,4051
3038,3038,32.443000000000005,3038
2583,2583,2311.0,2583
3782,3782,27.475,3782
2168,2168,23.256,2168
1302,1302,75.803,1302
3022,3022,26.881,3022
2061,2061,2352.0,2061
4432,4432,26.191,4432
1689,1689,681.0,1689
2181,2181,71.0,2181
3966,3966,29.883000000000006,3966
1875,1875,0.0,1875
1582,1582,28.936,1582
2172,2172,24.106,2172
1432,1432,37.786,1432
2332,2332,26.441,2332
1519,1519,2254.0,1519
2812,2812,29.603,2812
4576,4576,23.502,4576
744,744,25.606,744
3793,3793,3450.0,3793
4682,4682,23.876,4682
3343,3343,2848.0,3343
2604,2604,41.137,2604
4420,4420,29.002,4420
799,799,2142.0,799
2479,2479,2072.0,2479
1114,1114,25.806,1114
3977,3977,0.0,3977
831,831,1367.0,831
2084,2084,23.937,2084
2184,2184,31.176,2184
4388,4388,29.328000000000007,4388
1175,1175,3569.0,1175
1815,1815,636.0,1815
2511,2511,2574.0,2511
4465,4465,3467.0,4465
3606,3606,27.728,3606
1083,1083,3090.0,1083
535,535,2932.0,535
2726,2726,35.71,2726
1793,1793,1980.0,1793
2761,2761,2748.0,2761
4150,4150,27.856,4150
993,993,1400.0,993
1078,1078,23.501,1078
3901,3901,0.0,3901
4126,4126,26.953000000000007,4126
2378,2378,34.428000000000004,2378
4555,4555,0.0,4555
1716,1716,27.907,1716
698,698,23.609,698
793,793,1363.0,793
4379,4379,0.0,4379
3943,3943,1512.0,3943
3501,3501,2006.0,3501
900,900,29.834,900
3506,3506,29.212,3506
4407,4407,1412.0,4407
2055,2055,762.0,2055
3349,3349,1352.0,3349
949,949,3130.0,949
2223,2223,1619.0,2223
3747,3747,2978.0,3747
2082,2082,33.226,2082
4627,4627,564.0,4627
4235,4235,780.0,4235
522,522,28.106,522
2355,2355,1089.0,2355
699,699,3146.0,699
854,854,22.879,854
2963,2963,3402.0,2963
884,884,23.409,884
1180,1180,34.782,1180
1871,1871,81.0,1871
1617,1617,593.0,1617
4006,4006,25.285,4006
1661,1661,2937.0,1661
4397,4397,3617.0,4397
796,796,30.788,796
1467,1467,3129.0,1467
2969,2969,1668.0,2969
3446,3446,25.054,3446
4095,4095,0.0,4095
903,903,1605.0,903
3126,3126,23.341,3126
3605,3605,2786.0,3605
2659,2659,994.0,2659
729,729,1852.0,729
647,647,1340.0,647
1142,1142,26.957,1142
2993,2993,1740.0,2993
599,599,644.0,599
4641,4641,1360.0,4641
1955,1955,441.0,1955
2390,2390,23.566,2390
2907,2907,2377.0,2907
3719,3719,2731.0,3719
721,721,1183.0,721
1780,1780,23.251,1780
1416,1416,27.183000000000003,1416
2971,2971,0.0,2971
2382,2382,26.414,2382
880,880,34.827,880
3099,3099,0.0,3099
2552,2552,25.458,2552
1518,1518,23.092,1518
2287,2287,1252.0,2287
1321,1321,714.0,1321
3375,3375,3527.0,3375
913,913,3092.0,913
3283,3283,1692.0,3283
3778,3778,30.662,3778
1406,1406,28.389,1406
3730,3730,25.484,3730
4710,4710,172.455,4710
3087,3087,63.0,3087
3979,3979,1310.0,3979
3626,3626,23.21,3626
1024,1024,27.5,1024
849,849,780.0,849
4552,4552,27.216,4552
3517,3517,0.0,3517
2765,2765,2053.0,2765
1850,1850,24.872,1850
4785,4785,2182.0,4785
1829,1829,2673.0,1829
4198,4198,24.428,4198
2139,2139,1797.0,2139
1781,1781,0.0,1781
1021,1021,0.0,1021
3063,3063,902.0,3063
3717,3717,676.0,3717
3970,3970,187.342,3970
2267,2267,1297.0,2267
3679,3679,567.0,3679
3617,3617,1826.0,3617
4422,4422,37.978,4422
3588,3588,26.719,3588
2036,2036,26.915,2036
4664,4664,23.746,4664
1353,1353,3013.0,1353
3860,3860,145.02,3860
1077,1077,441.0,1077
2827,2827,0.0,2827
3129,3129,1755.0,3129
3587,3587,1180.0,3587
3992,3992,22.72,3992
620,620,38.574,620
2807,2807,1644.0,2807
3503,3503,960.0,3503
2309,2309,2539.0,2309
2004,2004,32.674,2004
1719,1719,236.0,1719
3741,3741,2804.0,3741
2237,2237,1926.0,2237
2295,2295,3554.0,2295
3464,3464,29.681,3464
2227,2227,2284.0,2227
1999,1999,3559.0,1999
3308,3308,26.141,3308
4564,4564,24.537,4564
3427,3427,0.0,3427
531,531,1110.0,531
4078,4078,27.927,4078
3229,3229,429.0,3229
4791,4791,1160.0,4791
3265,3265,2664.0,3265
3109,3109,802.0,3109
2469,2469,1687.0,2469
4072,4072,32.53,4072
3550,3550,23.634,3550
3423,3423,2561.0,3423
3873,3873,1050.0,3873
3721,3721,447.0,3721
3218,3218,30.966,3218
1589,1589,0.0,1589
1883,1883,3237.0,1883
4765,4765,998.0,4765
1852,1852,26.012,1852
4480,4480,23.074,4480
975,975,773.0,975
2285,2285,0.0,2285
1752,1752,25.054,1752
2991,2991,0.0,2991
3571,3571,3110.0,3571
1604,1604,27.339,1604
2080,2080,22.863000000000003,2080
1101,1101,2448.0,1101
1723,1723,213.0,1723
3638,3638,23.888,3638
1796,1796,35.48300000000001,1796
1775,1775,110.0,1775
4080,4080,23.609,4080
3784,3784,27.622,3784
2786,2786,30.431,2786
2302,2302,26.865,2302
2554,2554,24.311,2554
2156,2156,26.372,2156
1380,1380,27.533,1380
3853,3853,315.0,3853
3068,3068,24.413,3068
1396,1396,26.037,1396
3052,3052,26.245,3052
4192,4192,24.182,4192
4094,4094,26.404,4094
4610,4610,25.484,4610
2695,2695,608.0,2695
2068,2068,24.326,2068
985,985,2756.0,985
1349,1349,3086.0,1349
2983,2983,2083.0,2983
2924,2924,24.84,2924
2896,2896,26.658,2896
3401,3401,2990.0,3401
4393,4393,104.0,4393
3882,3882,28.083,3882
1316,1316,28.086,1316
3165,3165,3038.0,3165
1470,1470,64.449,1470
4596,4596,23.278,4596
2744,2744,26.498,2744
2051,2051,1185.0,2051
2588,2588,30.04,2588
3765,3765,653.0,3765
1817,1817,1969.0,1817
3593,3593,333.0,3593
1294,1294,29.128,1294
1533,1533,706.0,1533
1728,1728,30.039,1728
3739,3739,0.0,3739
1434,1434,27.707,1434
1103,1103,1404.0,1103
4505,4505,2953.0,4505
3332,3332,181.936,3332
4322,4322,32.999,4322
633,633,1890.0,633
4068,4068,23.079,4068
3005,3005,2206.0,3005
1199,1199,3620.0,1199
2195,2195,2564.0,2195
4372,4372,26.373,4372
4218,4218,36.099,4218
1596,1596,22.825,1596
1369,1369,1807.0,1369
4092,4092,29.602,4092
4118,4118,26.621,4118
3728,3728,26.72,3728
987,987,2903.0,987
2797,2797,2403.0,2797
646,646,28.918000000000006,646
4145,4145,654.0,4145
2188,2188,33.192,2188
671,671,2182.0,671
4387,4387,3081.0,4387
750,750,24.146,750
1772,1772,26.549,1772
1607,1607,739.0,1607
3898,3898,26.373,3898
1936,1936,26.193,1936
2834,2834,24.046,2834
1652,1652,36.81800000000001,1652
4026,4026,23.353,4026
2501,2501,3251.0,2501
2694,2694,32.546,2694
1040,1040,26.397,1040
1440,1440,27.401,1440
4203,4203,938.0,4203
3136,3136,26.732,3136
2270,2270,23.588,2270
1991,1991,2220.0,1991
3548,3548,27.148000000000003,3548
3684,3684,23.627,3684
3726,3726,39.049,3726
1613,1613,3005.0,1613
2749,2749,657.0,2749
603,603,2371.0,603
3298,3298,26.894,3298
627,627,2050.0,627
1880,1880,23.924,1880
660,660,33.927,660
2436,2436,24.581,2436
4258,4258,26.408,4258
4037,4037,0.0,4037
3673,3673,1955.0,3673
4779,4779,820.0,4779
1272,1272,29.329,1272
1892,1892,23.712,1892
622,622,27.866,622
4672,4672,31.229,4672
2718,2718,32.336,2718
4297,4297,1600.0,4297
1131,1131,2499.0,1131
3664,3664,23.066,3664
1595,1595,2177.0,1595
4458,4458,27.48,4458
4405,4405,0.0,4405
2416,2416,23.833,2416
4242,4242,23.367,4242
1214,1214,30.72,1214
1495,1495,2179.0,1495
794,794,25.518,794
2928,2928,26.938,2928
1451,1451,871.0,1451
4262,4262,24.189,4262
4206,4206,26.549,4206
3536,3536,24.524,3536
2835,2835,1556.0,2835
1503,1503,257.0,1503
2448,2448,23.447,2448
871,871,1347.0,871
3160,3160,24.307,3160
2339,2339,0.0,2339
625,625,3382.0,625
3549,3549,891.0,3549
1042,1042,26.846,1042
3111,3111,1033.0,3111
4679,4679,3211.0,4679
2292,2292,24.572,2292
942,942,23.067,942
4096,4096,24.187,4096
3780,3780,23.992,3780
3681,3681,3137.0,3681
1821,1821,2124.0,1821
3764,3764,31.212,3764
2852,2852,23.17,2852
2691,2691,78.0,2691
3843,3843,2108.0,3843
3900,3900,202.734,3900
1952,1952,28.132,1952
3439,3439,228.0,3439
2901,2901,442.0,2901
715,715,2555.0,715
3006,3006,34.035,3006
1674,1674,28.706,1674
2394,2394,27.065,2394
2522,2522,23.93,2522
1560,1560,33.788000000000004,1560
4544,4544,34.483000000000004,4544
4667,4667,68.0,4667
785,785,753.0,785
1025,1025,2543.0,1025
888,888,23.202,888
1448,1448,22.646,1448
2319,2319,219.0,2319
2408,2408,24.831,2408
1948,1948,32.258,1948
2878,2878,23.36,2878
4554,4554,24.971,4554
3477,3477,52.0,3477
3641,3641,2404.0,3641
2974,2974,24.227,2974
3937,3937,2737.0,3937
1288,1288,23.715,1288
790,790,24.698,790
4631,4631,395.0,4631
4425,4425,2133.0,4425
1413,1413,1021.0,1413
4102,4102,26.555,4102
2622,2622,22.795,2622
777,777,3087.0,777
1466,1466,31.861,1466
1737,1737,1637.0,1737
2326,2326,31.294,2326
2410,2410,25.329,2410
2150,2150,41.054,2150
3984,3984,23.807,3984
1421,1421,277.0,1421
3057,3057,376.0,3057
3157,3157,825.0,3157
4157,4157,2091.0,4157
2952,2952,23.985,2952
4392,4392,28.303,4392
1120,1120,28.134,1120
4367,4367,2259.0,4367
1979,1979,2228.0,1979
1693,1693,3380.0,1693
3724,3724,31.366,3724
3333,3333,1083.0,3333
3188,3188,31.16,3188
4743,4743,94.0,4743
4014,4014,24.977,4014
2842,2842,26.782,2842
4247,4247,2540.0,4247
3223,3223,3148.0,3223
1734,1734,25.787,1734
4264,4264,35.14,4264
2551,2551,970.0,2551
4182,4182,23.95,4182
969,969,0.0,969
3137,3137,3646.0,3137
3813,3813,185.0,3813
1430,1430,27.978,1430
3924,3924,174.418,3924
1259,1259,3065.0,1259
1745,1745,2672.0,1745
2753,2753,2774.0,2753
1653,1653,0.0,1653
2029,2029,2366.0,2029
3452,3452,147.507,3452
1512,1512,26.369,1512
2975,2975,2523.0,2975
3196,3196,30.637,3196
2712,2712,24.15,2712
1911,1911,1543.0,1911
3582,3582,185.478,3582
2676,2676,28.983,2676
4276,4276,26.485,4276
2946,2946,27.19,2946
731,731,577.0,731
2041,2041,3464.0,2041
2400,2400,27.763,2400
3892,3892,198.974,3892
1204,1204,24.04,1204
894,894,24.333,894
4208,4208,25.791,4208
939,939,1093.0,939
1537,1537,0.0,1537
2755,2755,672.0,2755
2442,2442,25.038,2442
1995,1995,2497.0,1995
920,920,24.46,920
4320,4320,23.761,4320
3833,3833,2979.0,3833
1313,1313,3640.0,1313
1095,1095,394.0,1095
2098,2098,37.631,2098
2060,2060,23.591,2060
2046,2046,26.658,2046
2994,2994,29.645,2994
1236,1236,24.315,1236
612,612,29.531,612
2019,2019,3076.0,2019
1360,1360,23.259,1360
1985,1985,2649.0,1985
3465,3465,2348.0,3465
3066,3066,29.414,3066
3448,3448,24.583,3448
2277,2277,537.0,2277
3817,3817,2703.0,3817
1489,1489,2607.0,1489
3252,3252,182.967,3252
4260,4260,23.347,4260
4248,4248,34.878,4248
552,552,27.366,552
3457,3457,775.0,3457
3962,3962,23.652,3962
2018,2018,26.144,2018
3399,3399,665.0,3399
4353,4353,294.0,4353
2027,2027,3213.0,2027
1791,1791,387.0,1791
3844,3844,36.577,3844
764,764,23.745,764
2038,2038,23.2,2038
923,923,1629.0,923
4412,4412,24.012,4412
4053,4053,498.0,4053
837,837,1461.0,837
2865,2865,2150.0,2865
782,782,23.336,782
2279,2279,2911.0,2279
3906,3906,77.74600000000002,3906
4648,4648,25.023000000000003,4648
3983,3983,2381.0,3983
901,901,2465.0,901
3665,3665,1407.0,3665
2752,2752,29.365,2752
2513,2513,873.0,2513
4240,4240,24.385,4240
3565,3565,1388.0,3565
4559,4559,3244.0,4559
4188,4188,35.944,4188
600,600,25.587,600
2100,2100,28.562,2100
2652,2652,27.532,2652
4108,4108,27.809,4108
1245,1245,1234.0,1245
4591,4591,949.0,4591
3215,3215,905.0,3215
4586,4586,30.376,4586
2641,2641,2540.0,2641
3918,3918,98.035,3918
3798,3798,23.994,3798
2191,2191,670.0,2191
4646,4646,25.721,4646
1713,1713,327.0,1713
580,580,27.933000000000003,580
4163,4163,3600.0,4163
1795,1795,2369.0,1795
3845,3845,0.0,3845
2930,2930,23.205,2930
3525,3525,2911.0,3525
706,706,24.384,706
2845,2845,0.0,2845
3330,3330,31.518,3330
2081,2081,2886.0,2081
4131,4131,219.0,4131
3574,3574,23.433000000000003,3574
3070,3070,25.639,3070
3612,3612,29.122,3612
1333,1333,2207.0,1333
4633,4633,353.0,4633
1150,1150,29.329,1150
1348,1348,23.73,1348
1960,1960,25.853,1960
3353,3353,1969.0,3353
4767,4767,1387.0,4767
2171,2171,0.0,2171
965,965,3029.0,965
4732,4732,35.971,4732
1366,1366,27.273000000000003,1366
1854,1854,26.412,1854
691,691,0.0,691
4426,4426,25.776,4426
4360,4360,27.166,4360
1517,1517,0.0,1517
1668,1668,30.289,1668
4744,4744,26.356,4744
1133,1133,449.0,1133
2809,2809,108.0,2809
4565,4565,3665.0,4565
2107,2107,3639.0,2107
3437,3437,143.0,3437
581,581,500.0,581
1561,1561,2216.0,1561
952,952,27.07,952
3016,3016,27.609,3016
4700,4700,26.797,4700
1140,1140,25.82,1140
2491,2491,3106.0,2491
567,567,2563.0,567
1034,1034,27.133000000000006,1034
1005,1005,2465.0,1005
1973,1973,0.0,1973
1105,1105,40.0,1105
1635,1635,1545.0,1635
538,538,28.682,538
591,591,0.0,591
3529,3529,487.0,3529
1832,1832,26.378,1832
1887,1887,0.0,1887
1969,1969,2035.0,1969
1030,1030,28.998,1030
4343,4343,3445.0,4343
1902,1902,28.845,1902
1983,1983,489.0,1983
1303,1303,3053.0,1303
3273,3273,3424.0,3273
4587,4587,129.0,4587
561,561,3053.0,561
2141,2141,603.0,2141
3460,3460,28.866,3460
2754,2754,27.805,2754
1806,1806,35.768,1806
2367,2367,2291.0,2367
3921,3921,0.0,3921
1225,1225,1972.0,1225
2577,2577,2006.0,2577
3581,3581,1018.0,3581
1679,1679,2361.0,1679
3636,3636,29.825,3636
1023,1023,3275.0,1023
1638,1638,28.029,1638
4478,4478,27.504,4478
3373,3373,3117.0,3373
1587,1587,1982.0,1587
3323,3323,652.0,3323
4503,4503,3177.0,4503
2035,2035,2988.0,2035
1242,1242,26.994,1242
2948,2948,25.794,2948
1901,1901,829.0,1901
2023,2023,0.0,2023
1476,1476,35.975,1476
1539,1539,1856.0,1539
2403,2403,588.0,2403
556,556,32.913000000000004,556
4310,4310,30.793000000000006,4310
4523,4523,461.0,4523
3767,3767,347.0,3767
4607,4607,1680.0,4607
3902,3902,27.343000000000004,3902
1950,1950,28.191,1950
2307,2307,2806.0,2307
739,739,0.0,739
1515,1515,3369.0,1515
4717,4717,3122.0,4717
3967,3967,2739.0,3967
2125,2125,1050.0,2125
2481,2481,3596.0,2481
3729,3729,3557.0,3729
3660,3660,26.098000000000006,3660
3994,3994,25.843000000000004,3994
505,505,3207.0,505
3736,3736,26.109,3736
4424,4424,26.175,4424
4628,4628,26.175,4628
4154,4154,30.253,4154
2070,2070,43.481,2070
4804,4804,33.364000000000004,4804
539,539,2167.0,539
3178,3178,26.009,3178
4344,4344,27.059,4344
3327,3327,259.0,3327
3676,3676,23.319000000000006,3676
3787,3787,3419.0,3787
602,602,24.75,602
1092,1092,25.131,1092
1264,1264,26.799,1264
2229,2229,1021.0,2229
1917,1917,1083.0,1917
1110,1110,24.21,1110
2720,2720,26.373,2720
3420,3420,23.029,3420
1963,1963,1869.0,1963
2973,2973,1869.0,2973
4697,4697,3143.0,4697
2525,2525,2898.0,2525
3930,3930,143.317,3930
3312,3312,26.151,3312
1834,1834,24.108,1834
846,846,26.426,846
4008,4008,30.815,4008
980,980,26.384,980
3480,3480,31.753,3480
4624,4624,30.206,4624
4194,4194,23.173,4194
3965,3965,2445.0,3965
2703,2703,1410.0,2703
1934,1934,27.615,1934
2369,2369,759.0,2369
2941,2941,2903.0,2941
3654,3654,28.539,3654
3391,3391,0.0,3391
3416,3416,23.446,3416
1687,1687,1185.0,1687
4578,4578,36.199,4578
967,967,3108.0,967
2456,2456,23.197,2456
3174,3174,23.769,3174
3453,3453,0.0,3453
1554,1554,31.049,1554
972,972,33.711,972
2719,2719,559.0,2719
3510,3510,29.848000000000006,3510
2042,2042,25.509,2042
1038,1038,27.301,1038
804,804,23.751,804
1056,1056,28.632,1056
2022,2022,25.419,2022
3526,3526,31.504,3526
4217,4217,633.0,4217
1402,1402,23.263,1402
1422,1422,24.124,1422
3367,3367,3676.0,3367
3193,3193,840.0,3193
3520,3520,195.185,3520
2450,2450,23.459,2450
3920,3920,183.437,3920
4619,4619,1443.0,4619
1618,1618,30.043000000000006,1618
2870,2870,24.933000000000003,2870
3260,3260,31.703000000000007,3260
1156,1156,31.994,1156
841,841,754.0,841
2402,2402,26.831,2402
3304,3304,37.558,3304
2271,2271,524.0,2271
2503,2503,2904.0,2503
2475,2475,745.0,2475
1940,1940,26.386,1940
3566,3566,148.466,3566
1797,1797,1897.0,1797
2664,2664,24.958,2664
3301,3301,2822.0,3301
2280,2280,37.555,2280
4630,4630,28.195,4630
2831,2831,1270.0,2831
631,631,2488.0,631
2862,2862,23.424,2862
4721,4721,0.0,4721
2549,2549,3707.0,2549
3466,3466,193.741,3466
3430,3430,27.536,3430
3969,3969,0.0,3969
1370,1370,28.07,1370
4404,4404,24.682,4404
1417,1417,2633.0,1417
840,840,24.743,840
3830,3830,30.328000000000007,3830
4087,4087,1495.0,4087
2323,2323,0.0,2323
3624,3624,23.533,3624
4693,4693,76.0,4693
1033,1033,1611.0,1033
4065,4065,1578.0,4065
658,658,31.641,658
908,908,24.744,908
1813,1813,3534.0,1813
961,961,3684.0,961
676,676,33.105,676
2949,2949,1347.0,2949
507,507,0.0,507
4306,4306,25.16,4306
1569,1569,1661.0,1569
2883,2883,0.0,2883
4284,4284,25.265,4284
4428,4428,26.885,4428
4363,4363,1126.0,4363
1235,1235,2016.0,1235
1465,1465,222.0,1465
1109,1109,261.0,1109
1702,1702,24.22,1702
4814,4814,24.656,4814
1217,1217,2485.0,1217
1104,1104,26.054,1104
1238,1238,27.796,1238
1106,1106,27.751,1106
2597,2597,3284.0,2597
2747,2747,357.0,2747
3698,3698,182.751,3698
4450,4450,23.493,4450
1345,1345,3293.0,1345
4649,4649,1273.0,4649
1844,1844,31.825,1844
2557,2557,3363.0,2557
1344,1344,25.647,1344
1447,1447,2859.0,1447
1764,1764,24.29,1764
927,927,3335.0,927
4399,4399,2154.0,4399
1127,1127,0.0,1127
1540,1540,30.233,1540
3647,3647,1679.0,3647
4179,4179,0.0,4179
3786,3786,27.334,3786
3414,3414,24.031,3414
4517,4517,3473.0,4517
4461,4461,2005.0,4461
4104,4104,24.231,4104
3436,3436,24.355,3436
615,615,3604.0,615
2006,2006,30.872,2006
3441,3441,1781.0,3441
508,508,27.004,508
4727,4727,2701.0,4727
3639,3639,2125.0,3639
3454,3454,28.946,3454
3791,3791,1820.0,3791
2173,2173,3047.0,2173
2033,2033,1547.0,2033
1160,1160,30.952,1160
1865,1865,778.0,1865
4350,4350,31.646,4350
4526,4526,24.489,4526
551,551,2797.0,551
1128,1128,28.579,1128
1397,1397,121.0,1397
2890,2890,25.047,2890
3146,3146,28.801,3146
4193,4193,1404.0,4193
1312,1312,29.335,1312
3628,3628,23.865,3628
548,548,30.29,548
860,860,28.431,860
3388,3388,24.193,3388
1085,1085,3652.0,1085
4456,4456,23.482,4456
2958,2958,23.947,2958
685,685,754.0,685
1459,1459,3310.0,1459
2293,2293,1318.0,2293
686,686,31.747,686
1009,1009,3347.0,1009
4010,4010,24.021,4010
1091,1091,2740.0,1091
1683,1683,2686.0,1683
3567,3567,2617.0,3567
1283,1283,0.0,1283
1651,1651,0.0,1651
4345,4345,176.0,4345
657,657,2719.0,657
3204,3204,129.763,3204
3537,3537,2001.0,3537
2455,2455,751.0,2455
2225,2225,1846.0,2225
512,512,34.489000000000004,512
4136,4136,26.541,4136
745,745,3474.0,745
3065,3065,1087.0,3065
3554,3554,25.614,3554
4082,4082,29.488000000000003,4082
797,797,879.0,797
3145,3145,3060.0,3145
767,767,0.0,767
653,653,886.0,653
1058,1058,23.707,1058
4668,4668,25.19,4668
2136,2136,24.66,2136
4122,4122,27.257,4122
857,857,707.0,857
998,998,34.909,998
759,759,3280.0,759
839,839,1086.0,839
1548,1548,34.506,1548
609,609,333.0,609
3175,3175,1497.0,3175
3859,3859,702.0,3859
3749,3749,1753.0,3749
2613,2613,1034.0,2613
4047,4047,2392.0,4047
2998,2998,29.499,2998
4581,4581,1735.0,4581
3818,3818,34.497,3818
762,762,23.336,762
4161,4161,3303.0,4161
1071,1071,437.0,1071
2299,2299,2883.0,2299
1802,1802,35.035,1802
4515,4515,1635.0,4515
2431,2431,686.0,2431
788,788,24.377,788
4231,4231,2737.0,4231
3377,3377,3577.0,3377
4185,4185,1524.0,4185
4446,4446,22.823,4446
2596,2596,23.999,2596
2083,2083,2127.0,2083
2787,2787,2152.0,2787
3001,3001,0.0,3001
4593,4593,3194.0,4593
2601,2601,2449.0,2601
1404,1404,27.498,1404
2482,2482,29.157,2482
667,667,522.0,667
2465,2465,1538.0,2465
4762,4762,26.092,4762
3060,3060,24.801,3060
4271,4271,789.0,4271
3703,3703,1765.0,3703
4759,4759,0.0,4759
1012,1012,27.093000000000004,1012
1949,1949,3382.0,1949
3905,3905,1681.0,3905
2207,2207,2178.0,2207
2502,2502,27.468000000000004,2502
4488,4488,24.621,4488
4045,4045,1771.0,4045
4079,4079,3600.0,4079
1081,1081,322.0,1081
1292,1292,27.7,1292
4459,4459,2789.0,4459
1475,1475,0.0,1475
957,957,1143.0,957
1700,1700,22.908,1700
3355,3355,2131.0,3355
3395,3395,0.0,3395
1541,1541,417.0,1541
3811,3811,1506.0,3811
4772,4772,33.732,4772
3239,3239,549.0,3239
1794,1794,24.687,1794
1227,1227,1489.0,1227
2190,2190,24.304,2190
2967,2967,3091.0,2967
2674,2674,27.126,2674
3886,3886,31.485,3886
4502,4502,25.721,4502
2645,2645,1461.0,2645
3370,3370,205.076,3370
1401,1401,976.0,1401
1975,1975,1596.0,1975
2337,2337,3202.0,2337
921,921,1185.0,921
3735,3735,0.0,3735
1145,1145,0.0,1145
996,996,26.496,996
2700,2700,27.514,2700
807,807,1913.0,807
1112,1112,26.99,1112
3980,3980,30.203000000000007,3980
4416,4416,24.361,4416
687,687,902.0,687
2649,2649,2262.0,2649
3927,3927,768.0,3927
806,806,23.563,806
4027,4027,2108.0,4027
1681,1681,3028.0,1681
2126,2126,27.152,2126
4560,4560,24.094,4560
3062,3062,23.069000000000006,3062
1477,1477,1149.0,1477
3792,3792,201.073,3792
3619,3619,3364.0,3619
2183,2183,289.0,2183
2889,2889,0.0,2889
3580,3580,24.125,3580
689,689,1810.0,689
4749,4749,2728.0,4749
1800,1800,34.393,1800
694,694,24.111,694
2748,2748,30.653,2748
2054,2054,31.145,2054
4174,4174,24.935,4174
1663,1663,279.0,1663
2343,2343,1908.0,2343
4283,4283,2628.0,4283
1895,1895,2477.0,1895
638,638,28.218000000000004,638
2567,2567,1322.0,2567
778,778,23.612,778
2742,2742,34.797,2742
1762,1762,23.756,1762
1386,1386,31.066,1386
3231,3231,2645.0,3231
2216,2216,25.458,2216
3104,3104,26.014,3104
2013,2013,1443.0,2013
3059,3059,2613.0,3059
1998,1998,23.713,1998
1445,1445,2963.0,1445
4255,4255,239.0,4255
3007,3007,1965.0,3007
3247,3247,207.0,3247
2383,2383,2699.0,2383
3289,3289,121.0,3289
1740,1740,33.164,1740
2189,2189,801.0,2189
4511,4511,2881.0,4511
3039,3039,2037.0,3039
1468,1468,30.102,1468
2644,2644,23.795,2644
1536,1536,27.832,1536
2254,2254,45.06399999999999,2254
3785,3785,1482.0,3785
1694,1694,28.019,1694
2751,2751,405.0,2751
3870,3870,30.185,3870
1774,1774,28.417,1774
1927,1927,850.0,1927
2340,2340,25.387,2340
2706,2706,25.864,2706
526,526,28.387,526
4200,4200,24.043000000000006,4200
645,645,1436.0,645
3916,3916,113.05,3916
3895,3895,1398.0,3895
2618,2618,43.679,2618
2705,2705,51.0,2705
2866,2866,23.069000000000006,2866
1222,1222,24.123,1222
1645,1645,2526.0,1645
3881,3881,0.0,3881
2283,2283,376.0,2283
825,825,2707.0,825
976,976,40.67,976
2538,2538,34.016,2538
1538,1538,25.553,1538
2584,2584,24.137,2584
892,892,23.521,892
1755,1755,1192.0,1755
564,564,33.489000000000004,564
3261,3261,1936.0,3261
4181,4181,2019.0,4181
891,891,1340.0,891
2585,2585,592.0,2585
769,769,1524.0,769
2800,2800,27.859,2800
4688,4688,28.755,4688
4278,4278,23.113000000000003,4278
3758,3758,23.385,3758
2743,2743,3608.0,2743
1706,1706,24.615,1706
1546,1546,26.213,1546
3592,3592,58.18600000000001,3592
2623,2623,2487.0,2623
4212,4212,25.769,4212
3187,3187,3468.0,3187
3050,3050,25.578000000000007,3050
2099,2099,1963.0,2099
2406,2406,24.597,2406
1343,1343,2527.0,1343
3600,3600,27.337,3600
2143,2143,0.0,2143
1944,1944,27.169,1944
4659,4659,673.0,4659
3645,3645,2112.0,3645
4195,4195,1960.0,4195
1847,1847,2568.0,1847
1107,1107,2289.0,1107
2790,2790,24.975,2790
2701,2701,1358.0,2701
3296,3296,28.337,3296
2050,2050,26.574,2050
1233,1233,807.0,1233
709,709,2954.0,709
1208,1208,51.333,1208
3227,3227,1378.0,3227
1855,1855,3439.0,1855
3116,3116,208.082,3116
1154,1154,29.628,1154
4033,4033,2141.0,4033
586,586,24.026,586
4538,4538,27.154,4538
2049,2049,843.0,2049
2600,2600,24.941,2600
1502,1502,27.712,1502
3438,3438,23.26,3438
3119,3119,2839.0,3119
3163,3163,1709.0,3163
893,893,1328.0,893
1277,1277,3716.0,1277
3649,3649,1899.0,3649
4460,4460,23.925,4460
937,937,725.0,937
1374,1374,28.798,1374
3940,3940,30.863000000000003,3940
4795,4795,1690.0,4795
1276,1276,37.148,1276
3687,3687,876.0,3687
3151,3151,1069.0,3151
2268,2268,22.86,2268
4403,4403,1025.0,4403
2897,2897,1104.0,2897
2407,2407,701.0,2407
4529,4529,2998.0,4529
1069,1069,1790.0,1069
2495,2495,816.0,2495
2777,2777,837.0,2777
3914,3914,24.202,3914
973,973,847.0,973
1605,1605,1705.0,1605
550,550,28.719,550
1458,1458,23.489,1458
3389,3389,1733.0,3389
3314,3314,28.229,3314
1163,1163,1491.0,1163
3242,3242,23.673,3242
2354,2354,26.536,2354
3561,3561,651.0,3561
3321,3321,203.0,3321
1193,1193,2684.0,1193
2784,2784,30.876,2784
1625,1625,2437.0,1625
1346,1346,24.399,1346
549,549,413.0,549
1496,1496,26.64,1496
2646,2646,26.234,2646
682,682,28.436,682
3309,3309,2712.0,3309
4558,4558,25.823,4558
1997,1997,3241.0,1997
3224,3224,24.96,3224
2149,2149,1299.0,2149
1494,1494,27.143,1494
2256,2256,29.264,2256
3814,3814,23.465,3814
4605,4605,2217.0,4605
916,916,24.462,916
2490,2490,24.392,2490
4197,4197,2140.0,4197
2697,2697,403.0,2697
879,879,2067.0,879
1914,1914,35.469,1914
1129,1129,0.0,1129
1248,1248,24.116,1248
2115,2115,788.0,2115
3445,3445,817.0,3445
3585,3585,3065.0,3585
3117,3117,3544.0,3117
795,795,2053.0,795
3425,3425,2264.0,3425
3745,3745,1816.0,3745
1439,1439,2006.0,1439
2153,2153,2668.0,2153
2627,2627,2402.0,2627
2053,2053,3311.0,2053
3195,3195,630.0,3195
2716,2716,36.166,2716
3555,3555,729.0,3555
554,554,23.475,554
1708,1708,25.167,1708
2869,2869,3037.0,2869
2286,2286,25.916,2286
4330,4330,22.915,4330
3183,3183,2043.0,3183
1032,1032,26.982,1032
4411,4411,3031.0,4411
4024,4024,26.068,4024
1857,1857,0.0,1857
1002,1002,26.086,1002
930,930,36.819,930
4176,4176,24.41,4176
2692,2692,37.364,2692
3268,3268,23.893,3268
723,723,3097.0,723
2133,2133,1367.0,2133
3383,3383,2423.0,3383
3821,3821,1707.0,3821
644,644,39.922,644
3944,3944,28.787,3944
1028,1028,35.856,1028
3545,3545,3258.0,3545
2844,2844,25.762,2844
4233,4233,0.0,4233
1166,1166,24.99,1166
2498,2498,36.434,2498
2607,2607,2371.0,2607
4780,4780,29.661,4780
3723,3723,2976.0,3723
4294,4294,23.491,4294
774,774,23.405,774
1483,1483,0.0,1483
1325,1325,3076.0,1325
827,827,2549.0,827
3757,3757,3445.0,3757
2741,2741,798.0,2741
3142,3142,33.973,3142
1320,1320,23.513,1320
2880,2880,24.077,2880
4750,4750,24.187,4750
1778,1778,23.537,1778
2639,2639,1436.0,2639
1273,1273,1912.0,1273
4190,4190,26.152,4190
2147,2147,3038.0,2147
3255,3255,848.0,3255
1567,1567,0.0,1567
3546,3546,26.841,3546
1701,1701,2330.0,1701
1192,1192,24.556,1192
2727,2727,2505.0,2727
3942,3942,26.437,3942
3808,3808,24.273000000000003,3808
4134,4134,23.903,4134
2999,2999,575.0,2999
1347,1347,2401.0,1347
1393,1393,2977.0,1393
2467,2467,374.0,2467
2396,2396,27.49,2396
3910,3910,23.784,3910
3131,3131,927.0,3131
4437,4437,560.0,4437
1527,1527,3512.0,1527
2563,2563,3154.0,2563
4309,4309,2300.0,4309
2316,2316,26.771,2316
3277,3277,614.0,3277
4761,4761,1211.0,4761
2591,2591,2195.0,2591
3925,3925,3267.0,3925
2063,2063,0.0,2063
4048,4048,25.86,4048
4317,4317,2346.0,4317
2799,2799,2049.0,2799
4696,4696,27.803,4696
3246,3246,23.619,3246
3434,3434,184.014,3434
4613,4613,268.0,4613
3299,3299,846.0,3299
4746,4746,23.377,4746
1195,1195,1147.0,1195
3963,3963,1077.0,3963
1201,1201,2792.0,1201
2821,2821,2076.0,2821
4748,4748,27.849,4748
4803,4803,2672.0,4803
2632,2632,27.725,2632
4756,4756,24.272,4756
733,733,1666.0,733
1787,1787,2063.0,1787
3295,3295,1590.0,3295
1356,1356,26.04,1356
4286,4286,23.319000000000006,4286
4282,4282,24.682,4282
2616,2616,27.771,2616
2320,2320,29.189,2320
1823,1823,3356.0,1823
3023,3023,3269.0,3023
4226,4226,24.766,4226
4364,4364,24.098000000000006,4364
2837,2837,618.0,2837
1784,1784,24.586,1784
4328,4328,23.721,4328
3074,3074,27.226,3074
1773,1773,121.0,1773
3708,3708,23.758000000000006,3708
3756,3756,24.183000000000003,3756
1739,1739,3553.0,1739
3789,3789,1837.0,3789
3613,3613,1225.0,3613
1884,1884,24.129,1884
1361,1361,0.0,1361
553,553,2186.0,553
4678,4678,24.37,4678
4782,4782,23.299,4782
1792,1792,25.236,1792
3508,3508,30.201,3508
1827,1827,2853.0,1827
3113,3113,2889.0,3113
2817,2817,222.0,2817
3823,3823,1784.0,3823
4106,4106,28.188,4106
3168,3168,23.549,3168
3518,3518,25.646,3518
1497,1497,1465.0,1497
2485,2485,2654.0,2485
2034,2034,25.874,2034
1753,1753,3399.0,1753
1121,1121,969.0,1121
4793,4793,229.0,4793
2779,2779,3112.0,2779
951,951,1971.0,951
753,753,1855.0,753
629,629,864.0,629
652,652,27.742,652
3484,3484,24.127,3484
4019,4019,3571.0,4019
3702,3702,25.771,3702
3012,3012,28.437,3012
1785,1785,779.0,1785
1845,1845,3551.0,1845
1826,1826,25.306,1826
1205,1205,756.0,1205
1598,1598,23.509,1598
1958,1958,28.618,1958
2269,2269,1059.0,2269
1365,1365,1969.0,1365
4029,4029,0.0,4029
2857,2857,1555.0,2857
1530,1530,24.272,1530
4140,4140,26.419,4140
3651,3651,943.0,3651
1507,1507,3067.0,1507
2239,2239,1546.0,2239
2090,2090,30.738000000000003,2090
4543,4543,283.0,4543
2234,2234,34.61,2234
1426,1426,24.885,1426
515,515,1446.0,515
4533,4533,1839.0,4533
2352,2352,26.953000000000007,2352
3115,3115,3728.0,3115
2417,2417,2663.0,2417
4171,4171,205.0,4171
1662,1662,29.247,1662
605,605,114.0,605
907,907,3054.0,907
1856,1856,27.072,1856
574,574,26.689,574
2636,2636,26.616,2636
800,800,24.628,800
2386,2386,23.767,2386
3878,3878,26.997,3878
1215,1215,1563.0,1215
3754,3754,27.551,3754
3105,3105,3388.0,3105
1153,1153,1883.0,1153
672,672,26.622,672
2573,2573,2765.0,2573
3810,3810,24.849,3810
713,713,2780.0,713
2130,2130,26.209,2130
1388,1388,26.197,1388
3029,3029,0.0,3029
2255,2255,3315.0,2255
1550,1550,28.056,1550
4783,4783,1059.0,4783
4707,4707,1766.0,4707
3915,3915,3488.0,3915
2372,2372,29.466,2372
4690,4690,29.149,4690
968,968,26.067,968
2650,2650,32.245,2650
1882,1882,27.788,1882
1135,1135,760.0,1135
4455,4455,1155.0,4455
2682,2682,31.793000000000006,2682
2947,2947,50.0,2947
2198,2198,25.312,2198
1017,1017,0.0,1017
1543,1543,458.0,1543
3795,3795,2808.0,3795
3572,3572,24.051,3572
4147,4147,1429.0,4147
2977,2977,1886.0,2977
1398,1398,26.307,1398
3026,3026,27.634,3026
1234,1234,24.12,1234
1060,1060,25.671,1060
2087,2087,3283.0,2087
4603,4603,490.0,4603
2839,2839,2687.0,2839
3953,3953,1845.0,3953
2222,2222,26.642,2222
597,597,3011.0,597
4034,4034,26.437,4034
4114,4114,25.894,4114
555,555,2259.0,555
4316,4316,24.397,4316
543,543,0.0,543
4599,4599,2972.0,4599
4199,4199,2071.0,4199
2381,2381,2476.0,2381
2158,2158,69.40899999999999,2158
2072,2072,27.704,2072
4001,4001,2044.0,4001
3494,3494,32.12,3494
2566,2566,22.981,2566
3706,3706,24.631,3706
4604,4604,121.89,4604
1703,1703,1398.0,1703
3409,3409,3310.0,3409
4691,4691,239.0,4691
1200,1200,83.521,1200
2048,2048,28.705,2048
1981,1981,108.0,1981
780,780,28.701,780
4427,4427,1886.0,4427
1534,1534,27.021,1534
3470,3470,74.25,3470
2333,2333,866.0,2333
3770,3770,29.886,3770
1898,1898,37.083,1898
3734,3734,40.429,3734
2541,2541,678.0,2541
1978,1978,28.865,1978
2457,2457,0.0,2457
3374,3374,192.961,3374
2978,2978,27.066,2978
4279,4279,734.0,4279
3285,3285,3226.0,3285
1562,1562,33.622,1562
1008,1008,28.423,1008
661,661,499.0,661
2594,2594,27.582,2594
3607,3607,1397.0,3607
1526,1526,23.14,1526
932,932,27.719,932
3662,3662,26.877,3662
3936,3936,26.665,3936
4557,4557,3235.0,4557
3876,3876,32.482,3876
1310,1310,63.249,1310
3824,3824,24.901,3824
1888,1888,36.291,1888
4548,4548,40.88800000000001,4548
2311,2311,2172.0,2311
1111,1111,142.0,1111
3674,3674,25.305,3674
2219,2219,1602.0,2219
4386,4386,27.967,4386
4645,4645,0.0,4645
1117,1117,972.0,1117
601,601,1221.0,601
3960,3960,27.576,3960
3657,3657,3734.0,3657
3569,3569,611.0,3569
4117,4117,0.0,4117
3712,3712,25.467,3712
4584,4584,24.544,4584
2531,2531,3112.0,2531
711,711,2622.0,711
1715,1715,0.0,1715
4302,4302,24.057,4302
3307,3307,3248.0,3307
4394,4394,28.062,4394
4089,4089,1215.0,4089
4164,4164,25.23,4164
3864,3864,37.018,3864
2399,2399,2118.0,2399
4797,4797,1809.0,4797
3097,3097,2230.0,3097
4472,4472,41.214,4472
1433,1433,400.0,1433
1959,1959,810.0,1959
1463,1463,1270.0,1463
1443,1443,2470.0,1443
4656,4656,25.312,4656
4238,4238,27.655,4238
3090,3090,32.704,3090
4747,4747,482.0,4747
1177,1177,1922.0,1177
1207,1207,3400.0,1207
2420,2420,45.719,2420
4101,4101,0.0,4101
3311,3311,3454.0,3311
3618,3618,23.371,3618
4289,4289,3076.0,4289
2376,2376,27.668000000000006,2376
4227,4227,0.0,4227
1634,1634,28.141,1634
2854,2854,24.941,2854
1849,1849,690.0,1849
3981,3981,0.0,3981
4729,4729,623.0,4729
4040,4040,151.243,4040
3213,3213,0.0,3213
4099,4099,163.0,4099
1061,1061,3627.0,1061
3763,3763,1569.0,3763
2526,2526,22.753,2526
1363,1363,1722.0,1363
4032,4032,26.135,4032
3397,3397,361.0,3397
2628,2628,27.269,2628
1444,1444,24.323,1444
516,516,34.264,516
2725,2725,933.0,2725
4485,4485,1181.0,4485
3102,3102,29.095,3102
2932,2932,24.834,2932
1326,1326,25.299,1326
2368,2368,23.689,2368
2031,2031,0.0,2031
4030,4030,24.074,4030
971,971,0.0,971
1115,1115,0.0,1115
3336,3336,22.949,3336
2224,2224,25.817,2224
2294,2294,27.277,2294
3489,3489,512.0,3489
1767,1767,3518.0,1767
2972,2972,26.469,2972
2088,2088,28.412,2088
674,674,27.494,674
3716,3716,23.177,3716
959,959,2131.0,959
1314,1314,33.816,1314
1656,1656,29.891,1656
4695,4695,2743.0,4695
3010,3010,26.99,3010
3013,3013,908.0,3013
2282,2282,23.404,2282
4356,4356,23.375,4356
1748,1748,24.416,1748
3955,3955,2903.0,3955
1065,1065,2316.0,1065
2002,2002,26.05,2002
1942,1942,25.303,1942
4479,4479,1189.0,4479
3411,3411,369.0,3411
1555,1555,3469.0,1555
4518,4518,27.391,4518
3156,3156,29.051,3156
2536,2536,27.453000000000007,2536
2193,2193,3388.0,2193
1727,1727,3553.0,1727
3240,3240,79.87899999999998,3240
2881,2881,0.0,2881
3553,3553,1407.0,3553
2215,2215,1878.0,2215
4085,4085,2909.0,4085
4357,4357,423.0,4357
2401,2401,1162.0,2401
3385,3385,2915.0,3385
1173,1173,2375.0,1173
4311,4311,3604.0,4311
2885,2885,1477.0,2885
4098,4098,28.457,4098
2220,2220,67.78699999999999,2220
947,947,2656.0,947
4156,4156,31.629,4156
1904,1904,43.718,1904
4816,4816,25.624,4816
584,584,34.865,584
4800,4800,31.647,4800
4178,4178,25.803,4178
1100,1100,30.443,1100
2675,2675,1111.0,2675
3832,3832,33.581,3832
1221,1221,1650.0,1221
1211,1211,1181.0,1211
2654,2654,23.513,2654
2981,2981,1942.0,2981
678,678,26.145,678
1840,1840,26.115,1840
2477,2477,3530.0,2477
3922,3922,153.141,3922
814,814,29.087,814
1387,1387,1708.0,1387
2995,2995,2566.0,2995
1457,1457,0.0,1457
3781,3781,0.0,3781
1783,1783,3240.0,1783
3888,3888,23.664,3888
3535,3535,0.0,3535
2104,2104,24.02,2104
1474,1474,31.085,1474
2253,2253,1568.0,2253
2101,2101,669.0,2101
4491,4491,2073.0,4491
2655,2655,2408.0,2655
3342,3342,24.54,3342
904,904,24.018,904
3486,3486,23.488000000000003,3486
3487,3487,938.0,3487
3875,3875,3262.0,3875
1053,1053,428.0,1053
1050,1050,23.664,1050
4582,4582,24.075,4582
3659,3659,483.0,3659
1622,1622,29.651,1622
2927,2927,3242.0,2927
1819,1819,802.0,1819
2075,2075,1633.0,2075
4769,4769,878.0,4769
3079,3079,3398.0,3079
929,929,204.0,929
3722,3722,25.607,3722
3297,3297,821.0,3297
4365,4365,1929.0,4365
4698,4698,27.191,4698
3008,3008,24.078000000000007,3008
2560,2560,30.822,2560
1932,1932,27.803,1932
3035,3035,1461.0,3035
1068,1068,23.272,1068
2445,2445,1659.0,2445
1157,1157,1077.0,1157
3829,3829,2231.0,3829
3889,3889,2395.0,3889
664,664,25.807,664
4811,4811,3685.0,4811
4525,4525,462.0,4525
2085,2085,255.0,2085
2759,2759,1356.0,2759
2388,2388,23.197,2388
4020,4020,22.774,4020
2312,2312,24.222,2312
4611,4611,460.0,4611
1599,1599,997.0,1599
3041,3041,3296.0,3041
3689,3689,2248.0,3689
2489,2489,0.0,2489
832,832,28.848000000000006,832
712,712,24.47,712
865,865,1744.0,865
3019,3019,1608.0,3019
3230,3230,34.988,3230
2197,2197,2981.0,2197
1816,1816,24.458,1816
4642,4642,23.418000000000006,4642
3302,3302,26.308000000000003,3302
1119,1119,2959.0,1119
3972,3972,23.037,3972
4492,4492,24.367,4492
1253,1253,1016.0,1253
636,636,27.126,636
940,940,26.15,940
650,650,23.886,650
2356,2356,26.914,2356
2415,2415,3715.0,2415
3540,3540,35.664,3540
4585,4585,2601.0,4585
896,896,24.723000000000006,896
2322,2322,27.476,2322
1666,1666,23.212,1666
3421,3421,605.0,3421
2996,2996,25.739,2996
2984,2984,29.441,2984
2798,2798,32.385,2798
2523,2523,1723.0,2523
4454,4454,23.178,4454
2965,2965,3424.0,2965
3181,3181,110.0,3181
3828,3828,29.125,3828
4189,4189,1025.0,4189
2888,2888,33.626999999999995,2888
1707,1707,2745.0,1707
1074,1074,27.498,1074
2982,2982,24.934,2982
3211,3211,0.0,3211
2859,2859,1912.0,2859
2893,2893,194.0,2893
4699,4699,1153.0,4699
2630,2630,25.868,2630
3856,3856,25.827,3856
510,510,26.523000000000003,510
3094,3094,48.861,3094
1411,1411,1008.0,1411
1187,1187,2053.0,1187
2922,2922,23.975,2922
2792,2792,33.287,2792
3562,3562,28.239,3562
3107,3107,3049.0,3107
2274,2274,24.013,2274
2231,2231,3014.0,2231
3544,3544,33.017,3544
4731,4731,3451.0,4731
4377,4377,479.0,4377
3030,3030,27.537,3030
2210,2210,25.39,2210
2121,2121,794.0,2121
2851,2851,2551.0,2851
3527,3527,1767.0,3527
1486,1486,26.792,1486
4524,4524,24.01,4524
4637,4637,2806.0,4637
3076,3076,27.606,3076
2593,2593,1341.0,2593
1608,1608,24.575,1608
4173,4173,3151.0,4173
1261,1261,2611.0,1261
4243,4243,1467.0,4243
3539,3539,1280.0,3539
1125,1125,195.0,1125
4790,4790,29.712,4790
4712,4712,25.418000000000006,4712
2305,2305,2017.0,2305
1355,1355,3328.0,1355
3653,3653,3099.0,3653
4514,4514,39.012,4514
990,990,26.75,990
4400,4400,23.144,4400
3003,3003,800.0,3003
3815,3815,0.0,3815
3586,3586,26.381,3586
4191,4191,580.0,4191
3456,3456,31.245,3456
1799,1799,1656.0,1799
1782,1782,24.328000000000007,1782
503,503,679.0,503
2884,2884,23.844,2884
4415,4415,2813.0,4415
3291,3291,1163.0,3291
2030,2030,27.353,2030
4506,4506,23.782,4506
4324,4324,26.374,4324
4003,4003,2198.0,4003
3058,3058,23.405,3058
746,746,33.423,746
2931,2931,675.0,2931
1469,1469,1845.0,1469
3908,3908,24.385,3908
3897,3897,2346.0,3897
2668,2668,23.315,2668
2990,2990,30.902,2990
1682,1682,28.094,1682
530,530,29.286,530
1757,1757,2446.0,1757
779,779,0.0,779
1164,1164,32.564,1164
3776,3776,63.151,3776
1818,1818,29.542,1818
1223,1223,3681.0,1223
3363,3363,399.0,3363
