,datetime,rtt
0,2019-01-01 12:50:14,88.094
1,2019-01-01 12:50:15,56.123
2,2019-01-01 12:50:15,64.217
3,2019-01-01 12:50:15,55.117
4,2019-01-01 12:50:16,64.426
5,2019-01-01 12:50:17,57.311
6,2019-01-01 12:50:18,58.522
7,2019-01-01 12:50:19,74.947
8,2019-01-01 12:50:19,56.672
9,2019-01-01 12:52:37,54.835
10,2019-01-01 12:52:37,55.261
11,2019-01-01 12:52:37,63.722
12,2019-01-01 12:52:37,55.275
13,2019-01-01 12:52:38,55.792
14,2019-01-01 12:52:39,54.693
15,2019-01-01 12:52:40,59.130
16,2019-01-01 12:52:45,55.262
17,2019-01-01 12:53:35,56.396
18,2019-01-01 12:53:36,58.866
19,2019-01-01 12:53:37,55.088
20,2019-01-01 12:54:18,57.103
21,2019-01-01 12:54:20,55.110
22,2019-01-01 12:54:27,56.414
23,2019-01-01 12:54:51,59.784
24,2019-01-01 12:54:52,55.274
25,2019-01-01 12:54:53,64.583
26,2019-01-01 12:54:53,57.279
27,2019-01-01 12:54:53,60.823
28,2019-01-01 12:54:56,60.018
29,2019-01-01 12:55:46,57.899
30,2019-01-01 12:56:32,55.606
31,2019-01-01 12:58:38,60.177
32,2019-01-01 12:58:38,61.272
33,2019-01-01 12:58:39,64.286
34,2019-01-01 12:58:39,54.643
35,2019-01-01 12:58:39,55.058
36,2019-01-01 12:58:39,82.816
37,2019-01-01 12:58:39,55.024
38,2019-01-01 12:58:40,76.163
39,2019-01-01 12:58:40,61.339
40,2019-01-01 12:58:40,59.103
41,2019-01-01 12:58:41,80.735
42,2019-01-01 12:58:41,60.543
43,2019-01-01 12:58:42,61.364
44,2019-01-01 12:58:42,59.220
45,2019-01-01 12:58:42,58.100
46,2019-01-01 12:58:42,57.843
47,2019-01-01 13:00:53,64.103
48,2019-01-01 13:01:13,63.078
49,2019-01-01 13:01:13,61.380
50,2019-01-01 13:01:14,63.601
51,2019-01-01 13:01:15,62.690
52,2019-01-01 13:01:17,62.649
53,2019-01-01 13:01:17,62.040
54,2019-01-01 13:01:18,62.056
55,2019-01-01 13:01:19,74.138
56,2019-01-01 13:01:23,63.074
57,2019-01-01 13:01:24,62.257
58,2019-01-01 13:02:18,59.487
59,2019-01-01 13:02:54,57.926
60,2019-01-01 13:03:30,58.552
61,2019-01-01 13:03:31,57.687
62,2019-01-01 13:03:34,58.106
63,2019-01-01 13:03:35,57.693
64,2019-01-01 13:03:35,59.612
65,2019-01-01 13:04:24,67.986
66,2019-01-01 13:04:25,58.213
67,2019-01-01 13:04:25,57.304
68,2019-01-01 13:04:26,56.489
69,2019-01-01 13:04:28,58.752
70,2019-01-01 13:04:28,59.353
71,2019-01-01 13:04:29,58.768
72,2019-01-01 13:04:29,55.241
73,2019-01-01 13:04:34,55.597
74,2019-01-01 13:07:26,61.054
75,2019-01-01 13:07:26,57.140
76,2019-01-01 13:07:26,187.395
77,2019-01-01 13:07:26,57.431
78,2019-01-01 13:07:27,55.594
79,2019-01-01 13:07:28,57.399
80,2019-01-01 13:07:29,59.993
81,2019-01-01 13:07:29,58.692
82,2019-01-01 13:07:30,58.413
83,2019-01-01 13:08:52,59.614
84,2019-01-01 13:08:53,54.844
85,2019-01-01 13:08:56,60.813
86,2019-01-01 13:09:00,62.089
87,2019-01-01 13:09:27,57.595
88,2019-01-01 13:09:40,58.873
89,2019-01-01 13:09:41,55.464
90,2019-01-01 13:09:41,57.864
91,2019-01-01 13:09:41,59.007
92,2019-01-01 13:09:54,83.859
93,2019-01-01 13:10:03,59.114
94,2019-01-01 13:10:03,56.043
95,2019-01-01 13:10:04,62.595
96,2019-01-01 13:10:04,61.218
97,2019-01-01 13:10:05,57.943
98,2019-01-01 13:10:06,58.003
99,2019-01-01 13:11:00,59.722
100,2019-01-01 13:11:00,71.564
101,2019-01-01 13:11:01,114.378
102,2019-01-01 13:11:04,58.329
103,2019-01-01 13:11:14,60.686
104,2019-01-01 13:11:42,59.496
105,2019-01-01 13:11:45,64.108
106,2019-01-01 13:11:50,58.275
107,2019-01-01 13:11:51,56.286
108,2019-01-01 13:11:55,58.815
109,2019-01-01 13:12:24,58.728
110,2019-01-01 13:12:25,74.529
111,2019-01-01 13:12:26,55.169
112,2019-01-01 13:12:28,58.875
113,2019-01-01 13:12:29,55.839
114,2019-01-01 13:13:17,55.661
115,2019-01-01 13:13:24,55.802
116,2019-01-01 13:16:54,55.469
117,2019-01-01 13:16:54,55.418
118,2019-01-01 13:16:54,63.883
119,2019-01-01 13:16:56,61.422
120,2019-01-01 13:16:57,54.716
121,2019-01-01 13:16:57,58.960
122,2019-01-01 13:16:57,55.146
123,2019-01-01 13:18:47,54.972
124,2019-01-01 13:18:48,57.827
125,2019-01-01 13:19:17,55.107
126,2019-01-01 13:19:18,55.349
127,2019-01-01 13:19:19,61.713
128,2019-01-01 13:19:20,54.508
129,2019-01-01 13:19:20,55.837
130,2019-01-01 13:19:20,56.881
131,2019-01-01 13:20:14,57.565
132,2019-01-01 13:20:16,57.648
133,2019-01-01 13:20:16,65.647
134,2019-01-01 13:20:17,60.113
135,2019-01-01 13:20:22,62.671
136,2019-01-01 13:20:59,66.167
137,2019-01-01 13:21:36,57.619
138,2019-01-01 13:21:36,65.804
139,2019-01-01 13:21:36,58.554
140,2019-01-01 13:21:37,62.337
141,2019-01-01 13:21:37,65.750
142,2019-01-01 13:21:39,56.692
143,2019-01-01 13:22:25,55.316
144,2019-01-01 13:22:26,56.714
145,2019-01-01 13:22:26,69.453
146,2019-01-01 13:22:27,65.538
147,2019-01-01 13:22:27,61.987
148,2019-01-01 13:23:08,60.789
149,2019-01-01 13:26:01,70.514
150,2019-01-01 13:26:01,61.566
151,2019-01-01 13:26:01,61.696
152,2019-01-01 13:26:02,62.290
153,2019-01-01 13:26:02,61.665
154,2019-01-01 13:26:02,55.465
155,2019-01-01 13:26:03,55.967
156,2019-01-01 13:26:03,61.427
157,2019-01-01 13:26:03,62.642
158,2019-01-01 13:26:03,61.642
159,2019-01-01 13:26:04,55.165
160,2019-01-01 13:26:04,61.910
161,2019-01-01 13:26:05,61.889
162,2019-01-01 13:26:05,61.022
163,2019-01-01 13:26:08,56.580
164,2019-01-01 13:27:22,56.234
165,2019-01-01 13:28:36,64.045
166,2019-01-01 13:28:36,59.575
167,2019-01-01 13:28:37,55.104
168,2019-01-01 13:28:37,58.515
169,2019-01-01 13:28:38,59.496
170,2019-01-01 13:28:38,54.953
171,2019-01-01 13:28:40,55.516
172,2019-01-01 13:28:40,55.225
173,2019-01-01 13:29:37,55.593
174,2019-01-01 13:30:12,61.809
175,2019-01-01 13:30:14,59.210
176,2019-01-01 13:30:23,54.951
177,2019-01-01 13:30:53,55.462
178,2019-01-01 13:30:54,60.060
179,2019-01-01 13:30:56,62.019
180,2019-01-01 13:30:57,64.142
181,2019-01-01 13:31:46,59.982
182,2019-01-01 13:31:46,56.103
183,2019-01-01 13:31:47,60.238
184,2019-01-01 13:32:24,58.888
185,2019-01-01 13:35:09,63.839
186,2019-01-01 13:35:09,59.589
187,2019-01-01 13:35:09,62.595
188,2019-01-01 13:35:10,64.578
189,2019-01-01 13:35:10,64.815
190,2019-01-01 13:35:10,55.060
191,2019-01-01 13:35:10,61.053
192,2019-01-01 13:35:11,65.051
193,2019-01-01 13:35:11,76.862
194,2019-01-01 13:35:11,59.559
195,2019-01-01 13:35:11,64.326
196,2019-01-01 13:35:12,64.838
197,2019-01-01 13:35:13,56.365
198,2019-01-01 13:35:13,61.429
199,2019-01-01 13:35:14,64.047
200,2019-01-01 13:36:42,64.540
201,2019-01-01 13:37:15,60.886
202,2019-01-01 13:37:16,63.282
203,2019-01-01 13:37:28,56.897
204,2019-01-01 13:37:53,56.538
205,2019-01-01 13:37:54,58.609
206,2019-01-01 13:37:54,58.333
207,2019-01-01 13:37:54,62.011
208,2019-01-01 13:37:55,62.540
209,2019-01-01 13:37:55,58.281
210,2019-01-01 13:37:57,61.016
211,2019-01-01 13:37:58,58.338
212,2019-01-01 13:38:56,61.846
213,2019-01-01 13:39:04,58.799
214,2019-01-01 13:39:46,58.347
215,2019-01-01 13:40:10,62.453
216,2019-01-01 13:40:11,62.117
217,2019-01-01 13:40:12,61.378
218,2019-01-01 13:40:14,56.116
219,2019-01-01 13:40:14,62.219
220,2019-01-01 13:41:02,56.456
221,2019-01-01 13:41:03,61.546
222,2019-01-01 13:41:04,60.272
223,2019-01-01 13:41:06,62.272
224,2019-01-01 13:43:55,59.409
225,2019-01-01 13:43:56,55.328
226,2019-01-01 13:43:56,57.660
227,2019-01-01 13:43:56,58.260
228,2019-01-01 13:43:56,57.359
229,2019-01-01 13:43:56,56.328
230,2019-01-01 13:43:57,58.301
231,2019-01-01 13:43:57,59.044
232,2019-01-01 13:43:57,57.091
233,2019-01-01 13:43:58,69.054
234,2019-01-01 13:43:58,66.750
235,2019-01-01 13:43:59,54.979
236,2019-01-01 13:43:59,56.897
237,2019-01-01 13:43:59,55.772
238,2019-01-01 13:43:59,57.367
239,2019-01-01 13:44:05,56.882
240,2019-01-01 13:45:29,66.737
241,2019-01-01 13:45:57,65.443
242,2019-01-01 13:45:59,60.446
243,2019-01-01 13:46:03,65.177
244,2019-01-01 13:46:04,55.316
245,2019-01-01 13:46:04,65.389
246,2019-01-01 13:46:04,58.193
247,2019-01-01 13:46:11,58.212
248,2019-01-01 13:46:35,76.898
249,2019-01-01 13:46:37,66.552
250,2019-01-01 13:46:44,83.040
251,2019-01-01 13:46:48,56.355
252,2019-01-01 13:47:41,55.554
253,2019-01-01 13:47:43,58.406
254,2019-01-01 13:48:18,56.525
255,2019-01-01 13:48:19,56.151
256,2019-01-01 13:48:29,56.926
257,2019-01-01 13:48:29,56.182
258,2019-01-01 13:48:30,55.973
259,2019-01-01 13:48:56,55.223
260,2019-01-01 13:48:56,55.105
261,2019-01-01 13:49:01,59.370
262,2019-01-01 13:49:49,55.211
263,2019-01-01 13:49:49,79.732
264,2019-01-01 13:49:49,57.434
265,2019-01-01 13:52:34,55.789
266,2019-01-01 13:52:35,55.831
267,2019-01-01 13:52:35,59.378
268,2019-01-01 13:52:36,55.884
269,2019-01-01 13:52:36,74.130
270,2019-01-01 13:52:36,61.485
271,2019-01-01 13:52:36,58.842
272,2019-01-01 13:52:37,55.816
273,2019-01-01 13:52:37,54.906
274,2019-01-01 13:52:38,55.100
275,2019-01-01 13:52:38,54.836
276,2019-01-01 13:52:38,63.398
277,2019-01-01 13:52:38,56.179
278,2019-01-01 13:52:39,55.488
279,2019-01-01 13:52:39,56.011
280,2019-01-01 13:54:44,59.834
281,2019-01-01 13:54:45,56.233
282,2019-01-01 13:54:51,60.940
283,2019-01-01 13:55:22,64.742
284,2019-01-01 13:55:22,63.861
285,2019-01-01 13:55:25,65.865
286,2019-01-01 13:56:16,59.011
287,2019-01-01 13:56:16,61.517
288,2019-01-01 13:56:51,79.020
289,2019-01-01 13:56:52,65.350
290,2019-01-01 13:56:53,59.450
291,2019-01-01 13:56:55,60.073
292,2019-01-01 13:57:03,56.443
293,2019-01-01 13:57:05,56.063
294,2019-01-01 13:57:34,55.614
295,2019-01-01 13:57:34,66.074
296,2019-01-01 13:57:35,59.498
297,2019-01-01 13:57:36,54.880
298,2019-01-01 13:57:36,57.608
299,2019-01-01 13:57:37,56.458
300,2019-01-01 13:57:37,62.524
301,2019-01-01 13:57:44,62.521
302,2019-01-01 13:58:36,59.137
303,2019-01-01 14:01:02,102.698
304,2019-01-01 14:01:02,63.022
305,2019-01-01 14:01:03,63.254
306,2019-01-01 14:01:03,65.048
307,2019-01-01 14:01:03,56.686
308,2019-01-01 14:01:04,64.832
309,2019-01-01 14:01:04,76.186
310,2019-01-01 14:01:04,56.731
311,2019-01-01 14:01:06,64.920
312,2019-01-01 14:02:42,56.897
313,2019-01-01 14:03:12,59.226
314,2019-01-01 14:03:22,61.567
315,2019-01-01 14:03:22,61.952
316,2019-01-01 14:03:24,60.462
317,2019-01-01 14:03:52,59.771
318,2019-01-01 14:03:53,61.897
319,2019-01-01 14:04:48,62.929
320,2019-01-01 14:04:48,55.850
321,2019-01-01 14:04:55,55.201
322,2019-01-01 14:05:27,56.758
323,2019-01-01 14:05:28,68.780
324,2019-01-01 14:06:11,59.428
325,2019-01-01 14:06:15,59.432
326,2019-01-01 14:06:15,59.858
327,2019-01-01 14:06:15,56.054
328,2019-01-01 14:06:16,60.710
329,2019-01-01 14:06:21,56.460
330,2019-01-01 14:07:04,65.473
331,2019-01-01 14:09:58,63.002
332,2019-01-01 14:09:58,56.991
333,2019-01-01 14:09:58,57.566
334,2019-01-01 14:10:00,57.511
335,2019-01-01 14:10:00,56.181
336,2019-01-01 14:10:01,55.660
337,2019-01-01 14:10:01,64.859
338,2019-01-01 14:10:02,65.520
339,2019-01-01 14:11:20,67.722
340,2019-01-01 14:11:21,58.760
341,2019-01-01 14:11:58,62.798
342,2019-01-01 14:11:59,63.702
343,2019-01-01 14:12:05,59.431
344,2019-01-01 14:12:27,62.053
345,2019-01-01 14:12:27,58.953
346,2019-01-01 14:12:27,66.172
347,2019-01-01 14:12:27,55.041
348,2019-01-01 14:12:27,54.776
349,2019-01-01 14:12:28,58.838
350,2019-01-01 14:12:29,55.558
351,2019-01-01 14:12:30,56.166
352,2019-01-01 14:12:30,55.611
353,2019-01-01 14:12:33,57.220
354,2019-01-01 14:12:35,56.366
355,2019-01-01 14:12:38,56.136
356,2019-01-01 14:12:38,56.757
357,2019-01-01 14:13:26,59.086
358,2019-01-01 14:13:26,55.175
359,2019-01-01 14:13:27,59.914
360,2019-01-01 14:13:29,57.931
361,2019-01-01 14:13:30,64.160
362,2019-01-01 14:14:12,55.285
363,2019-01-01 14:14:49,58.174
364,2019-01-01 14:14:50,59.616
365,2019-01-01 14:14:50,57.077
366,2019-01-01 14:14:51,55.850
367,2019-01-01 14:14:51,61.013
368,2019-01-01 14:15:47,59.214
369,2019-01-01 14:15:49,56.614
370,2019-01-01 14:15:52,59.567
371,2019-01-01 14:18:51,55.152
372,2019-01-01 14:18:51,54.674
373,2019-01-01 14:18:51,85.412
374,2019-01-01 14:18:52,55.473
375,2019-01-01 14:18:52,55.442
376,2019-01-01 14:18:52,55.952
377,2019-01-01 14:18:53,56.297
378,2019-01-01 14:18:53,56.854
379,2019-01-01 14:18:53,56.840
380,2019-01-01 14:18:53,55.662
381,2019-01-01 14:18:54,56.548
382,2019-01-01 14:18:54,56.724
383,2019-01-01 14:18:55,55.274
384,2019-01-01 14:18:55,62.651
385,2019-01-01 14:18:56,70.036
386,2019-01-01 14:19:00,55.937
387,2019-01-01 14:20:17,57.036
388,2019-01-01 14:20:48,66.674
389,2019-01-01 14:20:49,76.108
390,2019-01-01 14:20:51,66.275
391,2019-01-01 14:20:56,63.679
392,2019-01-01 14:21:23,65.859
393,2019-01-01 14:21:24,66.260
394,2019-01-01 14:21:24,57.515
395,2019-01-01 14:21:24,66.313
396,2019-01-01 14:21:25,55.545
397,2019-01-01 14:21:26,67.008
398,2019-01-01 14:21:26,58.231
399,2019-01-01 14:21:36,60.353
400,2019-01-01 14:23:15,55.046
401,2019-01-01 14:23:17,56.347
402,2019-01-01 14:23:17,56.238
403,2019-01-01 14:23:24,67.488
404,2019-01-01 14:23:24,56.129
405,2019-01-01 14:23:48,54.947
406,2019-01-01 14:23:49,56.945
407,2019-01-01 14:23:49,56.970
408,2019-01-01 14:23:51,55.890
409,2019-01-01 14:23:51,54.733
410,2019-01-01 14:23:53,55.282
411,2019-01-01 14:23:55,57.001
412,2019-01-01 14:27:41,55.805
413,2019-01-01 14:27:41,55.270
414,2019-01-01 14:27:42,54.820
415,2019-01-01 14:27:42,64.299
416,2019-01-01 14:27:43,62.460
417,2019-01-01 14:27:44,58.720
418,2019-01-01 14:27:44,64.062
419,2019-01-01 14:27:44,95.377
420,2019-01-01 14:27:45,54.999
421,2019-01-01 14:29:47,55.548
422,2019-01-01 14:29:55,58.472
423,2019-01-01 14:29:55,58.716
424,2019-01-01 14:29:59,54.733
425,2019-01-01 14:30:24,59.786
426,2019-01-01 14:30:24,59.854
427,2019-01-01 14:30:25,62.584
428,2019-01-01 14:30:26,60.604
429,2019-01-01 14:30:27,58.897
430,2019-01-01 14:30:28,61.190
431,2019-01-01 14:30:28,59.056
432,2019-01-01 14:30:29,60.175
433,2019-01-01 14:30:30,56.864
434,2019-01-01 14:31:38,60.622
435,2019-01-01 14:31:39,61.770
436,2019-01-01 14:32:05,73.354
437,2019-01-01 14:32:42,55.793
438,2019-01-01 14:32:42,84.665
439,2019-01-01 14:32:43,61.876
440,2019-01-01 14:32:44,58.217
441,2019-01-01 14:32:44,60.444
442,2019-01-01 14:32:55,58.487
443,2019-01-01 14:33:35,56.094
444,2019-01-01 14:33:36,76.027
445,2019-01-01 14:33:36,57.242
446,2019-01-01 14:36:30,62.043
447,2019-01-01 14:36:30,56.675
448,2019-01-01 14:36:30,64.858
449,2019-01-01 14:36:32,60.811
450,2019-01-01 14:36:32,58.697
451,2019-01-01 14:37:50,55.840
452,2019-01-01 14:37:50,66.394
453,2019-01-01 14:38:37,57.842
454,2019-01-01 14:38:58,56.325
455,2019-01-01 14:38:58,55.693
456,2019-01-01 14:40:39,62.135
457,2019-01-01 14:40:43,65.095
458,2019-01-01 14:41:18,64.103
459,2019-01-01 14:41:18,62.268
460,2019-01-01 14:41:18,59.359
461,2019-01-01 14:41:21,66.161
462,2019-01-01 14:41:21,57.562
463,2019-01-01 14:42:08,59.412
464,2019-01-01 14:42:18,61.339
465,2019-01-01 14:45:18,56.710
466,2019-01-01 14:45:20,65.536
467,2019-01-01 14:45:21,73.221
468,2019-01-01 14:46:50,66.489
469,2019-01-01 14:47:15,56.871
470,2019-01-01 14:47:18,57.261
471,2019-01-01 14:47:18,58.385
472,2019-01-01 14:48:54,56.460
473,2019-01-01 14:49:28,60.909
474,2019-01-01 14:50:03,58.274
475,2019-01-01 14:54:09,58.509
476,2019-01-01 14:54:10,59.344
477,2019-01-01 14:54:12,56.996
478,2019-01-01 14:54:13,64.082
479,2019-01-01 14:54:16,67.425
480,2019-01-01 14:55:32,59.691
481,2019-01-01 14:56:09,67.083
482,2019-01-01 14:56:42,59.075
483,2019-01-01 14:56:44,68.475
484,2019-01-01 14:57:38,58.088
485,2019-01-01 14:57:39,59.336
486,2019-01-01 14:57:41,58.519
487,2019-01-01 14:58:26,92.273
488,2019-01-01 14:58:54,58.221
489,2019-01-01 14:58:55,58.216
490,2019-01-01 14:59:51,58.679
491,2019-01-01 14:59:52,64.122
492,2019-01-01 15:02:44,57.085
493,2019-01-01 15:02:44,57.453
494,2019-01-01 15:02:45,67.474
495,2019-01-01 15:02:46,59.458
496,2019-01-01 15:02:48,60.259
497,2019-01-01 15:02:48,99.446
498,2019-01-01 15:04:52,64.419
499,2019-01-01 15:05:20,61.943
500,2019-01-01 15:05:21,58.977
501,2019-01-01 15:05:22,64.693
502,2019-01-01 15:05:23,58.282
503,2019-01-01 15:05:34,60.150
504,2019-01-01 15:06:23,59.860
505,2019-01-01 15:07:42,56.797
506,2019-01-01 15:07:43,55.625
507,2019-01-01 15:07:51,57.623
508,2019-01-01 15:08:37,69.855
509,2019-01-01 15:08:37,56.403
510,2019-01-01 15:08:41,56.805
511,2019-01-01 15:11:31,55.516
512,2019-01-01 15:11:31,55.323
513,2019-01-01 15:11:31,57.029
514,2019-01-01 15:11:33,60.693
515,2019-01-01 15:14:05,57.880
516,2019-01-01 15:14:10,58.961
517,2019-01-01 15:15:08,76.999
518,2019-01-01 15:15:49,73.801
519,2019-01-01 15:15:52,62.007
520,2019-01-01 15:15:53,69.023
521,2019-01-01 15:15:54,60.825
522,2019-01-01 15:16:25,58.423
523,2019-01-01 15:16:25,65.434
524,2019-01-01 15:16:25,64.157
525,2019-01-01 15:16:26,61.845
526,2019-01-01 15:16:36,59.517
527,2019-01-01 15:17:21,55.780
528,2019-01-01 15:17:21,61.132
529,2019-01-01 15:17:24,58.527
530,2019-01-01 15:17:25,58.616
531,2019-01-01 15:20:41,60.183
532,2019-01-01 15:20:43,61.560
533,2019-01-01 15:20:43,61.712
534,2019-01-01 15:20:43,59.140
535,2019-01-01 15:20:44,62.563
536,2019-01-01 15:20:44,60.351
537,2019-01-01 15:20:45,58.848
538,2019-01-01 15:20:46,66.538
539,2019-01-01 15:20:46,56.625
540,2019-01-01 15:22:10,59.315
541,2019-01-01 15:22:16,60.856
542,2019-01-01 15:22:17,55.341
543,2019-01-01 15:22:54,59.249
544,2019-01-01 15:22:59,62.127
545,2019-01-01 15:23:03,55.018
546,2019-01-01 15:23:38,58.956
547,2019-01-01 15:23:38,68.491
548,2019-01-01 15:23:38,61.060
549,2019-01-01 15:23:39,58.980
550,2019-01-01 15:23:40,56.397
551,2019-01-01 15:23:41,55.376
552,2019-01-01 15:23:43,61.609
553,2019-01-01 15:23:44,55.929
554,2019-01-01 15:24:28,112.976
555,2019-01-01 15:25:09,61.384
556,2019-01-01 15:25:11,67.149
557,2019-01-01 15:25:13,58.742
558,2019-01-01 15:25:15,68.125
559,2019-01-01 15:25:53,59.667
560,2019-01-01 15:25:54,60.644
561,2019-01-01 15:25:55,58.573
562,2019-01-01 15:25:55,69.953
563,2019-01-01 15:25:56,65.503
564,2019-01-01 15:26:45,91.777
565,2019-01-01 15:26:45,62.995
566,2019-01-01 15:26:46,65.239
567,2019-01-01 15:29:50,59.135
568,2019-01-01 15:29:51,69.497
569,2019-01-01 15:29:51,59.242
570,2019-01-01 15:29:51,60.252
571,2019-01-01 15:29:51,68.918
572,2019-01-01 15:29:51,60.579
573,2019-01-01 15:29:52,59.513
574,2019-01-01 15:29:52,67.665
575,2019-01-01 15:29:52,65.574
576,2019-01-01 15:29:53,60.058
577,2019-01-01 15:29:54,69.090
578,2019-01-01 15:29:55,102.678
579,2019-01-01 15:31:25,61.679
580,2019-01-01 15:32:01,66.067
581,2019-01-01 15:32:02,82.103
582,2019-01-01 15:32:22,75.208
583,2019-01-01 15:32:23,56.865
584,2019-01-01 15:32:23,59.040
585,2019-01-01 15:32:24,56.477
586,2019-01-01 15:32:24,57.286
587,2019-01-01 15:32:24,112.428
588,2019-01-01 15:32:25,58.027
589,2019-01-01 15:32:26,92.428
590,2019-01-01 15:32:26,64.018
591,2019-01-01 15:33:31,56.386
592,2019-01-01 15:33:32,57.518
593,2019-01-01 15:33:35,55.346
594,2019-01-01 15:34:08,56.857
595,2019-01-01 15:34:46,74.471
596,2019-01-01 15:34:50,63.379
597,2019-01-01 15:34:55,62.278
598,2019-01-01 15:35:44,61.801
599,2019-01-01 15:38:49,57.360
600,2019-01-01 15:38:49,60.076
601,2019-01-01 15:38:50,56.103
602,2019-01-01 15:38:50,70.946
603,2019-01-01 15:38:51,69.910
604,2019-01-01 15:38:52,61.330
605,2019-01-01 15:38:52,60.409
606,2019-01-01 15:38:52,57.940
607,2019-01-01 15:38:53,57.882
608,2019-01-01 15:38:54,55.862
609,2019-01-01 15:38:54,59.694
610,2019-01-01 15:38:54,60.156
611,2019-01-01 15:38:54,56.142
612,2019-01-01 15:40:15,61.083
613,2019-01-01 15:40:49,71.853
614,2019-01-01 15:40:50,61.385
615,2019-01-01 15:40:51,60.967
616,2019-01-01 15:40:52,74.959
617,2019-01-01 15:40:52,59.229
618,2019-01-01 15:41:01,61.782
619,2019-01-01 15:41:26,58.572
620,2019-01-01 15:41:30,69.355
621,2019-01-01 15:42:27,66.286
622,2019-01-01 15:42:28,118.118
623,2019-01-01 15:42:31,73.582
624,2019-01-01 15:42:39,59.749
625,2019-01-01 15:43:10,56.889
626,2019-01-01 15:43:11,70.724
627,2019-01-01 15:43:14,55.400
628,2019-01-01 15:43:17,57.362
629,2019-01-01 15:43:19,58.804
630,2019-01-01 15:43:50,59.457
631,2019-01-01 15:43:52,59.697
632,2019-01-01 15:43:52,60.927
633,2019-01-01 15:44:00,121.792
634,2019-01-01 15:44:38,58.193
635,2019-01-01 15:44:43,56.665
636,2019-01-01 15:44:43,61.314
637,2019-01-01 15:44:43,80.118
638,2019-01-01 15:44:43,55.799
639,2019-01-01 15:47:56,55.636
640,2019-01-01 15:47:57,60.264
641,2019-01-01 15:50:04,61.081
642,2019-01-01 15:50:33,56.491
643,2019-01-01 15:50:34,59.993
644,2019-01-01 15:50:35,63.612
645,2019-01-01 15:56:35,64.250
646,2019-01-01 15:56:35,94.616
647,2019-01-01 15:56:37,59.359
648,2019-01-01 15:56:37,79.843
649,2019-01-01 15:57:57,74.458
650,2019-01-01 15:58:43,58.682
651,2019-01-01 15:59:07,57.211
652,2019-01-01 15:59:07,58.744
653,2019-01-01 15:59:09,60.000
654,2019-01-01 15:59:13,57.313
655,2019-01-01 15:59:13,55.087
656,2019-01-01 16:00:09,64.842
657,2019-01-01 16:01:26,62.872
658,2019-01-01 16:01:26,69.389
659,2019-01-01 16:01:28,75.219
660,2019-01-01 16:01:29,63.810
661,2019-01-01 16:05:41,61.449
662,2019-01-01 16:05:41,63.401
663,2019-01-01 16:05:42,63.338
664,2019-01-01 16:05:42,61.467
665,2019-01-01 16:05:42,58.406
666,2019-01-01 16:05:43,63.124
667,2019-01-01 16:05:43,60.341
668,2019-01-01 16:05:44,62.565
669,2019-01-01 16:05:45,62.176
670,2019-01-01 16:05:47,64.135
671,2019-01-01 16:05:48,55.213
672,2019-01-01 16:08:21,55.506
673,2019-01-01 16:08:22,64.166
674,2019-01-01 16:08:23,62.058
675,2019-01-01 16:08:24,56.016
676,2019-01-01 16:08:24,55.988
677,2019-01-01 16:09:16,60.781
678,2019-01-01 16:09:18,58.970
679,2019-01-01 16:09:54,58.498
680,2019-01-01 16:09:55,61.032
681,2019-01-01 16:09:55,59.497
682,2019-01-01 16:09:56,60.057
683,2019-01-01 16:09:56,59.775
684,2019-01-01 16:09:59,62.077
685,2019-01-01 16:10:38,63.017
686,2019-01-01 16:10:44,56.906
687,2019-01-01 16:10:48,60.898
688,2019-01-01 16:10:49,72.649
689,2019-01-01 16:11:29,67.247
690,2019-01-01 16:11:30,58.447
691,2019-01-01 16:11:31,56.940
692,2019-01-01 16:15:05,66.514
693,2019-01-01 16:15:06,67.173
694,2019-01-01 16:15:06,59.620
695,2019-01-01 16:15:06,56.122
696,2019-01-01 16:15:07,59.834
697,2019-01-01 16:15:08,76.419
698,2019-01-01 16:15:09,107.982
699,2019-01-01 16:15:09,66.346
700,2019-01-01 16:15:10,58.962
701,2019-01-01 16:16:27,58.924
702,2019-01-01 16:17:12,59.563
703,2019-01-01 16:17:18,56.805
704,2019-01-01 16:17:24,63.747
705,2019-01-01 16:17:53,81.372
706,2019-01-01 16:17:53,62.735
707,2019-01-01 16:17:54,61.275
708,2019-01-01 16:17:54,57.154
709,2019-01-01 16:17:55,55.053
710,2019-01-01 16:17:55,56.985
711,2019-01-01 16:17:56,55.267
712,2019-01-01 16:18:52,57.264
713,2019-01-01 16:18:58,59.878
714,2019-01-01 16:18:58,59.074
715,2019-01-01 16:19:29,61.460
716,2019-01-01 16:19:30,56.095
717,2019-01-01 16:19:33,55.392
718,2019-01-01 16:19:37,91.266
719,2019-01-01 16:20:12,55.834
720,2019-01-01 16:20:12,55.485
721,2019-01-01 16:20:15,61.218
722,2019-01-01 16:20:15,61.727
723,2019-01-01 16:20:16,60.175
724,2019-01-01 16:20:58,67.180
725,2019-01-01 16:20:59,68.728
726,2019-01-01 16:21:01,62.760
727,2019-01-01 16:21:01,57.984
728,2019-01-01 16:24:05,57.000
729,2019-01-01 16:24:06,83.437
730,2019-01-01 16:24:07,59.068
731,2019-01-01 16:24:07,55.386
732,2019-01-01 16:24:07,58.459
733,2019-01-01 16:24:07,60.689
734,2019-01-01 16:24:07,54.826
735,2019-01-01 16:24:08,63.335
736,2019-01-01 16:24:09,55.797
737,2019-01-01 16:24:09,62.975
738,2019-01-01 16:24:09,57.215
739,2019-01-01 16:24:09,61.940
740,2019-01-01 16:24:09,56.521
741,2019-01-01 16:25:35,62.981
742,2019-01-01 16:26:02,60.894
743,2019-01-01 16:26:05,64.738
744,2019-01-01 16:26:06,59.766
745,2019-01-01 16:26:06,62.574
746,2019-01-01 16:26:06,58.475
747,2019-01-01 16:26:27,55.182
748,2019-01-01 16:26:29,75.546
749,2019-01-01 16:26:29,65.139
750,2019-01-01 16:26:32,63.827
751,2019-01-01 16:26:36,59.592
752,2019-01-01 16:26:39,56.065
753,2019-01-01 16:27:33,57.125
754,2019-01-01 16:27:40,54.772
755,2019-01-01 16:28:17,55.544
756,2019-01-01 16:28:18,60.489
757,2019-01-01 16:28:29,55.879
758,2019-01-01 16:28:52,54.713
759,2019-01-01 16:28:52,55.081
760,2019-01-01 16:28:52,56.336
761,2019-01-01 16:28:52,55.414
762,2019-01-01 16:28:53,58.283
763,2019-01-01 16:28:56,57.189
764,2019-01-01 16:29:42,60.772
765,2019-01-01 16:29:42,58.774
766,2019-01-01 16:32:46,55.822
767,2019-01-01 16:32:46,57.703
768,2019-01-01 16:32:47,59.946
769,2019-01-01 16:32:47,60.175
770,2019-01-01 16:32:48,55.817
771,2019-01-01 16:32:49,63.657
772,2019-01-01 16:32:49,58.487
773,2019-01-01 16:32:49,56.541
774,2019-01-01 16:32:56,61.075
775,2019-01-01 16:34:40,55.001
776,2019-01-01 16:34:50,60.881
777,2019-01-01 16:35:13,55.232
778,2019-01-01 16:35:14,75.217
779,2019-01-01 16:35:16,57.906
780,2019-01-01 16:35:17,57.600
781,2019-01-01 16:35:17,60.150
782,2019-01-01 16:35:17,57.856
783,2019-01-01 16:36:20,65.121
784,2019-01-01 16:36:27,74.193
785,2019-01-01 16:36:30,66.673
786,2019-01-01 16:37:07,68.646
787,2019-01-01 16:37:33,193.672
788,2019-01-01 16:37:34,57.195
789,2019-01-01 16:37:36,67.608
790,2019-01-01 16:37:36,58.056
791,2019-01-01 16:37:37,57.249
792,2019-01-01 16:37:39,58.067
793,2019-01-01 16:38:28,56.181
794,2019-01-01 16:38:28,58.327
795,2019-01-01 16:38:29,61.846
796,2019-01-01 16:38:30,78.420
797,2019-01-01 16:38:36,57.638
798,2019-01-01 16:38:36,57.194
799,2019-01-01 16:41:31,66.274
800,2019-01-01 16:41:33,56.878
801,2019-01-01 16:41:34,59.444
802,2019-01-01 16:41:35,55.878
803,2019-01-01 16:41:35,60.256
804,2019-01-01 16:41:36,54.370
805,2019-01-01 16:41:36,79.330
806,2019-01-01 16:43:49,55.764
807,2019-01-01 16:43:50,57.997
808,2019-01-01 16:43:50,57.480
809,2019-01-01 16:43:59,56.126
810,2019-01-01 16:43:59,56.496
811,2019-01-01 16:44:01,56.132
812,2019-01-01 16:44:02,56.568
813,2019-01-01 16:44:02,57.046
814,2019-01-01 16:44:02,55.029
815,2019-01-01 16:44:04,61.601
816,2019-01-01 16:44:04,62.771
817,2019-01-01 16:44:50,64.193
818,2019-01-01 16:44:50,65.897
819,2019-01-01 16:44:53,58.654
820,2019-01-01 16:44:53,62.580
821,2019-01-01 16:45:34,66.845
822,2019-01-01 16:45:38,58.528
823,2019-01-01 16:45:41,59.612
824,2019-01-01 16:46:12,63.795
825,2019-01-01 16:46:17,58.340
826,2019-01-01 16:46:21,60.456
827,2019-01-01 16:47:04,62.789
828,2019-01-01 16:47:04,55.676
829,2019-01-01 16:47:07,55.424
830,2019-01-01 16:47:45,57.530
831,2019-01-01 16:47:45,72.961
832,2019-01-01 16:50:23,65.933
833,2019-01-01 16:50:23,60.229
834,2019-01-01 16:50:24,58.405
835,2019-01-01 16:50:24,67.938
836,2019-01-01 16:50:24,67.259
837,2019-01-01 16:50:24,59.003
838,2019-01-01 16:50:24,64.186
839,2019-01-01 16:50:25,66.004
840,2019-01-01 16:50:25,65.893
841,2019-01-01 16:50:26,66.032
842,2019-01-01 16:50:26,57.495
843,2019-01-01 16:51:48,64.700
844,2019-01-01 16:51:48,58.600
845,2019-01-01 16:52:16,85.984
846,2019-01-01 16:52:44,55.421
847,2019-01-01 16:52:46,60.157
848,2019-01-01 16:52:46,60.796
849,2019-01-01 16:52:47,58.151
850,2019-01-01 16:52:47,59.774
851,2019-01-01 16:53:47,56.811
852,2019-01-01 16:53:47,59.879
853,2019-01-01 16:54:25,58.392
854,2019-01-01 16:54:26,55.799
855,2019-01-01 16:55:02,56.532
856,2019-01-01 16:55:03,62.908
857,2019-01-01 16:55:04,60.379
858,2019-01-01 16:55:06,59.739
859,2019-01-01 16:55:07,57.831
860,2019-01-01 16:55:54,61.616
861,2019-01-01 16:55:58,63.442
862,2019-01-01 16:55:59,56.064
863,2019-01-01 16:55:59,78.919
864,2019-01-01 16:56:41,69.310
865,2019-01-01 16:59:13,56.169
866,2019-01-01 16:59:13,59.111
867,2019-01-01 16:59:13,66.999
868,2019-01-01 16:59:13,60.394
869,2019-01-01 16:59:14,55.635
870,2019-01-01 16:59:14,56.659
871,2019-01-01 16:59:14,59.275
872,2019-01-01 16:59:15,59.670
873,2019-01-01 16:59:16,70.766
874,2019-01-01 16:59:16,55.917
875,2019-01-01 16:59:16,56.333
876,2019-01-01 16:59:16,57.904
877,2019-01-01 16:59:23,57.539
878,2019-01-01 17:00:46,60.168
879,2019-01-01 17:01:13,57.409
880,2019-01-01 17:01:14,61.222
881,2019-01-01 17:01:15,61.920
882,2019-01-01 17:01:24,55.787
883,2019-01-01 17:01:26,58.324
884,2019-01-01 17:01:51,56.425
885,2019-01-01 17:01:51,59.054
886,2019-01-01 17:01:52,55.126
887,2019-01-01 17:01:52,55.645
888,2019-01-01 17:01:52,58.611
889,2019-01-01 17:01:53,55.988
890,2019-01-01 17:01:53,58.921
891,2019-01-01 17:01:54,63.288
892,2019-01-01 17:02:02,57.196
893,2019-01-01 17:02:54,57.581
894,2019-01-01 17:02:57,61.486
895,2019-01-01 17:03:31,57.476
896,2019-01-01 17:03:32,58.526
897,2019-01-01 17:04:08,59.786
898,2019-01-01 17:04:11,56.850
899,2019-01-01 17:05:05,64.227
900,2019-01-01 17:05:07,66.682
901,2019-01-01 17:08:32,55.896
902,2019-01-01 17:08:32,60.065
903,2019-01-01 17:08:32,55.542
904,2019-01-01 17:08:33,64.188
905,2019-01-01 17:08:34,55.017
906,2019-01-01 17:08:34,62.046
907,2019-01-01 17:08:35,58.043
908,2019-01-01 17:08:35,61.322
909,2019-01-01 17:08:35,56.593
910,2019-01-01 17:08:36,57.988
911,2019-01-01 17:08:36,56.755
912,2019-01-01 17:08:36,55.779
913,2019-01-01 17:08:36,57.084
914,2019-01-01 17:10:02,70.268
915,2019-01-01 17:10:02,61.426
916,2019-01-01 17:10:03,56.483
917,2019-01-01 17:10:41,62.690
918,2019-01-01 17:10:48,66.771
919,2019-01-01 17:10:49,57.264
920,2019-01-01 17:10:50,58.232
921,2019-01-01 17:10:54,59.652
922,2019-01-01 17:11:18,67.371
923,2019-01-01 17:11:19,80.059
924,2019-01-01 17:11:19,71.829
925,2019-01-01 17:11:20,58.636
926,2019-01-01 17:11:21,56.985
927,2019-01-01 17:11:26,57.424
928,2019-01-01 17:12:16,55.738
929,2019-01-01 17:12:20,55.341
930,2019-01-01 17:12:20,55.070
931,2019-01-01 17:12:54,58.802
932,2019-01-01 17:12:55,55.839
933,2019-01-01 17:12:56,56.494
934,2019-01-01 17:13:35,66.008
935,2019-01-01 17:13:38,55.353
936,2019-01-01 17:13:38,55.469
937,2019-01-01 17:13:38,55.805
938,2019-01-01 17:13:38,55.802
939,2019-01-01 17:13:39,69.607
940,2019-01-01 17:14:29,63.465
941,2019-01-01 17:14:30,58.575
942,2019-01-01 17:14:30,56.085
943,2019-01-01 17:17:05,56.854
944,2019-01-01 17:17:05,58.124
945,2019-01-01 17:17:05,55.987
946,2019-01-01 17:17:06,59.003
947,2019-01-01 17:17:06,57.268
948,2019-01-01 17:17:06,55.015
949,2019-01-01 17:17:07,55.535
950,2019-01-01 17:17:07,56.849
951,2019-01-01 17:17:08,59.319
952,2019-01-01 17:17:08,57.730
953,2019-01-01 17:17:08,58.600
954,2019-01-01 17:17:09,62.892
955,2019-01-01 17:17:09,58.125
956,2019-01-01 17:17:09,56.151
957,2019-01-01 17:17:09,56.207
958,2019-01-01 17:18:30,62.374
959,2019-01-01 17:18:32,58.221
960,2019-01-01 17:19:02,68.656
961,2019-01-01 17:19:35,57.269
962,2019-01-01 17:19:36,57.541
963,2019-01-01 17:19:40,56.628
964,2019-01-01 17:19:40,58.835
965,2019-01-01 17:19:42,58.146
966,2019-01-01 17:19:42,59.487
967,2019-01-01 17:19:43,61.580
968,2019-01-01 17:20:31,66.524
969,2019-01-01 17:21:11,67.237
970,2019-01-01 17:21:12,58.611
971,2019-01-01 17:21:12,58.620
972,2019-01-01 17:21:13,56.343
973,2019-01-01 17:21:13,67.930
974,2019-01-01 17:21:14,66.564
975,2019-01-01 17:21:15,63.268
976,2019-01-01 17:21:52,64.279
977,2019-01-01 17:21:53,128.954
978,2019-01-01 17:21:53,67.361
979,2019-01-01 17:21:54,58.997
980,2019-01-01 17:21:55,57.286
981,2019-01-01 17:21:57,55.179
982,2019-01-01 17:22:02,125.602
983,2019-01-01 17:22:06,82.660
984,2019-01-01 17:22:46,246.306
985,2019-01-01 17:22:53,61.104
986,2019-01-01 17:25:55,57.944
987,2019-01-01 17:25:55,62.145
988,2019-01-01 17:25:57,193.550
989,2019-01-01 17:25:58,60.818
990,2019-01-01 17:25:58,59.422
991,2019-01-01 17:25:59,61.212
992,2019-01-01 17:25:59,61.003
993,2019-01-01 17:25:59,60.633
994,2019-01-01 17:27:55,57.696
995,2019-01-01 17:29:24,57.398
996,2019-01-01 17:29:24,57.009
997,2019-01-01 17:29:25,222.016
998,2019-01-01 17:29:36,56.383
999,2019-01-01 17:30:11,67.532
1000,2019-01-01 17:30:11,63.031
1001,2019-01-01 17:30:12,62.141
1002,2019-01-01 17:30:47,59.041
1003,2019-01-01 17:34:42,59.919
1004,2019-01-01 17:34:44,57.015
1005,2019-01-01 17:36:06,60.564
1006,2019-01-01 17:36:17,59.907
1007,2019-01-01 17:36:45,209.835
1008,2019-01-01 17:36:59,60.293
1009,2019-01-01 17:37:17,56.022
1010,2019-01-01 17:37:20,57.081
1011,2019-01-01 17:37:20,78.024
1012,2019-01-01 17:37:20,57.357
1013,2019-01-01 17:37:21,54.926
1014,2019-01-01 17:37:21,55.471
1015,2019-01-01 17:37:21,56.044
1016,2019-01-01 17:38:19,58.336
1017,2019-01-01 17:38:20,63.546
1018,2019-01-01 17:38:20,201.489
1019,2019-01-01 17:38:26,67.035
1020,2019-01-01 17:39:02,55.605
1021,2019-01-01 17:39:03,55.780
1022,2019-01-01 17:39:04,80.253
1023,2019-01-01 17:39:42,55.342
1024,2019-01-01 17:39:42,55.876
1025,2019-01-01 17:39:43,57.990
1026,2019-01-01 17:39:44,59.582
1027,2019-01-01 17:39:44,59.270
1028,2019-01-01 17:39:45,58.353
1029,2019-01-01 17:39:46,57.628
1030,2019-01-01 17:39:47,64.205
1031,2019-01-01 17:39:47,63.953
1032,2019-01-01 17:39:51,74.881
1033,2019-01-01 17:39:52,58.569
1034,2019-01-01 17:39:56,73.342
1035,2019-01-01 17:39:57,55.673
1036,2019-01-01 17:40:34,67.217
1037,2019-01-01 17:40:35,65.909
1038,2019-01-01 17:40:36,64.247
1039,2019-01-01 17:43:27,62.375
1040,2019-01-01 17:43:27,59.863
1041,2019-01-01 17:43:27,62.304
1042,2019-01-01 17:43:28,61.887
1043,2019-01-01 17:43:29,59.613
1044,2019-01-01 17:43:31,63.155
1045,2019-01-01 17:43:31,59.514
1046,2019-01-01 17:43:41,59.228
1047,2019-01-01 17:45:53,57.758
1048,2019-01-01 17:45:53,61.022
1049,2019-01-01 17:45:55,62.864
1050,2019-01-01 17:45:55,67.493
1051,2019-01-01 17:45:57,63.645
1052,2019-01-01 17:45:57,64.311
1053,2019-01-01 17:45:58,59.948
1054,2019-01-01 17:45:58,72.970
1055,2019-01-01 17:45:58,63.298
1056,2019-01-01 17:45:59,60.219
1057,2019-01-01 17:46:02,63.305
1058,2019-01-01 17:46:55,62.152
1059,2019-01-01 17:46:56,56.581
1060,2019-01-01 17:46:57,55.344
1061,2019-01-01 17:47:40,62.639
1062,2019-01-01 17:47:41,55.698
1063,2019-01-01 17:47:41,59.610
1064,2019-01-01 17:47:52,59.537
1065,2019-01-01 17:48:15,58.528
1066,2019-01-01 17:48:15,61.591
1067,2019-01-01 17:48:15,61.926
1068,2019-01-01 17:48:17,58.180
1069,2019-01-01 17:48:17,61.788
1070,2019-01-01 17:48:18,60.987
1071,2019-01-01 17:48:20,59.112
1072,2019-01-01 17:49:09,59.665
1073,2019-01-01 17:49:11,55.526
1074,2019-01-01 17:49:12,61.556
1075,2019-01-01 17:52:06,78.914
1076,2019-01-01 17:52:06,57.410
1077,2019-01-01 17:52:07,57.469
1078,2019-01-01 17:52:08,55.244
1079,2019-01-01 17:52:10,56.432
1080,2019-01-01 17:52:10,55.189
1081,2019-01-01 17:54:11,56.021
1082,2019-01-01 17:54:18,58.737
1083,2019-01-01 17:54:35,61.138
1084,2019-01-01 17:54:35,60.056
1085,2019-01-01 17:54:36,57.379
1086,2019-01-01 17:54:37,62.871
1087,2019-01-01 17:54:37,61.301
1088,2019-01-01 17:54:39,64.026
1089,2019-01-01 17:56:10,95.694
1090,2019-01-01 17:56:11,61.402
1091,2019-01-01 17:56:11,55.682
1092,2019-01-01 17:56:47,63.950
1093,2019-01-01 17:56:50,55.608
1094,2019-01-01 17:56:55,66.470
1095,2019-01-01 17:57:41,59.144
1096,2019-01-01 17:57:41,57.455
1097,2019-01-01 17:57:41,56.202
1098,2019-01-01 17:57:41,55.439
1099,2019-01-01 17:58:22,55.561
1100,2019-01-01 18:00:35,60.269
1101,2019-01-01 18:00:35,58.895
1102,2019-01-01 18:00:35,63.169
1103,2019-01-01 18:00:36,55.429
1104,2019-01-01 18:00:36,61.731
1105,2019-01-01 18:00:36,63.907
1106,2019-01-01 18:00:37,61.069
1107,2019-01-01 18:00:37,59.053
1108,2019-01-01 18:00:37,57.809
1109,2019-01-01 18:00:38,60.076
1110,2019-01-01 18:00:38,62.693
1111,2019-01-01 18:00:38,57.748
1112,2019-01-01 18:00:38,73.954
1113,2019-01-01 18:00:38,64.104
1114,2019-01-01 18:00:39,64.302
1115,2019-01-01 18:00:39,60.198
1116,2019-01-01 18:00:39,68.309
1117,2019-01-01 18:00:39,62.317
1118,2019-01-01 18:00:39,62.980
1119,2019-01-01 18:00:39,57.865
1120,2019-01-01 18:01:58,75.308
1121,2019-01-01 18:02:36,60.301
1122,2019-01-01 18:02:40,74.254
1123,2019-01-01 18:02:48,58.509
1124,2019-01-01 18:03:10,55.568
1125,2019-01-01 18:03:12,59.137
1126,2019-01-01 18:03:12,55.624
1127,2019-01-01 18:03:13,56.994
1128,2019-01-01 18:03:15,59.745
1129,2019-01-01 18:03:19,56.427
1130,2019-01-01 18:04:11,56.659
1131,2019-01-01 18:04:14,60.124
1132,2019-01-01 18:04:17,58.701
1133,2019-01-01 18:04:48,58.638
1134,2019-01-01 18:04:48,57.590
1135,2019-01-01 18:04:48,59.288
1136,2019-01-01 18:04:52,55.125
1137,2019-01-01 18:05:28,75.149
1138,2019-01-01 18:05:28,59.656
1139,2019-01-01 18:05:29,59.711
1140,2019-01-01 18:05:36,62.220
1141,2019-01-01 18:05:41,56.749
1142,2019-01-01 18:06:20,60.199
1143,2019-01-01 18:06:20,91.097
1144,2019-01-01 18:06:25,61.317
1145,2019-01-01 18:06:27,89.734
1146,2019-01-01 18:09:21,55.861
1147,2019-01-01 18:09:21,55.224
1148,2019-01-01 18:09:22,55.679
1149,2019-01-01 18:09:23,65.530
1150,2019-01-01 18:09:24,54.768
1151,2019-01-01 18:09:25,55.398
1152,2019-01-01 18:09:25,75.746
1153,2019-01-01 18:09:25,59.568
1154,2019-01-01 18:09:26,57.477
1155,2019-01-01 18:11:13,72.806
1156,2019-01-01 18:11:42,59.491
1157,2019-01-01 18:11:53,61.593
1158,2019-01-01 18:11:54,56.254
1159,2019-01-01 18:12:38,58.010
1160,2019-01-01 18:12:38,57.151
1161,2019-01-01 18:12:38,56.580
1162,2019-01-01 18:12:39,56.053
1163,2019-01-01 18:12:41,59.106
1164,2019-01-01 18:12:43,57.582
1165,2019-01-01 18:13:25,55.988
1166,2019-01-01 18:14:09,66.911
1167,2019-01-01 18:14:58,63.620
1168,2019-01-01 18:15:38,62.224
1169,2019-01-01 18:18:09,58.404
1170,2019-01-01 18:18:10,68.939
1171,2019-01-01 18:18:10,60.544
1172,2019-01-01 18:18:10,61.679
1173,2019-01-01 18:18:10,58.680
1174,2019-01-01 18:18:11,58.110
1175,2019-01-01 18:18:11,89.549
1176,2019-01-01 18:18:11,61.308
1177,2019-01-01 18:18:11,59.102
1178,2019-01-01 18:18:12,55.243
1179,2019-01-01 18:18:12,58.849
1180,2019-01-01 18:18:12,57.430
1181,2019-01-01 18:18:12,61.317
1182,2019-01-01 18:18:13,58.387
1183,2019-01-01 18:18:13,55.974
1184,2019-01-01 18:18:13,58.314
1185,2019-01-01 18:18:13,58.327
1186,2019-01-01 18:18:13,57.313
1187,2019-01-01 18:19:34,67.386
1188,2019-01-01 18:20:11,59.595
1189,2019-01-01 18:20:49,68.552
1190,2019-01-01 18:20:49,59.305
1191,2019-01-01 18:20:49,56.530
1192,2019-01-01 18:20:49,60.054
1193,2019-01-01 18:20:49,57.738
1194,2019-01-01 18:20:50,57.769
1195,2019-01-01 18:20:51,59.306
1196,2019-01-01 18:20:52,61.297
1197,2019-01-01 18:20:52,58.162
1198,2019-01-01 18:20:52,55.327
1199,2019-01-01 18:20:52,56.850
1200,2019-01-01 18:20:53,59.436
1201,2019-01-01 18:21:45,60.227
1202,2019-01-01 18:21:46,58.787
1203,2019-01-01 18:21:46,58.642
1204,2019-01-01 18:21:47,56.363
1205,2019-01-01 18:21:47,58.995
1206,2019-01-01 18:21:48,61.250
1207,2019-01-01 18:21:48,59.402
1208,2019-01-01 18:22:28,66.174
1209,2019-01-01 18:22:32,63.729
1210,2019-01-01 18:23:05,60.825
1211,2019-01-01 18:23:06,57.990
1212,2019-01-01 18:23:07,57.406
1213,2019-01-01 18:23:08,55.814
1214,2019-01-01 18:23:09,59.843
1215,2019-01-01 18:23:10,59.609
1216,2019-01-01 18:23:54,56.986
1217,2019-01-01 18:23:54,56.012
1218,2019-01-01 18:23:55,56.484
1219,2019-01-01 18:23:56,56.712
1220,2019-01-01 18:23:57,57.717
1221,2019-01-01 18:26:52,59.104
1222,2019-01-01 18:26:52,75.199
1223,2019-01-01 18:26:53,61.758
1224,2019-01-01 18:26:53,60.618
1225,2019-01-01 18:26:53,60.276
1226,2019-01-01 18:26:53,56.256
1227,2019-01-01 18:26:53,57.995
1228,2019-01-01 18:26:54,60.420
1229,2019-01-01 18:26:55,59.820
1230,2019-01-01 18:26:56,76.162
1231,2019-01-01 18:26:56,58.177
1232,2019-01-01 18:26:57,59.288
1233,2019-01-01 18:28:17,57.286
1234,2019-01-01 18:28:25,72.898
1235,2019-01-01 18:28:53,62.095
1236,2019-01-01 18:29:23,60.196
1237,2019-01-01 18:29:25,83.536
1238,2019-01-01 18:29:25,99.593
1239,2019-01-01 18:29:26,58.524
1240,2019-01-01 18:29:27,58.544
1241,2019-01-01 18:29:27,58.512
1242,2019-01-01 18:29:28,58.367
1243,2019-01-01 18:29:33,61.659
1244,2019-01-01 18:30:25,60.043
1245,2019-01-01 18:30:28,55.291
1246,2019-01-01 18:30:31,59.199
1247,2019-01-01 18:31:11,69.416
1248,2019-01-01 18:31:11,58.420
1249,2019-01-01 18:31:16,58.542
1250,2019-01-01 18:31:19,68.421
1251,2019-01-01 18:31:50,67.700
1252,2019-01-01 18:31:52,58.674
1253,2019-01-01 18:31:55,55.308
1254,2019-01-01 18:32:36,56.257
1255,2019-01-01 18:32:37,56.478
1256,2019-01-01 18:32:37,61.104
1257,2019-01-01 18:32:39,58.687
1258,2019-01-01 18:35:57,64.692
1259,2019-01-01 18:35:57,62.421
1260,2019-01-01 18:35:58,63.050
1261,2019-01-01 18:36:00,56.622
1262,2019-01-01 18:36:00,57.202
1263,2019-01-01 18:36:00,58.930
1264,2019-01-01 18:36:01,63.772
1265,2019-01-01 18:36:01,62.416
1266,2019-01-01 18:36:01,64.740
1267,2019-01-01 18:36:02,64.433
1268,2019-01-01 18:36:02,65.660
1269,2019-01-01 18:37:22,59.617
1270,2019-01-01 18:37:31,87.261
1271,2019-01-01 18:37:33,55.874
1272,2019-01-01 18:37:57,55.143
1273,2019-01-01 18:37:58,81.260
1274,2019-01-01 18:37:59,59.585
1275,2019-01-01 18:38:28,61.545
1276,2019-01-01 18:38:28,69.645
1277,2019-01-01 18:38:28,66.294
1278,2019-01-01 18:38:30,59.064
1279,2019-01-01 18:38:32,63.343
1280,2019-01-01 18:38:33,61.195
1281,2019-01-01 18:38:35,61.701
1282,2019-01-01 18:39:23,55.718
1283,2019-01-01 18:39:24,69.689
1284,2019-01-01 18:39:28,56.506
1285,2019-01-01 18:40:11,62.546
1286,2019-01-01 18:40:49,59.106
1287,2019-01-01 18:40:51,70.253
1288,2019-01-01 18:40:54,63.498
1289,2019-01-01 18:41:02,57.516
1290,2019-01-01 18:41:45,62.635
1291,2019-01-01 18:44:29,73.683
1292,2019-01-01 18:44:30,60.774
1293,2019-01-01 18:44:30,75.541
1294,2019-01-01 18:44:30,59.829
1295,2019-01-01 18:44:30,74.631
1296,2019-01-01 18:44:30,78.271
1297,2019-01-01 18:44:30,65.460
1298,2019-01-01 18:44:31,56.018
1299,2019-01-01 18:44:31,59.308
1300,2019-01-01 18:44:32,60.337
1301,2019-01-01 18:44:33,54.919
1302,2019-01-01 18:46:23,63.795
1303,2019-01-01 18:46:27,74.666
1304,2019-01-01 18:46:51,58.799
1305,2019-01-01 18:46:51,57.651
1306,2019-01-01 18:46:51,62.260
1307,2019-01-01 18:46:52,66.119
1308,2019-01-01 18:46:52,63.833
1309,2019-01-01 18:46:52,55.966
1310,2019-01-01 18:46:55,59.340
1311,2019-01-01 18:46:55,58.666
1312,2019-01-01 18:46:57,56.781
1313,2019-01-01 18:46:58,76.139
1314,2019-01-01 18:46:59,69.265
1315,2019-01-01 18:47:02,56.109
1316,2019-01-01 18:47:57,58.132
1317,2019-01-01 18:48:01,55.544
1318,2019-01-01 18:48:51,55.981
1319,2019-01-01 18:49:21,55.297
1320,2019-01-01 18:49:21,55.498
1321,2019-01-01 18:49:23,64.523
1322,2019-01-01 18:49:24,55.394
1323,2019-01-01 18:50:12,57.045
1324,2019-01-01 18:50:12,61.267
1325,2019-01-01 18:50:12,58.786
1326,2019-01-01 18:53:28,58.878
1327,2019-01-01 18:53:29,66.869
1328,2019-01-01 18:53:30,56.833
1329,2019-01-01 18:53:30,57.209
1330,2019-01-01 18:53:30,55.336
1331,2019-01-01 18:53:30,56.690
1332,2019-01-01 18:53:31,60.108
1333,2019-01-01 18:53:32,55.657
1334,2019-01-01 18:53:33,55.381
1335,2019-01-01 18:55:04,56.506
1336,2019-01-01 18:55:25,78.132
1337,2019-01-01 18:55:37,64.451
1338,2019-01-01 18:55:56,72.816
1339,2019-01-01 18:55:56,64.078
1340,2019-01-01 18:55:58,63.321
1341,2019-01-01 18:56:00,58.231
1342,2019-01-01 18:56:00,64.499
1343,2019-01-01 18:56:01,56.372
1344,2019-01-01 18:57:00,61.293
1345,2019-01-01 18:57:08,55.569
1346,2019-01-01 18:57:40,55.422
1347,2019-01-01 18:57:41,55.827
1348,2019-01-01 18:57:43,62.273
1349,2019-01-01 18:57:45,54.513
1350,2019-01-01 18:57:49,56.599
1351,2019-01-01 18:58:19,55.725
1352,2019-01-01 18:58:19,59.600
1353,2019-01-01 18:58:20,56.584
1354,2019-01-01 18:58:24,59.741
1355,2019-01-01 18:58:32,71.534
1356,2019-01-01 18:59:20,59.938
1357,2019-01-01 18:59:22,59.139
1358,2019-01-01 18:59:25,57.480
1359,2019-01-01 19:01:41,63.299
1360,2019-01-01 19:01:41,59.305
1361,2019-01-01 19:01:42,56.507
1362,2019-01-01 19:01:42,60.424
1363,2019-01-01 19:01:42,55.407
1364,2019-01-01 19:01:43,56.136
1365,2019-01-01 19:01:43,75.080
1366,2019-01-01 19:01:43,67.472
1367,2019-01-01 19:01:43,58.643
1368,2019-01-01 19:01:43,56.954
1369,2019-01-01 19:01:44,55.549
1370,2019-01-01 19:01:44,57.416
1371,2019-01-01 19:01:44,56.651
1372,2019-01-01 19:01:45,70.629
1373,2019-01-01 19:01:45,55.950
1374,2019-01-01 19:01:45,57.413
1375,2019-01-01 19:03:02,54.949
1376,2019-01-01 19:03:02,61.562
1377,2019-01-01 19:03:02,57.534
1378,2019-01-01 19:03:08,55.179
1379,2019-01-01 19:03:46,54.916
1380,2019-01-01 19:03:49,55.264
1381,2019-01-01 19:03:56,55.993
1382,2019-01-01 19:03:58,68.560
1383,2019-01-01 19:04:23,55.571
1384,2019-01-01 19:04:24,55.569
1385,2019-01-01 19:04:24,57.527
1386,2019-01-01 19:04:25,55.813
1387,2019-01-01 19:04:25,55.948
1388,2019-01-01 19:04:25,62.685
1389,2019-01-01 19:04:25,61.532
1390,2019-01-01 19:04:27,56.642
1391,2019-01-01 19:05:15,59.436
1392,2019-01-01 19:05:15,60.048
1393,2019-01-01 19:05:15,59.329
1394,2019-01-01 19:05:16,55.979
1395,2019-01-01 19:05:17,56.039
1396,2019-01-01 19:05:21,58.836
1397,2019-01-01 19:05:57,964.167
1398,2019-01-01 19:05:59,59.038
1399,2019-01-01 19:05:59,56.530
1400,2019-01-01 19:06:00,59.492
1401,2019-01-01 19:06:01,56.715
1402,2019-01-01 19:06:03,58.332
1403,2019-01-01 19:06:41,89.489
1404,2019-01-01 19:07:26,57.346
1405,2019-01-01 19:07:27,55.231
1406,2019-01-01 19:07:27,54.962
1407,2019-01-01 19:07:30,58.881
1408,2019-01-01 19:10:13,63.763
1409,2019-01-01 19:10:13,75.551
1410,2019-01-01 19:10:13,66.143
1411,2019-01-01 19:10:14,58.180
1412,2019-01-01 19:10:14,82.149
1413,2019-01-01 19:10:14,56.970
1414,2019-01-01 19:10:16,64.190
1415,2019-01-01 19:10:16,64.664
1416,2019-01-01 19:10:16,61.244
1417,2019-01-01 19:10:17,67.161
1418,2019-01-01 19:12:08,56.924
1419,2019-01-01 19:12:11,65.323
1420,2019-01-01 19:12:18,58.720
1421,2019-01-01 19:12:41,61.249
1422,2019-01-01 19:12:42,54.459
1423,2019-01-01 19:12:43,65.830
1424,2019-01-01 19:12:43,59.604
1425,2019-01-01 19:12:44,58.284
1426,2019-01-01 19:12:44,58.336
1427,2019-01-01 19:13:50,56.053
1428,2019-01-01 19:13:51,56.437
1429,2019-01-01 19:14:32,67.027
1430,2019-01-01 19:14:42,56.850
1431,2019-01-01 19:15:12,58.910
1432,2019-01-01 19:15:13,58.276
1433,2019-01-01 19:15:13,58.954
1434,2019-01-01 19:15:14,58.399
1435,2019-01-01 19:15:16,58.832
1436,2019-01-01 19:15:17,57.578
1437,2019-01-01 19:15:17,60.825
1438,2019-01-01 19:16:04,66.702
1439,2019-01-01 19:16:04,57.434
1440,2019-01-01 19:18:39,56.037
1441,2019-01-01 19:18:40,55.388
1442,2019-01-01 19:18:40,56.847
1443,2019-01-01 19:18:40,64.837
1444,2019-01-01 19:18:41,58.187
1445,2019-01-01 19:18:41,55.593
1446,2019-01-01 19:18:41,59.207
1447,2019-01-01 19:18:41,56.547
1448,2019-01-01 19:18:41,59.120
1449,2019-01-01 19:18:42,142.967
1450,2019-01-01 19:18:42,114.977
1451,2019-01-01 19:18:43,58.997
1452,2019-01-01 19:20:42,66.454
1453,2019-01-01 19:20:47,57.469
1454,2019-01-01 19:20:51,65.434
1455,2019-01-01 19:20:52,64.558
1456,2019-01-01 19:21:19,63.006
1457,2019-01-01 19:21:19,76.446
1458,2019-01-01 19:21:20,57.725
1459,2019-01-01 19:21:20,59.002
1460,2019-01-01 19:21:20,63.564
1461,2019-01-01 19:22:16,56.232
1462,2019-01-01 19:22:55,56.124
1463,2019-01-01 19:23:32,60.813
1464,2019-01-01 19:23:32,58.082
1465,2019-01-01 19:23:32,78.599
1466,2019-01-01 19:23:34,60.739
1467,2019-01-01 19:23:34,54.783
1468,2019-01-01 19:23:35,55.092
1469,2019-01-01 19:24:26,55.854
1470,2019-01-01 19:24:27,55.672
1471,2019-01-01 19:24:28,57.024
1472,2019-01-01 19:27:12,58.345
1473,2019-01-01 19:27:12,56.274
1474,2019-01-01 19:27:13,59.996
1475,2019-01-01 19:27:13,58.497
1476,2019-01-01 19:27:15,55.798
1477,2019-01-01 19:27:15,56.261
1478,2019-01-01 19:27:15,54.725
1479,2019-01-01 19:27:15,65.418
1480,2019-01-01 19:27:15,55.659
1481,2019-01-01 19:27:16,63.387
1482,2019-01-01 19:28:35,56.060
1483,2019-01-01 19:28:39,58.841
1484,2019-01-01 19:29:10,58.268
1485,2019-01-01 19:29:19,112.440
1486,2019-01-01 19:29:34,57.008
1487,2019-01-01 19:29:34,55.400
1488,2019-01-01 19:29:40,58.346
1489,2019-01-01 19:29:41,61.918
1490,2019-01-01 19:29:41,61.361
1491,2019-01-01 19:29:46,63.354
1492,2019-01-01 19:30:34,64.036
1493,2019-01-01 19:30:35,66.850
1494,2019-01-01 19:30:36,61.385
1495,2019-01-01 19:31:21,64.934
1496,2019-01-01 19:31:56,57.052
1497,2019-01-01 19:31:57,58.804
1498,2019-01-01 19:31:58,87.099
1499,2019-01-01 19:31:58,113.327
1500,2019-01-01 19:31:58,59.737
1501,2019-01-01 19:31:58,144.373
1502,2019-01-01 19:31:59,60.090
1503,2019-01-01 19:32:04,55.302
1504,2019-01-01 19:32:09,89.263
1505,2019-01-01 19:32:09,237.672
1506,2019-01-01 19:32:46,64.157
1507,2019-01-01 19:32:47,54.875
1508,2019-01-01 19:32:49,72.116
1509,2019-01-01 19:32:56,56.574
1510,2019-01-01 19:32:59,55.849
1511,2019-01-01 19:33:00,55.903
1512,2019-01-01 19:36:12,57.224
1513,2019-01-01 19:36:14,56.115
1514,2019-01-01 19:36:15,55.697
1515,2019-01-01 19:36:15,61.443
1516,2019-01-01 19:36:15,56.602
1517,2019-01-01 19:36:15,62.696
1518,2019-01-01 19:36:16,62.271
1519,2019-01-01 19:36:16,83.174
1520,2019-01-01 19:36:17,65.423
1521,2019-01-01 19:36:17,61.997
1522,2019-01-01 19:37:49,56.419
1523,2019-01-01 19:37:51,57.279
1524,2019-01-01 19:38:33,55.836
1525,2019-01-01 19:38:47,238.595
1526,2019-01-01 19:38:49,85.450
1527,2019-01-01 19:38:54,214.071
1528,2019-01-01 19:38:54,212.484
1529,2019-01-01 19:38:54,196.494
1530,2019-01-01 19:38:55,55.504
1531,2019-01-01 19:38:56,60.259
1532,2019-01-01 19:38:57,56.489
1533,2019-01-01 19:39:48,55.998
1534,2019-01-01 19:39:51,55.064
1535,2019-01-01 19:40:00,56.566
1536,2019-01-01 19:40:30,208.668
1537,2019-01-01 19:40:32,58.941
1538,2019-01-01 19:40:32,59.164
1539,2019-01-01 19:40:34,211.392
1540,2019-01-01 19:40:38,58.727
1541,2019-01-01 19:41:11,59.763
1542,2019-01-01 19:41:11,57.729
1543,2019-01-01 19:41:14,54.589
1544,2019-01-01 19:45:12,61.718
1545,2019-01-01 19:45:12,60.119
1546,2019-01-01 19:45:12,58.226
1547,2019-01-01 19:45:13,59.719
1548,2019-01-01 19:45:13,59.011
1549,2019-01-01 19:45:13,61.403
1550,2019-01-01 19:45:13,60.118
1551,2019-01-01 19:45:14,241.821
1552,2019-01-01 19:45:15,92.094
1553,2019-01-01 19:45:16,62.134
1554,2019-01-01 19:45:16,67.486
1555,2019-01-01 19:45:16,61.055
1556,2019-01-01 19:45:17,61.316
1557,2019-01-01 19:45:17,59.457
1558,2019-01-01 19:45:17,74.327
1559,2019-01-01 19:46:49,61.096
1560,2019-01-01 19:47:16,55.893
1561,2019-01-01 19:47:21,55.741
1562,2019-01-01 19:47:26,175.948
1563,2019-01-01 19:47:28,55.446
1564,2019-01-01 19:47:57,57.975
1565,2019-01-01 19:47:57,55.846
1566,2019-01-01 19:47:57,58.175
1567,2019-01-01 19:47:58,219.145
1568,2019-01-01 19:48:02,55.053
1569,2019-01-01 19:48:05,57.817
1570,2019-01-01 19:48:50,313.767
1571,2019-01-01 19:48:59,56.296
1572,2019-01-01 19:49:31,56.207
1573,2019-01-01 19:49:31,62.686
1574,2019-01-01 19:49:31,55.197
1575,2019-01-01 19:49:34,56.348
1576,2019-01-01 19:49:34,58.160
1577,2019-01-01 19:49:35,59.090
1578,2019-01-01 19:50:13,57.611
1579,2019-01-01 19:50:14,65.939
1580,2019-01-01 19:50:17,91.747
1581,2019-01-01 19:51:03,61.188
1582,2019-01-01 19:53:45,54.979
1583,2019-01-01 19:53:45,55.155
1584,2019-01-01 19:53:46,54.682
1585,2019-01-01 19:53:46,112.222
1586,2019-01-01 19:53:47,57.503
1587,2019-01-01 19:53:47,83.269
1588,2019-01-01 19:53:47,60.253
1589,2019-01-01 19:53:48,57.849
1590,2019-01-01 19:55:11,55.248
1591,2019-01-01 19:55:48,59.217
1592,2019-01-01 19:56:00,61.545
1593,2019-01-01 19:56:21,69.772
1594,2019-01-01 19:56:21,63.975
1595,2019-01-01 19:56:24,243.486
1596,2019-01-01 19:56:24,255.508
1597,2019-01-01 19:57:23,56.842
1598,2019-01-01 19:57:32,62.657
1599,2019-01-01 19:58:07,238.502
1600,2019-01-01 19:58:08,56.287
1601,2019-01-01 19:58:17,82.331
1602,2019-01-01 19:58:18,56.350
1603,2019-01-01 19:58:50,59.157
1604,2019-01-01 19:58:51,270.048
1605,2019-01-01 19:58:51,272.034
1606,2019-01-01 19:58:53,59.088
1607,2019-01-01 19:58:56,65.840
1608,2019-01-01 19:58:57,237.149
1609,2019-01-01 19:58:58,55.336
1610,2019-01-01 19:59:03,55.259
1611,2019-01-01 20:02:47,56.840
1612,2019-01-01 20:02:48,59.704
1613,2019-01-01 20:02:48,58.254
1614,2019-01-01 20:02:48,67.278
1615,2019-01-01 20:02:49,58.231
1616,2019-01-01 20:02:50,54.705
1617,2019-01-01 20:02:50,76.837
1618,2019-01-01 20:02:51,58.803
1619,2019-01-01 20:02:52,65.420
1620,2019-01-01 20:04:10,55.142
1621,2019-01-01 20:04:10,64.476
1622,2019-01-01 20:04:11,185.376
1623,2019-01-01 20:04:20,252.779
1624,2019-01-01 20:04:41,54.939
1625,2019-01-01 20:04:41,55.966
1626,2019-01-01 20:04:42,67.762
1627,2019-01-01 20:04:42,228.360
1628,2019-01-01 20:04:42,148.867
1629,2019-01-01 20:04:43,61.825
1630,2019-01-01 20:04:54,248.716
1631,2019-01-01 20:04:54,241.796
1632,2019-01-01 20:04:54,72.621
1633,2019-01-01 20:05:09,61.070
1634,2019-01-01 20:05:10,62.997
1635,2019-01-01 20:05:10,62.240
1636,2019-01-01 20:05:12,60.961
1637,2019-01-01 20:05:16,60.116
1638,2019-01-01 20:05:16,61.800
1639,2019-01-01 20:05:17,59.753
1640,2019-01-01 20:05:18,59.510
1641,2019-01-01 20:05:22,99.973
1642,2019-01-01 20:06:17,182.062
1643,2019-01-01 20:06:22,57.124
1644,2019-01-01 20:06:22,59.087
1645,2019-01-01 20:06:52,59.208
1646,2019-01-01 20:06:58,61.408
1647,2019-01-01 20:07:32,173.229
1648,2019-01-01 20:07:32,170.456
1649,2019-01-01 20:07:32,56.845
1650,2019-01-01 20:07:34,60.290
1651,2019-01-01 20:07:34,55.832
1652,2019-01-01 20:07:34,61.045
1653,2019-01-01 20:07:35,58.445
1654,2019-01-01 20:07:36,55.066
1655,2019-01-01 20:08:26,61.930
1656,2019-01-01 20:08:26,56.535
1657,2019-01-01 20:08:28,56.486
1658,2019-01-01 20:08:29,54.274
1659,2019-01-01 20:09:06,67.867
1660,2019-01-01 20:11:29,59.928
1661,2019-01-01 20:11:29,236.330
1662,2019-01-01 20:11:30,82.113
1663,2019-01-01 20:11:30,56.925
1664,2019-01-01 20:11:30,190.847
1665,2019-01-01 20:11:30,60.211
1666,2019-01-01 20:11:30,72.377
1667,2019-01-01 20:11:30,56.354
1668,2019-01-01 20:11:32,61.636
1669,2019-01-01 20:11:32,62.330
1670,2019-01-01 20:11:32,60.490
1671,2019-01-01 20:11:32,71.437
1672,2019-01-01 20:11:32,59.259
1673,2019-01-01 20:11:33,60.038
1674,2019-01-01 20:11:33,62.058
1675,2019-01-01 20:11:33,66.293
1676,2019-01-01 20:13:39,152.663
1677,2019-01-01 20:13:39,158.874
1678,2019-01-01 20:13:41,56.343
1679,2019-01-01 20:14:09,58.120
1680,2019-01-01 20:14:09,62.255
1681,2019-01-01 20:14:10,55.352
1682,2019-01-01 20:15:09,64.814
1683,2019-01-01 20:15:14,64.941
1684,2019-01-01 20:16:02,245.275
1685,2019-01-01 20:16:02,253.393
1686,2019-01-01 20:16:03,58.479
1687,2019-01-01 20:16:25,111.177
1688,2019-01-01 20:16:27,65.688
1689,2019-01-01 20:16:28,180.655
1690,2019-01-01 20:16:29,178.965
1691,2019-01-01 20:16:30,89.546
1692,2019-01-01 20:16:31,70.378
1693,2019-01-01 20:16:31,58.873
1694,2019-01-01 20:16:31,96.647
1695,2019-01-01 20:16:38,247.197
1696,2019-01-01 20:16:38,65.411
1697,2019-01-01 20:17:22,55.906
1698,2019-01-01 20:20:24,59.254
1699,2019-01-01 20:20:24,58.505
1700,2019-01-01 20:20:24,59.287
1701,2019-01-01 20:20:25,238.253
1702,2019-01-01 20:20:25,63.850
1703,2019-01-01 20:20:25,58.975
1704,2019-01-01 20:20:25,61.009
1705,2019-01-01 20:20:25,237.284
1706,2019-01-01 20:20:26,60.148
1707,2019-01-01 20:20:26,59.812
1708,2019-01-01 20:20:26,58.123
1709,2019-01-01 20:20:27,62.080
1710,2019-01-01 20:20:27,59.768
1711,2019-01-01 20:20:28,59.217
1712,2019-01-01 20:22:23,58.605
1713,2019-01-01 20:22:30,98.353
1714,2019-01-01 20:22:55,55.158
1715,2019-01-01 20:22:55,55.584
1716,2019-01-01 20:23:55,59.742
1717,2019-01-01 20:23:55,55.778
1718,2019-01-01 20:24:35,64.763
1719,2019-01-01 20:24:38,71.456
1720,2019-01-01 20:25:11,59.049
1721,2019-01-01 20:25:12,61.989
1722,2019-01-01 20:25:12,56.558
1723,2019-01-01 20:25:12,68.038
1724,2019-01-01 20:25:13,59.989
1725,2019-01-01 20:25:14,59.692
1726,2019-01-01 20:25:14,57.345
1727,2019-01-01 20:26:01,58.696
1728,2019-01-01 20:26:01,59.206
1729,2019-01-01 20:26:02,66.248
1730,2019-01-01 20:28:50,55.228
1731,2019-01-01 20:28:52,56.689
1732,2019-01-01 20:28:53,58.342
1733,2019-01-01 20:28:54,59.878
1734,2019-01-01 20:28:54,55.332
1735,2019-01-01 20:28:55,56.915
1736,2019-01-01 20:31:00,56.118
1737,2019-01-01 20:31:03,71.511
1738,2019-01-01 20:31:05,58.291
1739,2019-01-01 20:31:27,58.107
1740,2019-01-01 20:31:28,58.132
1741,2019-01-01 20:31:28,68.332
1742,2019-01-01 20:31:29,58.648
1743,2019-01-01 20:31:31,59.626
1744,2019-01-01 20:32:24,56.509
1745,2019-01-01 20:32:25,63.745
1746,2019-01-01 20:32:26,62.756
1747,2019-01-01 20:32:27,56.092
1748,2019-01-01 20:32:27,57.460
1749,2019-01-01 20:32:28,55.863
1750,2019-01-01 20:32:32,55.311
1751,2019-01-01 20:32:33,57.353
1752,2019-01-01 20:33:13,61.679
1753,2019-01-01 20:33:16,59.939
1754,2019-01-01 20:33:17,54.757
1755,2019-01-01 20:33:22,59.376
1756,2019-01-01 20:33:45,58.487
1757,2019-01-01 20:33:45,55.063
1758,2019-01-01 20:33:45,54.861
1759,2019-01-01 20:33:46,63.958
1760,2019-01-01 20:33:48,55.962
1761,2019-01-01 20:33:49,56.004
1762,2019-01-01 20:33:54,58.148
1763,2019-01-01 20:34:35,58.563
1764,2019-01-01 20:34:35,61.961
1765,2019-01-01 20:34:36,54.529
1766,2019-01-01 20:34:38,55.968
1767,2019-01-01 20:37:23,55.688
1768,2019-01-01 20:37:24,55.364
1769,2019-01-01 20:37:24,61.750
1770,2019-01-01 20:37:24,64.406
1771,2019-01-01 20:37:24,169.875
1772,2019-01-01 20:37:24,56.391
1773,2019-01-01 20:37:24,58.890
1774,2019-01-01 20:37:25,58.152
1775,2019-01-01 20:37:25,56.577
1776,2019-01-01 20:37:25,56.040
1777,2019-01-01 20:37:26,57.069
1778,2019-01-01 20:37:26,56.731
1779,2019-01-01 20:37:27,223.815
1780,2019-01-01 20:37:27,242.061
1781,2019-01-01 20:39:22,67.581
1782,2019-01-01 20:39:23,58.132
1783,2019-01-01 20:39:32,55.394
1784,2019-01-01 20:39:49,55.610
1785,2019-01-01 20:39:54,65.411
1786,2019-01-01 20:39:55,63.999
1787,2019-01-01 20:39:56,172.529
1788,2019-01-01 20:39:57,59.754
1789,2019-01-01 20:39:57,63.417
1790,2019-01-01 20:39:58,64.752
1791,2019-01-01 20:40:53,198.204
1792,2019-01-01 20:40:54,58.916
1793,2019-01-01 20:40:59,81.629
1794,2019-01-01 20:42:07,56.391
1795,2019-01-01 20:42:08,59.153
1796,2019-01-01 20:42:08,57.869
1797,2019-01-01 20:42:08,56.560
1798,2019-01-01 20:42:09,62.848
1799,2019-01-01 20:42:10,222.483
1800,2019-01-01 20:42:10,251.800
1801,2019-01-01 20:42:11,56.620
1802,2019-01-01 20:42:11,56.265
1803,2019-01-01 20:42:58,55.897
1804,2019-01-01 20:43:06,192.386
1805,2019-01-01 20:46:06,59.699
1806,2019-01-01 20:46:07,60.586
1807,2019-01-01 20:46:08,169.577
1808,2019-01-01 20:46:08,62.019
1809,2019-01-01 20:46:08,208.593
1810,2019-01-01 20:46:09,60.048
1811,2019-01-01 20:46:09,60.606
1812,2019-01-01 20:46:09,59.720
1813,2019-01-01 20:46:09,78.245
1814,2019-01-01 20:46:10,56.010
1815,2019-01-01 20:46:10,60.303
1816,2019-01-01 20:47:29,57.776
1817,2019-01-01 20:47:30,56.420
1818,2019-01-01 20:47:31,56.059
1819,2019-01-01 20:47:38,57.921
1820,2019-01-01 20:47:40,55.615
1821,2019-01-01 20:48:08,58.989
1822,2019-01-01 20:48:12,55.309
1823,2019-01-01 20:48:40,56.801
1824,2019-01-01 20:48:41,54.689
1825,2019-01-01 20:48:41,56.365
1826,2019-01-01 20:48:45,56.877
1827,2019-01-01 20:49:41,103.833
1828,2019-01-01 20:49:42,61.137
1829,2019-01-01 20:49:45,58.696
1830,2019-01-01 20:50:52,57.978
1831,2019-01-01 20:50:53,64.847
1832,2019-01-01 20:50:53,222.188
1833,2019-01-01 20:50:55,62.742
1834,2019-01-01 20:50:56,68.476
1835,2019-01-01 20:51:02,63.759
1836,2019-01-01 20:51:04,56.208
1837,2019-01-01 20:51:45,58.570
1838,2019-01-01 20:51:46,69.038
1839,2019-01-01 20:51:51,56.849
1840,2019-01-01 20:51:52,63.313
1841,2019-01-01 20:54:46,213.319
1842,2019-01-01 20:54:46,64.416
1843,2019-01-01 20:54:47,56.411
1844,2019-01-01 20:54:47,57.711
1845,2019-01-01 20:54:47,59.716
1846,2019-01-01 20:54:48,63.670
1847,2019-01-01 20:54:48,62.700
1848,2019-01-01 20:54:48,84.115
1849,2019-01-01 20:54:48,61.295
1850,2019-01-01 20:54:49,243.002
1851,2019-01-01 20:54:49,113.321
1852,2019-01-01 20:54:50,58.894
1853,2019-01-01 20:54:50,60.618
1854,2019-01-01 20:54:51,59.244
1855,2019-01-01 20:54:51,65.896
1856,2019-01-01 20:56:39,215.818
1857,2019-01-01 20:56:40,80.571
1858,2019-01-01 20:57:07,57.405
1859,2019-01-01 20:57:08,57.166
1860,2019-01-01 20:57:09,56.415
1861,2019-01-01 20:57:13,57.299
1862,2019-01-01 20:57:14,65.704
1863,2019-01-01 20:57:18,62.201
1864,2019-01-01 20:58:00,60.156
1865,2019-01-01 20:58:03,56.216
1866,2019-01-01 20:58:57,57.364
1867,2019-01-01 20:59:02,184.029
1868,2019-01-01 20:59:03,185.440
1869,2019-01-01 20:59:29,203.214
1870,2019-01-01 20:59:30,121.375
1871,2019-01-01 20:59:30,154.921
1872,2019-01-01 20:59:30,72.861
1873,2019-01-01 20:59:32,221.250
1874,2019-01-01 20:59:32,229.562
1875,2019-01-01 20:59:36,62.324
1876,2019-01-01 20:59:37,56.566
1877,2019-01-01 20:59:41,59.608
1878,2019-01-01 21:00:18,61.796
1879,2019-01-01 21:00:19,57.899
1880,2019-01-01 21:00:20,63.069
1881,2019-01-01 21:00:20,77.664
1882,2019-01-01 21:00:21,64.956
1883,2019-01-01 21:00:23,62.767
1884,2019-01-01 21:00:25,66.652
1885,2019-01-01 21:00:25,59.154
1886,2019-01-01 21:00:27,226.304
1887,2019-01-01 21:01:04,69.442
1888,2019-01-01 21:03:24,56.390
1889,2019-01-01 21:03:24,61.724
1890,2019-01-01 21:03:24,55.265
1891,2019-01-01 21:03:25,59.137
1892,2019-01-01 21:03:25,76.886
1893,2019-01-01 21:03:25,240.790
1894,2019-01-01 21:03:25,59.198
1895,2019-01-01 21:03:26,62.671
1896,2019-01-01 21:03:26,54.605
1897,2019-01-01 21:03:26,59.252
1898,2019-01-01 21:03:27,56.362
1899,2019-01-01 21:03:27,62.457
1900,2019-01-01 21:03:28,58.385
1901,2019-01-01 21:03:28,57.412
1902,2019-01-01 21:03:28,64.643
1903,2019-01-01 21:03:29,56.377
1904,2019-01-01 21:05:43,60.228
1905,2019-01-01 21:05:45,62.410
1906,2019-01-01 21:05:45,65.239
1907,2019-01-01 21:05:46,56.086
1908,2019-01-01 21:05:46,56.373
1909,2019-01-01 21:05:46,56.970
1910,2019-01-01 21:05:52,59.843
1911,2019-01-01 21:05:53,57.677
1912,2019-01-01 21:05:56,58.026
1913,2019-01-01 21:05:58,59.535
1914,2019-01-01 21:06:43,59.381
1915,2019-01-01 21:06:45,62.195
1916,2019-01-01 21:07:27,56.091
1917,2019-01-01 21:08:02,161.381
1918,2019-01-01 21:08:03,55.226
1919,2019-01-01 21:08:04,56.367
1920,2019-01-01 21:08:05,226.758
1921,2019-01-01 21:08:05,225.995
1922,2019-01-01 21:08:54,58.785
1923,2019-01-01 21:09:36,57.172
1924,2019-01-01 21:09:36,59.186
1925,2019-01-01 21:11:58,63.514
1926,2019-01-01 21:11:58,55.392
1927,2019-01-01 21:11:58,98.955
1928,2019-01-01 21:11:59,63.726
1929,2019-01-01 21:11:59,56.973
1930,2019-01-01 21:11:59,55.895
1931,2019-01-01 21:12:01,221.972
1932,2019-01-01 21:13:16,54.841
1933,2019-01-01 21:13:25,57.414
1934,2019-01-01 21:13:52,62.266
1935,2019-01-01 21:13:53,60.082
1936,2019-01-01 21:13:53,61.915
1937,2019-01-01 21:14:03,55.439
1938,2019-01-01 21:14:04,55.822
1939,2019-01-01 21:14:27,63.172
1940,2019-01-01 21:14:28,187.949
1941,2019-01-01 21:14:29,57.156
1942,2019-01-01 21:14:30,246.140
1943,2019-01-01 21:14:30,234.240
1944,2019-01-01 21:14:30,248.900
1945,2019-01-01 21:14:30,56.605
1946,2019-01-01 21:14:30,56.850
1947,2019-01-01 21:14:39,58.485
1948,2019-01-01 21:15:27,60.531
1949,2019-01-01 21:15:33,58.186
1950,2019-01-01 21:15:39,63.870
1951,2019-01-01 21:16:04,70.515
1952,2019-01-01 21:16:05,61.335
1953,2019-01-01 21:16:06,60.502
1954,2019-01-01 21:16:06,58.048
1955,2019-01-01 21:16:06,59.099
1956,2019-01-01 21:16:08,61.593
1957,2019-01-01 21:16:09,60.954
1958,2019-01-01 21:16:10,59.821
1959,2019-01-01 21:16:44,59.945
1960,2019-01-01 21:16:44,231.697
1961,2019-01-01 21:16:44,60.730
1962,2019-01-01 21:16:45,62.500
1963,2019-01-01 21:16:46,82.332
1964,2019-01-01 21:17:39,54.753
1965,2019-01-01 21:17:42,61.693
1966,2019-01-01 21:17:53,58.603
1967,2019-01-01 21:20:41,59.594
1968,2019-01-01 21:20:41,59.248
1969,2019-01-01 21:20:41,57.215
1970,2019-01-01 21:20:42,55.883
1971,2019-01-01 21:20:42,57.987
1972,2019-01-01 21:20:42,57.979
1973,2019-01-01 21:20:43,57.621
1974,2019-01-01 21:20:43,67.855
1975,2019-01-01 21:20:44,58.187
1976,2019-01-01 21:20:44,60.572
1977,2019-01-01 21:20:44,61.050
1978,2019-01-01 21:22:04,67.325
1979,2019-01-01 21:22:06,58.926
1980,2019-01-01 21:22:32,56.702
1981,2019-01-01 21:22:34,55.737
1982,2019-01-01 21:22:44,65.185
1983,2019-01-01 21:23:09,55.394
1984,2019-01-01 21:23:11,59.748
1985,2019-01-01 21:23:12,63.216
1986,2019-01-01 21:23:12,56.201
1987,2019-01-01 21:23:50,58.011
1988,2019-01-01 21:23:50,58.818
1989,2019-01-01 21:23:51,63.209
1990,2019-01-01 21:23:52,54.978
1991,2019-01-01 21:24:03,56.153
1992,2019-01-01 21:24:37,59.118
1993,2019-01-01 21:24:38,67.045
1994,2019-01-01 21:24:39,59.237
1995,2019-01-01 21:24:39,62.870
1996,2019-01-01 21:24:40,55.990
1997,2019-01-01 21:24:41,59.544
1998,2019-01-01 21:24:51,63.190
1999,2019-01-01 21:25:15,58.099
2000,2019-01-01 21:25:16,59.862
2001,2019-01-01 21:25:17,68.279
2002,2019-01-01 21:25:30,57.125
2003,2019-01-01 21:26:06,58.340
2004,2019-01-01 21:26:53,63.572
2005,2019-01-01 21:29:38,55.613
2006,2019-01-01 21:29:38,56.016
2007,2019-01-01 21:29:38,58.650
2008,2019-01-01 21:29:38,64.715
2009,2019-01-01 21:29:38,56.852
2010,2019-01-01 21:29:39,64.242
2011,2019-01-01 21:29:39,62.580
2012,2019-01-01 21:29:40,57.722
2013,2019-01-01 21:29:40,61.772
2014,2019-01-01 21:29:42,73.102
2015,2019-01-01 21:30:55,63.119
2016,2019-01-01 21:31:01,56.473
2017,2019-01-01 21:31:01,64.781
2018,2019-01-01 21:31:01,59.266
2019,2019-01-01 21:31:02,56.542
2020,2019-01-01 21:31:43,87.116
2021,2019-01-01 21:31:57,74.773
2022,2019-01-01 21:32:05,56.610
2023,2019-01-01 21:32:05,56.026
2024,2019-01-01 21:32:06,66.089
2025,2019-01-01 21:32:06,61.663
2026,2019-01-01 21:32:06,59.333
2027,2019-01-01 21:32:07,55.369
2028,2019-01-01 21:33:00,55.671
2029,2019-01-01 21:33:03,58.044
2030,2019-01-01 21:33:04,54.759
2031,2019-01-01 21:33:43,63.068
2032,2019-01-01 21:33:44,55.299
2033,2019-01-01 21:33:44,59.468
2034,2019-01-01 21:33:47,58.125
2035,2019-01-01 21:33:55,55.136
2036,2019-01-01 21:33:55,57.089
2037,2019-01-01 21:34:21,58.768
2038,2019-01-01 21:34:22,64.933
2039,2019-01-01 21:34:24,55.125
2040,2019-01-01 21:34:31,66.157
2041,2019-01-01 21:35:17,74.319
2042,2019-01-01 21:35:18,58.737
2043,2019-01-01 21:38:25,62.128
2044,2019-01-01 21:38:26,59.932
2045,2019-01-01 21:38:27,69.937
2046,2019-01-01 21:38:27,58.974
2047,2019-01-01 21:38:27,63.183
2048,2019-01-01 21:38:28,54.579
2049,2019-01-01 21:38:28,58.691
2050,2019-01-01 21:38:28,55.548
2051,2019-01-01 21:38:29,80.320
2052,2019-01-01 21:39:50,61.825
2053,2019-01-01 21:40:28,58.821
2054,2019-01-01 21:40:29,63.914
2055,2019-01-01 21:40:35,64.639
2056,2019-01-01 21:40:36,66.360
2057,2019-01-01 21:40:37,59.282
2058,2019-01-01 21:40:37,65.710
2059,2019-01-01 21:40:40,58.333
2060,2019-01-01 21:40:41,65.690
2061,2019-01-01 21:41:06,65.486
2062,2019-01-01 21:41:07,86.349
2063,2019-01-01 21:41:08,56.711
2064,2019-01-01 21:41:08,65.505
2065,2019-01-01 21:41:08,69.954
2066,2019-01-01 21:41:09,65.867
2067,2019-01-01 21:41:10,54.907
2068,2019-01-01 21:41:10,55.740
2069,2019-01-01 21:41:10,67.111
2070,2019-01-01 21:41:58,58.451
2071,2019-01-01 21:42:00,58.163
2072,2019-01-01 21:42:01,56.465
2073,2019-01-01 21:42:40,56.074
2074,2019-01-01 21:42:41,56.645
2075,2019-01-01 21:42:44,55.239
2076,2019-01-01 21:42:45,62.856
2077,2019-01-01 21:43:19,55.989
2078,2019-01-01 21:43:21,87.812
2079,2019-01-01 21:43:23,59.268
2080,2019-01-01 21:43:24,54.225
2081,2019-01-01 21:43:25,55.464
2082,2019-01-01 21:43:31,58.177
2083,2019-01-01 21:44:12,56.221
2084,2019-01-01 21:44:15,57.105
2085,2019-01-01 21:44:15,82.027
2086,2019-01-01 21:44:15,55.154
2087,2019-01-01 21:47:15,55.185
2088,2019-01-01 21:47:15,55.648
2089,2019-01-01 21:47:15,62.075
2090,2019-01-01 21:47:17,55.737
2091,2019-01-01 21:47:17,56.224
2092,2019-01-01 21:47:18,56.283
2093,2019-01-01 21:47:18,55.433
2094,2019-01-01 21:47:19,56.888
2095,2019-01-01 21:48:41,65.185
2096,2019-01-01 21:49:48,55.628
2097,2019-01-01 21:49:50,55.223
2098,2019-01-01 21:49:50,80.969
2099,2019-01-01 21:49:50,58.641
2100,2019-01-01 21:49:58,56.512
2101,2019-01-01 21:49:58,61.050
2102,2019-01-01 21:49:59,79.638
2103,2019-01-01 21:50:01,60.861
2104,2019-01-01 21:50:51,58.998
2105,2019-01-01 21:50:55,67.635
2106,2019-01-01 21:51:35,55.508
2107,2019-01-01 21:51:35,63.420
2108,2019-01-01 21:51:35,55.721
2109,2019-01-01 21:51:41,61.548
2110,2019-01-01 21:52:12,58.592
2111,2019-01-01 21:52:14,55.301
2112,2019-01-01 21:52:17,58.818
2113,2019-01-01 21:52:17,58.759
2114,2019-01-01 21:52:19,61.977
2115,2019-01-01 21:52:22,57.170
2116,2019-01-01 21:53:05,55.163
2117,2019-01-01 21:55:56,64.244
2118,2019-01-01 21:55:56,54.967
2119,2019-01-01 21:55:57,58.469
2120,2019-01-01 21:55:57,59.550
2121,2019-01-01 21:55:58,61.609
2122,2019-01-01 21:55:58,59.067
2123,2019-01-01 21:55:58,60.493
2124,2019-01-01 21:55:59,61.339
2125,2019-01-01 21:55:59,57.489
2126,2019-01-01 21:55:59,60.076
2127,2019-01-01 21:55:59,61.595
2128,2019-01-01 21:55:59,61.509
2129,2019-01-01 21:55:59,58.084
2130,2019-01-01 21:55:59,56.590
2131,2019-01-01 21:56:00,61.127
2132,2019-01-01 21:56:00,55.581
2133,2019-01-01 21:56:00,55.467
2134,2019-01-01 21:56:00,59.371
2135,2019-01-01 21:57:27,55.963
2136,2019-01-01 21:57:29,55.739
2137,2019-01-01 21:58:03,55.874
2138,2019-01-01 21:58:11,55.635
2139,2019-01-01 21:58:31,60.807
2140,2019-01-01 21:58:32,57.180
2141,2019-01-01 21:58:32,56.069
2142,2019-01-01 21:58:39,56.240
2143,2019-01-01 21:58:39,55.501
2144,2019-01-01 21:58:41,57.430
2145,2019-01-01 21:59:26,55.770
2146,2019-01-01 21:59:27,85.530
2147,2019-01-01 22:00:03,56.159
2148,2019-01-01 22:00:04,58.604
2149,2019-01-01 22:00:06,58.998
2150,2019-01-01 22:00:06,71.710
2151,2019-01-01 22:00:06,55.085
2152,2019-01-01 22:00:07,55.017
2153,2019-01-01 22:00:07,58.874
2154,2019-01-01 22:00:10,58.262
2155,2019-01-01 22:00:45,59.512
2156,2019-01-01 22:00:45,55.652
2157,2019-01-01 22:00:46,59.932
2158,2019-01-01 22:00:47,61.115
2159,2019-01-01 22:00:48,57.682
2160,2019-01-01 22:00:49,56.812
2161,2019-01-01 22:00:49,59.185
2162,2019-01-01 22:00:50,60.911
2163,2019-01-01 22:00:51,58.013
2164,2019-01-01 22:00:54,60.883
2165,2019-01-01 22:01:46,61.430
2166,2019-01-01 22:01:48,58.471
2167,2019-01-01 22:04:22,64.008
2168,2019-01-01 22:04:23,56.067
2169,2019-01-01 22:04:23,56.537
2170,2019-01-01 22:04:24,55.231
2171,2019-01-01 22:04:24,55.763
2172,2019-01-01 22:04:24,55.826
2173,2019-01-01 22:04:25,59.792
2174,2019-01-01 22:04:25,56.288
2175,2019-01-01 22:06:26,56.032
2176,2019-01-01 22:06:29,56.189
2177,2019-01-01 22:06:33,56.281
2178,2019-01-01 22:06:54,56.255
2179,2019-01-01 22:06:55,55.084
2180,2019-01-01 22:06:56,55.714
2181,2019-01-01 22:06:56,64.562
2182,2019-01-01 22:06:57,54.909
2183,2019-01-01 22:06:58,55.426
2184,2019-01-01 22:06:59,55.157
2185,2019-01-01 22:07:56,55.354
2186,2019-01-01 22:07:58,55.496
2187,2019-01-01 22:08:02,58.568
2188,2019-01-01 22:08:32,57.402
2189,2019-01-01 22:08:39,55.952
2190,2019-01-01 22:09:09,55.868
2191,2019-01-01 22:09:13,57.169
2192,2019-01-01 22:09:14,54.993
2193,2019-01-01 22:09:14,57.096
2194,2019-01-01 22:10:02,58.548
2195,2019-01-01 22:10:02,63.001
2196,2019-01-01 22:10:02,85.088
2197,2019-01-01 22:10:08,55.627
2198,2019-01-01 22:10:15,76.427
2199,2019-01-01 22:10:42,60.182
2200,2019-01-01 22:13:38,55.235
2201,2019-01-01 22:13:38,61.837
2202,2019-01-01 22:13:38,54.929
2203,2019-01-01 22:13:39,66.927
2204,2019-01-01 22:13:39,57.047
2205,2019-01-01 22:13:40,56.069
2206,2019-01-01 22:13:41,55.590
2207,2019-01-01 22:13:41,54.493
2208,2019-01-01 22:15:03,58.403
2209,2019-01-01 22:15:03,74.877
2210,2019-01-01 22:15:06,61.890
2211,2019-01-01 22:15:35,62.866
2212,2019-01-01 22:15:41,63.728
2213,2019-01-01 22:15:57,64.117
2214,2019-01-01 22:16:02,62.824
2215,2019-01-01 22:16:04,63.545
2216,2019-01-01 22:16:05,64.289
2217,2019-01-01 22:16:05,61.335
2218,2019-01-01 22:16:05,63.535
2219,2019-01-01 22:16:08,62.519
2220,2019-01-01 22:16:10,68.522
2221,2019-01-01 22:16:10,60.277
2222,2019-01-01 22:17:07,55.459
2223,2019-01-01 22:17:09,56.748
2224,2019-01-01 22:17:46,67.925
2225,2019-01-01 22:17:46,58.821
2226,2019-01-01 22:17:48,58.803
2227,2019-01-01 22:17:49,57.523
2228,2019-01-01 22:18:27,58.208
2229,2019-01-01 22:18:33,55.504
2230,2019-01-01 22:19:15,57.543
2231,2019-01-01 22:19:15,55.542
2232,2019-01-01 22:23:19,55.975
2233,2019-01-01 22:23:20,60.987
2234,2019-01-01 22:23:20,54.685
2235,2019-01-01 22:23:20,55.111
2236,2019-01-01 22:23:20,55.345
2237,2019-01-01 22:23:21,56.013
2238,2019-01-01 22:23:22,54.781
2239,2019-01-01 22:23:22,54.839
2240,2019-01-01 22:23:22,257.281
2241,2019-01-01 22:23:23,73.864
2242,2019-01-01 22:23:24,55.175
2243,2019-01-01 22:23:24,55.970
2244,2019-01-01 22:25:10,57.042
2245,2019-01-01 22:25:42,59.816
2246,2019-01-01 22:25:44,58.242
2247,2019-01-01 22:25:44,55.526
2248,2019-01-01 22:25:45,62.063
2249,2019-01-01 22:25:51,56.887
2250,2019-01-01 22:26:46,57.555
2251,2019-01-01 22:26:48,69.753
2252,2019-01-01 22:27:31,55.249
2253,2019-01-01 22:27:31,56.966
2254,2019-01-01 22:27:40,169.203
2255,2019-01-01 22:28:03,57.190
2256,2019-01-01 22:28:04,55.369
2257,2019-01-01 22:28:05,240.662
2258,2019-01-01 22:28:05,68.369
2259,2019-01-01 22:28:07,57.604
2260,2019-01-01 22:28:07,55.521
2261,2019-01-01 22:28:10,255.113
2262,2019-01-01 22:28:53,55.279
2263,2019-01-01 22:28:55,55.150
2264,2019-01-01 22:28:56,59.031
2265,2019-01-01 22:28:56,55.254
2266,2019-01-01 22:28:58,59.519
2267,2019-01-01 22:29:06,60.875
2268,2019-01-01 22:29:07,59.831
2269,2019-01-01 22:29:07,55.274
2270,2019-01-01 22:29:39,54.921
2271,2019-01-01 22:29:39,88.059
2272,2019-01-01 22:31:56,59.325
2273,2019-01-01 22:31:57,73.467
2274,2019-01-01 22:31:57,70.304
2275,2019-01-01 22:31:57,56.952
2276,2019-01-01 22:31:58,63.110
2277,2019-01-01 22:31:59,55.048
2278,2019-01-01 22:31:59,58.966
2279,2019-01-01 22:31:59,64.148
2280,2019-01-01 22:33:15,55.398
2281,2019-01-01 22:33:23,55.084
2282,2019-01-01 22:33:24,58.752
2283,2019-01-01 22:33:54,54.913
2284,2019-01-01 22:33:56,55.151
2285,2019-01-01 22:34:23,62.439
2286,2019-01-01 22:34:23,57.266
2287,2019-01-01 22:34:24,55.597
2288,2019-01-01 22:34:24,55.272
2289,2019-01-01 22:34:25,60.408
2290,2019-01-01 22:34:30,61.948
2291,2019-01-01 22:35:22,59.024
2292,2019-01-01 22:35:23,66.158
2293,2019-01-01 22:35:23,60.687
2294,2019-01-01 22:35:24,62.429
2295,2019-01-01 22:35:25,63.980
2296,2019-01-01 22:35:31,68.393
2297,2019-01-01 22:36:15,67.826
2298,2019-01-01 22:36:17,57.520
2299,2019-01-01 22:36:42,55.660
2300,2019-01-01 22:36:44,57.114
2301,2019-01-01 22:36:44,57.455
2302,2019-01-01 22:36:44,63.108
2303,2019-01-01 22:36:45,56.309
2304,2019-01-01 22:37:32,58.422
2305,2019-01-01 22:37:33,57.680
2306,2019-01-01 22:37:33,55.566
2307,2019-01-01 22:37:38,55.913
2308,2019-01-01 22:37:39,62.619
2309,2019-01-01 22:41:18,59.432
2310,2019-01-01 22:41:18,66.189
2311,2019-01-01 22:41:18,68.552
2312,2019-01-01 22:41:18,73.993
2313,2019-01-01 22:41:19,56.105
2314,2019-01-01 22:41:19,61.436
2315,2019-01-01 22:41:19,56.479
2316,2019-01-01 22:41:20,57.004
2317,2019-01-01 22:41:20,60.068
2318,2019-01-01 22:41:20,57.649
2319,2019-01-01 22:41:21,55.260
2320,2019-01-01 22:41:21,57.754
2321,2019-01-01 22:41:21,67.852
2322,2019-01-01 22:41:21,63.760
2323,2019-01-01 22:41:21,63.023
2324,2019-01-01 22:41:23,68.611
2325,2019-01-01 22:42:44,64.035
2326,2019-01-01 22:42:52,61.930
2327,2019-01-01 22:42:59,57.094
2328,2019-01-01 22:43:39,55.159
2329,2019-01-01 22:43:42,56.772
2330,2019-01-01 22:43:42,54.994
2331,2019-01-01 22:43:44,55.248
2332,2019-01-01 22:43:44,59.556
2333,2019-01-01 22:43:44,59.110
2334,2019-01-01 22:44:26,57.194
2335,2019-01-01 22:44:27,74.772
2336,2019-01-01 22:45:17,60.654
2337,2019-01-01 22:45:53,61.199
2338,2019-01-01 22:45:58,62.114
2339,2019-01-01 22:45:58,56.488
2340,2019-01-01 22:46:01,60.324
2341,2019-01-01 22:46:02,70.300
2342,2019-01-01 22:46:43,62.003
2343,2019-01-01 22:46:44,61.868
2344,2019-01-01 22:46:45,59.280
2345,2019-01-01 22:46:45,60.187
2346,2019-01-01 22:46:49,60.936
2347,2019-01-01 22:47:28,55.265
2348,2019-01-01 22:50:12,64.162
2349,2019-01-01 22:50:12,60.299
2350,2019-01-01 22:50:12,59.212
2351,2019-01-01 22:50:15,62.334
2352,2019-01-01 22:50:15,66.195
2353,2019-01-01 22:50:15,62.500
2354,2019-01-01 22:50:15,63.637
2355,2019-01-01 22:50:16,63.834
2356,2019-01-01 22:50:17,64.685
2357,2019-01-01 22:51:50,57.789
2358,2019-01-01 22:52:15,54.957
2359,2019-01-01 22:52:15,60.828
2360,2019-01-01 22:52:17,57.412
2361,2019-01-01 22:52:26,70.049
2362,2019-01-01 22:52:28,67.138
2363,2019-01-01 22:52:52,64.693
2364,2019-01-01 22:52:53,56.511
2365,2019-01-01 22:52:54,57.791
2366,2019-01-01 22:52:55,59.316
2367,2019-01-01 22:52:56,59.784
2368,2019-01-01 22:52:56,66.543
2369,2019-01-01 22:53:48,56.470
2370,2019-01-01 22:53:49,57.149
2371,2019-01-01 22:53:50,54.484
2372,2019-01-01 22:53:52,55.115
2373,2019-01-01 22:53:54,57.041
2374,2019-01-01 22:53:58,55.410
2375,2019-01-01 22:54:02,54.979
2376,2019-01-01 22:54:36,54.813
2377,2019-01-01 22:54:42,58.718
2378,2019-01-01 22:54:43,59.318
2379,2019-01-01 22:55:18,65.040
2380,2019-01-01 22:55:19,71.745
2381,2019-01-01 22:55:21,64.014
2382,2019-01-01 22:56:06,64.264
2383,2019-01-01 22:56:09,58.248
2384,2019-01-01 22:56:09,63.118
2385,2019-01-01 22:59:10,63.259
2386,2019-01-01 22:59:10,61.247
2387,2019-01-01 22:59:11,55.373
2388,2019-01-01 22:59:11,61.596
2389,2019-01-01 22:59:11,56.517
2390,2019-01-01 22:59:12,59.235
2391,2019-01-01 22:59:12,56.500
2392,2019-01-01 22:59:12,56.582
2393,2019-01-01 22:59:12,57.037
2394,2019-01-01 22:59:12,59.598
2395,2019-01-01 22:59:12,60.350
2396,2019-01-01 22:59:13,60.280
2397,2019-01-01 22:59:14,58.693
2398,2019-01-01 23:01:20,60.003
2399,2019-01-01 23:01:22,78.617
2400,2019-01-01 23:01:23,59.810
2401,2019-01-01 23:01:27,59.463
2402,2019-01-01 23:01:28,60.130
2403,2019-01-01 23:01:29,58.401
2404,2019-01-01 23:01:30,60.044
2405,2019-01-01 23:01:32,62.425
2406,2019-01-01 23:01:33,59.016
2407,2019-01-01 23:02:11,55.506
2408,2019-01-01 23:03:14,57.795
2409,2019-01-01 23:03:14,59.812
2410,2019-01-01 23:03:51,55.132
2411,2019-01-01 23:03:55,57.338
2412,2019-01-01 23:03:57,59.708
2413,2019-01-01 23:03:59,55.790
2414,2019-01-01 23:04:35,56.789
2415,2019-01-01 23:04:39,56.958
2416,2019-01-01 23:04:42,62.560
2417,2019-01-01 23:04:42,56.333
2418,2019-01-01 23:04:44,56.302
2419,2019-01-01 23:04:44,54.694
2420,2019-01-01 23:05:21,56.330
2421,2019-01-01 23:07:34,58.284
2422,2019-01-01 23:07:34,101.118
2423,2019-01-01 23:07:34,60.026
2424,2019-01-01 23:07:35,56.790
2425,2019-01-01 23:07:36,55.258
2426,2019-01-01 23:07:36,80.646
2427,2019-01-01 23:07:36,55.746
2428,2019-01-01 23:07:37,57.448
2429,2019-01-01 23:07:37,56.112
2430,2019-01-01 23:07:38,87.324
2431,2019-01-01 23:07:38,61.390
2432,2019-01-01 23:07:38,57.038
2433,2019-01-01 23:07:38,56.876
2434,2019-01-01 23:09:45,55.604
2435,2019-01-01 23:09:53,56.483
2436,2019-01-01 23:10:21,58.866
2437,2019-01-01 23:10:24,57.982
2438,2019-01-01 23:10:24,56.854
2439,2019-01-01 23:10:24,59.991
2440,2019-01-01 23:10:25,56.699
2441,2019-01-01 23:10:26,58.791
2442,2019-01-01 23:10:28,60.078
2443,2019-01-01 23:10:32,89.324
2444,2019-01-01 23:11:23,60.687
2445,2019-01-01 23:11:25,58.648
2446,2019-01-01 23:11:59,59.358
2447,2019-01-01 23:12:02,62.048
2448,2019-01-01 23:12:38,55.711
2449,2019-01-01 23:12:42,55.920
2450,2019-01-01 23:12:42,65.621
2451,2019-01-01 23:12:45,55.023
2452,2019-01-01 23:13:33,56.069
2453,2019-01-01 23:16:11,56.313
2454,2019-01-01 23:16:11,60.080
2455,2019-01-01 23:16:11,74.188
2456,2019-01-01 23:16:12,60.905
2457,2019-01-01 23:16:12,63.155
2458,2019-01-01 23:16:12,62.976
2459,2019-01-01 23:16:12,62.013
2460,2019-01-01 23:16:12,61.831
2461,2019-01-01 23:16:13,62.225
2462,2019-01-01 23:16:14,61.580
2463,2019-01-01 23:16:15,62.462
2464,2019-01-01 23:16:18,62.824
2465,2019-01-01 23:17:39,62.990
2466,2019-01-01 23:17:39,56.560
2467,2019-01-01 23:17:40,57.523
2468,2019-01-01 23:18:09,55.235
2469,2019-01-01 23:18:14,56.049
2470,2019-01-01 23:18:29,83.205
2471,2019-01-01 23:18:57,58.503
2472,2019-01-01 23:18:59,55.551
2473,2019-01-01 23:19:00,56.812
2474,2019-01-01 23:19:57,55.622
2475,2019-01-01 23:20:02,56.476
2476,2019-01-01 23:20:03,55.681
2477,2019-01-01 23:20:05,62.126
2478,2019-01-01 23:20:36,63.446
2479,2019-01-01 23:20:36,60.307
2480,2019-01-01 23:20:38,55.515
2481,2019-01-01 23:20:43,62.598
2482,2019-01-01 23:21:14,55.624
2483,2019-01-01 23:21:16,62.617
2484,2019-01-01 23:21:18,61.108
2485,2019-01-01 23:21:23,59.724
2486,2019-01-01 23:22:08,54.810
2487,2019-01-01 23:22:10,118.165
2488,2019-01-01 23:24:37,57.283
2489,2019-01-01 23:24:38,61.997
2490,2019-01-01 23:24:38,55.167
2491,2019-01-01 23:24:39,65.218
2492,2019-01-01 23:24:39,58.851
2493,2019-01-01 23:24:39,61.292
2494,2019-01-01 23:24:40,57.317
2495,2019-01-01 23:24:40,56.367
2496,2019-01-01 23:24:40,66.004
2497,2019-01-01 23:24:41,87.574
2498,2019-01-01 23:24:41,59.911
2499,2019-01-01 23:24:41,58.771
2500,2019-01-01 23:24:42,63.744
2501,2019-01-01 23:24:42,66.417
2502,2019-01-01 23:24:42,64.282
2503,2019-01-01 23:26:00,66.436
2504,2019-01-01 23:26:19,58.291
2505,2019-01-01 23:26:45,56.648
2506,2019-01-01 23:26:57,56.149
2507,2019-01-01 23:26:59,55.205
2508,2019-01-01 23:27:33,57.189
2509,2019-01-01 23:27:34,239.691
2510,2019-01-01 23:27:43,59.932
2511,2019-01-01 23:28:35,87.448
2512,2019-01-01 23:29:04,63.729
2513,2019-01-01 23:29:09,57.335
2514,2019-01-01 23:29:09,56.081
2515,2019-01-01 23:29:10,59.260
2516,2019-01-01 23:29:11,79.415
2517,2019-01-01 23:29:13,239.833
2518,2019-01-01 23:29:13,54.615
2519,2019-01-01 23:29:14,57.329
2520,2019-01-01 23:29:17,58.723
2521,2019-01-01 23:29:51,57.439
2522,2019-01-01 23:29:52,57.439
2523,2019-01-01 23:29:52,56.772
2524,2019-01-01 23:29:54,58.498
2525,2019-01-01 23:30:02,68.238
2526,2019-01-01 23:30:38,55.019
2527,2019-01-01 23:30:43,62.394
2528,2019-01-01 23:30:43,63.050
2529,2019-01-01 23:33:15,287.542
2530,2019-01-01 23:33:18,56.980
2531,2019-01-01 23:34:35,56.524
2532,2019-01-01 23:35:10,61.781
2533,2019-01-01 23:35:54,65.301
2534,2019-01-01 23:35:54,66.855
2535,2019-01-01 23:35:55,66.423
2536,2019-01-01 23:35:55,66.297
2537,2019-01-01 23:35:55,58.967
2538,2019-01-01 23:35:56,59.764
2539,2019-01-01 23:35:57,55.351
2540,2019-01-01 23:36:54,87.023
2541,2019-01-01 23:36:56,65.824
2542,2019-01-01 23:36:58,64.173
2543,2019-01-01 23:37:10,68.682
2544,2019-01-01 23:37:32,57.003
2545,2019-01-01 23:37:32,55.347
2546,2019-01-01 23:37:33,58.885
2547,2019-01-01 23:37:33,56.485
2548,2019-01-01 23:38:13,57.602
2549,2019-01-01 23:38:14,55.941
2550,2019-01-01 23:38:15,56.440
2551,2019-01-01 23:38:15,55.076
2552,2019-01-01 23:38:16,72.067
2553,2019-01-01 23:38:16,58.299
2554,2019-01-01 23:39:07,54.826
2555,2019-01-01 23:41:51,55.350
2556,2019-01-01 23:41:51,55.693
2557,2019-01-01 23:41:51,54.621
2558,2019-01-01 23:41:51,55.559
2559,2019-01-01 23:41:52,66.349
2560,2019-01-01 23:41:52,58.032
2561,2019-01-01 23:41:52,55.347
2562,2019-01-01 23:41:52,55.170
2563,2019-01-01 23:41:53,54.618
2564,2019-01-01 23:41:53,55.152
2565,2019-01-01 23:41:54,55.438
2566,2019-01-01 23:41:55,56.612
2567,2019-01-01 23:41:55,55.377
2568,2019-01-01 23:41:55,56.066
2569,2019-01-01 23:41:55,66.322
2570,2019-01-01 23:41:56,55.224
2571,2019-01-01 23:43:31,58.335
2572,2019-01-01 23:44:04,73.803
2573,2019-01-01 23:44:05,55.577
2574,2019-01-01 23:44:05,56.544
2575,2019-01-01 23:44:14,88.086
2576,2019-01-01 23:44:56,59.197
2577,2019-01-01 23:44:56,59.883
2578,2019-01-01 23:44:56,60.435
2579,2019-01-01 23:45:35,59.963
2580,2019-01-01 23:45:37,59.425
2581,2019-01-01 23:45:37,62.260
2582,2019-01-01 23:45:41,55.763
2583,2019-01-01 23:45:45,61.382
2584,2019-01-01 23:45:49,55.389
2585,2019-01-01 23:46:21,60.399
2586,2019-01-01 23:46:21,61.075
2587,2019-01-01 23:46:21,61.342
2588,2019-01-01 23:46:21,61.410
2589,2019-01-01 23:46:21,57.905
2590,2019-01-01 23:46:21,102.136
2591,2019-01-01 23:46:22,62.954
2592,2019-01-01 23:46:23,62.583
2593,2019-01-01 23:46:23,56.961
2594,2019-01-01 23:46:24,62.060
2595,2019-01-01 23:46:24,61.893
2596,2019-01-01 23:46:24,58.716
2597,2019-01-01 23:46:24,56.004
2598,2019-01-01 23:47:06,59.363
2599,2019-01-01 23:47:12,59.884
2600,2019-01-01 23:47:12,59.658
2601,2019-01-01 23:47:21,58.189
2602,2019-01-01 23:47:51,70.466
2603,2019-01-01 23:47:52,58.930
2604,2019-01-01 23:47:54,62.465
2605,2019-01-01 23:50:44,62.044
2606,2019-01-01 23:50:45,71.249
2607,2019-01-01 23:50:45,62.181
2608,2019-01-01 23:50:45,65.685
2609,2019-01-01 23:50:45,61.159
2610,2019-01-01 23:50:46,78.314
2611,2019-01-01 23:50:46,62.435
2612,2019-01-01 23:50:46,62.913
2613,2019-01-01 23:50:47,62.644
2614,2019-01-01 23:50:47,62.568
2615,2019-01-01 23:52:09,91.560
2616,2019-01-01 23:52:25,55.108
2617,2019-01-01 23:52:25,60.496
2618,2019-01-01 23:52:55,54.927
2619,2019-01-01 23:52:56,54.661
2620,2019-01-01 23:53:00,57.145
2621,2019-01-01 23:53:07,56.283
2622,2019-01-01 23:53:40,60.671
2623,2019-01-01 23:53:40,56.507
2624,2019-01-01 23:53:40,58.624
2625,2019-01-01 23:53:42,55.359
2626,2019-01-01 23:53:48,56.253
2627,2019-01-01 23:54:32,58.342
2628,2019-01-01 23:54:34,54.710
2629,2019-01-01 23:54:35,61.865
2630,2019-01-01 23:55:16,61.613
2631,2019-01-01 23:55:16,59.069
2632,2019-01-01 23:55:16,59.774
2633,2019-01-01 23:55:22,55.778
2634,2019-01-01 23:55:59,58.039
2635,2019-01-01 23:59:07,55.126
2636,2019-01-01 23:59:08,59.353
2637,2019-01-01 23:59:08,56.656
2638,2019-01-01 23:59:08,58.266
2639,2019-01-01 23:59:08,55.025
2640,2019-01-01 23:59:08,59.268
2641,2019-01-01 23:59:08,58.374
2642,2019-01-01 23:59:09,60.546
2643,2019-01-01 23:59:09,60.247
2644,2019-01-01 23:59:09,66.441
2645,2019-01-01 23:59:09,55.640
2646,2019-01-01 23:59:10,55.815
2647,2019-01-01 23:59:10,59.924
2648,2019-01-01 23:59:10,56.159
2649,2019-01-01 23:59:11,56.158
2650,2019-01-01 23:59:11,61.131
2651,2019-01-01 23:59:12,55.669
2652,2019-01-01 23:59:12,56.404
2653,2019-01-01 23:59:12,58.055
2654,2019-01-02 00:00:35,55.383
2655,2019-01-02 00:01:21,62.984
2656,2019-01-02 00:01:22,62.147
2657,2019-01-02 00:01:25,57.500
2658,2019-01-02 00:01:25,58.735
2659,2019-01-02 00:01:26,58.190
2660,2019-01-02 00:01:27,59.344
2661,2019-01-02 00:01:32,89.822
2662,2019-01-02 00:02:14,57.806
2663,2019-01-02 00:02:15,62.571
2664,2019-01-02 00:02:16,56.842
2665,2019-01-02 00:02:17,57.102
2666,2019-01-02 00:02:20,56.141
2667,2019-01-02 00:02:20,58.416
2668,2019-01-02 00:02:21,56.613
2669,2019-01-02 00:03:15,56.604
2670,2019-01-02 00:03:18,55.676
2671,2019-01-02 00:03:21,59.135
2672,2019-01-02 00:03:50,55.815
2673,2019-01-02 00:03:51,59.905
2674,2019-01-02 00:03:53,55.443
2675,2019-01-02 00:03:53,70.667
2676,2019-01-02 00:04:01,64.306
2677,2019-01-02 00:04:38,71.858
2678,2019-01-02 00:04:38,55.611
2679,2019-01-02 00:04:42,60.187
2680,2019-01-02 00:04:42,56.703
2681,2019-01-02 00:04:44,55.132
2682,2019-01-02 00:04:48,57.605
2683,2019-01-02 00:05:25,56.618
