,datetime,rtt
0,2019-01-01 12:50:14,37.974
1,2019-01-01 12:50:14,31.126
2,2019-01-01 12:50:15,43.571
3,2019-01-01 12:50:15,35.864
4,2019-01-01 12:50:15,31.909
5,2019-01-01 12:50:15,35.782
6,2019-01-01 12:50:16,39.981
7,2019-01-01 12:50:17,34.703
8,2019-01-01 12:50:17,37.340
9,2019-01-01 12:50:17,30.639
10,2019-01-01 12:50:17,41.711
11,2019-01-01 12:50:18,32.996
12,2019-01-01 12:50:18,33.504
13,2019-01-01 12:50:19,33.187
14,2019-01-01 12:50:19,37.593
15,2019-01-01 12:50:20,31.490
16,2019-01-01 12:52:06,29.710
17,2019-01-01 12:52:14,29.518
18,2019-01-01 12:52:38,30.230
19,2019-01-01 12:52:38,35.077
20,2019-01-01 12:52:39,30.279
21,2019-01-01 12:52:40,30.206
22,2019-01-01 12:52:45,29.861
23,2019-01-01 12:53:34,30.394
24,2019-01-01 12:53:34,29.858
25,2019-01-01 12:53:41,30.782
26,2019-01-01 12:53:46,29.790
27,2019-01-01 12:54:18,29.459
28,2019-01-01 12:54:27,29.419
29,2019-01-01 12:54:31,32.579
30,2019-01-01 12:54:52,30.360
31,2019-01-01 12:54:52,33.328
32,2019-01-01 12:54:52,30.920
33,2019-01-01 12:54:53,33.389
34,2019-01-01 12:54:54,32.243
35,2019-01-01 12:54:54,29.502
36,2019-01-01 12:54:55,31.899
37,2019-01-01 12:54:55,36.925
38,2019-01-01 12:55:47,31.477
39,2019-01-01 12:58:38,30.732
40,2019-01-01 12:58:38,33.037
41,2019-01-01 12:58:38,31.350
42,2019-01-01 12:58:38,30.862
43,2019-01-01 12:58:38,32.192
44,2019-01-01 12:58:39,31.382
45,2019-01-01 12:58:40,32.019
46,2019-01-01 12:58:40,32.435
47,2019-01-01 12:58:41,34.173
48,2019-01-01 12:58:41,33.126
49,2019-01-01 12:58:42,29.751
50,2019-01-01 12:58:42,33.762
51,2019-01-01 12:58:42,38.204
52,2019-01-01 12:58:42,29.757
53,2019-01-01 13:00:06,31.377
54,2019-01-01 13:00:12,35.133
55,2019-01-01 13:00:46,35.286
56,2019-01-01 13:01:14,32.959
57,2019-01-01 13:01:15,34.042
58,2019-01-01 13:01:16,34.955
59,2019-01-01 13:01:17,30.392
60,2019-01-01 13:01:18,31.730
61,2019-01-01 13:01:25,32.386
62,2019-01-01 13:02:19,35.401
63,2019-01-01 13:02:20,30.164
64,2019-01-01 13:02:55,32.493
65,2019-01-01 13:02:55,29.704
66,2019-01-01 13:02:57,31.914
67,2019-01-01 13:02:57,30.353
68,2019-01-01 13:03:30,34.029
69,2019-01-01 13:03:31,34.686
70,2019-01-01 13:03:31,32.625
71,2019-01-01 13:03:31,32.229
72,2019-01-01 13:04:25,32.746
73,2019-01-01 13:07:26,32.126
74,2019-01-01 13:07:27,33.616
75,2019-01-01 13:07:27,33.774
76,2019-01-01 13:07:28,33.740
77,2019-01-01 13:07:30,34.834
78,2019-01-01 13:07:33,34.411
79,2019-01-01 13:09:32,32.392
80,2019-01-01 13:09:40,32.787
81,2019-01-01 13:09:41,33.412
82,2019-01-01 13:09:54,35.908
83,2019-01-01 13:09:54,31.420
84,2019-01-01 13:10:03,35.911
85,2019-01-01 13:10:04,36.834
86,2019-01-01 13:10:07,38.060
87,2019-01-01 13:10:59,32.077
88,2019-01-01 13:11:00,34.041
89,2019-01-01 13:11:04,31.218
90,2019-01-01 13:11:13,32.715
91,2019-01-01 13:11:44,35.131
92,2019-01-01 13:11:48,32.647
93,2019-01-01 13:12:25,31.686
94,2019-01-01 13:12:25,31.167
95,2019-01-01 13:12:25,38.049
96,2019-01-01 13:12:27,31.046
97,2019-01-01 13:12:27,37.737
98,2019-01-01 13:12:28,38.455
99,2019-01-01 13:12:28,32.819
100,2019-01-01 13:12:31,30.042
101,2019-01-01 13:13:15,32.624
102,2019-01-01 13:13:17,37.813
103,2019-01-01 13:16:53,29.935
104,2019-01-01 13:16:53,29.427
105,2019-01-01 13:16:54,30.167
106,2019-01-01 13:16:54,29.226
107,2019-01-01 13:16:55,29.808
108,2019-01-01 13:16:56,29.583
109,2019-01-01 13:16:56,29.918
110,2019-01-01 13:16:57,30.168
111,2019-01-01 13:16:57,29.813
112,2019-01-01 13:16:57,29.931
113,2019-01-01 13:16:58,31.153
114,2019-01-01 13:16:58,30.524
115,2019-01-01 13:18:14,29.337
116,2019-01-01 13:18:17,29.229
117,2019-01-01 13:18:59,30.739
118,2019-01-01 13:19:17,29.944
119,2019-01-01 13:19:17,30.450
120,2019-01-01 13:19:20,30.729
121,2019-01-01 13:19:24,31.563
122,2019-01-01 13:19:25,39.607
123,2019-01-01 13:20:14,32.721
124,2019-01-01 13:20:16,45.172
125,2019-01-01 13:20:16,37.105
126,2019-01-01 13:20:18,32.691
127,2019-01-01 13:20:59,38.947
128,2019-01-01 13:21:10,43.726
129,2019-01-01 13:21:34,45.729
130,2019-01-01 13:21:35,33.927
131,2019-01-01 13:21:36,30.691
132,2019-01-01 13:21:43,45.454
133,2019-01-01 13:22:26,29.998
134,2019-01-01 13:22:26,29.637
135,2019-01-01 13:22:26,30.959
136,2019-01-01 13:22:28,30.647
137,2019-01-01 13:22:28,30.070
138,2019-01-01 13:22:29,31.753
139,2019-01-01 13:23:08,33.483
140,2019-01-01 13:26:02,34.522
141,2019-01-01 13:26:03,34.681
142,2019-01-01 13:26:03,34.002
143,2019-01-01 13:26:03,30.134
144,2019-01-01 13:26:04,33.973
145,2019-01-01 13:26:04,34.298
146,2019-01-01 13:26:04,31.977
147,2019-01-01 13:26:04,34.937
148,2019-01-01 13:27:22,31.526
149,2019-01-01 13:28:02,39.213
150,2019-01-01 13:28:03,32.409
151,2019-01-01 13:28:05,29.614
152,2019-01-01 13:28:37,37.267
153,2019-01-01 13:28:38,29.708
154,2019-01-01 13:28:39,30.161
155,2019-01-01 13:28:40,29.910
156,2019-01-01 13:30:14,37.921
157,2019-01-01 13:30:14,37.593
158,2019-01-01 13:30:18,36.898
159,2019-01-01 13:30:53,30.848
160,2019-01-01 13:30:54,32.907
161,2019-01-01 13:30:54,31.791
162,2019-01-01 13:30:56,31.508
163,2019-01-01 13:30:57,34.926
164,2019-01-01 13:31:46,33.834
165,2019-01-01 13:31:48,31.753
166,2019-01-01 13:31:49,39.026
167,2019-01-01 13:31:49,29.569
168,2019-01-01 13:35:09,39.128
169,2019-01-01 13:35:10,32.673
170,2019-01-01 13:35:11,34.820
171,2019-01-01 13:35:11,37.334
172,2019-01-01 13:35:11,39.935
173,2019-01-01 13:35:12,40.670
174,2019-01-01 13:35:12,32.953
175,2019-01-01 13:35:13,40.277
176,2019-01-01 13:35:14,37.574
177,2019-01-01 13:35:14,36.982
178,2019-01-01 13:37:23,33.806
179,2019-01-01 13:37:53,33.824
180,2019-01-01 13:37:54,34.309
181,2019-01-01 13:37:55,32.650
182,2019-01-01 13:37:55,31.125
183,2019-01-01 13:37:58,34.188
184,2019-01-01 13:39:32,33.380
185,2019-01-01 13:40:10,29.124
186,2019-01-01 13:40:12,34.640
187,2019-01-01 13:40:13,33.731
188,2019-01-01 13:40:13,30.405
189,2019-01-01 13:40:15,34.556
190,2019-01-01 13:41:03,51.371
191,2019-01-01 13:41:04,30.954
192,2019-01-01 13:41:06,33.839
193,2019-01-01 13:43:55,32.938
194,2019-01-01 13:43:55,31.770
195,2019-01-01 13:43:56,32.565
196,2019-01-01 13:43:56,30.546
197,2019-01-01 13:43:57,33.197
198,2019-01-01 13:43:57,30.571
199,2019-01-01 13:43:58,33.025
200,2019-01-01 13:43:58,32.058
201,2019-01-01 13:43:59,31.588
202,2019-01-01 13:44:00,31.630
203,2019-01-01 13:44:00,32.091
204,2019-01-01 13:44:00,32.327
205,2019-01-01 13:44:03,32.994
206,2019-01-01 13:45:19,34.087
207,2019-01-01 13:46:03,39.745
208,2019-01-01 13:46:04,36.182
209,2019-01-01 13:46:35,36.946
210,2019-01-01 13:46:36,30.160
211,2019-01-01 13:46:36,31.415
212,2019-01-01 13:46:36,37.217
213,2019-01-01 13:46:36,40.232
214,2019-01-01 13:46:37,35.626
215,2019-01-01 13:46:40,31.789
216,2019-01-01 13:46:41,34.935
217,2019-01-01 13:46:46,29.541
218,2019-01-01 13:47:44,38.770
219,2019-01-01 13:48:17,30.280
220,2019-01-01 13:48:18,30.992
221,2019-01-01 13:48:22,31.374
222,2019-01-01 13:48:31,32.731
223,2019-01-01 13:48:56,31.801
224,2019-01-01 13:48:58,30.634
225,2019-01-01 13:48:58,29.904
226,2019-01-01 13:48:59,31.206
227,2019-01-01 13:48:59,31.400
228,2019-01-01 13:52:34,37.501
229,2019-01-01 13:52:34,32.824
230,2019-01-01 13:52:34,29.624
231,2019-01-01 13:52:35,30.023
232,2019-01-01 13:52:35,29.939
233,2019-01-01 13:52:36,31.376
234,2019-01-01 13:52:36,29.884
235,2019-01-01 13:52:37,29.578
236,2019-01-01 13:52:37,32.379
237,2019-01-01 13:52:37,30.353
238,2019-01-01 13:52:37,37.442
239,2019-01-01 13:52:38,32.092
240,2019-01-01 13:52:38,29.738
241,2019-01-01 13:52:39,29.868
242,2019-01-01 13:54:00,34.271
243,2019-01-01 13:54:10,30.307
244,2019-01-01 13:54:11,30.653
245,2019-01-01 13:54:41,29.629
246,2019-01-01 13:54:51,36.983
247,2019-01-01 13:54:52,39.742
248,2019-01-01 13:54:52,37.332
249,2019-01-01 13:54:52,36.152
250,2019-01-01 13:54:55,35.989
251,2019-01-01 13:55:22,38.103
252,2019-01-01 13:55:23,35.453
253,2019-01-01 13:55:23,35.001
254,2019-01-01 13:55:26,44.553
255,2019-01-01 13:55:26,38.673
256,2019-01-01 13:55:29,43.388
257,2019-01-01 13:56:17,39.711
258,2019-01-01 13:56:51,31.653
259,2019-01-01 13:56:51,33.193
260,2019-01-01 13:56:51,33.235
261,2019-01-01 13:56:52,30.761
262,2019-01-01 13:56:55,33.964
263,2019-01-01 13:57:33,33.925
264,2019-01-01 13:57:34,33.622
265,2019-01-01 13:57:35,29.624
266,2019-01-01 13:57:36,34.583
267,2019-01-01 13:57:42,32.027
268,2019-01-01 13:58:32,33.326
269,2019-01-01 13:58:34,33.317
270,2019-01-01 14:01:00,31.866
271,2019-01-01 14:01:01,35.269
272,2019-01-01 14:01:01,32.804
273,2019-01-01 14:01:02,34.794
274,2019-01-01 14:01:03,34.799
275,2019-01-01 14:01:03,32.684
276,2019-01-01 14:01:04,34.983
277,2019-01-01 14:01:05,41.717
278,2019-01-01 14:03:11,35.349
279,2019-01-01 14:03:18,34.406
280,2019-01-01 14:03:22,32.317
281,2019-01-01 14:03:22,35.616
282,2019-01-01 14:03:52,29.370
283,2019-01-01 14:03:54,31.277
284,2019-01-01 14:03:54,34.581
285,2019-01-01 14:03:54,31.925
286,2019-01-01 14:03:55,29.650
287,2019-01-01 14:04:55,34.634
288,2019-01-01 14:05:27,35.793
289,2019-01-01 14:05:32,38.092
290,2019-01-01 14:05:33,36.820
291,2019-01-01 14:05:33,39.025
292,2019-01-01 14:05:39,35.842
293,2019-01-01 14:06:11,34.655
294,2019-01-01 14:06:11,30.172
295,2019-01-01 14:06:14,38.831
296,2019-01-01 14:07:04,31.964
297,2019-01-01 14:09:58,34.489
298,2019-01-01 14:09:58,43.747
299,2019-01-01 14:09:59,45.332
300,2019-01-01 14:10:00,38.661
301,2019-01-01 14:10:01,38.352
302,2019-01-01 14:10:01,40.660
303,2019-01-01 14:10:02,33.683
304,2019-01-01 14:10:02,38.264
305,2019-01-01 14:11:19,31.439
306,2019-01-01 14:11:20,37.330
307,2019-01-01 14:11:58,37.398
308,2019-01-01 14:12:29,30.283
309,2019-01-01 14:13:26,32.561
310,2019-01-01 14:13:26,31.243
311,2019-01-01 14:13:34,31.665
312,2019-01-01 14:14:10,32.804
313,2019-01-01 14:14:50,36.603
314,2019-01-01 14:14:51,32.999
315,2019-01-01 14:15:48,37.149
316,2019-01-01 14:15:48,39.532
317,2019-01-01 14:18:52,32.166
318,2019-01-01 14:18:53,29.574
319,2019-01-01 14:18:53,29.630
320,2019-01-01 14:18:54,29.528
321,2019-01-01 14:19:00,30.043
322,2019-01-01 14:20:54,39.772
323,2019-01-01 14:21:24,30.879
324,2019-01-01 14:21:26,33.676
325,2019-01-01 14:21:26,33.491
326,2019-01-01 14:21:27,37.269
327,2019-01-01 14:21:34,41.852
328,2019-01-01 14:23:14,29.920
329,2019-01-01 14:23:49,31.275
330,2019-01-01 14:23:49,29.524
331,2019-01-01 14:23:51,29.548
332,2019-01-01 14:23:51,30.486
333,2019-01-01 14:23:52,33.405
334,2019-01-01 14:23:53,29.649
335,2019-01-01 14:23:54,30.618
336,2019-01-01 14:23:57,31.502
337,2019-01-01 14:23:57,33.091
338,2019-01-01 14:27:43,30.219
339,2019-01-01 14:27:43,34.376
340,2019-01-01 14:27:43,30.028
341,2019-01-01 14:27:44,37.416
342,2019-01-01 14:27:45,34.799
343,2019-01-01 14:27:45,36.685
344,2019-01-01 14:29:04,29.307
345,2019-01-01 14:29:45,29.905
346,2019-01-01 14:29:47,30.372
347,2019-01-01 14:29:58,29.308
348,2019-01-01 14:29:58,31.306
349,2019-01-01 14:29:59,40.438
350,2019-01-01 14:30:25,40.640
351,2019-01-01 14:30:26,39.343
352,2019-01-01 14:30:27,38.187
353,2019-01-01 14:31:34,29.602
354,2019-01-01 14:31:34,31.306
355,2019-01-01 14:32:06,31.399
356,2019-01-01 14:32:40,30.954
357,2019-01-01 14:32:42,30.820
358,2019-01-01 14:32:43,32.834
359,2019-01-01 14:32:43,31.483
360,2019-01-01 14:32:44,29.756
361,2019-01-01 14:32:44,34.117
362,2019-01-01 14:32:44,33.973
363,2019-01-01 14:33:36,32.711
364,2019-01-01 14:33:42,32.597
365,2019-01-01 14:36:29,32.620
366,2019-01-01 14:36:29,36.006
367,2019-01-01 14:36:30,37.174
368,2019-01-01 14:36:30,31.737
369,2019-01-01 14:36:31,33.366
370,2019-01-01 14:36:31,34.435
371,2019-01-01 14:36:32,38.753
372,2019-01-01 14:36:32,34.465
373,2019-01-01 14:36:33,31.189
374,2019-01-01 14:37:49,30.127
375,2019-01-01 14:38:24,30.292
376,2019-01-01 14:38:37,30.418
377,2019-01-01 14:38:49,30.072
378,2019-01-01 14:38:50,30.816
379,2019-01-01 14:39:01,32.395
380,2019-01-01 14:39:51,34.166
381,2019-01-01 14:39:55,32.938
382,2019-01-01 14:40:37,40.557
383,2019-01-01 14:40:40,36.794
384,2019-01-01 14:40:45,37.317
385,2019-01-01 14:40:45,37.349
386,2019-01-01 14:41:20,37.416
387,2019-01-01 14:41:20,35.299
388,2019-01-01 14:41:20,33.477
389,2019-01-01 14:41:20,34.396
390,2019-01-01 14:41:21,35.023
391,2019-01-01 14:41:21,34.250
392,2019-01-01 14:41:22,37.525
393,2019-01-01 14:42:08,33.065
394,2019-01-01 14:45:16,40.292
395,2019-01-01 14:45:17,38.007
396,2019-01-01 14:45:17,29.886
397,2019-01-01 14:45:17,44.446
398,2019-01-01 14:45:17,39.739
399,2019-01-01 14:45:18,35.099
400,2019-01-01 14:45:18,39.312
401,2019-01-01 14:45:18,39.876
402,2019-01-01 14:45:18,34.845
403,2019-01-01 14:45:18,34.045
404,2019-01-01 14:45:18,36.536
405,2019-01-01 14:45:19,35.115
406,2019-01-01 14:45:19,34.271
407,2019-01-01 14:45:19,40.240
408,2019-01-01 14:45:20,29.654
409,2019-01-01 14:45:21,38.339
410,2019-01-01 14:46:41,33.777
411,2019-01-01 14:46:50,34.651
412,2019-01-01 14:47:15,31.982
413,2019-01-01 14:47:18,31.108
414,2019-01-01 14:47:27,30.996
415,2019-01-01 14:47:50,31.924
416,2019-01-01 14:47:51,31.026
417,2019-01-01 14:47:52,33.174
418,2019-01-01 14:47:55,32.184
419,2019-01-01 14:47:55,31.332
420,2019-01-01 14:48:49,29.764
421,2019-01-01 14:48:50,29.355
422,2019-01-01 14:49:26,31.115
423,2019-01-01 14:49:36,30.437
424,2019-01-01 14:50:03,45.238
425,2019-01-01 14:50:04,34.550
426,2019-01-01 14:50:07,36.954
427,2019-01-01 14:50:59,38.006
428,2019-01-01 14:51:06,37.388
429,2019-01-01 14:54:09,35.095
430,2019-01-01 14:54:09,41.380
431,2019-01-01 14:54:11,33.862
432,2019-01-01 14:54:11,30.593
433,2019-01-01 14:54:11,33.795
434,2019-01-01 14:54:12,33.672
435,2019-01-01 14:54:12,33.023
436,2019-01-01 14:54:12,30.333
437,2019-01-01 14:54:12,32.568
438,2019-01-01 14:54:20,33.647
439,2019-01-01 14:55:46,31.865
440,2019-01-01 14:56:06,32.904
441,2019-01-01 14:56:39,32.732
442,2019-01-01 14:56:40,36.248
443,2019-01-01 14:56:40,36.769
444,2019-01-01 14:56:41,32.232
445,2019-01-01 14:56:41,41.331
446,2019-01-01 14:56:43,33.610
447,2019-01-01 14:56:47,34.588
448,2019-01-01 14:56:47,33.786
449,2019-01-01 14:56:50,34.122
450,2019-01-01 14:56:51,31.321
451,2019-01-01 14:57:38,31.104
452,2019-01-01 14:57:40,34.824
453,2019-01-01 14:57:41,30.077
454,2019-01-01 14:58:23,33.115
455,2019-01-01 14:58:25,34.417
456,2019-01-01 14:58:54,31.031
457,2019-01-01 14:58:55,35.509
458,2019-01-01 14:58:57,32.070
459,2019-01-01 14:58:57,33.364
460,2019-01-01 14:58:57,30.063
461,2019-01-01 14:59:00,33.238
462,2019-01-01 14:59:00,36.813
463,2019-01-01 14:59:06,31.248
464,2019-01-01 15:00:32,33.858
465,2019-01-01 15:02:44,33.604
466,2019-01-01 15:02:45,32.294
467,2019-01-01 15:02:45,33.567
468,2019-01-01 15:02:46,32.285
469,2019-01-01 15:02:46,33.135
470,2019-01-01 15:02:47,31.610
471,2019-01-01 15:02:47,34.912
472,2019-01-01 15:02:47,34.181
473,2019-01-01 15:02:50,30.235
474,2019-01-01 15:04:50,34.807
475,2019-01-01 15:04:53,33.754
476,2019-01-01 15:04:54,32.530
477,2019-01-01 15:05:21,37.064
478,2019-01-01 15:05:21,36.571
479,2019-01-01 15:05:22,37.174
480,2019-01-01 15:05:23,33.643
481,2019-01-01 15:06:19,32.224
482,2019-01-01 15:07:03,30.585
483,2019-01-01 15:07:06,32.142
484,2019-01-01 15:07:41,31.524
485,2019-01-01 15:07:43,33.536
486,2019-01-01 15:07:43,32.873
487,2019-01-01 15:07:43,31.482
488,2019-01-01 15:07:54,30.751
489,2019-01-01 15:08:37,30.783
490,2019-01-01 15:11:31,30.924
491,2019-01-01 15:11:31,32.006
492,2019-01-01 15:11:31,33.304
493,2019-01-01 15:11:32,30.926
494,2019-01-01 15:11:33,29.921
495,2019-01-01 15:11:33,31.679
496,2019-01-01 15:11:33,29.876
497,2019-01-01 15:11:33,31.719
498,2019-01-01 15:11:34,34.153
499,2019-01-01 15:11:35,40.430
500,2019-01-01 15:11:35,33.364
501,2019-01-01 15:11:35,32.909
502,2019-01-01 15:11:35,33.659
503,2019-01-01 15:11:35,34.081
504,2019-01-01 15:11:35,32.653
505,2019-01-01 15:13:10,31.242
506,2019-01-01 15:13:13,70.430
507,2019-01-01 15:13:29,32.248
508,2019-01-01 15:13:33,34.177
509,2019-01-01 15:13:34,33.325
510,2019-01-01 15:13:34,35.055
511,2019-01-01 15:14:05,35.112
512,2019-01-01 15:14:06,35.239
513,2019-01-01 15:14:07,33.332
514,2019-01-01 15:14:07,33.543
515,2019-01-01 15:14:07,29.158
516,2019-01-01 15:14:09,33.908
517,2019-01-01 15:14:09,33.517
518,2019-01-01 15:14:10,32.005
519,2019-01-01 15:14:10,33.429
520,2019-01-01 15:14:17,32.550
521,2019-01-01 15:14:17,36.473
522,2019-01-01 15:14:18,36.345
523,2019-01-01 15:15:04,34.335
524,2019-01-01 15:15:07,33.906
525,2019-01-01 15:15:48,39.783
526,2019-01-01 15:15:53,40.068
527,2019-01-01 15:16:27,37.437
528,2019-01-01 15:16:27,35.927
529,2019-01-01 15:16:27,65.617
530,2019-01-01 15:17:25,33.993
531,2019-01-01 15:20:41,30.888
532,2019-01-01 15:20:42,34.172
533,2019-01-01 15:20:42,35.869
534,2019-01-01 15:20:42,29.859
535,2019-01-01 15:20:43,30.676
536,2019-01-01 15:20:44,34.131
537,2019-01-01 15:20:44,38.532
538,2019-01-01 15:20:45,36.040
539,2019-01-01 15:22:03,32.914
540,2019-01-01 15:22:06,42.079
541,2019-01-01 15:22:16,32.531
542,2019-01-01 15:22:53,30.451
543,2019-01-01 15:22:59,33.693
544,2019-01-01 15:23:02,33.595
545,2019-01-01 15:23:05,34.818
546,2019-01-01 15:23:39,34.211
547,2019-01-01 15:24:30,34.001
548,2019-01-01 15:24:43,34.184
549,2019-01-01 15:25:11,37.947
550,2019-01-01 15:25:23,30.561
551,2019-01-01 15:25:55,38.286
552,2019-01-01 15:25:55,47.348
553,2019-01-01 15:25:55,41.214
554,2019-01-01 15:26:04,31.518
555,2019-01-01 15:26:46,32.638
556,2019-01-01 15:26:47,33.908
557,2019-01-01 15:29:50,31.309
558,2019-01-01 15:29:50,34.464
559,2019-01-01 15:29:50,31.087
560,2019-01-01 15:29:51,69.374
561,2019-01-01 15:29:51,39.344
562,2019-01-01 15:29:51,40.753
563,2019-01-01 15:29:51,30.871
564,2019-01-01 15:29:51,35.234
565,2019-01-01 15:29:53,32.868
566,2019-01-01 15:29:53,31.931
567,2019-01-01 15:29:53,31.864
568,2019-01-01 15:29:54,31.202
569,2019-01-01 15:31:51,34.283
570,2019-01-01 15:32:25,46.213
571,2019-01-01 15:32:27,33.999
572,2019-01-01 15:32:27,31.595
573,2019-01-01 15:32:31,29.665
574,2019-01-01 15:33:36,34.051
575,2019-01-01 15:33:40,33.197
576,2019-01-01 15:34:08,32.158
577,2019-01-01 15:34:08,31.938
578,2019-01-01 15:34:11,29.728
579,2019-01-01 15:34:11,30.918
580,2019-01-01 15:34:11,31.690
581,2019-01-01 15:34:48,35.992
582,2019-01-01 15:34:49,30.704
583,2019-01-01 15:34:50,32.330
584,2019-01-01 15:34:50,35.783
585,2019-01-01 15:34:54,34.596
586,2019-01-01 15:35:42,31.264
587,2019-01-01 15:35:42,34.462
588,2019-01-01 15:35:45,40.530
589,2019-01-01 15:38:49,33.984
590,2019-01-01 15:38:50,33.837
591,2019-01-01 15:38:51,33.548
592,2019-01-01 15:38:51,32.525
593,2019-01-01 15:38:52,35.281
594,2019-01-01 15:38:52,32.347
595,2019-01-01 15:38:52,35.743
596,2019-01-01 15:38:52,42.188
597,2019-01-01 15:38:54,33.177
598,2019-01-01 15:40:46,32.200
599,2019-01-01 15:40:52,72.056
600,2019-01-01 15:41:02,30.695
601,2019-01-01 15:41:25,32.864
602,2019-01-01 15:41:27,35.311
603,2019-01-01 15:41:27,30.259
604,2019-01-01 15:41:28,32.603
605,2019-01-01 15:41:28,35.352
606,2019-01-01 15:41:28,34.105
607,2019-01-01 15:41:28,39.351
608,2019-01-01 15:41:29,36.473
609,2019-01-01 15:41:29,31.450
610,2019-01-01 15:41:29,37.973
611,2019-01-01 15:43:08,34.277
612,2019-01-01 15:43:15,33.691
613,2019-01-01 15:43:49,37.496
614,2019-01-01 15:43:50,32.846
615,2019-01-01 15:43:51,35.346
616,2019-01-01 15:43:52,29.694
617,2019-01-01 15:44:40,33.083
618,2019-01-01 15:44:41,36.156
619,2019-01-01 15:44:43,31.136
620,2019-01-01 15:47:54,32.831
621,2019-01-01 15:47:55,29.766
622,2019-01-01 15:47:55,30.160
623,2019-01-01 15:47:56,35.676
624,2019-01-01 15:47:57,32.437
625,2019-01-01 15:49:29,35.392
626,2019-01-01 15:49:29,32.003
627,2019-01-01 15:49:54,34.916
628,2019-01-01 15:50:31,33.881
629,2019-01-01 15:50:32,33.145
630,2019-01-01 15:50:33,43.886
631,2019-01-01 15:50:34,44.141
632,2019-01-01 15:50:38,32.853
633,2019-01-01 15:52:07,31.896
634,2019-01-01 15:52:08,31.519
635,2019-01-01 15:52:09,32.216
636,2019-01-01 15:52:10,33.300
637,2019-01-01 15:52:15,31.267
638,2019-01-01 15:52:19,32.765
639,2019-01-01 15:52:52,52.260
640,2019-01-01 15:52:54,36.300
641,2019-01-01 15:52:54,32.791
642,2019-01-01 15:52:55,33.082
643,2019-01-01 15:52:58,40.967
644,2019-01-01 15:53:00,35.071
645,2019-01-01 15:56:35,33.331
646,2019-01-01 15:56:35,35.990
647,2019-01-01 15:56:35,30.868
648,2019-01-01 15:56:36,34.823
649,2019-01-01 15:56:36,34.517
650,2019-01-01 15:56:37,33.145
651,2019-01-01 15:56:37,31.539
652,2019-01-01 15:56:38,32.012
653,2019-01-01 15:56:38,31.661
654,2019-01-01 15:58:01,29.966
655,2019-01-01 15:58:33,33.962
656,2019-01-01 15:58:33,31.784
657,2019-01-01 15:58:42,31.980
658,2019-01-01 15:58:42,34.911
659,2019-01-01 15:58:42,34.370
660,2019-01-01 15:59:06,30.676
661,2019-01-01 15:59:06,33.785
662,2019-01-01 15:59:10,31.517
663,2019-01-01 15:59:13,32.150
664,2019-01-01 16:00:13,34.823
665,2019-01-01 16:00:13,31.146
666,2019-01-01 16:00:50,39.492
667,2019-01-01 16:00:54,37.388
668,2019-01-01 16:01:26,36.099
669,2019-01-01 16:01:26,32.587
670,2019-01-01 16:01:27,35.269
671,2019-01-01 16:01:28,39.980
672,2019-01-01 16:02:19,32.615
673,2019-01-01 16:02:21,31.856
674,2019-01-01 16:02:21,31.660
675,2019-01-01 16:02:23,29.496
676,2019-01-01 16:05:40,31.126
677,2019-01-01 16:05:41,29.880
678,2019-01-01 16:05:41,34.425
679,2019-01-01 16:05:44,33.779
680,2019-01-01 16:05:44,31.650
681,2019-01-01 16:05:48,32.137
682,2019-01-01 16:05:49,34.982
683,2019-01-01 16:07:50,31.084
684,2019-01-01 16:07:56,30.590
685,2019-01-01 16:07:57,29.453
686,2019-01-01 16:08:11,40.749
687,2019-01-01 16:08:24,30.302
688,2019-01-01 16:08:24,30.793
689,2019-01-01 16:08:25,31.258
690,2019-01-01 16:09:27,29.876
691,2019-01-01 16:09:54,32.095
692,2019-01-01 16:09:55,33.104
693,2019-01-01 16:10:39,33.911
694,2019-01-01 16:10:39,35.062
695,2019-01-01 16:10:40,37.152
696,2019-01-01 16:10:40,32.229
697,2019-01-01 16:11:33,31.754
698,2019-01-01 16:15:05,34.819
699,2019-01-01 16:15:06,36.448
700,2019-01-01 16:15:06,38.873
701,2019-01-01 16:15:06,40.673
702,2019-01-01 16:15:07,34.474
703,2019-01-01 16:15:07,46.591
704,2019-01-01 16:15:08,36.985
705,2019-01-01 16:15:08,34.999
706,2019-01-01 16:15:08,36.378
707,2019-01-01 16:15:09,38.750
708,2019-01-01 16:15:09,32.229
709,2019-01-01 16:15:09,41.628
710,2019-01-01 16:15:09,36.299
711,2019-01-01 16:15:09,35.776
712,2019-01-01 16:16:26,31.771
713,2019-01-01 16:16:34,34.094
714,2019-01-01 16:17:11,30.955
715,2019-01-01 16:17:14,29.975
716,2019-01-01 16:17:20,43.904
717,2019-01-01 16:17:23,33.893
718,2019-01-01 16:17:23,33.753
719,2019-01-01 16:17:53,34.012
720,2019-01-01 16:17:53,30.768
721,2019-01-01 16:17:54,30.059
722,2019-01-01 16:17:54,34.835
723,2019-01-01 16:17:54,29.563
724,2019-01-01 16:17:54,32.007
725,2019-01-01 16:17:55,32.332
726,2019-01-01 16:17:55,35.180
727,2019-01-01 16:17:57,29.293
728,2019-01-01 16:18:51,36.835
729,2019-01-01 16:19:30,34.258
730,2019-01-01 16:19:31,33.661
731,2019-01-01 16:19:32,30.623
732,2019-01-01 16:20:11,49.568
733,2019-01-01 16:20:14,30.347
734,2019-01-01 16:20:15,35.250
735,2019-01-01 16:20:59,30.884
736,2019-01-01 16:20:59,36.109
737,2019-01-01 16:21:00,40.014
738,2019-01-01 16:21:00,30.888
739,2019-01-01 16:24:05,29.224
740,2019-01-01 16:24:05,29.262
741,2019-01-01 16:24:07,32.664
742,2019-01-01 16:24:08,30.482
743,2019-01-01 16:24:08,31.935
744,2019-01-01 16:24:09,31.141
745,2019-01-01 16:24:09,30.644
746,2019-01-01 16:24:10,29.310
747,2019-01-01 16:24:14,31.469
748,2019-01-01 16:25:28,33.939
749,2019-01-01 16:26:29,40.445
750,2019-01-01 16:26:30,36.452
751,2019-01-01 16:26:30,34.071
752,2019-01-01 16:26:31,33.244
753,2019-01-01 16:26:36,33.891
754,2019-01-01 16:26:37,30.309
755,2019-01-01 16:26:37,33.144
756,2019-01-01 16:27:30,29.651
757,2019-01-01 16:27:30,31.367
758,2019-01-01 16:27:31,31.546
759,2019-01-01 16:27:31,29.715
760,2019-01-01 16:27:32,31.413
761,2019-01-01 16:27:33,29.586
762,2019-01-01 16:28:52,29.536
763,2019-01-01 16:28:53,30.623
764,2019-01-01 16:28:53,29.282
765,2019-01-01 16:29:03,29.957
766,2019-01-01 16:29:42,34.377
767,2019-01-01 16:29:42,29.379
768,2019-01-01 16:29:42,30.294
769,2019-01-01 16:29:42,35.162
770,2019-01-01 16:29:43,37.332
771,2019-01-01 16:29:45,33.011
772,2019-01-01 16:29:45,31.360
773,2019-01-01 16:29:47,37.496
774,2019-01-01 16:32:45,31.555
775,2019-01-01 16:32:46,33.887
776,2019-01-01 16:32:46,33.687
777,2019-01-01 16:32:46,33.949
778,2019-01-01 16:32:46,33.965
779,2019-01-01 16:32:46,32.405
780,2019-01-01 16:32:47,31.734
781,2019-01-01 16:32:47,32.540
782,2019-01-01 16:32:47,32.690
783,2019-01-01 16:32:47,30.569
784,2019-01-01 16:32:47,30.426
785,2019-01-01 16:32:47,29.898
786,2019-01-01 16:32:48,29.900
787,2019-01-01 16:32:48,30.984
788,2019-01-01 16:32:49,33.126
789,2019-01-01 16:32:49,29.589
790,2019-01-01 16:34:05,29.355
791,2019-01-01 16:34:17,33.884
792,2019-01-01 16:34:39,34.643
793,2019-01-01 16:34:43,39.402
794,2019-01-01 16:34:51,36.225
795,2019-01-01 16:34:52,32.855
796,2019-01-01 16:35:13,37.473
797,2019-01-01 16:35:13,34.007
798,2019-01-01 16:35:14,40.544
799,2019-01-01 16:35:15,30.015
800,2019-01-01 16:35:17,40.970
801,2019-01-01 16:35:17,38.769
802,2019-01-01 16:35:22,44.583
803,2019-01-01 16:36:27,35.565
804,2019-01-01 16:36:56,30.955
805,2019-01-01 16:36:57,30.788
806,2019-01-01 16:37:32,103.330
807,2019-01-01 16:37:32,29.994
808,2019-01-01 16:37:34,32.660
809,2019-01-01 16:37:36,31.438
810,2019-01-01 16:37:37,31.352
811,2019-01-01 16:38:26,31.800
812,2019-01-01 16:38:26,32.220
813,2019-01-01 16:38:38,32.447
814,2019-01-01 16:41:32,31.177
815,2019-01-01 16:41:32,36.853
816,2019-01-01 16:41:33,30.745
817,2019-01-01 16:41:35,30.912
818,2019-01-01 16:41:37,29.797
819,2019-01-01 16:42:55,31.136
820,2019-01-01 16:42:56,37.619
821,2019-01-01 16:43:26,31.617
822,2019-01-01 16:43:36,30.493
823,2019-01-01 16:43:50,34.572
824,2019-01-01 16:43:50,31.000
825,2019-01-01 16:43:51,29.787
826,2019-01-01 16:44:00,30.512
827,2019-01-01 16:44:01,30.975
828,2019-01-01 16:44:01,30.716
829,2019-01-01 16:44:03,30.545
830,2019-01-01 16:44:49,31.351
831,2019-01-01 16:45:34,39.886
832,2019-01-01 16:45:36,45.220
833,2019-01-01 16:46:14,48.090
834,2019-01-01 16:46:14,33.487
835,2019-01-01 16:46:14,35.487
836,2019-01-01 16:46:17,36.394
837,2019-01-01 16:46:20,45.074
838,2019-01-01 16:47:03,41.517
839,2019-01-01 16:47:03,30.781
840,2019-01-01 16:47:04,30.238
841,2019-01-01 16:47:05,29.468
842,2019-01-01 16:47:06,29.987
843,2019-01-01 16:47:08,31.177
844,2019-01-01 16:50:24,36.251
845,2019-01-01 16:50:24,40.233
846,2019-01-01 16:50:26,38.713
847,2019-01-01 16:50:26,35.411
848,2019-01-01 16:50:27,34.590
849,2019-01-01 16:50:27,37.931
850,2019-01-01 16:50:27,38.860
851,2019-01-01 16:51:48,40.885
852,2019-01-01 16:52:47,33.454
853,2019-01-01 16:52:48,31.527
854,2019-01-01 16:52:50,33.674
855,2019-01-01 16:52:55,32.369
856,2019-01-01 16:52:55,32.561
857,2019-01-01 16:53:45,29.668
858,2019-01-01 16:53:49,33.448
859,2019-01-01 16:54:26,33.699
860,2019-01-01 16:54:26,32.753
861,2019-01-01 16:55:02,32.897
862,2019-01-01 16:55:03,32.067
863,2019-01-01 16:55:03,39.976
864,2019-01-01 16:55:05,33.139
865,2019-01-01 16:55:06,32.593
866,2019-01-01 16:55:07,31.132
867,2019-01-01 16:55:07,38.547
868,2019-01-01 16:55:12,32.987
869,2019-01-01 16:55:57,30.380
870,2019-01-01 16:55:57,32.827
871,2019-01-01 16:55:57,34.772
872,2019-01-01 16:55:59,31.708
873,2019-01-01 16:55:59,34.425
874,2019-01-01 16:56:00,39.617
875,2019-01-01 16:59:14,31.092
876,2019-01-01 16:59:14,30.731
877,2019-01-01 16:59:15,30.924
878,2019-01-01 16:59:16,37.179
879,2019-01-01 16:59:17,36.343
880,2019-01-01 17:00:46,37.104
881,2019-01-01 17:01:14,32.372
882,2019-01-01 17:01:23,33.878
883,2019-01-01 17:01:24,37.991
884,2019-01-01 17:01:24,34.525
885,2019-01-01 17:01:52,33.235
886,2019-01-01 17:01:53,32.057
887,2019-01-01 17:01:53,30.764
888,2019-01-01 17:01:53,32.505
889,2019-01-01 17:01:59,32.078
890,2019-01-01 17:02:01,29.266
891,2019-01-01 17:02:54,33.077
892,2019-01-01 17:03:31,30.507
893,2019-01-01 17:04:07,33.351
894,2019-01-01 17:04:08,40.495
895,2019-01-01 17:04:08,30.076
896,2019-01-01 17:04:08,31.698
897,2019-01-01 17:04:09,32.537
898,2019-01-01 17:04:10,33.637
899,2019-01-01 17:04:10,33.208
900,2019-01-01 17:04:13,33.285
901,2019-01-01 17:04:17,33.675
902,2019-01-01 17:05:06,37.950
903,2019-01-01 17:08:32,29.626
904,2019-01-01 17:08:32,30.928
905,2019-01-01 17:08:32,29.756
906,2019-01-01 17:08:32,30.079
907,2019-01-01 17:08:32,30.579
908,2019-01-01 17:08:32,30.672
909,2019-01-01 17:08:33,29.464
910,2019-01-01 17:08:34,30.776
911,2019-01-01 17:08:36,30.043
912,2019-01-01 17:10:54,34.434
913,2019-01-01 17:10:54,39.223
914,2019-01-01 17:11:20,30.804
915,2019-01-01 17:11:20,36.006
916,2019-01-01 17:11:20,37.888
917,2019-01-01 17:11:22,32.342
918,2019-01-01 17:11:22,35.073
919,2019-01-01 17:11:22,37.845
920,2019-01-01 17:11:24,41.614
921,2019-01-01 17:11:25,40.544
922,2019-01-01 17:11:26,32.568
923,2019-01-01 17:11:26,38.282
924,2019-01-01 17:12:17,32.274
925,2019-01-01 17:12:18,30.865
926,2019-01-01 17:12:18,30.188
927,2019-01-01 17:12:28,29.919
928,2019-01-01 17:13:09,30.314
929,2019-01-01 17:13:38,29.345
930,2019-01-01 17:13:39,29.807
931,2019-01-01 17:13:40,30.746
932,2019-01-01 17:13:40,29.975
933,2019-01-01 17:13:42,31.129
934,2019-01-01 17:14:29,31.675
935,2019-01-01 17:14:29,35.909
936,2019-01-01 17:14:30,33.050
937,2019-01-01 17:14:30,32.627
938,2019-01-01 17:14:32,33.430
939,2019-01-01 17:17:05,34.366
940,2019-01-01 17:17:06,31.800
941,2019-01-01 17:17:06,31.618
942,2019-01-01 17:17:07,31.557
943,2019-01-01 17:17:07,30.932
944,2019-01-01 17:17:07,31.266
945,2019-01-01 17:17:08,32.148
946,2019-01-01 17:17:10,32.070
947,2019-01-01 17:17:18,31.543
948,2019-01-01 17:19:02,34.070
949,2019-01-01 17:19:04,31.563
950,2019-01-01 17:19:05,32.786
951,2019-01-01 17:19:06,32.901
952,2019-01-01 17:19:17,32.762
953,2019-01-01 17:19:39,39.318
954,2019-01-01 17:19:39,32.828
955,2019-01-01 17:19:40,33.362
956,2019-01-01 17:21:12,34.377
957,2019-01-01 17:21:53,30.465
958,2019-01-01 17:21:55,35.762
959,2019-01-01 17:21:55,31.113
960,2019-01-01 17:21:58,80.741
961,2019-01-01 17:22:02,174.428
962,2019-01-01 17:22:05,43.161
963,2019-01-01 17:22:43,38.471
964,2019-01-01 17:22:44,33.651
965,2019-01-01 17:22:47,147.873
966,2019-01-01 17:22:48,29.856
967,2019-01-01 17:22:53,35.072
968,2019-01-01 17:22:57,43.837
969,2019-01-01 17:25:56,34.562
970,2019-01-01 17:25:56,33.454
971,2019-01-01 17:25:59,31.986
972,2019-01-01 17:25:59,41.334
973,2019-01-01 17:26:02,31.773
974,2019-01-01 17:26:03,29.524
975,2019-01-01 17:27:19,29.833
976,2019-01-01 17:28:02,29.783
977,2019-01-01 17:28:25,30.227
978,2019-01-01 17:28:25,31.754
979,2019-01-01 17:28:26,31.920
980,2019-01-01 17:28:27,41.287
981,2019-01-01 17:28:29,31.410
982,2019-01-01 17:28:32,30.323
983,2019-01-01 17:29:22,32.199
984,2019-01-01 17:29:23,30.187
985,2019-01-01 17:30:10,34.370
986,2019-01-01 17:30:10,34.986
987,2019-01-01 17:30:11,36.314
988,2019-01-01 17:30:14,35.175
989,2019-01-01 17:30:48,30.788
990,2019-01-01 17:30:49,34.310
991,2019-01-01 17:30:53,32.212
992,2019-01-01 17:30:53,38.574
993,2019-01-01 17:31:37,35.466
994,2019-01-01 17:31:37,33.431
995,2019-01-01 17:31:38,32.816
996,2019-01-01 17:31:38,31.788
997,2019-01-01 17:31:40,33.654
998,2019-01-01 17:34:40,39.069
999,2019-01-01 17:34:41,33.301
1000,2019-01-01 17:34:42,31.496
1001,2019-01-01 17:34:42,30.075
1002,2019-01-01 17:34:42,36.889
1003,2019-01-01 17:34:42,37.408
1004,2019-01-01 17:34:43,31.587
1005,2019-01-01 17:34:44,168.948
1006,2019-01-01 17:34:44,33.118
1007,2019-01-01 17:34:44,32.370
1008,2019-01-01 17:34:45,32.635
1009,2019-01-01 17:34:45,39.895
1010,2019-01-01 17:34:46,31.714
1011,2019-01-01 17:36:14,162.688
1012,2019-01-01 17:36:45,180.465
1013,2019-01-01 17:36:46,34.715
1014,2019-01-01 17:36:47,30.734
1015,2019-01-01 17:36:47,161.231
1016,2019-01-01 17:36:48,31.626
1017,2019-01-01 17:36:59,33.433
1018,2019-01-01 17:37:17,31.132
1019,2019-01-01 17:37:22,151.462
1020,2019-01-01 17:37:24,168.881
1021,2019-01-01 17:38:21,30.337
1022,2019-01-01 17:38:23,31.746
1023,2019-01-01 17:38:24,34.439
1024,2019-01-01 17:38:27,30.239
1025,2019-01-01 17:38:34,32.552
1026,2019-01-01 17:39:01,30.467
1027,2019-01-01 17:39:46,35.216
1028,2019-01-01 17:39:51,35.685
1029,2019-01-01 17:40:33,32.216
1030,2019-01-01 17:40:35,35.697
1031,2019-01-01 17:40:37,38.231
1032,2019-01-01 17:43:27,29.426
1033,2019-01-01 17:43:28,33.170
1034,2019-01-01 17:43:28,32.719
1035,2019-01-01 17:43:29,34.294
1036,2019-01-01 17:43:30,32.335
1037,2019-01-01 17:43:30,32.653
1038,2019-01-01 17:43:30,33.225
1039,2019-01-01 17:43:41,34.337
1040,2019-01-01 17:43:41,30.648
1041,2019-01-01 17:45:32,32.192
1042,2019-01-01 17:45:34,36.903
1043,2019-01-01 17:45:54,31.283
1044,2019-01-01 17:45:55,32.864
1045,2019-01-01 17:45:56,32.321
1046,2019-01-01 17:45:56,31.216
1047,2019-01-01 17:45:58,41.633
1048,2019-01-01 17:46:55,31.524
1049,2019-01-01 17:47:02,30.331
1050,2019-01-01 17:47:38,35.731
1051,2019-01-01 17:47:39,35.076
1052,2019-01-01 17:47:43,30.241
1053,2019-01-01 17:47:43,34.642
1054,2019-01-01 17:47:50,32.069
1055,2019-01-01 17:48:14,34.022
1056,2019-01-01 17:48:15,30.830
1057,2019-01-01 17:48:19,33.797
1058,2019-01-01 17:48:19,34.061
1059,2019-01-01 17:48:19,34.919
1060,2019-01-01 17:48:23,33.297
1061,2019-01-01 17:49:09,33.830
1062,2019-01-01 17:49:13,34.382
1063,2019-01-01 17:49:14,35.149
1064,2019-01-01 17:49:14,32.845
1065,2019-01-01 17:49:15,33.306
1066,2019-01-01 17:52:06,30.490
1067,2019-01-01 17:52:06,29.598
1068,2019-01-01 17:52:07,29.934
1069,2019-01-01 17:52:07,29.808
1070,2019-01-01 17:52:07,31.268
1071,2019-01-01 17:52:08,29.901
1072,2019-01-01 17:52:08,30.860
1073,2019-01-01 17:52:08,31.126
1074,2019-01-01 17:52:09,30.440
1075,2019-01-01 17:52:09,29.739
1076,2019-01-01 17:52:09,30.300
1077,2019-01-01 17:52:09,31.636
1078,2019-01-01 17:52:10,30.799
1079,2019-01-01 17:54:12,29.358
1080,2019-01-01 17:54:13,30.274
1081,2019-01-01 17:54:36,30.260
1082,2019-01-01 17:54:36,37.500
1083,2019-01-01 17:54:37,31.815
1084,2019-01-01 17:54:37,35.590
1085,2019-01-01 17:54:37,29.256
1086,2019-01-01 17:54:39,32.123
1087,2019-01-01 17:54:41,34.926
1088,2019-01-01 17:55:34,45.182
1089,2019-01-01 17:55:34,39.466
1090,2019-01-01 17:55:36,36.704
1091,2019-01-01 17:56:10,35.487
1092,2019-01-01 17:56:12,36.838
1093,2019-01-01 17:56:13,39.043
1094,2019-01-01 17:56:14,34.958
1095,2019-01-01 17:56:55,30.248
1096,2019-01-01 18:00:35,36.553
1097,2019-01-01 18:00:35,34.182
1098,2019-01-01 18:00:35,36.339
1099,2019-01-01 18:00:36,37.407
1100,2019-01-01 18:00:38,37.820
1101,2019-01-01 18:00:38,38.874
1102,2019-01-01 18:02:35,33.577
1103,2019-01-01 18:02:36,35.626
1104,2019-01-01 18:02:40,36.891
1105,2019-01-01 18:03:10,34.384
1106,2019-01-01 18:03:11,30.942
1107,2019-01-01 18:03:11,31.699
1108,2019-01-01 18:03:12,35.427
1109,2019-01-01 18:03:14,33.618
1110,2019-01-01 18:03:19,30.264
1111,2019-01-01 18:04:49,32.590
1112,2019-01-01 18:05:27,41.072
1113,2019-01-01 18:05:27,36.512
1114,2019-01-01 18:05:28,35.140
1115,2019-01-01 18:05:28,33.430
1116,2019-01-01 18:05:28,36.131
1117,2019-01-01 18:05:29,30.694
1118,2019-01-01 18:05:29,35.548
1119,2019-01-01 18:05:30,41.750
1120,2019-01-01 18:06:21,35.455
1121,2019-01-01 18:09:21,30.186
1122,2019-01-01 18:09:22,30.766
1123,2019-01-01 18:09:22,32.400
1124,2019-01-01 18:09:22,31.749
1125,2019-01-01 18:09:23,31.077
1126,2019-01-01 18:09:23,30.198
1127,2019-01-01 18:09:23,32.158
1128,2019-01-01 18:09:24,32.374
1129,2019-01-01 18:09:24,30.926
1130,2019-01-01 18:09:24,29.978
1131,2019-01-01 18:09:25,31.391
1132,2019-01-01 18:09:25,29.663
1133,2019-01-01 18:11:14,29.805
1134,2019-01-01 18:11:41,30.597
1135,2019-01-01 18:11:41,33.730
1136,2019-01-01 18:11:41,30.190
1137,2019-01-01 18:11:43,33.236
1138,2019-01-01 18:11:51,37.552
1139,2019-01-01 18:11:53,30.936
1140,2019-01-01 18:12:41,31.846
1141,2019-01-01 18:12:42,32.560
1142,2019-01-01 18:12:42,32.381
1143,2019-01-01 18:14:08,47.383
1144,2019-01-01 18:14:08,29.837
1145,2019-01-01 18:14:57,31.480
1146,2019-01-01 18:14:58,30.339
1147,2019-01-01 18:15:36,33.631
1148,2019-01-01 18:15:37,31.728
1149,2019-01-01 18:18:09,32.264
1150,2019-01-01 18:18:09,31.634
1151,2019-01-01 18:18:09,32.077
1152,2019-01-01 18:18:10,32.668
1153,2019-01-01 18:18:11,34.005
1154,2019-01-01 18:18:12,31.877
1155,2019-01-01 18:19:31,35.845
1156,2019-01-01 18:19:32,31.982
1157,2019-01-01 18:19:38,33.486
1158,2019-01-01 18:20:22,37.833
1159,2019-01-01 18:20:49,31.457
1160,2019-01-01 18:20:50,30.855
1161,2019-01-01 18:20:52,31.518
1162,2019-01-01 18:20:54,32.735
1163,2019-01-01 18:21:45,32.355
1164,2019-01-01 18:21:46,32.009
1165,2019-01-01 18:21:48,39.199
1166,2019-01-01 18:21:55,29.371
1167,2019-01-01 18:22:28,29.539
1168,2019-01-01 18:22:28,32.782
1169,2019-01-01 18:22:29,33.732
1170,2019-01-01 18:22:29,30.212
1171,2019-01-01 18:22:29,32.162
1172,2019-01-01 18:22:30,29.671
1173,2019-01-01 18:22:31,32.145
1174,2019-01-01 18:23:08,66.609
1175,2019-01-01 18:23:09,29.704
1176,2019-01-01 18:23:56,31.096
1177,2019-01-01 18:23:56,60.550
1178,2019-01-01 18:23:57,32.551
1179,2019-01-01 18:23:59,31.882
1180,2019-01-01 18:26:52,32.848
1181,2019-01-01 18:26:53,32.855
1182,2019-01-01 18:26:53,35.176
1183,2019-01-01 18:26:54,31.996
1184,2019-01-01 18:26:54,32.493
1185,2019-01-01 18:26:54,34.334
1186,2019-01-01 18:26:55,32.749
1187,2019-01-01 18:26:55,33.040
1188,2019-01-01 18:26:55,33.495
1189,2019-01-01 18:26:55,33.193
1190,2019-01-01 18:26:55,33.537
1191,2019-01-01 18:26:56,34.720
1192,2019-01-01 18:26:56,34.363
1193,2019-01-01 18:26:57,31.372
1194,2019-01-01 18:28:24,36.342
1195,2019-01-01 18:29:06,34.581
1196,2019-01-01 18:29:22,36.895
1197,2019-01-01 18:29:24,35.313
1198,2019-01-01 18:29:25,29.747
1199,2019-01-01 18:29:25,43.988
1200,2019-01-01 18:29:26,34.415
1201,2019-01-01 18:29:26,32.353
1202,2019-01-01 18:29:27,32.753
1203,2019-01-01 18:29:28,32.083
1204,2019-01-01 18:30:27,31.991
1205,2019-01-01 18:31:19,36.620
1206,2019-01-01 18:31:22,36.370
1207,2019-01-01 18:31:50,38.138
1208,2019-01-01 18:31:51,32.207
1209,2019-01-01 18:31:54,36.743
1210,2019-01-01 18:31:55,33.357
1211,2019-01-01 18:31:56,29.888
1212,2019-01-01 18:32:00,33.677
1213,2019-01-01 18:32:36,33.806
1214,2019-01-01 18:32:36,34.025
1215,2019-01-01 18:32:36,29.991
1216,2019-01-01 18:32:36,30.506
1217,2019-01-01 18:32:38,31.693
1218,2019-01-01 18:32:38,30.964
1219,2019-01-01 18:32:42,32.685
1220,2019-01-01 18:35:59,32.970
1221,2019-01-01 18:35:59,33.605
1222,2019-01-01 18:35:59,37.498
1223,2019-01-01 18:36:00,36.128
1224,2019-01-01 18:36:00,32.279
1225,2019-01-01 18:36:01,34.053
1226,2019-01-01 18:36:01,34.024
1227,2019-01-01 18:36:01,37.534
1228,2019-01-01 18:36:01,33.037
1229,2019-01-01 18:37:21,33.377
1230,2019-01-01 18:37:22,30.071
1231,2019-01-01 18:37:31,30.705
1232,2019-01-01 18:37:58,30.944
1233,2019-01-01 18:38:05,30.791
1234,2019-01-01 18:38:21,36.023
1235,2019-01-01 18:38:21,33.334
1236,2019-01-01 18:38:28,34.363
1237,2019-01-01 18:38:30,29.757
1238,2019-01-01 18:38:32,30.173
1239,2019-01-01 18:39:24,34.512
1240,2019-01-01 18:39:28,33.598
1241,2019-01-01 18:39:29,32.996
1242,2019-01-01 18:39:32,31.423
1243,2019-01-01 18:40:10,35.835
1244,2019-01-01 18:40:11,34.255
1245,2019-01-01 18:40:13,42.051
1246,2019-01-01 18:40:13,35.613
1247,2019-01-01 18:40:17,35.422
1248,2019-01-01 18:40:50,33.397
1249,2019-01-01 18:40:55,37.360
1250,2019-01-01 18:40:55,32.430
1251,2019-01-01 18:41:44,35.478
1252,2019-01-01 18:41:45,31.792
1253,2019-01-01 18:41:46,31.882
1254,2019-01-01 18:41:47,31.175
1255,2019-01-01 18:41:47,32.939
1256,2019-01-01 18:44:29,40.846
1257,2019-01-01 18:44:30,35.775
1258,2019-01-01 18:44:30,31.959
1259,2019-01-01 18:44:31,32.566
1260,2019-01-01 18:44:31,36.370
1261,2019-01-01 18:44:32,29.195
1262,2019-01-01 18:44:32,32.317
1263,2019-01-01 18:44:33,31.061
1264,2019-01-01 18:45:50,31.806
1265,2019-01-01 18:46:26,44.797
1266,2019-01-01 18:47:57,31.887
1267,2019-01-01 18:48:00,30.140
1268,2019-01-01 18:48:41,29.602
1269,2019-01-01 18:48:42,33.465
1270,2019-01-01 18:48:53,31.242
1271,2019-01-01 18:49:20,30.505
1272,2019-01-01 18:49:21,30.849
1273,2019-01-01 18:49:21,29.780
1274,2019-01-01 18:49:23,30.077
1275,2019-01-01 18:49:24,30.313
1276,2019-01-01 18:49:25,29.940
1277,2019-01-01 18:50:11,31.862
1278,2019-01-01 18:50:12,32.698
1279,2019-01-01 18:50:12,32.098
1280,2019-01-01 18:53:28,29.849
1281,2019-01-01 18:53:30,30.291
1282,2019-01-01 18:53:30,30.993
1283,2019-01-01 18:53:30,34.232
1284,2019-01-01 18:53:30,29.969
1285,2019-01-01 18:53:30,31.677
1286,2019-01-01 18:53:31,29.360
1287,2019-01-01 18:53:32,34.618
1288,2019-01-01 18:53:32,32.333
1289,2019-01-01 18:54:50,33.554
1290,2019-01-01 18:54:56,33.602
1291,2019-01-01 18:55:25,33.099
1292,2019-01-01 18:55:57,36.902
1293,2019-01-01 18:55:57,34.348
1294,2019-01-01 18:55:57,33.972
1295,2019-01-01 18:55:57,32.932
1296,2019-01-01 18:55:58,34.792
1297,2019-01-01 18:56:00,33.353
1298,2019-01-01 18:56:00,34.310
1299,2019-01-01 18:56:02,32.605
1300,2019-01-01 18:56:09,33.494
1301,2019-01-01 18:57:01,32.549
1302,2019-01-01 18:57:02,30.327
1303,2019-01-01 18:57:12,33.362
1304,2019-01-01 18:57:14,29.960
1305,2019-01-01 18:58:23,33.378
1306,2019-01-01 18:58:32,31.023
1307,2019-01-01 18:58:33,30.356
1308,2019-01-01 18:59:18,30.313
1309,2019-01-01 18:59:18,32.350
1310,2019-01-01 18:59:22,31.180
1311,2019-01-01 18:59:23,31.221
1312,2019-01-01 18:59:24,33.576
1313,2019-01-01 18:59:29,30.127
1314,2019-01-01 19:01:41,41.899
1315,2019-01-01 19:01:42,31.045
1316,2019-01-01 19:01:42,30.211
1317,2019-01-01 19:01:43,29.811
1318,2019-01-01 19:01:43,30.834
1319,2019-01-01 19:01:43,34.448
1320,2019-01-01 19:01:43,32.864
1321,2019-01-01 19:01:43,30.283
1322,2019-01-01 19:01:44,29.628
1323,2019-01-01 19:01:44,30.135
1324,2019-01-01 19:01:45,30.286
1325,2019-01-01 19:01:45,30.052
1326,2019-01-01 19:03:46,34.359
1327,2019-01-01 19:03:55,30.026
1328,2019-01-01 19:04:23,33.593
1329,2019-01-01 19:04:24,31.917
1330,2019-01-01 19:04:25,32.871
1331,2019-01-01 19:04:26,34.297
1332,2019-01-01 19:04:27,34.413
1333,2019-01-01 19:04:27,30.743
1334,2019-01-01 19:05:20,30.989
1335,2019-01-01 19:05:56,37.023
1336,2019-01-01 19:05:57,860.351
1337,2019-01-01 19:05:59,32.552
1338,2019-01-01 19:06:00,33.713
1339,2019-01-01 19:06:10,33.977
1340,2019-01-01 19:07:27,29.997
1341,2019-01-01 19:07:27,30.202
1342,2019-01-01 19:07:30,30.197
1343,2019-01-01 19:10:13,35.324
1344,2019-01-01 19:10:13,41.898
1345,2019-01-01 19:10:13,37.406
1346,2019-01-01 19:10:13,36.443
1347,2019-01-01 19:10:14,40.454
1348,2019-01-01 19:10:14,35.416
1349,2019-01-01 19:10:14,42.292
1350,2019-01-01 19:10:15,37.479
1351,2019-01-01 19:10:15,36.367
1352,2019-01-01 19:10:15,32.360
1353,2019-01-01 19:10:16,39.344
1354,2019-01-01 19:10:16,35.726
1355,2019-01-01 19:10:16,35.594
1356,2019-01-01 19:10:16,35.319
1357,2019-01-01 19:10:17,34.611
1358,2019-01-01 19:10:17,40.264
1359,2019-01-01 19:12:12,34.158
1360,2019-01-01 19:12:14,32.179
1361,2019-01-01 19:12:42,30.575
1362,2019-01-01 19:12:42,34.413
1363,2019-01-01 19:12:42,29.112
1364,2019-01-01 19:12:43,30.889
1365,2019-01-01 19:12:43,31.688
1366,2019-01-01 19:12:43,29.308
1367,2019-01-01 19:12:44,33.547
1368,2019-01-01 19:12:44,31.625
1369,2019-01-01 19:12:45,29.986
1370,2019-01-01 19:12:48,31.239
1371,2019-01-01 19:12:53,33.181
1372,2019-01-01 19:12:54,30.161
1373,2019-01-01 19:13:50,33.252
1374,2019-01-01 19:13:52,29.573
1375,2019-01-01 19:13:56,35.167
1376,2019-01-01 19:13:57,30.141
1377,2019-01-01 19:14:03,31.185
1378,2019-01-01 19:14:04,31.280
1379,2019-01-01 19:14:35,33.738
1380,2019-01-01 19:14:39,30.265
1381,2019-01-01 19:14:40,31.680
1382,2019-01-01 19:14:41,35.616
1383,2019-01-01 19:15:12,38.450
1384,2019-01-01 19:15:13,34.265
1385,2019-01-01 19:15:15,31.836
1386,2019-01-01 19:15:17,33.839
1387,2019-01-01 19:15:22,40.443
1388,2019-01-01 19:15:23,34.811
1389,2019-01-01 19:16:05,41.272
1390,2019-01-01 19:18:40,29.609
1391,2019-01-01 19:18:41,213.847
1392,2019-01-01 19:18:42,30.728
1393,2019-01-01 19:18:42,31.197
1394,2019-01-01 19:18:43,29.604
1395,2019-01-01 19:18:44,35.381
1396,2019-01-01 19:20:11,29.512
1397,2019-01-01 19:20:41,35.934
1398,2019-01-01 19:20:47,39.436
1399,2019-01-01 19:21:19,38.802
1400,2019-01-01 19:21:19,35.265
1401,2019-01-01 19:21:20,38.481
1402,2019-01-01 19:21:25,31.860
1403,2019-01-01 19:21:29,42.755
1404,2019-01-01 19:22:21,34.071
1405,2019-01-01 19:22:53,32.212
1406,2019-01-01 19:23:32,31.526
1407,2019-01-01 19:23:32,31.422
1408,2019-01-01 19:23:32,32.764
1409,2019-01-01 19:23:35,207.062
1410,2019-01-01 19:23:38,29.575
1411,2019-01-01 19:24:19,33.385
1412,2019-01-01 19:24:19,29.768
1413,2019-01-01 19:24:20,39.891
1414,2019-01-01 19:24:20,29.550
1415,2019-01-01 19:24:22,33.653
1416,2019-01-01 19:27:12,150.889
1417,2019-01-01 19:27:12,31.752
1418,2019-01-01 19:27:13,29.424
1419,2019-01-01 19:27:13,31.565
1420,2019-01-01 19:27:13,29.310
1421,2019-01-01 19:27:13,72.056
1422,2019-01-01 19:27:13,165.535
1423,2019-01-01 19:27:14,33.328
1424,2019-01-01 19:27:14,31.887
1425,2019-01-01 19:27:16,30.818
1426,2019-01-01 19:28:39,43.660
1427,2019-01-01 19:29:08,29.911
1428,2019-01-01 19:29:08,29.669
1429,2019-01-01 19:29:08,35.291
1430,2019-01-01 19:29:20,31.908
1431,2019-01-01 19:29:35,35.194
1432,2019-01-01 19:29:35,42.204
1433,2019-01-01 19:29:41,33.297
1434,2019-01-01 19:29:41,35.711
1435,2019-01-01 19:29:42,39.312
1436,2019-01-01 19:29:46,39.013
1437,2019-01-01 19:30:33,43.719
1438,2019-01-01 19:30:34,36.327
1439,2019-01-01 19:30:48,44.199
1440,2019-01-01 19:31:17,36.441
1441,2019-01-01 19:31:55,226.999
1442,2019-01-01 19:31:56,29.664
1443,2019-01-01 19:31:57,211.175
1444,2019-01-01 19:31:58,40.992
1445,2019-01-01 19:31:59,30.511
1446,2019-01-01 19:32:48,32.499
1447,2019-01-01 19:36:13,32.680
1448,2019-01-01 19:36:13,30.370
1449,2019-01-01 19:36:15,35.425
1450,2019-01-01 19:36:15,34.743
1451,2019-01-01 19:36:15,30.550
1452,2019-01-01 19:36:15,32.797
1453,2019-01-01 19:36:15,37.974
1454,2019-01-01 19:36:15,31.336
1455,2019-01-01 19:36:16,105.816
1456,2019-01-01 19:37:54,32.840
1457,2019-01-01 19:38:21,36.843
1458,2019-01-01 19:38:21,29.435
1459,2019-01-01 19:38:48,32.351
1460,2019-01-01 19:38:55,29.436
1461,2019-01-01 19:38:56,37.756
1462,2019-01-01 19:38:56,29.746
1463,2019-01-01 19:38:57,31.924
1464,2019-01-01 19:39:00,34.696
1465,2019-01-01 19:39:48,31.011
1466,2019-01-01 19:39:50,30.870
1467,2019-01-01 19:39:51,38.306
1468,2019-01-01 19:39:51,34.663
1469,2019-01-01 19:41:08,30.835
1470,2019-01-01 19:41:20,166.326
1471,2019-01-01 19:42:04,136.809
1472,2019-01-01 19:42:04,175.836
1473,2019-01-01 19:42:13,35.395
1474,2019-01-01 19:45:12,161.654
1475,2019-01-01 19:45:13,104.875
1476,2019-01-01 19:45:13,163.560
1477,2019-01-01 19:45:13,41.858
1478,2019-01-01 19:45:15,31.614
1479,2019-01-01 19:45:16,30.738
1480,2019-01-01 19:45:16,35.207
1481,2019-01-01 19:46:36,38.810
1482,2019-01-01 19:46:36,33.861
1483,2019-01-01 19:46:48,204.232
1484,2019-01-01 19:47:21,29.930
1485,2019-01-01 19:47:23,30.525
1486,2019-01-01 19:47:57,186.827
1487,2019-01-01 19:47:57,29.191
1488,2019-01-01 19:47:58,29.446
1489,2019-01-01 19:47:59,30.784
1490,2019-01-01 19:47:59,37.709
1491,2019-01-01 19:48:49,244.718
1492,2019-01-01 19:48:49,33.650
1493,2019-01-01 19:48:49,139.246
1494,2019-01-01 19:48:59,29.619
1495,2019-01-01 19:48:59,34.206
1496,2019-01-01 19:49:33,32.986
1497,2019-01-01 19:49:34,30.163
1498,2019-01-01 19:49:35,30.393
1499,2019-01-01 19:50:12,32.159
1500,2019-01-01 19:50:15,33.156
1501,2019-01-01 19:50:17,30.596
1502,2019-01-01 19:51:00,34.745
1503,2019-01-01 19:51:00,33.795
1504,2019-01-01 19:51:01,34.728
1505,2019-01-01 19:51:01,29.942
1506,2019-01-01 19:51:02,222.252
1507,2019-01-01 19:51:02,31.194
1508,2019-01-01 19:51:04,222.207
1509,2019-01-01 19:53:43,30.576
1510,2019-01-01 19:53:44,198.769
1511,2019-01-01 19:53:45,31.583
1512,2019-01-01 19:53:45,30.492
1513,2019-01-01 19:53:46,30.250
1514,2019-01-01 19:53:47,30.946
1515,2019-01-01 19:53:47,31.344
1516,2019-01-01 19:53:48,30.347
1517,2019-01-01 19:53:48,30.828
1518,2019-01-01 19:53:48,29.608
1519,2019-01-01 19:53:48,32.070
1520,2019-01-01 19:55:49,33.388
1521,2019-01-01 19:55:51,135.813
1522,2019-01-01 19:55:53,30.334
1523,2019-01-01 19:55:54,31.584
1524,2019-01-01 19:56:22,30.141
1525,2019-01-01 19:56:23,78.541
1526,2019-01-01 19:56:24,160.272
1527,2019-01-01 19:56:24,31.412
1528,2019-01-01 19:56:26,33.743
1529,2019-01-01 19:57:24,29.490
1530,2019-01-01 19:57:25,33.336
1531,2019-01-01 19:57:33,215.500
1532,2019-01-01 19:59:46,34.037
1533,2019-01-01 20:02:47,31.248
1534,2019-01-01 20:02:47,31.009
1535,2019-01-01 20:02:47,30.871
1536,2019-01-01 20:02:48,33.913
1537,2019-01-01 20:02:49,29.566
1538,2019-01-01 20:02:49,31.709
1539,2019-01-01 20:02:50,30.186
1540,2019-01-01 20:02:50,31.314
1541,2019-01-01 20:02:50,30.609
1542,2019-01-01 20:02:50,30.460
1543,2019-01-01 20:02:50,29.922
1544,2019-01-01 20:02:51,199.277
1545,2019-01-01 20:02:52,146.108
1546,2019-01-01 20:04:07,29.366
1547,2019-01-01 20:04:11,208.035
1548,2019-01-01 20:04:12,29.535
1549,2019-01-01 20:04:20,30.272
1550,2019-01-01 20:04:43,36.648
1551,2019-01-01 20:05:13,43.293
1552,2019-01-01 20:05:15,192.927
1553,2019-01-01 20:05:16,41.412
1554,2019-01-01 20:05:17,48.513
1555,2019-01-01 20:06:17,41.335
1556,2019-01-01 20:06:57,29.727
1557,2019-01-01 20:07:32,106.877
1558,2019-01-01 20:07:32,29.682
1559,2019-01-01 20:07:33,30.269
1560,2019-01-01 20:07:34,30.980
1561,2019-01-01 20:07:35,140.290
1562,2019-01-01 20:07:42,29.396
1563,2019-01-01 20:08:29,32.382
1564,2019-01-01 20:09:06,156.822
1565,2019-01-01 20:11:30,39.431
1566,2019-01-01 20:11:30,30.325
1567,2019-01-01 20:11:32,219.094
1568,2019-01-01 20:11:33,30.092
1569,2019-01-01 20:11:43,210.791
1570,2019-01-01 20:13:35,29.714
1571,2019-01-01 20:14:10,30.350
1572,2019-01-01 20:14:12,33.951
1573,2019-01-01 20:15:11,35.688
1574,2019-01-01 20:15:49,36.583
1575,2019-01-01 20:16:02,221.723
1576,2019-01-01 20:16:26,40.936
1577,2019-01-01 20:16:27,154.901
1578,2019-01-01 20:16:27,43.583
1579,2019-01-01 20:16:27,35.028
1580,2019-01-01 20:16:28,34.106
1581,2019-01-01 20:16:29,30.131
1582,2019-01-01 20:16:30,34.940
1583,2019-01-01 20:16:31,40.674
1584,2019-01-01 20:20:23,35.821
1585,2019-01-01 20:20:23,229.389
1586,2019-01-01 20:20:23,39.560
1587,2019-01-01 20:20:24,33.777
1588,2019-01-01 20:20:24,30.269
1589,2019-01-01 20:20:24,32.128
1590,2019-01-01 20:20:25,29.703
1591,2019-01-01 20:20:26,31.650
1592,2019-01-01 20:20:26,31.575
1593,2019-01-01 20:20:26,218.503
1594,2019-01-01 20:20:26,39.564
1595,2019-01-01 20:20:27,30.485
1596,2019-01-01 20:20:27,29.216
1597,2019-01-01 20:20:27,37.278
1598,2019-01-01 20:20:27,30.708
1599,2019-01-01 20:20:28,39.720
1600,2019-01-01 20:22:21,186.849
1601,2019-01-01 20:22:22,33.464
1602,2019-01-01 20:22:22,36.761
1603,2019-01-01 20:22:28,180.152
1604,2019-01-01 20:22:30,70.938
1605,2019-01-01 20:22:55,184.910
1606,2019-01-01 20:22:56,33.627
1607,2019-01-01 20:22:57,29.951
1608,2019-01-01 20:22:57,29.984
1609,2019-01-01 20:22:57,29.889
1610,2019-01-01 20:23:55,30.844
1611,2019-01-01 20:23:59,30.443
1612,2019-01-01 20:24:37,30.148
1613,2019-01-01 20:24:39,30.219
1614,2019-01-01 20:24:45,39.899
1615,2019-01-01 20:25:10,35.574
1616,2019-01-01 20:26:01,30.908
1617,2019-01-01 20:26:01,30.268
1618,2019-01-01 20:26:03,33.864
1619,2019-01-01 20:26:13,34.886
1620,2019-01-01 20:26:14,30.837
1621,2019-01-01 20:26:14,30.305
1622,2019-01-01 20:26:48,35.992
1623,2019-01-01 20:28:50,31.680
1624,2019-01-01 20:28:51,37.484
1625,2019-01-01 20:28:51,32.837
1626,2019-01-01 20:28:52,29.943
1627,2019-01-01 20:28:52,34.706
1628,2019-01-01 20:28:52,29.399
1629,2019-01-01 20:28:52,35.601
1630,2019-01-01 20:28:53,31.188
1631,2019-01-01 20:28:54,30.419
1632,2019-01-01 20:28:55,30.140
1633,2019-01-01 20:28:55,30.463
1634,2019-01-01 20:28:55,29.944
1635,2019-01-01 20:30:14,36.524
1636,2019-01-01 20:30:52,37.629
1637,2019-01-01 20:31:28,31.971
1638,2019-01-01 20:31:28,30.365
1639,2019-01-01 20:31:31,30.646
1640,2019-01-01 20:31:31,30.362
1641,2019-01-01 20:31:32,29.504
1642,2019-01-01 20:31:32,39.694
1643,2019-01-01 20:32:34,32.950
1644,2019-01-01 20:33:10,29.577
1645,2019-01-01 20:33:11,35.209
1646,2019-01-01 20:33:12,30.045
1647,2019-01-01 20:33:46,30.281
1648,2019-01-01 20:33:47,32.889
1649,2019-01-01 20:34:35,29.393
1650,2019-01-01 20:34:40,31.197
1651,2019-01-01 20:34:40,34.344
1652,2019-01-01 20:37:23,30.855
1653,2019-01-01 20:37:24,34.094
1654,2019-01-01 20:37:25,199.883
1655,2019-01-01 20:37:26,142.829
1656,2019-01-01 20:37:26,29.652
1657,2019-01-01 20:37:27,32.334
1658,2019-01-01 20:37:28,31.290
1659,2019-01-01 20:37:36,30.497
1660,2019-01-01 20:38:44,30.517
1661,2019-01-01 20:38:48,30.718
1662,2019-01-01 20:39:46,35.396
1663,2019-01-01 20:39:46,35.855
1664,2019-01-01 20:39:51,35.167
1665,2019-01-01 20:39:53,36.509
1666,2019-01-01 20:39:58,32.168
1667,2019-01-01 20:39:58,35.494
1668,2019-01-01 20:39:59,34.272
1669,2019-01-01 20:41:28,178.597
1670,2019-01-01 20:41:28,37.525
1671,2019-01-01 20:41:29,196.442
1672,2019-01-01 20:41:33,33.822
1673,2019-01-01 20:41:34,34.191
1674,2019-01-01 20:42:06,33.127
1675,2019-01-01 20:42:09,31.978
1676,2019-01-01 20:42:12,30.714
1677,2019-01-01 20:43:00,30.186
1678,2019-01-01 20:46:07,125.448
1679,2019-01-01 20:46:08,30.200
1680,2019-01-01 20:46:08,36.229
1681,2019-01-01 20:46:09,38.508
1682,2019-01-01 20:47:29,33.381
1683,2019-01-01 20:47:38,183.314
1684,2019-01-01 20:48:05,30.382
1685,2019-01-01 20:48:14,217.701
1686,2019-01-01 20:48:40,34.422
1687,2019-01-01 20:48:40,32.303
1688,2019-01-01 20:48:41,31.230
1689,2019-01-01 20:48:41,30.885
1690,2019-01-01 20:48:41,29.247
1691,2019-01-01 20:48:41,30.168
1692,2019-01-01 20:48:41,32.372
1693,2019-01-01 20:48:42,33.165
1694,2019-01-01 20:48:44,31.145
1695,2019-01-01 20:48:44,31.141
1696,2019-01-01 20:48:44,32.975
1697,2019-01-01 20:49:43,43.380
1698,2019-01-01 20:50:18,35.254
1699,2019-01-01 20:50:22,37.449
1700,2019-01-01 20:50:52,40.751
1701,2019-01-01 20:50:53,33.565
1702,2019-01-01 20:50:55,34.568
1703,2019-01-01 20:51:46,95.671
1704,2019-01-01 20:51:48,31.433
1705,2019-01-01 20:51:49,44.608
1706,2019-01-01 20:51:49,41.189
1707,2019-01-01 20:51:52,34.772
1708,2019-01-01 20:54:46,34.868
1709,2019-01-01 20:54:47,42.284
1710,2019-01-01 20:54:47,32.770
1711,2019-01-01 20:54:47,196.496
1712,2019-01-01 20:54:48,32.868
1713,2019-01-01 20:54:49,36.371
1714,2019-01-01 20:54:50,33.159
1715,2019-01-01 20:54:51,32.512
1716,2019-01-01 20:54:51,36.564
1717,2019-01-01 20:54:52,31.270
1718,2019-01-01 20:56:11,32.997
1719,2019-01-01 20:57:05,227.065
1720,2019-01-01 20:57:05,34.075
1721,2019-01-01 20:57:59,33.196
1722,2019-01-01 20:58:01,31.348
1723,2019-01-01 20:58:02,87.478
1724,2019-01-01 20:58:03,30.254
1725,2019-01-01 20:58:49,30.183
1726,2019-01-01 20:58:50,37.356
1727,2019-01-01 20:59:03,167.825
1728,2019-01-01 20:59:29,203.853
1729,2019-01-01 20:59:32,223.240
1730,2019-01-01 20:59:37,33.785
1731,2019-01-01 21:00:18,34.531
1732,2019-01-01 21:00:21,35.021
1733,2019-01-01 21:00:23,31.432
1734,2019-01-01 21:00:25,192.728
1735,2019-01-01 21:00:25,212.946
1736,2019-01-01 21:01:03,35.293
1737,2019-01-01 21:01:03,33.548
1738,2019-01-01 21:03:25,31.116
1739,2019-01-01 21:03:26,31.165
1740,2019-01-01 21:03:26,29.692
1741,2019-01-01 21:03:26,30.832
1742,2019-01-01 21:03:26,34.421
1743,2019-01-01 21:03:26,33.241
1744,2019-01-01 21:03:27,35.130
1745,2019-01-01 21:03:27,214.414
1746,2019-01-01 21:03:27,217.830
1747,2019-01-01 21:03:27,226.087
1748,2019-01-01 21:03:27,211.861
1749,2019-01-01 21:03:27,218.299
1750,2019-01-01 21:03:27,215.815
1751,2019-01-01 21:03:28,31.608
1752,2019-01-01 21:03:28,142.036
1753,2019-01-01 21:04:49,29.510
1754,2019-01-01 21:04:50,65.792
1755,2019-01-01 21:05:18,34.546
1756,2019-01-01 21:05:44,32.441
1757,2019-01-01 21:05:45,30.078
1758,2019-01-01 21:05:51,29.667
1759,2019-01-01 21:05:52,212.195
1760,2019-01-01 21:05:52,211.539
1761,2019-01-01 21:05:53,39.996
1762,2019-01-01 21:06:44,30.306
1763,2019-01-01 21:06:48,32.483
1764,2019-01-01 21:07:25,29.704
1765,2019-01-01 21:07:28,34.862
1766,2019-01-01 21:08:04,31.330
1767,2019-01-01 21:08:04,30.303
1768,2019-01-01 21:08:05,31.412
1769,2019-01-01 21:08:05,33.089
1770,2019-01-01 21:08:06,33.761
1771,2019-01-01 21:08:07,29.802
1772,2019-01-01 21:08:08,30.156
1773,2019-01-01 21:08:51,36.954
1774,2019-01-01 21:08:54,29.223
1775,2019-01-01 21:09:36,29.848
1776,2019-01-01 21:11:57,38.066
1777,2019-01-01 21:11:58,29.944
1778,2019-01-01 21:11:58,30.776
1779,2019-01-01 21:11:58,33.245
1780,2019-01-01 21:11:59,30.525
1781,2019-01-01 21:12:00,38.769
1782,2019-01-01 21:12:00,30.122
1783,2019-01-01 21:12:00,29.939
1784,2019-01-01 21:12:01,29.830
1785,2019-01-01 21:12:01,29.691
1786,2019-01-01 21:12:01,30.431
1787,2019-01-01 21:12:01,30.752
1788,2019-01-01 21:12:01,30.107
1789,2019-01-01 21:12:01,29.603
1790,2019-01-01 21:12:01,30.436
1791,2019-01-01 21:12:02,30.866
1792,2019-01-01 21:13:53,33.327
1793,2019-01-01 21:14:05,35.292
1794,2019-01-01 21:14:27,147.940
1795,2019-01-01 21:14:28,33.881
1796,2019-01-01 21:14:29,31.718
1797,2019-01-01 21:14:29,197.208
1798,2019-01-01 21:14:31,30.864
1799,2019-01-01 21:15:27,33.442
1800,2019-01-01 21:15:28,170.414
1801,2019-01-01 21:15:32,31.862
1802,2019-01-01 21:15:33,45.400
1803,2019-01-01 21:16:07,31.536
1804,2019-01-01 21:16:07,32.475
1805,2019-01-01 21:16:09,30.475
1806,2019-01-01 21:16:19,30.558
1807,2019-01-01 21:16:44,30.586
1808,2019-01-01 21:16:44,37.947
1809,2019-01-01 21:16:45,40.170
1810,2019-01-01 21:16:45,81.390
1811,2019-01-01 21:16:46,30.553
1812,2019-01-01 21:16:47,30.471
1813,2019-01-01 21:16:48,32.726
1814,2019-01-01 21:16:48,30.826
1815,2019-01-01 21:16:53,31.265
1816,2019-01-01 21:16:53,32.952
1817,2019-01-01 21:17:39,29.470
1818,2019-01-01 21:20:41,34.130
1819,2019-01-01 21:20:41,31.138
1820,2019-01-01 21:20:42,31.451
1821,2019-01-01 21:20:42,30.521
1822,2019-01-01 21:20:42,37.231
1823,2019-01-01 21:20:43,36.861
1824,2019-01-01 21:20:44,36.137
1825,2019-01-01 21:20:45,37.885
1826,2019-01-01 21:20:45,31.115
1827,2019-01-01 21:22:32,34.153
1828,2019-01-01 21:22:45,31.649
1829,2019-01-01 21:22:46,30.867
1830,2019-01-01 21:22:46,29.728
1831,2019-01-01 21:22:46,39.511
1832,2019-01-01 21:23:11,30.194
1833,2019-01-01 21:23:13,32.322
1834,2019-01-01 21:23:53,30.755
1835,2019-01-01 21:23:53,33.623
1836,2019-01-01 21:24:37,32.866
1837,2019-01-01 21:24:40,32.869
1838,2019-01-01 21:25:15,41.567
1839,2019-01-01 21:25:16,35.871
1840,2019-01-01 21:25:19,34.607
1841,2019-01-01 21:25:27,36.603
1842,2019-01-01 21:26:03,31.153
1843,2019-01-01 21:26:03,34.154
1844,2019-01-01 21:26:04,37.244
1845,2019-01-01 21:26:04,38.193
1846,2019-01-01 21:26:04,37.934
1847,2019-01-01 21:26:06,38.390
1848,2019-01-01 21:26:09,40.985
1849,2019-01-01 21:26:52,34.853
1850,2019-01-01 21:26:52,33.302
1851,2019-01-01 21:29:37,36.284
1852,2019-01-01 21:29:38,33.115
1853,2019-01-01 21:29:38,42.051
1854,2019-01-01 21:29:40,35.029
1855,2019-01-01 21:29:40,34.101
1856,2019-01-01 21:29:40,33.419
1857,2019-01-01 21:29:40,36.561
1858,2019-01-01 21:29:41,32.281
1859,2019-01-01 21:29:41,36.540
1860,2019-01-01 21:29:41,35.525
1861,2019-01-01 21:29:41,36.042
1862,2019-01-01 21:31:02,33.705
1863,2019-01-01 21:31:42,34.094
1864,2019-01-01 21:31:42,42.619
1865,2019-01-01 21:31:45,35.258
1866,2019-01-01 21:32:03,31.975
1867,2019-01-01 21:32:04,33.783
1868,2019-01-01 21:32:07,30.463
1869,2019-01-01 21:32:08,37.940
1870,2019-01-01 21:32:08,31.344
1871,2019-01-01 21:32:17,37.373
1872,2019-01-01 21:33:00,34.560
1873,2019-01-01 21:33:00,31.961
1874,2019-01-01 21:33:01,30.227
1875,2019-01-01 21:33:02,33.539
1876,2019-01-01 21:33:02,29.537
1877,2019-01-01 21:33:12,31.109
1878,2019-01-01 21:33:52,33.341
1879,2019-01-01 21:33:56,31.382
1880,2019-01-01 21:34:20,30.403
1881,2019-01-01 21:34:21,29.838
1882,2019-01-01 21:34:21,29.403
1883,2019-01-01 21:34:22,33.050
1884,2019-01-01 21:34:23,31.817
1885,2019-01-01 21:34:23,30.857
1886,2019-01-01 21:34:27,35.190
1887,2019-01-01 21:34:31,33.385
1888,2019-01-01 21:34:32,34.363
1889,2019-01-01 21:35:14,38.596
1890,2019-01-01 21:35:14,38.283
1891,2019-01-01 21:35:15,45.062
1892,2019-01-01 21:35:16,32.796
1893,2019-01-01 21:35:16,39.489
1894,2019-01-01 21:35:17,34.442
1895,2019-01-01 21:38:25,29.220
1896,2019-01-01 21:38:26,29.559
1897,2019-01-01 21:38:26,30.614
1898,2019-01-01 21:38:27,30.100
1899,2019-01-01 21:38:27,37.085
1900,2019-01-01 21:40:34,33.142
1901,2019-01-01 21:40:35,34.901
1902,2019-01-01 21:40:35,39.564
1903,2019-01-01 21:41:07,41.441
1904,2019-01-01 21:41:07,36.580
1905,2019-01-01 21:41:07,37.407
1906,2019-01-01 21:41:08,38.074
1907,2019-01-01 21:41:10,33.682
1908,2019-01-01 21:41:10,37.343
1909,2019-01-01 21:41:58,35.455
1910,2019-01-01 21:41:59,29.479
1911,2019-01-01 21:43:22,33.552
1912,2019-01-01 21:43:26,30.754
1913,2019-01-01 21:44:12,31.120
1914,2019-01-01 21:44:13,29.857
1915,2019-01-01 21:44:14,30.399
1916,2019-01-01 21:47:15,31.606
1917,2019-01-01 21:47:15,39.342
1918,2019-01-01 21:47:16,30.437
1919,2019-01-01 21:47:16,29.758
1920,2019-01-01 21:47:16,30.560
1921,2019-01-01 21:47:16,29.933
1922,2019-01-01 21:47:16,29.483
1923,2019-01-01 21:47:17,30.739
1924,2019-01-01 21:47:17,33.200
1925,2019-01-01 21:47:17,39.974
1926,2019-01-01 21:47:18,30.102
1927,2019-01-01 21:47:19,42.531
1928,2019-01-01 21:49:23,30.119
1929,2019-01-01 21:49:35,30.965
1930,2019-01-01 21:49:48,33.754
1931,2019-01-01 21:49:49,35.133
1932,2019-01-01 21:49:50,35.300
1933,2019-01-01 21:49:59,29.883
1934,2019-01-01 21:50:01,40.818
1935,2019-01-01 21:50:01,30.679
1936,2019-01-01 21:50:03,40.167
1937,2019-01-01 21:50:03,37.746
1938,2019-01-01 21:50:51,34.602
1939,2019-01-01 21:50:54,39.440
1940,2019-01-01 21:52:16,36.271
1941,2019-01-01 21:52:16,30.871
1942,2019-01-01 21:52:16,34.901
1943,2019-01-01 21:52:17,29.568
1944,2019-01-01 21:52:25,30.345
1945,2019-01-01 21:53:08,32.000
1946,2019-01-01 21:53:09,30.567
1947,2019-01-01 21:55:56,32.181
1948,2019-01-01 21:55:56,30.344
1949,2019-01-01 21:55:56,29.695
1950,2019-01-01 21:55:57,31.602
1951,2019-01-01 21:55:57,34.175
1952,2019-01-01 21:55:58,30.849
1953,2019-01-01 21:55:59,33.444
1954,2019-01-01 21:56:00,34.673
1955,2019-01-01 21:56:01,34.586
1956,2019-01-01 21:56:02,30.809
1957,2019-01-01 21:58:29,31.218
1958,2019-01-01 21:58:31,29.694
1959,2019-01-01 21:58:33,34.055
1960,2019-01-01 21:58:40,30.759
1961,2019-01-01 21:59:30,32.064
1962,2019-01-01 21:59:31,32.313
1963,2019-01-01 22:00:03,32.950
1964,2019-01-01 22:00:03,30.785
1965,2019-01-01 22:00:05,35.392
1966,2019-01-01 22:00:06,32.344
1967,2019-01-01 22:00:45,31.326
1968,2019-01-01 22:00:47,30.590
1969,2019-01-01 22:00:49,38.232
1970,2019-01-01 22:01:36,33.273
1971,2019-01-01 22:01:37,34.642
1972,2019-01-01 22:01:43,37.837
1973,2019-01-01 22:04:23,31.842
1974,2019-01-01 22:04:23,31.141
1975,2019-01-01 22:04:23,29.912
1976,2019-01-01 22:04:24,30.668
1977,2019-01-01 22:04:24,31.986
1978,2019-01-01 22:04:24,31.492
1979,2019-01-01 22:04:24,32.463
1980,2019-01-01 22:04:25,38.416
1981,2019-01-01 22:04:25,37.031
1982,2019-01-01 22:04:25,35.585
1983,2019-01-01 22:04:26,34.133
1984,2019-01-01 22:04:26,30.186
1985,2019-01-01 22:04:26,30.960
1986,2019-01-01 22:04:27,34.027
1987,2019-01-01 22:05:47,31.406
1988,2019-01-01 22:05:56,30.881
1989,2019-01-01 22:06:26,31.501
1990,2019-01-01 22:06:54,31.759
1991,2019-01-01 22:06:55,31.828
1992,2019-01-01 22:06:56,35.997
1993,2019-01-01 22:06:57,29.567
1994,2019-01-01 22:06:58,29.527
1995,2019-01-01 22:06:58,29.972
1996,2019-01-01 22:08:05,138.935
1997,2019-01-01 22:08:32,29.594
1998,2019-01-01 22:08:34,31.008
1999,2019-01-01 22:08:35,30.832
2000,2019-01-01 22:08:36,29.603
2001,2019-01-01 22:09:12,29.876
2002,2019-01-01 22:09:14,30.939
2003,2019-01-01 22:09:14,31.824
2004,2019-01-01 22:09:15,30.745
2005,2019-01-01 22:09:16,30.880
2006,2019-01-01 22:10:02,38.830
2007,2019-01-01 22:10:02,34.034
2008,2019-01-01 22:10:02,34.583
2009,2019-01-01 22:10:03,45.216
2010,2019-01-01 22:10:04,34.348
2011,2019-01-01 22:10:15,34.369
2012,2019-01-01 22:13:37,30.820
2013,2019-01-01 22:13:37,29.911
2014,2019-01-01 22:13:38,29.971
2015,2019-01-01 22:13:39,30.123
2016,2019-01-01 22:13:40,31.293
2017,2019-01-01 22:15:42,35.918
2018,2019-01-01 22:16:03,39.733
2019,2019-01-01 22:16:04,37.789
2020,2019-01-01 22:16:06,30.370
2021,2019-01-01 22:16:07,38.556
2022,2019-01-01 22:16:07,37.493
2023,2019-01-01 22:16:10,35.662
2024,2019-01-01 22:17:03,29.972
2025,2019-01-01 22:18:00,30.821
2026,2019-01-01 22:18:25,30.746
2027,2019-01-01 22:18:26,37.343
2028,2019-01-01 22:18:26,31.109
2029,2019-01-01 22:19:14,30.912
2030,2019-01-01 22:19:14,29.927
2031,2019-01-01 22:19:17,29.585
2032,2019-01-01 22:19:17,30.619
2033,2019-01-01 22:23:19,33.301
2034,2019-01-01 22:23:20,29.730
2035,2019-01-01 22:23:21,29.809
2036,2019-01-01 22:23:21,32.747
2037,2019-01-01 22:23:21,31.078
2038,2019-01-01 22:23:21,150.536
2039,2019-01-01 22:23:22,31.712
2040,2019-01-01 22:23:22,32.110
2041,2019-01-01 22:23:22,30.200
2042,2019-01-01 22:23:23,30.728
2043,2019-01-01 22:23:24,30.892
2044,2019-01-01 22:23:24,30.098
2045,2019-01-01 22:24:40,29.734
2046,2019-01-01 22:25:14,35.405
2047,2019-01-01 22:25:16,31.401
2048,2019-01-01 22:25:42,31.113
2049,2019-01-01 22:25:43,29.875
2050,2019-01-01 22:25:43,34.447
2051,2019-01-01 22:25:44,31.349
2052,2019-01-01 22:25:45,33.007
2053,2019-01-01 22:25:46,46.703
2054,2019-01-01 22:25:56,29.536
2055,2019-01-01 22:26:43,29.480
2056,2019-01-01 22:26:46,31.781
2057,2019-01-01 22:26:49,38.222
2058,2019-01-01 22:26:53,41.193
2059,2019-01-01 22:26:53,31.060
2060,2019-01-01 22:27:25,38.562
2061,2019-01-01 22:27:36,30.188
2062,2019-01-01 22:28:02,30.255
2063,2019-01-01 22:28:03,29.968
2064,2019-01-01 22:28:07,29.523
2065,2019-01-01 22:28:09,33.014
2066,2019-01-01 22:28:53,30.493
2067,2019-01-01 22:29:03,103.832
2068,2019-01-01 22:29:40,29.607
2069,2019-01-01 22:31:57,29.261
2070,2019-01-01 22:31:57,29.832
2071,2019-01-01 22:31:58,36.149
2072,2019-01-01 22:31:58,30.235
2073,2019-01-01 22:31:58,30.236
2074,2019-01-01 22:31:58,31.434
2075,2019-01-01 22:31:59,31.267
2076,2019-01-01 22:32:00,35.676
2077,2019-01-01 22:33:17,30.218
2078,2019-01-01 22:33:56,33.802
2079,2019-01-01 22:34:04,31.634
2080,2019-01-01 22:34:21,33.698
2081,2019-01-01 22:34:22,32.205
2082,2019-01-01 22:34:22,43.003
2083,2019-01-01 22:34:22,30.215
2084,2019-01-01 22:34:23,34.406
2085,2019-01-01 22:34:23,30.199
2086,2019-01-01 22:34:24,35.615
2087,2019-01-01 22:35:22,36.700
2088,2019-01-01 22:35:24,35.149
2089,2019-01-01 22:35:32,32.771
2090,2019-01-01 22:36:03,47.821
2091,2019-01-01 22:36:14,32.415
2092,2019-01-01 22:36:17,47.311
2093,2019-01-01 22:36:41,38.590
2094,2019-01-01 22:36:42,44.834
2095,2019-01-01 22:36:42,41.220
2096,2019-01-01 22:36:42,37.083
2097,2019-01-01 22:36:44,37.999
2098,2019-01-01 22:37:36,31.206
2099,2019-01-01 22:41:18,36.300
2100,2019-01-01 22:41:19,34.813
2101,2019-01-01 22:41:19,33.275
2102,2019-01-01 22:41:21,35.123
2103,2019-01-01 22:41:22,34.230
2104,2019-01-01 22:42:43,35.982
2105,2019-01-01 22:42:58,31.092
2106,2019-01-01 22:43:31,35.048
2107,2019-01-01 22:43:31,31.008
2108,2019-01-01 22:43:32,29.566
2109,2019-01-01 22:43:39,39.120
2110,2019-01-01 22:43:43,36.829
2111,2019-01-01 22:43:44,29.679
2112,2019-01-01 22:44:26,43.310
2113,2019-01-01 22:44:26,33.494
2114,2019-01-01 22:44:27,32.050
2115,2019-01-01 22:44:28,30.810
2116,2019-01-01 22:45:25,32.131
2117,2019-01-01 22:45:28,36.169
2118,2019-01-01 22:45:55,30.875
2119,2019-01-01 22:45:58,34.139
2120,2019-01-01 22:45:59,34.962
2121,2019-01-01 22:46:00,38.921
2122,2019-01-01 22:46:01,30.953
2123,2019-01-01 22:46:41,34.654
2124,2019-01-01 22:46:43,32.999
2125,2019-01-01 22:46:47,29.490
2126,2019-01-01 22:46:48,40.838
2127,2019-01-01 22:46:49,32.221
2128,2019-01-01 22:46:56,31.656
2129,2019-01-01 22:46:57,29.660
2130,2019-01-01 22:47:29,34.773
2131,2019-01-01 22:47:30,34.242
2132,2019-01-01 22:50:11,35.596
2133,2019-01-01 22:50:13,36.301
2134,2019-01-01 22:50:14,36.790
2135,2019-01-01 22:50:14,32.116
2136,2019-01-01 22:50:15,46.705
2137,2019-01-01 22:50:15,32.385
2138,2019-01-01 22:50:16,36.628
2139,2019-01-01 22:52:15,31.426
2140,2019-01-01 22:52:17,37.342
2141,2019-01-01 22:52:18,32.622
2142,2019-01-01 22:52:26,29.589
2143,2019-01-01 22:52:27,31.968
2144,2019-01-01 22:52:52,29.698
2145,2019-01-01 22:52:52,31.242
2146,2019-01-01 22:52:53,30.135
2147,2019-01-01 22:52:54,31.195
2148,2019-01-01 22:52:55,30.654
2149,2019-01-01 22:52:55,32.649
2150,2019-01-01 22:52:55,30.098
2151,2019-01-01 22:53:53,31.302
2152,2019-01-01 22:54:00,31.458
2153,2019-01-01 22:54:37,32.192
2154,2019-01-01 22:54:41,29.912
2155,2019-01-01 22:54:41,32.786
2156,2019-01-01 22:55:15,34.249
2157,2019-01-01 22:55:17,41.058
2158,2019-01-01 22:55:18,34.784
2159,2019-01-01 22:55:19,32.386
2160,2019-01-01 22:56:07,29.864
2161,2019-01-01 22:56:07,32.007
2162,2019-01-01 22:59:09,30.802
2163,2019-01-01 22:59:10,31.143
2164,2019-01-01 22:59:11,33.011
2165,2019-01-01 22:59:11,31.428
2166,2019-01-01 22:59:11,33.787
2167,2019-01-01 22:59:11,30.909
2168,2019-01-01 22:59:11,30.609
2169,2019-01-01 22:59:12,30.958
2170,2019-01-01 22:59:13,31.064
2171,2019-01-01 22:59:13,37.201
2172,2019-01-01 22:59:13,30.321
2173,2019-01-01 23:00:44,39.727
2174,2019-01-01 23:00:48,33.341
2175,2019-01-01 23:01:22,32.201
2176,2019-01-01 23:01:22,39.585
2177,2019-01-01 23:01:23,32.460
2178,2019-01-01 23:01:26,35.910
2179,2019-01-01 23:01:30,31.999
2180,2019-01-01 23:01:33,33.381
2181,2019-01-01 23:02:09,33.619
2182,2019-01-01 23:02:10,33.865
2183,2019-01-01 23:02:10,30.671
2184,2019-01-01 23:02:10,31.222
2185,2019-01-01 23:02:12,31.520
2186,2019-01-01 23:03:05,29.807
2187,2019-01-01 23:03:13,32.173
2188,2019-01-01 23:03:18,31.032
2189,2019-01-01 23:03:48,31.568
2190,2019-01-01 23:03:54,31.982
2191,2019-01-01 23:04:35,34.510
2192,2019-01-01 23:04:35,33.427
2193,2019-01-01 23:04:35,35.720
2194,2019-01-01 23:04:36,32.248
2195,2019-01-01 23:05:19,34.831
2196,2019-01-01 23:05:21,37.826
2197,2019-01-01 23:05:21,34.682
2198,2019-01-01 23:07:33,31.873
2199,2019-01-01 23:07:35,32.554
2200,2019-01-01 23:07:35,30.398
2201,2019-01-01 23:07:38,38.157
2202,2019-01-01 23:07:38,33.827
2203,2019-01-01 23:09:40,33.966
2204,2019-01-01 23:09:44,30.669
2205,2019-01-01 23:10:22,33.649
2206,2019-01-01 23:10:25,31.557
2207,2019-01-01 23:10:25,33.476
2208,2019-01-01 23:10:25,34.498
2209,2019-01-01 23:10:27,39.023
2210,2019-01-01 23:11:25,29.808
2211,2019-01-01 23:11:27,38.072
2212,2019-01-01 23:11:29,38.785
2213,2019-01-01 23:12:01,32.641
2214,2019-01-01 23:12:01,30.552
2215,2019-01-01 23:12:37,33.569
2216,2019-01-01 23:12:37,32.541
2217,2019-01-01 23:12:38,30.894
2218,2019-01-01 23:12:39,31.624
2219,2019-01-01 23:12:50,30.361
2220,2019-01-01 23:13:32,30.827
2221,2019-01-01 23:13:32,30.467
2222,2019-01-01 23:16:12,31.028
2223,2019-01-01 23:16:12,32.468
2224,2019-01-01 23:16:12,32.944
2225,2019-01-01 23:16:12,32.636
2226,2019-01-01 23:16:13,31.975
2227,2019-01-01 23:16:13,33.644
2228,2019-01-01 23:16:13,31.901
2229,2019-01-01 23:16:14,34.683
2230,2019-01-01 23:16:14,31.854
2231,2019-01-01 23:16:14,34.774
2232,2019-01-01 23:16:14,41.386
2233,2019-01-01 23:16:17,36.859
2234,2019-01-01 23:17:34,34.643
2235,2019-01-01 23:18:25,33.219
2236,2019-01-01 23:18:25,29.712
2237,2019-01-01 23:18:56,34.633
2238,2019-01-01 23:18:56,30.638
2239,2019-01-01 23:18:57,141.986
2240,2019-01-01 23:18:58,34.313
2241,2019-01-01 23:19:00,30.013
2242,2019-01-01 23:19:02,98.510
2243,2019-01-01 23:19:58,29.499
2244,2019-01-01 23:20:00,34.774
2245,2019-01-01 23:20:03,35.645
2246,2019-01-01 23:20:35,38.498
2247,2019-01-01 23:20:39,33.816
2248,2019-01-01 23:20:50,32.283
2249,2019-01-01 23:21:17,32.671
2250,2019-01-01 23:21:19,31.813
2251,2019-01-01 23:22:06,30.513
2252,2019-01-01 23:22:07,32.208
2253,2019-01-01 23:22:07,37.127
2254,2019-01-01 23:22:07,42.701
2255,2019-01-01 23:22:09,31.023
2256,2019-01-01 23:24:37,31.427
2257,2019-01-01 23:24:38,31.586
2258,2019-01-01 23:24:38,39.882
2259,2019-01-01 23:24:39,37.711
2260,2019-01-01 23:24:39,34.653
2261,2019-01-01 23:24:39,190.540
2262,2019-01-01 23:24:40,31.585
2263,2019-01-01 23:24:40,36.805
2264,2019-01-01 23:24:41,41.041
2265,2019-01-01 23:24:42,33.067
2266,2019-01-01 23:24:42,31.662
2267,2019-01-01 23:24:42,32.272
2268,2019-01-01 23:24:42,39.028
2269,2019-01-01 23:26:08,41.821
2270,2019-01-01 23:26:11,38.308
2271,2019-01-01 23:26:45,40.259
2272,2019-01-01 23:26:48,30.460
2273,2019-01-01 23:26:48,38.955
2274,2019-01-01 23:26:49,35.611
2275,2019-01-01 23:26:53,31.467
2276,2019-01-01 23:27:00,32.009
2277,2019-01-01 23:27:31,29.500
2278,2019-01-01 23:27:36,30.904
2279,2019-01-01 23:27:37,220.523
2280,2019-01-01 23:28:31,155.817
2281,2019-01-01 23:29:09,30.233
2282,2019-01-01 23:29:09,36.329
2283,2019-01-01 23:29:10,41.682
2284,2019-01-01 23:29:11,30.031
2285,2019-01-01 23:29:12,30.055
2286,2019-01-01 23:29:18,30.547
2287,2019-01-01 23:29:51,29.682
2288,2019-01-01 23:29:53,31.807
2289,2019-01-01 23:29:54,37.837
2290,2019-01-01 23:30:38,36.738
2291,2019-01-01 23:30:41,44.343
2292,2019-01-01 23:30:43,33.399
2293,2019-01-01 23:33:14,31.290
2294,2019-01-01 23:33:14,32.371
2295,2019-01-01 23:33:15,29.925
2296,2019-01-01 23:33:15,30.785
2297,2019-01-01 23:33:15,29.362
2298,2019-01-01 23:33:15,31.407
2299,2019-01-01 23:33:16,30.839
2300,2019-01-01 23:33:17,34.737
2301,2019-01-01 23:33:17,47.550
2302,2019-01-01 23:33:17,34.077
2303,2019-01-01 23:33:17,29.989
2304,2019-01-01 23:33:18,36.739
2305,2019-01-01 23:34:35,31.280
2306,2019-01-01 23:35:55,34.929
2307,2019-01-01 23:35:57,32.715
2308,2019-01-01 23:35:57,40.388
2309,2019-01-01 23:35:58,37.201
2310,2019-01-01 23:35:58,35.025
2311,2019-01-01 23:37:31,29.561
2312,2019-01-01 23:37:31,30.238
2313,2019-01-01 23:38:11,32.134
2314,2019-01-01 23:38:12,32.030
2315,2019-01-01 23:38:12,31.486
2316,2019-01-01 23:38:14,33.111
2317,2019-01-01 23:38:15,29.253
2318,2019-01-01 23:38:16,29.804
2319,2019-01-01 23:39:07,29.853
2320,2019-01-01 23:39:09,33.617
2321,2019-01-01 23:39:14,29.474
2322,2019-01-01 23:39:15,32.174
2323,2019-01-01 23:41:51,36.979
2324,2019-01-01 23:41:52,30.826
2325,2019-01-01 23:41:52,34.567
2326,2019-01-01 23:41:52,30.160
2327,2019-01-01 23:41:53,30.880
2328,2019-01-01 23:41:54,30.715
2329,2019-01-01 23:41:56,29.345
2330,2019-01-01 23:41:58,31.588
2331,2019-01-01 23:44:04,34.068
2332,2019-01-01 23:44:12,29.769
2333,2019-01-01 23:44:16,31.923
2334,2019-01-01 23:44:16,30.919
2335,2019-01-01 23:44:55,31.344
2336,2019-01-01 23:44:56,31.781
2337,2019-01-01 23:44:57,31.088
2338,2019-01-01 23:44:59,32.958
2339,2019-01-01 23:45:37,32.561
2340,2019-01-01 23:45:40,33.950
2341,2019-01-01 23:45:45,31.355
2342,2019-01-01 23:46:18,33.100
2343,2019-01-01 23:46:22,40.876
2344,2019-01-01 23:46:23,33.745
2345,2019-01-01 23:47:08,31.092
2346,2019-01-01 23:47:13,34.682
2347,2019-01-01 23:47:54,29.645
2348,2019-01-01 23:47:54,38.487
2349,2019-01-01 23:47:55,34.638
2350,2019-01-01 23:50:44,31.766
2351,2019-01-01 23:50:44,36.914
2352,2019-01-01 23:50:44,36.733
2353,2019-01-01 23:50:45,36.373
2354,2019-01-01 23:50:45,32.248
2355,2019-01-01 23:50:46,35.538
2356,2019-01-01 23:50:46,33.922
2357,2019-01-01 23:50:47,34.648
2358,2019-01-01 23:50:48,42.403
2359,2019-01-01 23:50:49,37.271
2360,2019-01-01 23:52:14,32.368
2361,2019-01-01 23:52:55,31.665
2362,2019-01-01 23:52:58,29.684
2363,2019-01-01 23:53:01,30.918
2364,2019-01-01 23:53:06,30.413
2365,2019-01-01 23:53:09,30.465
2366,2019-01-01 23:53:40,32.327
2367,2019-01-01 23:53:41,31.280
2368,2019-01-01 23:53:42,38.554
2369,2019-01-01 23:53:43,34.265
2370,2019-01-01 23:54:36,30.451
2371,2019-01-01 23:54:38,30.836
2372,2019-01-01 23:54:41,32.975
2373,2019-01-01 23:55:16,29.224
2374,2019-01-01 23:55:17,33.755
2375,2019-01-01 23:55:30,35.039
2376,2019-01-01 23:55:54,34.919
2377,2019-01-01 23:55:55,36.398
2378,2019-01-01 23:55:56,34.722
2379,2019-01-01 23:55:57,31.138
2380,2019-01-01 23:55:58,30.946
2381,2019-01-01 23:55:58,31.563
2382,2019-01-01 23:55:58,32.733
2383,2019-01-01 23:55:59,38.130
2384,2019-01-01 23:56:40,31.509
2385,2019-01-01 23:56:45,47.471
2386,2019-01-01 23:59:08,29.878
2387,2019-01-01 23:59:08,32.470
2388,2019-01-01 23:59:09,31.657
2389,2019-01-01 23:59:10,29.554
2390,2019-01-01 23:59:10,30.922
2391,2019-01-01 23:59:12,29.809
2392,2019-01-02 00:01:27,29.949
2393,2019-01-02 00:01:33,34.286
2394,2019-01-02 00:02:14,34.408
2395,2019-01-02 00:02:17,33.673
2396,2019-01-02 00:02:22,29.784
2397,2019-01-02 00:02:22,29.751
2398,2019-01-02 00:03:14,29.793
2399,2019-01-02 00:03:50,29.766
2400,2019-01-02 00:03:50,30.551
2401,2019-01-02 00:03:53,31.960
2402,2019-01-02 00:04:39,29.520
2403,2019-01-02 00:04:41,30.287
2404,2019-01-02 00:04:44,37.140
2405,2019-01-02 00:04:45,32.961
