,datetime,rtt
0,2019-01-01 12:50:16,137.365
1,2019-01-01 12:50:16,104.906
2,2019-01-01 12:50:17,145.528
3,2019-01-01 12:50:19,122.174
4,2019-01-01 12:50:19,110.164
5,2019-01-01 12:50:19,33.968
6,2019-01-01 12:50:19,143.933
7,2019-01-01 12:50:19,126.505
8,2019-01-01 12:50:22,157.337
9,2019-01-01 12:52:38,27.853
10,2019-01-01 12:52:38,100.475
11,2019-01-01 12:53:35,25.747
12,2019-01-01 12:53:39,116.344
13,2019-01-01 12:54:17,25.714
14,2019-01-01 12:54:31,128.695
15,2019-01-01 12:54:52,28.920
16,2019-01-01 12:54:53,106.127
17,2019-01-01 12:54:54,38.743
18,2019-01-01 12:54:54,152.789
19,2019-01-01 12:54:55,132.352
20,2019-01-01 12:55:45,133.356
21,2019-01-01 12:55:46,149.848
22,2019-01-01 12:55:47,120.374
23,2019-01-01 12:55:47,33.243
24,2019-01-01 12:55:47,136.646
25,2019-01-01 12:56:32,152.810
26,2019-01-01 12:56:33,35.409
27,2019-01-01 12:58:38,29.489
28,2019-01-01 12:58:38,25.728
29,2019-01-01 12:58:39,28.999
30,2019-01-01 12:58:39,28.082
31,2019-01-01 12:58:39,148.290
32,2019-01-01 12:58:39,104.473
33,2019-01-01 12:58:40,105.541
34,2019-01-01 12:58:40,25.620
35,2019-01-01 12:58:40,100.167
36,2019-01-01 12:58:41,147.638
37,2019-01-01 12:58:41,29.560
38,2019-01-01 13:00:06,134.872
39,2019-01-01 13:00:45,52.935
40,2019-01-01 13:00:53,44.002
41,2019-01-01 13:01:14,29.369
42,2019-01-01 13:01:15,151.706
43,2019-01-01 13:01:16,155.287
44,2019-01-01 13:01:16,115.990
45,2019-01-01 13:01:16,33.067
46,2019-01-01 13:01:25,151.553
47,2019-01-01 13:02:21,145.108
48,2019-01-01 13:02:54,155.494
49,2019-01-01 13:02:55,25.003
50,2019-01-01 13:02:56,131.022
51,2019-01-01 13:03:30,142.371
52,2019-01-01 13:03:31,29.099
53,2019-01-01 13:03:31,149.881
54,2019-01-01 13:03:34,29.220
55,2019-01-01 13:03:39,130.103
56,2019-01-01 13:04:25,25.836
57,2019-01-01 13:04:28,26.693
58,2019-01-01 13:04:33,136.671
59,2019-01-01 13:07:25,27.550
60,2019-01-01 13:07:26,295.449
61,2019-01-01 13:07:27,139.807
62,2019-01-01 13:07:28,175.367
63,2019-01-01 13:07:28,123.212
64,2019-01-01 13:07:28,108.704
65,2019-01-01 13:07:29,30.017
66,2019-01-01 13:07:29,171.091
67,2019-01-01 13:07:30,25.969
68,2019-01-01 13:07:30,32.424
69,2019-01-01 13:07:32,104.596
70,2019-01-01 13:07:32,27.515
71,2019-01-01 13:08:56,141.173
72,2019-01-01 13:09:28,107.021
73,2019-01-01 13:09:36,141.778
74,2019-01-01 13:09:54,30.207
75,2019-01-01 13:10:03,29.343
76,2019-01-01 13:10:03,32.785
77,2019-01-01 13:10:04,101.462
78,2019-01-01 13:10:04,115.824
79,2019-01-01 13:10:05,104.767
80,2019-01-01 13:10:05,26.983
81,2019-01-01 13:10:06,36.635
82,2019-01-01 13:10:06,103.619
83,2019-01-01 13:10:07,148.956
84,2019-01-01 13:11:04,158.533
85,2019-01-01 13:11:06,36.083
86,2019-01-01 13:11:14,138.232
87,2019-01-01 13:11:50,28.486
88,2019-01-01 13:12:24,28.211
89,2019-01-01 13:12:25,28.651
90,2019-01-01 13:12:25,26.612
91,2019-01-01 13:12:26,30.410
92,2019-01-01 13:12:26,34.852
93,2019-01-01 13:12:26,103.570
94,2019-01-01 13:12:28,144.960
95,2019-01-01 13:13:22,28.358
96,2019-01-01 13:16:53,29.501
97,2019-01-01 13:16:53,104.211
98,2019-01-01 13:16:56,25.059
99,2019-01-01 13:16:56,128.925
100,2019-01-01 13:16:56,145.191
101,2019-01-01 13:16:57,26.670
102,2019-01-01 13:16:57,147.518
103,2019-01-01 13:16:57,26.324
104,2019-01-01 13:16:57,105.733
105,2019-01-01 13:18:47,142.962
106,2019-01-01 13:19:17,25.987
107,2019-01-01 13:19:21,26.114
108,2019-01-01 13:19:21,123.851
109,2019-01-01 13:19:23,144.539
110,2019-01-01 13:19:24,25.843
111,2019-01-01 13:20:13,101.541
112,2019-01-01 13:20:19,154.370
113,2019-01-01 13:20:19,146.487
114,2019-01-01 13:20:59,130.140
115,2019-01-01 13:20:59,34.238
116,2019-01-01 13:21:02,137.515
117,2019-01-01 13:21:03,104.521
118,2019-01-01 13:21:36,145.651
119,2019-01-01 13:21:37,128.831
120,2019-01-01 13:21:39,162.453
121,2019-01-01 13:21:39,33.325
122,2019-01-01 13:21:39,46.345
123,2019-01-01 13:21:43,146.136
124,2019-01-01 13:22:24,26.369
125,2019-01-01 13:23:08,146.512
126,2019-01-01 13:23:09,27.611
127,2019-01-01 13:26:01,133.887
128,2019-01-01 13:26:01,131.366
129,2019-01-01 13:26:01,134.372
130,2019-01-01 13:26:01,147.395
131,2019-01-01 13:26:01,139.864
132,2019-01-01 13:26:01,31.578
133,2019-01-01 13:26:02,131.415
134,2019-01-01 13:26:03,100.621
135,2019-01-01 13:26:04,29.999
136,2019-01-01 13:26:04,32.127
137,2019-01-01 13:27:22,147.900
138,2019-01-01 13:28:37,127.151
139,2019-01-01 13:28:38,25.218
140,2019-01-01 13:28:40,128.384
141,2019-01-01 13:28:41,130.051
142,2019-01-01 13:28:46,25.532
143,2019-01-01 13:29:35,128.735
144,2019-01-01 13:29:35,145.723
145,2019-01-01 13:29:36,25.669
146,2019-01-01 13:29:37,27.103
147,2019-01-01 13:29:39,147.736
148,2019-01-01 13:30:12,141.271
149,2019-01-01 13:30:13,149.379
150,2019-01-01 13:30:13,111.614
151,2019-01-01 13:30:14,138.770
152,2019-01-01 13:30:51,29.968
153,2019-01-01 13:30:52,31.683
154,2019-01-01 13:30:53,148.672
155,2019-01-01 13:30:54,30.394
156,2019-01-01 13:30:55,141.545
157,2019-01-01 13:30:56,132.754
158,2019-01-01 13:30:56,31.403
159,2019-01-01 13:31:46,156.722
160,2019-01-01 13:31:47,27.540
161,2019-01-01 13:32:24,128.244
162,2019-01-01 13:32:25,25.887
163,2019-01-01 13:35:09,168.075
164,2019-01-01 13:35:11,38.299
165,2019-01-01 13:35:11,35.243
166,2019-01-01 13:35:11,107.226
167,2019-01-01 13:35:12,34.833
168,2019-01-01 13:35:12,133.085
169,2019-01-01 13:35:13,105.421
170,2019-01-01 13:35:13,145.614
171,2019-01-01 13:35:14,113.183
172,2019-01-01 13:36:43,145.895
173,2019-01-01 13:37:18,29.084
174,2019-01-01 13:37:26,28.734
175,2019-01-01 13:37:27,146.903
176,2019-01-01 13:37:53,104.578
177,2019-01-01 13:37:55,156.234
178,2019-01-01 13:37:56,107.194
179,2019-01-01 13:37:57,25.785
180,2019-01-01 13:37:57,135.388
181,2019-01-01 13:38:52,30.306
182,2019-01-01 13:38:55,151.144
183,2019-01-01 13:38:55,148.684
184,2019-01-01 13:39:32,103.084
185,2019-01-01 13:39:33,29.748
186,2019-01-01 13:39:34,29.584
187,2019-01-01 13:39:35,107.927
188,2019-01-01 13:40:10,31.267
189,2019-01-01 13:40:10,163.018
190,2019-01-01 13:40:10,45.865
191,2019-01-01 13:40:11,125.609
192,2019-01-01 13:40:13,152.520
193,2019-01-01 13:40:16,105.136
194,2019-01-01 13:40:17,145.983
195,2019-01-01 13:41:05,28.102
196,2019-01-01 13:43:56,126.193
197,2019-01-01 13:43:57,101.042
198,2019-01-01 13:43:58,42.079
199,2019-01-01 13:43:58,27.321
200,2019-01-01 13:43:59,26.825
201,2019-01-01 13:43:59,27.879
202,2019-01-01 13:44:00,148.216
203,2019-01-01 13:45:57,27.664
204,2019-01-01 13:46:01,149.194
205,2019-01-01 13:46:02,140.166
206,2019-01-01 13:46:36,35.166
207,2019-01-01 13:46:36,62.874
208,2019-01-01 13:46:39,34.572
209,2019-01-01 13:46:40,139.138
210,2019-01-01 13:46:42,35.948
211,2019-01-01 13:46:45,144.457
212,2019-01-01 13:46:47,35.221
213,2019-01-01 13:46:47,133.972
214,2019-01-01 13:47:41,136.721
215,2019-01-01 13:48:18,130.719
216,2019-01-01 13:48:18,26.236
217,2019-01-01 13:48:20,147.527
218,2019-01-01 13:48:23,139.631
219,2019-01-01 13:48:57,26.849
220,2019-01-01 13:48:58,157.836
221,2019-01-01 13:48:59,155.341
222,2019-01-01 13:49:01,139.697
223,2019-01-01 13:49:51,129.966
224,2019-01-01 13:52:34,26.167
225,2019-01-01 13:52:35,25.431
226,2019-01-01 13:52:35,26.094
227,2019-01-01 13:52:35,25.016
228,2019-01-01 13:52:36,101.021
229,2019-01-01 13:52:36,47.493
230,2019-01-01 13:52:37,25.374
231,2019-01-01 13:52:37,25.834
232,2019-01-01 13:52:37,154.343
233,2019-01-01 13:52:38,134.411
234,2019-01-01 13:52:38,26.890
235,2019-01-01 13:52:38,144.525
236,2019-01-01 13:52:38,25.026
237,2019-01-01 13:52:39,113.569
238,2019-01-01 13:52:39,158.174
239,2019-01-01 13:54:41,140.274
240,2019-01-01 13:55:23,154.121
241,2019-01-01 13:55:24,25.495
242,2019-01-01 13:55:25,28.896
243,2019-01-01 13:55:25,138.453
244,2019-01-01 13:55:29,30.432
245,2019-01-01 13:56:16,135.489
246,2019-01-01 13:56:16,29.972
247,2019-01-01 13:56:19,135.357
248,2019-01-01 13:56:51,38.805
249,2019-01-01 13:56:51,153.851
250,2019-01-01 13:56:53,29.958
251,2019-01-01 13:56:55,129.680
252,2019-01-01 13:56:58,105.719
253,2019-01-01 13:56:59,31.232
254,2019-01-01 13:57:35,102.282
255,2019-01-01 13:57:36,25.814
256,2019-01-01 13:57:37,151.711
257,2019-01-01 13:57:41,42.660
258,2019-01-01 13:57:43,102.449
259,2019-01-01 13:57:44,25.737
260,2019-01-01 13:57:44,26.037
261,2019-01-01 13:58:34,148.203
262,2019-01-01 14:01:01,162.617
263,2019-01-01 14:01:01,30.731
264,2019-01-01 14:01:01,50.209
265,2019-01-01 14:01:01,141.449
266,2019-01-01 14:01:02,33.728
267,2019-01-01 14:01:03,153.289
268,2019-01-01 14:01:03,33.069
269,2019-01-01 14:01:03,27.868
270,2019-01-01 14:01:04,34.480
271,2019-01-01 14:01:04,125.364
272,2019-01-01 14:01:04,34.052
273,2019-01-01 14:01:04,161.588
274,2019-01-01 14:01:04,132.952
275,2019-01-01 14:01:05,114.272
276,2019-01-01 14:01:05,147.675
277,2019-01-01 14:01:07,113.793
278,2019-01-01 14:03:09,25.161
279,2019-01-01 14:03:20,31.105
280,2019-01-01 14:03:55,162.430
281,2019-01-01 14:04:01,135.722
282,2019-01-01 14:04:02,134.184
283,2019-01-01 14:04:05,25.435
284,2019-01-01 14:04:50,43.789
285,2019-01-01 14:04:55,29.263
286,2019-01-01 14:04:55,47.989
287,2019-01-01 14:05:27,146.817
288,2019-01-01 14:05:29,38.777
289,2019-01-01 14:05:39,161.238
290,2019-01-01 14:06:15,30.456
291,2019-01-01 14:07:05,142.835
292,2019-01-01 14:07:06,145.598
293,2019-01-01 14:09:59,33.708
294,2019-01-01 14:10:00,124.795
295,2019-01-01 14:10:00,104.351
296,2019-01-01 14:10:01,117.974
297,2019-01-01 14:10:02,110.027
298,2019-01-01 14:10:02,29.958
299,2019-01-01 14:11:20,138.146
300,2019-01-01 14:11:59,153.855
301,2019-01-01 14:12:28,25.346
302,2019-01-01 14:12:31,25.747
303,2019-01-01 14:12:33,132.287
304,2019-01-01 14:12:38,173.824
305,2019-01-01 14:13:26,26.563
306,2019-01-01 14:13:26,39.605
307,2019-01-01 14:13:30,132.286
308,2019-01-01 14:14:10,148.455
309,2019-01-01 14:14:20,145.915
310,2019-01-01 14:14:24,29.957
311,2019-01-01 14:14:49,166.211
312,2019-01-01 14:14:51,52.219
313,2019-01-01 14:14:53,112.169
314,2019-01-01 14:14:54,115.966
315,2019-01-01 14:15:01,33.518
316,2019-01-01 14:15:46,162.161
317,2019-01-01 14:15:46,115.541
318,2019-01-01 14:15:46,140.822
319,2019-01-01 14:18:51,109.591
320,2019-01-01 14:18:52,38.191
321,2019-01-01 14:18:52,28.615
322,2019-01-01 14:18:54,25.578
323,2019-01-01 14:18:54,145.761
324,2019-01-01 14:18:54,130.496
325,2019-01-01 14:19:02,25.866
326,2019-01-01 14:20:20,28.237
327,2019-01-01 14:20:23,149.695
328,2019-01-01 14:20:24,155.488
329,2019-01-01 14:20:49,37.412
330,2019-01-01 14:20:50,25.785
331,2019-01-01 14:20:56,104.056
332,2019-01-01 14:21:23,32.021
333,2019-01-01 14:21:25,57.899
334,2019-01-01 14:21:27,135.057
335,2019-01-01 14:21:28,137.873
336,2019-01-01 14:21:34,49.741
337,2019-01-01 14:22:29,140.908
338,2019-01-01 14:22:31,25.542
339,2019-01-01 14:22:40,102.814
340,2019-01-01 14:23:15,102.126
341,2019-01-01 14:23:49,121.871
342,2019-01-01 14:23:49,130.657
343,2019-01-01 14:23:51,101.949
344,2019-01-01 14:23:51,146.603
345,2019-01-01 14:23:56,25.612
346,2019-01-01 14:24:47,158.065
347,2019-01-01 14:27:40,147.379
348,2019-01-01 14:27:41,29.551
349,2019-01-01 14:27:41,122.363
350,2019-01-01 14:27:41,25.595
351,2019-01-01 14:27:42,152.185
352,2019-01-01 14:27:42,107.877
353,2019-01-01 14:27:43,100.587
354,2019-01-01 14:27:43,25.733
355,2019-01-01 14:27:43,39.447
356,2019-01-01 14:27:44,148.772
357,2019-01-01 14:27:44,30.455
358,2019-01-01 14:27:44,27.927
359,2019-01-01 14:27:44,30.987
360,2019-01-01 14:27:44,147.174
361,2019-01-01 14:27:44,30.672
362,2019-01-01 14:27:45,156.282
363,2019-01-01 14:29:45,27.213
364,2019-01-01 14:29:47,123.358
365,2019-01-01 14:29:48,26.493
366,2019-01-01 14:30:26,110.129
367,2019-01-01 14:30:26,30.438
368,2019-01-01 14:30:27,153.111
369,2019-01-01 14:30:28,149.940
370,2019-01-01 14:30:29,140.109
371,2019-01-01 14:30:29,100.889
372,2019-01-01 14:30:30,28.996
373,2019-01-01 14:31:26,148.460
374,2019-01-01 14:31:27,31.223
375,2019-01-01 14:31:28,29.856
376,2019-01-01 14:31:38,26.276
377,2019-01-01 14:32:06,131.675
378,2019-01-01 14:32:19,129.824
379,2019-01-01 14:32:44,140.190
380,2019-01-01 14:33:35,109.713
381,2019-01-01 14:33:42,103.139
382,2019-01-01 14:36:29,103.699
383,2019-01-01 14:36:30,160.170
384,2019-01-01 14:36:31,135.405
385,2019-01-01 14:36:33,104.824
386,2019-01-01 14:36:42,26.389
387,2019-01-01 14:38:23,146.791
388,2019-01-01 14:38:49,138.730
389,2019-01-01 14:38:57,131.019
390,2019-01-01 14:39:01,29.209
391,2019-01-01 14:39:03,25.933
392,2019-01-01 14:39:49,103.125
393,2019-01-01 14:39:53,28.112
394,2019-01-01 14:40:38,138.289
395,2019-01-01 14:40:39,33.689
396,2019-01-01 14:40:40,30.504
397,2019-01-01 14:41:15,126.558
398,2019-01-01 14:41:16,115.477
399,2019-01-01 14:41:20,33.587
400,2019-01-01 14:41:24,112.722
401,2019-01-01 14:42:04,146.363
402,2019-01-01 14:42:06,141.556
403,2019-01-01 14:42:08,100.451
404,2019-01-01 14:42:09,29.625
405,2019-01-01 14:42:09,53.498
406,2019-01-01 14:42:16,129.659
407,2019-01-01 14:42:16,147.524
408,2019-01-01 14:42:16,34.474
409,2019-01-01 14:42:16,149.721
410,2019-01-01 14:45:17,125.747
411,2019-01-01 14:45:17,36.054
412,2019-01-01 14:45:17,134.908
413,2019-01-01 14:45:17,29.665
414,2019-01-01 14:45:18,37.164
415,2019-01-01 14:45:18,34.903
416,2019-01-01 14:45:19,30.097
417,2019-01-01 14:45:19,38.280
418,2019-01-01 14:45:19,135.530
419,2019-01-01 14:45:19,48.680
420,2019-01-01 14:45:20,131.906
421,2019-01-01 14:45:21,158.608
422,2019-01-01 14:45:26,34.458
423,2019-01-01 14:45:26,27.034
424,2019-01-01 14:46:41,39.492
425,2019-01-01 14:46:41,25.176
426,2019-01-01 14:46:42,138.147
427,2019-01-01 14:46:48,109.188
428,2019-01-01 14:47:15,142.189
429,2019-01-01 14:47:16,33.835
430,2019-01-01 14:47:29,147.444
431,2019-01-01 14:47:50,153.999
432,2019-01-01 14:47:51,28.447
433,2019-01-01 14:47:52,104.589
434,2019-01-01 14:47:53,124.054
435,2019-01-01 14:47:54,26.617
436,2019-01-01 14:47:54,138.183
437,2019-01-01 14:47:55,143.883
438,2019-01-01 14:47:56,107.551
439,2019-01-01 14:47:57,47.657
440,2019-01-01 14:48:02,33.798
441,2019-01-01 14:48:48,38.810
442,2019-01-01 14:48:50,140.297
443,2019-01-01 14:49:39,24.970
444,2019-01-01 14:50:07,157.454
445,2019-01-01 14:50:11,150.282
446,2019-01-01 14:50:11,156.068
447,2019-01-01 14:50:12,111.446
448,2019-01-01 14:50:59,136.502
449,2019-01-01 14:54:09,26.221
450,2019-01-01 14:54:09,111.997
451,2019-01-01 14:54:09,104.020
452,2019-01-01 14:54:10,29.790
453,2019-01-01 14:54:10,33.330
454,2019-01-01 14:54:11,152.891
455,2019-01-01 14:54:12,29.935
456,2019-01-01 14:54:13,29.624
457,2019-01-01 14:54:13,28.146
458,2019-01-01 14:54:13,25.944
459,2019-01-01 14:55:39,29.024
460,2019-01-01 14:56:07,150.824
461,2019-01-01 14:56:07,132.268
462,2019-01-01 14:56:09,149.744
463,2019-01-01 14:56:16,31.110
464,2019-01-01 14:56:38,26.144
465,2019-01-01 14:56:40,29.603
466,2019-01-01 14:56:40,134.673
467,2019-01-01 14:56:41,136.753
468,2019-01-01 14:56:43,152.102
469,2019-01-01 14:56:44,149.739
470,2019-01-01 14:57:39,112.187
471,2019-01-01 14:57:41,32.417
472,2019-01-01 14:57:45,27.681
473,2019-01-01 14:58:53,161.852
474,2019-01-01 14:58:53,28.985
475,2019-01-01 14:58:55,28.297
476,2019-01-01 14:58:56,29.188
477,2019-01-01 14:58:57,40.927
478,2019-01-01 14:58:58,33.909
479,2019-01-01 14:58:58,105.551
480,2019-01-01 14:58:58,148.387
481,2019-01-01 14:59:51,149.340
482,2019-01-01 14:59:54,34.907
483,2019-01-01 15:00:33,33.139
484,2019-01-01 15:02:43,28.764
485,2019-01-01 15:02:46,28.100
486,2019-01-01 15:02:46,34.422
487,2019-01-01 15:02:47,143.074
488,2019-01-01 15:02:47,28.324
489,2019-01-01 15:02:47,148.040
490,2019-01-01 15:02:47,149.373
491,2019-01-01 15:02:51,28.739
492,2019-01-01 15:04:13,28.133
493,2019-01-01 15:04:14,147.296
494,2019-01-01 15:04:41,25.439
495,2019-01-01 15:04:43,27.448
496,2019-01-01 15:04:45,112.935
497,2019-01-01 15:04:46,134.958
498,2019-01-01 15:04:52,139.458
499,2019-01-01 15:04:52,32.641
500,2019-01-01 15:04:54,151.064
501,2019-01-01 15:05:20,40.611
502,2019-01-01 15:05:21,130.844
503,2019-01-01 15:05:22,110.087
504,2019-01-01 15:05:31,180.860
505,2019-01-01 15:06:19,108.684
506,2019-01-01 15:06:19,27.799
507,2019-01-01 15:07:01,49.407
508,2019-01-01 15:07:03,139.775
509,2019-01-01 15:07:06,141.199
510,2019-01-01 15:07:10,144.404
511,2019-01-01 15:07:41,161.587
512,2019-01-01 15:07:41,211.321
513,2019-01-01 15:07:42,142.669
514,2019-01-01 15:07:43,27.372
515,2019-01-01 15:07:43,36.161
516,2019-01-01 15:07:43,123.822
517,2019-01-01 15:07:49,181.890
518,2019-01-01 15:07:53,138.916
519,2019-01-01 15:07:55,44.644
520,2019-01-01 15:11:34,32.789
521,2019-01-01 15:11:34,163.081
522,2019-01-01 15:11:34,25.191
523,2019-01-01 15:11:35,29.030
524,2019-01-01 15:11:35,105.793
525,2019-01-01 15:13:04,36.257
526,2019-01-01 15:13:31,26.219
527,2019-01-01 15:13:32,104.789
528,2019-01-01 15:14:05,146.545
529,2019-01-01 15:14:06,143.390
530,2019-01-01 15:14:06,29.618
531,2019-01-01 15:14:07,160.526
532,2019-01-01 15:14:07,133.446
533,2019-01-01 15:14:08,135.631
534,2019-01-01 15:15:04,39.975
535,2019-01-01 15:15:08,115.787
536,2019-01-01 15:16:01,155.602
537,2019-01-01 15:16:29,159.472
538,2019-01-01 15:16:30,46.686
539,2019-01-01 15:16:32,62.187
540,2019-01-01 15:17:19,163.791
541,2019-01-01 15:17:24,104.947
542,2019-01-01 15:20:41,114.783
543,2019-01-01 15:20:42,31.838
544,2019-01-01 15:20:42,102.713
545,2019-01-01 15:20:43,71.470
546,2019-01-01 15:20:44,28.554
547,2019-01-01 15:20:44,162.353
548,2019-01-01 15:20:45,39.866
549,2019-01-01 15:22:59,32.538
550,2019-01-01 15:23:00,107.479
551,2019-01-01 15:23:02,145.450
552,2019-01-01 15:23:38,148.266
553,2019-01-01 15:23:38,28.166
554,2019-01-01 15:23:40,29.572
555,2019-01-01 15:23:40,105.261
556,2019-01-01 15:23:41,145.452
557,2019-01-01 15:23:41,39.482
558,2019-01-01 15:24:30,134.074
559,2019-01-01 15:25:08,108.495
560,2019-01-01 15:25:15,134.995
561,2019-01-01 15:25:17,167.683
562,2019-01-01 15:25:51,131.386
563,2019-01-01 15:25:52,148.617
564,2019-01-01 15:25:52,28.875
565,2019-01-01 15:25:53,29.347
566,2019-01-01 15:25:54,117.324
567,2019-01-01 15:26:45,106.681
568,2019-01-01 15:26:46,146.818
569,2019-01-01 15:29:50,26.088
570,2019-01-01 15:29:51,29.194
571,2019-01-01 15:29:51,87.307
572,2019-01-01 15:29:53,144.356
573,2019-01-01 15:29:54,27.352
574,2019-01-01 15:31:55,163.240
575,2019-01-01 15:32:01,30.718
576,2019-01-01 15:32:03,33.271
577,2019-01-01 15:32:23,184.183
578,2019-01-01 15:32:23,42.812
579,2019-01-01 15:32:24,109.435
580,2019-01-01 15:32:25,90.961
581,2019-01-01 15:32:26,147.120
582,2019-01-01 15:33:32,136.576
583,2019-01-01 15:33:33,28.339
584,2019-01-01 15:33:35,160.352
585,2019-01-01 15:34:11,27.051
586,2019-01-01 15:34:47,136.588
587,2019-01-01 15:34:48,150.836
588,2019-01-01 15:34:48,162.276
589,2019-01-01 15:34:48,25.321
590,2019-01-01 15:34:50,131.794
591,2019-01-01 15:34:55,33.088
592,2019-01-01 15:35:42,152.975
593,2019-01-01 15:38:49,147.071
594,2019-01-01 15:38:50,26.416
595,2019-01-01 15:38:50,129.652
596,2019-01-01 15:38:50,28.617
597,2019-01-01 15:38:50,142.403
598,2019-01-01 15:38:52,137.002
599,2019-01-01 15:38:52,139.766
600,2019-01-01 15:38:53,29.763
601,2019-01-01 15:38:53,131.616
602,2019-01-01 15:38:54,133.453
603,2019-01-01 15:38:54,105.359
604,2019-01-01 15:40:14,31.321
605,2019-01-01 15:40:52,148.766
606,2019-01-01 15:41:01,31.435
607,2019-01-01 15:41:02,31.351
608,2019-01-01 15:41:27,139.548
609,2019-01-01 15:41:27,162.173
610,2019-01-01 15:41:28,111.230
611,2019-01-01 15:41:29,32.263
612,2019-01-01 15:41:33,30.498
613,2019-01-01 15:42:26,30.356
614,2019-01-01 15:42:28,31.242
615,2019-01-01 15:42:39,127.342
616,2019-01-01 15:43:48,105.288
617,2019-01-01 15:44:39,29.500
618,2019-01-01 15:47:53,25.823
619,2019-01-01 15:47:53,28.704
620,2019-01-01 15:47:53,133.918
621,2019-01-01 15:47:54,149.874
622,2019-01-01 15:47:54,30.390
623,2019-01-01 15:47:55,25.083
624,2019-01-01 15:47:55,146.135
625,2019-01-01 15:47:56,103.950
626,2019-01-01 15:47:57,102.745
627,2019-01-01 15:47:57,28.770
628,2019-01-01 15:47:57,146.997
629,2019-01-01 15:48:01,104.335
630,2019-01-01 15:49:19,28.456
631,2019-01-01 15:49:21,151.440
632,2019-01-01 15:49:52,101.829
633,2019-01-01 15:49:57,152.052
634,2019-01-01 15:50:04,26.182
635,2019-01-01 15:50:29,25.206
636,2019-01-01 15:50:31,164.314
637,2019-01-01 15:50:33,27.464
638,2019-01-01 15:50:33,25.909
639,2019-01-01 15:50:34,109.888
640,2019-01-01 15:51:25,32.461
641,2019-01-01 15:51:26,51.405
642,2019-01-01 15:52:15,104.608
643,2019-01-01 15:52:19,41.678
644,2019-01-01 15:52:52,55.960
645,2019-01-01 15:52:53,105.092
646,2019-01-01 15:52:59,149.304
647,2019-01-01 15:53:47,28.562
648,2019-01-01 15:56:35,36.447
649,2019-01-01 15:56:36,107.858
650,2019-01-01 15:56:36,39.150
651,2019-01-01 15:56:36,145.194
652,2019-01-01 15:56:36,37.258
653,2019-01-01 15:56:36,136.695
654,2019-01-01 15:56:37,134.738
655,2019-01-01 15:56:37,125.739
656,2019-01-01 15:56:38,29.800
657,2019-01-01 15:56:38,152.537
658,2019-01-01 15:56:38,27.048
659,2019-01-01 15:56:39,128.573
660,2019-01-01 15:56:39,107.672
661,2019-01-01 15:58:02,146.184
662,2019-01-01 15:58:02,24.921
663,2019-01-01 15:58:32,32.262
664,2019-01-01 15:58:32,144.059
665,2019-01-01 15:58:32,29.582
666,2019-01-01 15:59:06,123.282
667,2019-01-01 15:59:06,150.103
668,2019-01-01 15:59:07,26.694
669,2019-01-01 15:59:09,26.066
670,2019-01-01 15:59:10,37.217
671,2019-01-01 15:59:18,30.789
672,2019-01-01 16:00:10,142.827
673,2019-01-01 16:00:17,107.417
674,2019-01-01 16:00:19,145.671
675,2019-01-01 16:00:50,128.882
676,2019-01-01 16:00:50,35.606
677,2019-01-01 16:00:51,33.087
678,2019-01-01 16:00:51,151.620
679,2019-01-01 16:01:25,155.428
680,2019-01-01 16:01:25,36.144
681,2019-01-01 16:01:27,106.134
682,2019-01-01 16:01:28,165.023
683,2019-01-01 16:01:28,147.513
684,2019-01-01 16:01:29,167.767
685,2019-01-01 16:01:29,35.071
686,2019-01-01 16:02:17,161.033
687,2019-01-01 16:02:18,26.911
688,2019-01-01 16:02:19,27.655
689,2019-01-01 16:02:21,28.135
690,2019-01-01 16:02:22,25.924
691,2019-01-01 16:02:23,25.257
692,2019-01-01 16:05:40,33.405
693,2019-01-01 16:05:40,26.965
694,2019-01-01 16:05:40,41.540
695,2019-01-01 16:05:41,43.757
696,2019-01-01 16:05:41,33.649
697,2019-01-01 16:05:43,46.283
698,2019-01-01 16:05:43,32.950
699,2019-01-01 16:05:44,59.285
700,2019-01-01 16:05:45,34.019
701,2019-01-01 16:05:45,33.083
702,2019-01-01 16:07:07,103.662
703,2019-01-01 16:08:21,114.480
704,2019-01-01 16:08:22,107.398
705,2019-01-01 16:08:24,147.217
706,2019-01-01 16:09:17,102.772
707,2019-01-01 16:09:18,108.383
708,2019-01-01 16:09:20,26.442
709,2019-01-01 16:09:54,158.677
710,2019-01-01 16:09:56,36.099
711,2019-01-01 16:10:01,119.273
712,2019-01-01 16:10:41,53.914
713,2019-01-01 16:10:42,32.974
714,2019-01-01 16:10:43,114.898
715,2019-01-01 16:10:47,29.909
716,2019-01-01 16:10:48,118.850
717,2019-01-01 16:11:28,104.166
718,2019-01-01 16:11:29,122.649
719,2019-01-01 16:15:05,115.499
720,2019-01-01 16:15:06,137.836
721,2019-01-01 16:15:07,155.295
722,2019-01-01 16:15:08,45.928
723,2019-01-01 16:15:08,147.624
724,2019-01-01 16:15:09,34.957
725,2019-01-01 16:15:09,145.814
726,2019-01-01 16:15:10,135.626
727,2019-01-01 16:16:25,129.048
728,2019-01-01 16:17:19,152.166
729,2019-01-01 16:17:53,130.018
730,2019-01-01 16:17:55,28.847
731,2019-01-01 16:17:55,28.556
732,2019-01-01 16:17:55,43.668
733,2019-01-01 16:17:57,25.230
734,2019-01-01 16:18:51,27.983
735,2019-01-01 16:18:51,133.716
736,2019-01-01 16:18:53,148.839
737,2019-01-01 16:18:59,44.544
738,2019-01-01 16:19:32,25.812
739,2019-01-01 16:19:34,149.151
740,2019-01-01 16:20:12,129.041
741,2019-01-01 16:20:13,57.713
742,2019-01-01 16:20:13,30.812
743,2019-01-01 16:20:14,28.108
744,2019-01-01 16:20:15,145.945
745,2019-01-01 16:21:01,146.728
746,2019-01-01 16:21:01,151.590
747,2019-01-01 16:21:02,158.768
748,2019-01-01 16:21:03,141.974
749,2019-01-01 16:24:06,129.323
750,2019-01-01 16:24:07,27.501
751,2019-01-01 16:24:08,125.774
752,2019-01-01 16:24:08,133.009
753,2019-01-01 16:24:08,29.410
754,2019-01-01 16:24:09,135.072
755,2019-01-01 16:24:09,110.256
756,2019-01-01 16:24:09,137.728
757,2019-01-01 16:24:10,26.033
758,2019-01-01 16:25:38,135.011
759,2019-01-01 16:26:03,44.290
760,2019-01-01 16:26:27,29.408
761,2019-01-01 16:26:28,31.277
762,2019-01-01 16:26:28,41.209
763,2019-01-01 16:26:28,33.430
764,2019-01-01 16:26:28,27.563
765,2019-01-01 16:26:29,51.160
766,2019-01-01 16:26:31,32.110
767,2019-01-01 16:26:32,27.274
768,2019-01-01 16:26:35,41.688
769,2019-01-01 16:26:35,134.697
770,2019-01-01 16:27:30,126.869
771,2019-01-01 16:27:31,25.763
772,2019-01-01 16:27:31,130.419
773,2019-01-01 16:27:32,27.833
774,2019-01-01 16:27:32,107.225
775,2019-01-01 16:27:33,25.838
776,2019-01-01 16:27:33,26.910
777,2019-01-01 16:28:29,25.868
778,2019-01-01 16:28:55,130.529
779,2019-01-01 16:29:43,146.888
780,2019-01-01 16:29:46,162.125
781,2019-01-01 16:29:49,124.404
782,2019-01-01 16:32:45,104.090
783,2019-01-01 16:32:46,108.782
784,2019-01-01 16:32:46,26.868
785,2019-01-01 16:32:47,129.614
786,2019-01-01 16:32:49,113.931
787,2019-01-01 16:32:49,26.528
788,2019-01-01 16:34:19,145.365
789,2019-01-01 16:35:13,143.321
790,2019-01-01 16:35:15,136.472
791,2019-01-01 16:35:15,28.973
792,2019-01-01 16:35:16,154.645
793,2019-01-01 16:35:20,35.193
794,2019-01-01 16:36:20,33.161
795,2019-01-01 16:37:32,25.837
796,2019-01-01 16:37:32,27.801
797,2019-01-01 16:37:32,108.310
798,2019-01-01 16:37:34,29.874
799,2019-01-01 16:37:36,29.777
800,2019-01-01 16:37:36,141.646
801,2019-01-01 16:38:26,130.058
802,2019-01-01 16:38:27,27.000
803,2019-01-01 16:41:31,28.177
804,2019-01-01 16:41:31,28.943
805,2019-01-01 16:41:32,115.102
806,2019-01-01 16:41:32,28.944
807,2019-01-01 16:41:34,30.950
808,2019-01-01 16:41:34,40.919
809,2019-01-01 16:41:34,108.264
810,2019-01-01 16:41:34,30.634
811,2019-01-01 16:41:35,126.812
812,2019-01-01 16:41:35,126.845
813,2019-01-01 16:41:35,29.601
814,2019-01-01 16:41:36,25.974
815,2019-01-01 16:41:36,36.334
816,2019-01-01 16:43:25,129.510
817,2019-01-01 16:43:29,130.205
818,2019-01-01 16:43:49,26.565
819,2019-01-01 16:43:51,142.677
820,2019-01-01 16:43:51,41.771
821,2019-01-01 16:43:59,129.564
822,2019-01-01 16:44:01,34.447
823,2019-01-01 16:44:02,25.089
824,2019-01-01 16:44:04,25.041
825,2019-01-01 16:44:04,105.624
826,2019-01-01 16:44:04,132.721
827,2019-01-01 16:44:50,151.327
828,2019-01-01 16:44:52,33.515
829,2019-01-01 16:45:01,35.821
830,2019-01-01 16:46:12,26.594
831,2019-01-01 16:46:16,33.169
832,2019-01-01 16:47:05,26.071
833,2019-01-01 16:50:23,47.141
834,2019-01-01 16:50:23,40.821
835,2019-01-01 16:50:23,142.729
836,2019-01-01 16:50:25,35.884
837,2019-01-01 16:50:25,135.328
838,2019-01-01 16:50:25,34.595
839,2019-01-01 16:50:27,164.787
840,2019-01-01 16:51:47,105.058
841,2019-01-01 16:52:14,107.457
842,2019-01-01 16:52:22,122.128
843,2019-01-01 16:52:44,27.026
844,2019-01-01 16:52:46,108.271
845,2019-01-01 16:52:54,28.689
846,2019-01-01 16:52:56,30.263
847,2019-01-01 16:53:45,29.950
848,2019-01-01 16:54:27,29.652
849,2019-01-01 16:54:27,113.280
850,2019-01-01 16:55:03,31.679
851,2019-01-01 16:55:05,40.977
852,2019-01-01 16:55:07,27.334
853,2019-01-01 16:55:08,151.868
854,2019-01-01 16:55:59,28.611
855,2019-01-01 16:59:13,122.899
856,2019-01-01 16:59:14,146.021
857,2019-01-01 16:59:14,140.421
858,2019-01-01 16:59:14,102.883
859,2019-01-01 16:59:15,129.401
860,2019-01-01 16:59:15,26.723
861,2019-01-01 16:59:16,31.333
862,2019-01-01 16:59:16,29.336
863,2019-01-01 16:59:17,110.871
864,2019-01-01 16:59:17,104.289
865,2019-01-01 16:59:21,28.187
866,2019-01-01 17:01:14,32.815
867,2019-01-01 17:01:14,62.863
868,2019-01-01 17:01:26,111.180
869,2019-01-01 17:01:51,25.855
870,2019-01-01 17:01:54,142.848
871,2019-01-01 17:02:50,125.977
872,2019-01-01 17:02:53,100.656
873,2019-01-01 17:04:09,102.087
874,2019-01-01 17:04:11,126.307
875,2019-01-01 17:04:17,40.125
876,2019-01-01 17:05:10,36.363
877,2019-01-01 17:08:32,29.008
878,2019-01-01 17:08:33,107.220
879,2019-01-01 17:08:33,102.805
880,2019-01-01 17:08:33,138.680
881,2019-01-01 17:08:33,48.009
882,2019-01-01 17:08:33,25.765
883,2019-01-01 17:08:34,130.237
884,2019-01-01 17:08:35,26.700
885,2019-01-01 17:08:35,131.894
886,2019-01-01 17:08:36,26.079
887,2019-01-01 17:08:36,32.950
888,2019-01-01 17:08:36,113.560
889,2019-01-01 17:08:36,104.521
890,2019-01-01 17:10:36,27.047
891,2019-01-01 17:10:41,56.321
892,2019-01-01 17:11:18,153.118
893,2019-01-01 17:11:19,157.322
894,2019-01-01 17:11:19,53.692
895,2019-01-01 17:11:21,26.987
896,2019-01-01 17:11:21,40.119
897,2019-01-01 17:11:26,27.861
898,2019-01-01 17:11:26,128.346
899,2019-01-01 17:12:55,25.742
900,2019-01-01 17:12:57,33.537
901,2019-01-01 17:13:09,34.227
902,2019-01-01 17:13:37,147.525
903,2019-01-01 17:13:37,25.578
904,2019-01-01 17:13:38,100.795
905,2019-01-01 17:14:28,150.402
906,2019-01-01 17:14:31,27.669
907,2019-01-01 17:17:05,132.839
908,2019-01-01 17:17:05,28.791
909,2019-01-01 17:17:06,102.815
910,2019-01-01 17:17:06,104.108
911,2019-01-01 17:17:07,158.458
912,2019-01-01 17:17:09,149.505
913,2019-01-01 17:18:32,135.836
914,2019-01-01 17:19:02,29.463
915,2019-01-01 17:19:05,28.692
916,2019-01-01 17:19:35,35.053
917,2019-01-01 17:19:36,30.199
918,2019-01-01 17:19:38,31.650
919,2019-01-01 17:19:39,128.406
920,2019-01-01 17:19:39,27.936
921,2019-01-01 17:19:40,115.498
922,2019-01-01 17:19:42,136.145
923,2019-01-01 17:20:31,29.911
924,2019-01-01 17:20:32,142.917
925,2019-01-01 17:20:33,57.275
926,2019-01-01 17:20:42,34.424
927,2019-01-01 17:21:13,111.852
928,2019-01-01 17:21:13,36.275
929,2019-01-01 17:21:25,147.018
930,2019-01-01 17:21:53,37.429
931,2019-01-01 17:21:54,113.630
932,2019-01-01 17:22:43,300.693
933,2019-01-01 17:22:44,55.730
934,2019-01-01 17:25:55,29.638
935,2019-01-01 17:25:56,159.637
936,2019-01-01 17:25:57,100.917
937,2019-01-01 17:25:57,132.415
938,2019-01-01 17:25:57,146.791
939,2019-01-01 17:25:58,219.950
940,2019-01-01 17:25:58,31.037
941,2019-01-01 17:25:58,105.889
942,2019-01-01 17:26:04,122.352
943,2019-01-01 17:28:25,103.528
944,2019-01-01 17:28:27,144.287
945,2019-01-01 17:28:27,26.576
946,2019-01-01 17:28:28,157.458
947,2019-01-01 17:28:28,134.849
948,2019-01-01 17:28:30,133.936
949,2019-01-01 17:28:33,146.997
950,2019-01-01 17:29:22,152.234
951,2019-01-01 17:29:23,25.455
952,2019-01-01 17:29:23,49.970
953,2019-01-01 17:29:24,29.589
954,2019-01-01 17:30:10,26.780
955,2019-01-01 17:30:12,36.166
956,2019-01-01 17:30:46,164.414
957,2019-01-01 17:30:46,159.792
958,2019-01-01 17:30:47,105.801
959,2019-01-01 17:30:47,53.693
960,2019-01-01 17:30:48,153.940
961,2019-01-01 17:30:49,148.129
962,2019-01-01 17:30:50,152.994
963,2019-01-01 17:30:50,148.680
964,2019-01-01 17:30:50,45.948
965,2019-01-01 17:30:53,114.132
966,2019-01-01 17:31:36,156.360
967,2019-01-01 17:31:37,28.838
968,2019-01-01 17:31:43,105.064
969,2019-01-01 17:34:40,121.283
970,2019-01-01 17:34:40,136.379
971,2019-01-01 17:34:41,147.174
972,2019-01-01 17:34:43,158.989
973,2019-01-01 17:34:43,116.835
974,2019-01-01 17:34:44,170.460
975,2019-01-01 17:34:44,28.719
976,2019-01-01 17:34:44,326.369
977,2019-01-01 17:34:45,148.697
978,2019-01-01 17:36:17,148.288
979,2019-01-01 17:36:45,107.916
980,2019-01-01 17:36:52,29.425
981,2019-01-01 17:36:59,30.555
982,2019-01-01 17:37:15,102.641
983,2019-01-01 17:37:18,150.552
984,2019-01-01 17:37:21,146.457
985,2019-01-01 17:37:22,135.901
986,2019-01-01 17:38:20,168.788
987,2019-01-01 17:38:28,25.709
988,2019-01-01 17:38:34,145.753
989,2019-01-01 17:39:01,131.358
990,2019-01-01 17:39:02,136.204
991,2019-01-01 17:39:05,27.320
992,2019-01-01 17:39:42,131.449
993,2019-01-01 17:39:43,113.364
994,2019-01-01 17:39:45,125.185
995,2019-01-01 17:39:46,163.531
996,2019-01-01 17:40:35,35.779
997,2019-01-01 17:40:37,35.626
998,2019-01-01 17:43:27,31.202
999,2019-01-01 17:43:27,134.833
1000,2019-01-01 17:43:27,28.905
1001,2019-01-01 17:43:27,31.645
1002,2019-01-01 17:43:27,151.254
1003,2019-01-01 17:43:28,37.724
1004,2019-01-01 17:43:28,148.076
1005,2019-01-01 17:43:28,126.631
1006,2019-01-01 17:43:29,148.216
1007,2019-01-01 17:43:29,103.065
1008,2019-01-01 17:43:30,28.126
1009,2019-01-01 17:43:32,32.141
1010,2019-01-01 17:45:24,33.349
1011,2019-01-01 17:45:56,136.957
1012,2019-01-01 17:45:56,105.161
1013,2019-01-01 17:45:57,149.858
1014,2019-01-01 17:45:58,30.318
1015,2019-01-01 17:45:58,34.369
1016,2019-01-01 17:45:59,111.120
1017,2019-01-01 17:46:07,113.172
1018,2019-01-01 17:46:08,132.015
1019,2019-01-01 17:46:59,147.248
1020,2019-01-01 17:47:39,29.305
1021,2019-01-01 17:47:40,25.180
1022,2019-01-01 17:47:40,44.337
1023,2019-01-01 17:48:14,37.452
1024,2019-01-01 17:48:18,139.963
1025,2019-01-01 17:48:19,35.921
1026,2019-01-01 17:48:21,127.109
1027,2019-01-01 17:48:23,28.824
1028,2019-01-01 17:48:27,30.082
1029,2019-01-01 17:49:11,137.669
1030,2019-01-01 17:49:14,158.583
1031,2019-01-01 17:49:14,27.916
1032,2019-01-01 17:49:15,150.941
1033,2019-01-01 17:52:05,129.735
1034,2019-01-01 17:52:07,140.007
1035,2019-01-01 17:52:07,102.211
1036,2019-01-01 17:52:07,29.853
1037,2019-01-01 17:52:07,128.908
1038,2019-01-01 17:52:09,115.768
1039,2019-01-01 17:53:26,128.849
1040,2019-01-01 17:54:03,25.390
1041,2019-01-01 17:54:35,51.333
1042,2019-01-01 17:54:36,152.612
1043,2019-01-01 17:54:37,128.355
1044,2019-01-01 17:54:39,33.993
1045,2019-01-01 17:54:40,31.958
1046,2019-01-01 17:55:37,36.115
1047,2019-01-01 17:56:11,36.628
1048,2019-01-01 17:56:12,29.155
1049,2019-01-01 17:56:14,136.207
1050,2019-01-01 17:56:47,34.671
1051,2019-01-01 17:56:48,34.809
1052,2019-01-01 17:56:51,27.500
1053,2019-01-01 17:56:51,135.091
1054,2019-01-01 17:57:40,32.132
1055,2019-01-01 17:57:40,143.381
1056,2019-01-01 17:57:40,154.162
1057,2019-01-01 17:57:40,30.853
1058,2019-01-01 17:57:41,124.963
1059,2019-01-01 17:57:42,25.803
1060,2019-01-01 17:57:43,29.872
1061,2019-01-01 17:58:22,41.585
1062,2019-01-01 18:00:36,162.363
1063,2019-01-01 18:00:36,152.797
1064,2019-01-01 18:00:36,34.446
1065,2019-01-01 18:00:37,132.893
1066,2019-01-01 18:00:37,34.629
1067,2019-01-01 18:00:38,153.139
1068,2019-01-01 18:00:38,29.658
1069,2019-01-01 18:00:38,114.358
1070,2019-01-01 18:00:38,140.355
1071,2019-01-01 18:00:38,145.578
1072,2019-01-01 18:00:39,30.015
1073,2019-01-01 18:02:06,26.963
1074,2019-01-01 18:02:35,134.336
1075,2019-01-01 18:02:42,106.493
1076,2019-01-01 18:02:48,26.058
1077,2019-01-01 18:03:10,135.630
1078,2019-01-01 18:03:10,105.013
1079,2019-01-01 18:03:11,156.854
1080,2019-01-01 18:03:11,29.867
1081,2019-01-01 18:03:11,146.938
1082,2019-01-01 18:03:11,149.077
1083,2019-01-01 18:03:12,30.268
1084,2019-01-01 18:03:12,164.286
1085,2019-01-01 18:03:12,29.200
1086,2019-01-01 18:03:13,149.061
1087,2019-01-01 18:03:14,28.929
1088,2019-01-01 18:04:10,29.129
1089,2019-01-01 18:04:49,147.475
1090,2019-01-01 18:04:50,150.967
1091,2019-01-01 18:04:51,159.501
1092,2019-01-01 18:05:26,51.615
1093,2019-01-01 18:05:27,132.848
1094,2019-01-01 18:05:27,139.279
1095,2019-01-01 18:06:19,131.675
1096,2019-01-01 18:06:19,26.800
1097,2019-01-01 18:06:19,29.767
1098,2019-01-01 18:06:20,29.731
1099,2019-01-01 18:06:23,150.658
1100,2019-01-01 18:06:28,29.820
1101,2019-01-01 18:09:21,131.824
1102,2019-01-01 18:09:22,103.847
1103,2019-01-01 18:09:22,28.826
1104,2019-01-01 18:09:22,145.544
1105,2019-01-01 18:09:22,140.207
1106,2019-01-01 18:09:23,140.448
1107,2019-01-01 18:09:23,102.039
1108,2019-01-01 18:09:24,109.183
1109,2019-01-01 18:09:25,149.227
1110,2019-01-01 18:09:26,25.906
1111,2019-01-01 18:09:26,106.316
1112,2019-01-01 18:09:26,143.370
1113,2019-01-01 18:11:53,25.621
1114,2019-01-01 18:11:54,134.421
1115,2019-01-01 18:12:37,124.357
1116,2019-01-01 18:12:38,138.587
1117,2019-01-01 18:12:39,146.240
1118,2019-01-01 18:12:42,101.375
1119,2019-01-01 18:14:06,44.523
1120,2019-01-01 18:14:06,26.501
1121,2019-01-01 18:14:07,25.862
1122,2019-01-01 18:14:10,144.334
1123,2019-01-01 18:14:14,141.096
1124,2019-01-01 18:14:58,34.026
1125,2019-01-01 18:18:09,139.543
1126,2019-01-01 18:18:10,162.108
1127,2019-01-01 18:18:10,30.453
1128,2019-01-01 18:18:10,143.069
1129,2019-01-01 18:18:11,30.700
1130,2019-01-01 18:18:13,39.953
1131,2019-01-01 18:18:13,103.849
1132,2019-01-01 18:18:14,135.149
1133,2019-01-01 18:19:32,103.391
1134,2019-01-01 18:20:10,137.701
1135,2019-01-01 18:20:11,129.789
1136,2019-01-01 18:20:13,64.280
1137,2019-01-01 18:20:14,132.598
1138,2019-01-01 18:20:17,28.797
1139,2019-01-01 18:20:24,29.989
1140,2019-01-01 18:20:49,132.955
1141,2019-01-01 18:20:49,109.747
1142,2019-01-01 18:20:58,131.695
1143,2019-01-01 18:22:29,161.171
1144,2019-01-01 18:22:29,150.064
1145,2019-01-01 18:23:07,152.218
1146,2019-01-01 18:23:08,29.115
1147,2019-01-01 18:23:09,28.977
1148,2019-01-01 18:23:10,27.783
1149,2019-01-01 18:24:03,26.727
1150,2019-01-01 18:26:53,28.835
1151,2019-01-01 18:26:54,138.977
1152,2019-01-01 18:26:55,104.460
1153,2019-01-01 18:26:56,29.643
1154,2019-01-01 18:28:17,154.396
1155,2019-01-01 18:28:52,30.220
1156,2019-01-01 18:28:52,30.942
1157,2019-01-01 18:29:01,152.303
1158,2019-01-01 18:29:24,149.607
1159,2019-01-01 18:29:25,146.936
1160,2019-01-01 18:29:25,148.026
1161,2019-01-01 18:29:26,105.915
1162,2019-01-01 18:29:27,149.546
1163,2019-01-01 18:29:28,129.828
1164,2019-01-01 18:29:28,134.424
1165,2019-01-01 18:29:28,148.575
1166,2019-01-01 18:29:28,146.627
1167,2019-01-01 18:29:28,106.720
1168,2019-01-01 18:30:24,29.230
1169,2019-01-01 18:30:24,129.869
1170,2019-01-01 18:30:31,36.815
1171,2019-01-01 18:30:35,28.144
1172,2019-01-01 18:31:19,149.964
1173,2019-01-01 18:31:51,118.716
1174,2019-01-01 18:31:52,38.223
1175,2019-01-01 18:31:52,156.001
1176,2019-01-01 18:31:53,132.995
1177,2019-01-01 18:31:53,30.838
1178,2019-01-01 18:31:54,131.456
1179,2019-01-01 18:31:55,26.047
1180,2019-01-01 18:32:00,30.212
1181,2019-01-01 18:35:58,139.111
1182,2019-01-01 18:35:58,129.567
1183,2019-01-01 18:35:58,143.032
1184,2019-01-01 18:35:59,150.342
1185,2019-01-01 18:36:00,26.751
1186,2019-01-01 18:37:21,31.701
1187,2019-01-01 18:38:21,137.947
1188,2019-01-01 18:39:22,131.837
1189,2019-01-01 18:39:30,33.364
1190,2019-01-01 18:39:35,28.397
1191,2019-01-01 18:40:11,32.203
1192,2019-01-01 18:40:11,32.414
1193,2019-01-01 18:40:12,135.785
1194,2019-01-01 18:40:53,173.620
1195,2019-01-01 18:40:57,121.822
1196,2019-01-01 18:41:41,112.561
1197,2019-01-01 18:41:44,150.303
1198,2019-01-01 18:41:44,50.325
1199,2019-01-01 18:41:46,64.409
1200,2019-01-01 18:41:46,156.352
1201,2019-01-01 18:41:47,31.830
1202,2019-01-01 18:44:28,158.514
1203,2019-01-01 18:44:29,145.090
1204,2019-01-01 18:44:30,28.364
1205,2019-01-01 18:44:31,166.173
1206,2019-01-01 18:44:31,39.400
1207,2019-01-01 18:44:32,25.762
1208,2019-01-01 18:44:32,148.572
1209,2019-01-01 18:44:32,105.055
1210,2019-01-01 18:44:33,29.675
1211,2019-01-01 18:44:33,105.536
1212,2019-01-01 18:45:50,112.380
1213,2019-01-01 18:45:54,126.251
1214,2019-01-01 18:46:28,32.823
1215,2019-01-01 18:46:29,100.205
1216,2019-01-01 18:46:51,31.693
1217,2019-01-01 18:46:54,157.195
1218,2019-01-01 18:46:58,104.335
1219,2019-01-01 18:46:58,129.905
1220,2019-01-01 18:47:03,146.964
1221,2019-01-01 18:47:56,50.307
1222,2019-01-01 18:48:11,159.918
1223,2019-01-01 18:48:40,129.742
1224,2019-01-01 18:48:52,29.299
1225,2019-01-01 18:49:23,26.065
1226,2019-01-01 18:49:23,27.276
1227,2019-01-01 18:49:25,141.014
1228,2019-01-01 18:50:11,158.970
1229,2019-01-01 18:50:24,27.083
1230,2019-01-01 18:53:28,149.069
1231,2019-01-01 18:53:28,109.600
1232,2019-01-01 18:53:29,27.606
1233,2019-01-01 18:53:29,26.411
1234,2019-01-01 18:53:30,132.120
1235,2019-01-01 18:53:30,102.255
1236,2019-01-01 18:53:32,27.743
1237,2019-01-01 18:53:32,32.954
1238,2019-01-01 18:54:50,149.306
1239,2019-01-01 18:55:31,154.800
1240,2019-01-01 18:57:02,146.833
1241,2019-01-01 18:57:02,139.475
1242,2019-01-01 18:57:05,114.908
1243,2019-01-01 18:57:49,103.145
1244,2019-01-01 18:57:50,105.029
1245,2019-01-01 18:58:20,39.911
1246,2019-01-01 18:58:20,130.914
1247,2019-01-01 18:58:20,29.412
1248,2019-01-01 18:58:21,117.823
1249,2019-01-01 18:58:23,124.460
1250,2019-01-01 18:59:17,27.716
1251,2019-01-01 19:01:41,35.423
1252,2019-01-01 19:01:41,134.905
1253,2019-01-01 19:01:42,134.155
1254,2019-01-01 19:01:42,44.835
1255,2019-01-01 19:01:42,109.740
1256,2019-01-01 19:01:43,148.095
1257,2019-01-01 19:01:43,141.264
1258,2019-01-01 19:01:44,135.848
1259,2019-01-01 19:01:44,144.107
1260,2019-01-01 19:01:44,29.666
1261,2019-01-01 19:03:08,125.560
1262,2019-01-01 19:03:45,25.378
1263,2019-01-01 19:03:45,141.751
1264,2019-01-01 19:03:45,26.643
1265,2019-01-01 19:03:51,29.403
1266,2019-01-01 19:03:59,153.125
1267,2019-01-01 19:04:25,160.860
1268,2019-01-01 19:04:25,29.681
1269,2019-01-01 19:04:28,26.808
1270,2019-01-01 19:05:18,27.324
1271,2019-01-01 19:05:18,28.698
1272,2019-01-01 19:05:21,160.467
1273,2019-01-01 19:05:59,130.979
1274,2019-01-01 19:06:37,129.525
1275,2019-01-01 19:06:37,103.172
1276,2019-01-01 19:06:40,30.407
1277,2019-01-01 19:06:51,137.979
1278,2019-01-01 19:06:51,29.115
1279,2019-01-01 19:07:25,104.888
1280,2019-01-01 19:10:13,141.616
1281,2019-01-01 19:10:15,137.707
1282,2019-01-01 19:10:15,135.016
1283,2019-01-01 19:10:15,108.007
1284,2019-01-01 19:10:16,121.410
1285,2019-01-01 19:10:17,112.043
1286,2019-01-01 19:10:17,156.044
1287,2019-01-01 19:12:13,31.756
1288,2019-01-01 19:12:52,30.571
1289,2019-01-01 19:13:50,26.539
1290,2019-01-01 19:13:56,25.234
1291,2019-01-01 19:14:31,28.267
1292,2019-01-01 19:14:31,144.740
1293,2019-01-01 19:14:35,27.542
1294,2019-01-01 19:14:44,30.253
1295,2019-01-01 19:15:13,28.722
1296,2019-01-01 19:15:13,148.977
1297,2019-01-01 19:15:14,101.650
1298,2019-01-01 19:15:16,103.603
1299,2019-01-01 19:16:02,146.484
1300,2019-01-01 19:16:05,156.606
1301,2019-01-01 19:18:40,145.339
1302,2019-01-01 19:18:40,207.011
1303,2019-01-01 19:18:40,257.596
1304,2019-01-01 19:18:41,27.275
1305,2019-01-01 19:18:41,161.700
1306,2019-01-01 19:18:42,151.257
1307,2019-01-01 19:18:42,27.257
1308,2019-01-01 19:18:43,26.363
1309,2019-01-01 19:18:43,147.372
1310,2019-01-01 19:18:44,44.123
1311,2019-01-01 19:18:44,26.323
1312,2019-01-01 19:20:15,138.965
1313,2019-01-01 19:20:38,103.368
1314,2019-01-01 19:20:51,164.039
1315,2019-01-01 19:21:17,34.639
1316,2019-01-01 19:21:17,147.875
1317,2019-01-01 19:21:19,35.521
1318,2019-01-01 19:21:20,157.222
1319,2019-01-01 19:21:22,211.622
1320,2019-01-01 19:21:23,29.570
1321,2019-01-01 19:21:29,110.497
1322,2019-01-01 19:22:54,154.590
1323,2019-01-01 19:22:57,25.338
1324,2019-01-01 19:23:31,124.676
1325,2019-01-01 19:23:32,29.700
1326,2019-01-01 19:23:35,28.995
1327,2019-01-01 19:24:18,316.233
1328,2019-01-01 19:24:19,26.695
1329,2019-01-01 19:24:19,155.606
1330,2019-01-01 19:24:21,143.140
1331,2019-01-01 19:24:24,36.406
1332,2019-01-01 19:24:26,145.743
1333,2019-01-01 19:27:12,25.436
1334,2019-01-01 19:27:12,101.239
1335,2019-01-01 19:27:13,144.807
1336,2019-01-01 19:27:13,133.081
1337,2019-01-01 19:27:13,26.048
1338,2019-01-01 19:27:13,269.955
1339,2019-01-01 19:27:14,124.017
1340,2019-01-01 19:27:15,100.553
1341,2019-01-01 19:28:37,139.574
1342,2019-01-01 19:29:21,28.678
1343,2019-01-01 19:29:34,27.579
1344,2019-01-01 19:29:34,273.569
1345,2019-01-01 19:29:35,28.421
1346,2019-01-01 19:29:41,31.404
1347,2019-01-01 19:29:41,27.860
1348,2019-01-01 19:31:55,145.030
1349,2019-01-01 19:31:55,143.862
1350,2019-01-01 19:31:56,37.588
1351,2019-01-01 19:31:57,27.021
1352,2019-01-01 19:31:57,27.984
1353,2019-01-01 19:31:58,132.021
1354,2019-01-01 19:31:59,29.315
1355,2019-01-01 19:32:09,317.212
1356,2019-01-01 19:32:45,147.093
1357,2019-01-01 19:32:48,137.524
1358,2019-01-01 19:32:49,143.485
1359,2019-01-01 19:36:12,162.187
1360,2019-01-01 19:36:13,32.909
1361,2019-01-01 19:36:13,31.652
1362,2019-01-01 19:36:14,27.818
1363,2019-01-01 19:36:15,33.711
1364,2019-01-01 19:36:15,32.466
1365,2019-01-01 19:36:15,163.968
1366,2019-01-01 19:36:15,35.188
1367,2019-01-01 19:36:15,33.821
1368,2019-01-01 19:36:16,115.029
1369,2019-01-01 19:36:16,32.403
1370,2019-01-01 19:36:16,43.770
1371,2019-01-01 19:36:16,152.862
1372,2019-01-01 19:36:16,133.339
1373,2019-01-01 19:36:17,130.072
1374,2019-01-01 19:36:17,100.697
1375,2019-01-01 19:37:45,101.678
1376,2019-01-01 19:38:19,150.958
1377,2019-01-01 19:38:48,150.302
1378,2019-01-01 19:38:55,295.255
1379,2019-01-01 19:38:55,25.590
1380,2019-01-01 19:38:56,140.403
1381,2019-01-01 19:39:48,280.889
1382,2019-01-01 19:39:49,129.801
1383,2019-01-01 19:40:31,289.642
1384,2019-01-01 19:40:31,142.969
1385,2019-01-01 19:41:09,28.078
1386,2019-01-01 19:41:10,137.360
1387,2019-01-01 19:41:11,32.424
1388,2019-01-01 19:41:12,29.514
1389,2019-01-01 19:42:04,155.023
1390,2019-01-01 19:42:07,31.007
1391,2019-01-01 19:42:11,26.492
1392,2019-01-01 19:42:14,102.816
1393,2019-01-01 19:45:12,130.483
1394,2019-01-01 19:45:13,129.876
1395,2019-01-01 19:45:13,31.625
1396,2019-01-01 19:45:13,130.000
1397,2019-01-01 19:45:13,111.387
1398,2019-01-01 19:45:14,35.680
1399,2019-01-01 19:45:14,113.852
1400,2019-01-01 19:45:14,29.222
1401,2019-01-01 19:45:15,51.544
1402,2019-01-01 19:45:15,132.069
1403,2019-01-01 19:45:15,30.777
1404,2019-01-01 19:45:16,209.716
1405,2019-01-01 19:45:17,224.696
1406,2019-01-01 19:46:37,29.247
1407,2019-01-01 19:46:37,27.039
1408,2019-01-01 19:46:38,32.186
1409,2019-01-01 19:46:49,200.054
1410,2019-01-01 19:47:21,144.378
1411,2019-01-01 19:47:25,26.818
1412,2019-01-01 19:47:25,100.824
1413,2019-01-01 19:47:56,42.372
1414,2019-01-01 19:47:57,25.913
1415,2019-01-01 19:47:58,35.813
1416,2019-01-01 19:48:01,25.196
1417,2019-01-01 19:48:01,26.439
1418,2019-01-01 19:48:50,140.032
1419,2019-01-01 19:48:50,124.525
1420,2019-01-01 19:48:51,26.351
1421,2019-01-01 19:48:51,25.827
1422,2019-01-01 19:49:31,26.804
1423,2019-01-01 19:49:31,141.899
1424,2019-01-01 19:49:31,25.579
1425,2019-01-01 19:49:33,27.636
1426,2019-01-01 19:49:34,28.453
1427,2019-01-01 19:50:14,131.396
1428,2019-01-01 19:50:14,129.269
1429,2019-01-01 19:50:15,234.664
1430,2019-01-01 19:50:17,162.440
1431,2019-01-01 19:51:02,150.334
1432,2019-01-01 19:51:03,25.470
1433,2019-01-01 19:51:04,212.900
1434,2019-01-01 19:53:44,29.710
1435,2019-01-01 19:53:44,123.620
1436,2019-01-01 19:53:44,283.732
1437,2019-01-01 19:53:45,33.494
1438,2019-01-01 19:53:46,129.319
1439,2019-01-01 19:53:46,38.608
1440,2019-01-01 19:53:46,26.868
1441,2019-01-01 19:53:47,279.942
1442,2019-01-01 19:53:47,64.003
1443,2019-01-01 19:53:48,132.798
1444,2019-01-01 19:53:48,139.641
1445,2019-01-01 19:55:12,31.072
1446,2019-01-01 19:55:47,48.444
1447,2019-01-01 19:55:51,276.983
1448,2019-01-01 19:56:00,25.961
1449,2019-01-01 19:56:24,133.468
1450,2019-01-01 19:56:26,216.356
1451,2019-01-01 19:58:08,155.241
1452,2019-01-01 19:58:50,27.488
1453,2019-01-01 19:58:50,128.723
1454,2019-01-01 19:58:51,26.337
1455,2019-01-01 19:58:51,27.041
1456,2019-01-01 19:58:52,208.040
1457,2019-01-01 19:58:53,136.110
1458,2019-01-01 19:58:53,27.231
1459,2019-01-01 19:58:59,215.951
1460,2019-01-01 19:58:59,145.960
1461,2019-01-01 19:59:49,36.413
1462,2019-01-01 19:59:49,124.237
1463,2019-01-01 20:02:47,112.109
1464,2019-01-01 20:02:48,100.408
1465,2019-01-01 20:02:48,35.299
1466,2019-01-01 20:02:48,43.468
1467,2019-01-01 20:02:48,129.940
1468,2019-01-01 20:02:48,25.552
1469,2019-01-01 20:02:49,30.239
1470,2019-01-01 20:02:49,208.186
1471,2019-01-01 20:02:50,31.097
1472,2019-01-01 20:02:50,161.797
1473,2019-01-01 20:02:50,33.312
1474,2019-01-01 20:02:50,147.428
1475,2019-01-01 20:02:51,28.451
1476,2019-01-01 20:02:51,168.034
1477,2019-01-01 20:02:52,26.047
1478,2019-01-01 20:04:06,136.860
1479,2019-01-01 20:04:43,27.293
1480,2019-01-01 20:04:43,308.369
1481,2019-01-01 20:04:44,152.030
1482,2019-01-01 20:05:10,156.578
1483,2019-01-01 20:05:12,29.700
1484,2019-01-01 20:05:17,234.051
1485,2019-01-01 20:06:13,142.349
1486,2019-01-01 20:06:14,30.261
1487,2019-01-01 20:06:16,273.341
1488,2019-01-01 20:06:23,149.504
1489,2019-01-01 20:06:53,147.389
1490,2019-01-01 20:06:54,114.586
1491,2019-01-01 20:07:32,26.099
1492,2019-01-01 20:07:33,179.205
1493,2019-01-01 20:07:34,177.939
1494,2019-01-01 20:07:35,164.785
1495,2019-01-01 20:07:36,132.854
1496,2019-01-01 20:08:28,180.469
1497,2019-01-01 20:08:29,104.134
1498,2019-01-01 20:09:06,202.469
1499,2019-01-01 20:11:29,148.606
1500,2019-01-01 20:11:29,111.974
1501,2019-01-01 20:11:29,31.302
1502,2019-01-01 20:11:30,128.359
1503,2019-01-01 20:11:30,140.999
1504,2019-01-01 20:11:31,31.879
1505,2019-01-01 20:11:32,149.909
1506,2019-01-01 20:11:32,30.213
1507,2019-01-01 20:11:32,29.780
1508,2019-01-01 20:11:32,108.683
1509,2019-01-01 20:11:32,153.321
1510,2019-01-01 20:11:32,31.822
1511,2019-01-01 20:11:33,135.394
1512,2019-01-01 20:11:33,169.277
1513,2019-01-01 20:11:42,25.812
1514,2019-01-01 20:13:34,284.625
1515,2019-01-01 20:13:36,144.974
1516,2019-01-01 20:13:36,144.094
1517,2019-01-01 20:13:37,30.643
1518,2019-01-01 20:13:42,34.473
1519,2019-01-01 20:14:09,25.699
1520,2019-01-01 20:14:11,114.368
1521,2019-01-01 20:14:12,26.252
1522,2019-01-01 20:14:12,29.878
1523,2019-01-01 20:14:13,25.562
1524,2019-01-01 20:15:11,37.327
1525,2019-01-01 20:15:12,106.134
1526,2019-01-01 20:15:13,28.656
1527,2019-01-01 20:15:53,157.471
1528,2019-01-01 20:16:27,155.813
1529,2019-01-01 20:16:27,153.844
1530,2019-01-01 20:16:30,285.416
1531,2019-01-01 20:16:31,30.760
1532,2019-01-01 20:16:31,37.009
1533,2019-01-01 20:17:21,317.326
1534,2019-01-01 20:17:22,105.275
1535,2019-01-01 20:17:27,144.094
1536,2019-01-01 20:20:24,321.461
1537,2019-01-01 20:20:25,118.974
1538,2019-01-01 20:20:27,140.935
1539,2019-01-01 20:20:27,144.691
1540,2019-01-01 20:20:27,226.177
1541,2019-01-01 20:20:27,30.116
1542,2019-01-01 20:20:28,27.220
1543,2019-01-01 20:21:59,149.922
1544,2019-01-01 20:22:21,109.717
1545,2019-01-01 20:22:24,31.032
1546,2019-01-01 20:22:56,128.066
1547,2019-01-01 20:22:57,351.352
1548,2019-01-01 20:23:56,131.783
1549,2019-01-01 20:23:57,185.134
1550,2019-01-01 20:24:34,102.609
1551,2019-01-01 20:24:37,245.583
1552,2019-01-01 20:24:38,110.970
1553,2019-01-01 20:24:46,112.467
1554,2019-01-01 20:25:10,26.555
1555,2019-01-01 20:25:10,129.652
1556,2019-01-01 20:25:13,158.827
1557,2019-01-01 20:25:13,134.053
1558,2019-01-01 20:25:15,109.259
1559,2019-01-01 20:25:15,148.815
1560,2019-01-01 20:26:03,30.089
1561,2019-01-01 20:26:03,107.915
1562,2019-01-01 20:26:11,108.230
1563,2019-01-01 20:28:51,26.581
1564,2019-01-01 20:28:51,27.046
1565,2019-01-01 20:28:52,25.262
1566,2019-01-01 20:28:52,37.935
1567,2019-01-01 20:28:52,47.179
1568,2019-01-01 20:28:53,25.339
1569,2019-01-01 20:28:54,126.363
1570,2019-01-01 20:28:54,40.202
1571,2019-01-01 20:28:55,33.531
1572,2019-01-01 20:28:55,25.940
1573,2019-01-01 20:28:55,145.169
1574,2019-01-01 20:28:55,30.292
1575,2019-01-01 20:30:11,28.181
1576,2019-01-01 20:30:22,29.042
1577,2019-01-01 20:30:51,32.122
1578,2019-01-01 20:31:00,149.557
1579,2019-01-01 20:31:05,28.411
1580,2019-01-01 20:31:28,129.588
1581,2019-01-01 20:31:29,29.617
1582,2019-01-01 20:31:29,101.367
1583,2019-01-01 20:32:27,41.480
1584,2019-01-01 20:32:27,59.123
1585,2019-01-01 20:33:44,142.907
1586,2019-01-01 20:33:45,42.034
1587,2019-01-01 20:33:47,132.947
1588,2019-01-01 20:33:54,148.285
1589,2019-01-01 20:33:54,130.615
1590,2019-01-01 20:34:34,150.692
1591,2019-01-01 20:34:35,140.412
1592,2019-01-01 20:34:40,31.656
1593,2019-01-01 20:37:24,105.093
1594,2019-01-01 20:37:25,303.825
1595,2019-01-01 20:37:25,136.455
1596,2019-01-01 20:37:26,30.465
1597,2019-01-01 20:37:27,167.074
1598,2019-01-01 20:37:27,29.318
1599,2019-01-01 20:37:27,149.956
1600,2019-01-01 20:37:28,27.827
1601,2019-01-01 20:38:48,28.173
1602,2019-01-01 20:39:32,26.057
1603,2019-01-01 20:39:46,30.415
1604,2019-01-01 20:39:47,151.763
1605,2019-01-01 20:39:47,245.735
1606,2019-01-01 20:39:52,148.479
1607,2019-01-01 20:39:54,146.484
1608,2019-01-01 20:40:53,133.103
1609,2019-01-01 20:41:28,115.593
1610,2019-01-01 20:41:30,135.120
1611,2019-01-01 20:42:07,25.331
1612,2019-01-01 20:42:08,31.079
1613,2019-01-01 20:42:08,139.932
1614,2019-01-01 20:42:14,40.104
1615,2019-01-01 20:42:58,148.364
1616,2019-01-01 20:42:59,320.166
1617,2019-01-01 20:42:59,286.933
1618,2019-01-01 20:43:00,143.934
1619,2019-01-01 20:43:09,38.798
1620,2019-01-01 20:43:40,114.215
1621,2019-01-01 20:46:06,254.651
1622,2019-01-01 20:46:06,131.116
1623,2019-01-01 20:46:06,173.658
1624,2019-01-01 20:46:06,131.638
1625,2019-01-01 20:46:06,153.387
1626,2019-01-01 20:46:08,43.902
1627,2019-01-01 20:46:10,158.250
1628,2019-01-01 20:48:05,108.887
1629,2019-01-01 20:48:08,110.834
1630,2019-01-01 20:48:12,138.189
1631,2019-01-01 20:48:15,298.516
1632,2019-01-01 20:48:18,31.418
1633,2019-01-01 20:48:43,158.624
1634,2019-01-01 20:48:43,130.992
1635,2019-01-01 20:48:43,41.273
1636,2019-01-01 20:49:40,28.822
1637,2019-01-01 20:49:46,28.101
1638,2019-01-01 20:50:18,44.863
1639,2019-01-01 20:50:20,154.437
1640,2019-01-01 20:50:22,35.790
1641,2019-01-01 20:50:58,116.152
1642,2019-01-01 20:50:59,46.307
1643,2019-01-01 20:51:01,28.667
1644,2019-01-01 20:51:01,31.415
1645,2019-01-01 20:51:53,145.846
1646,2019-01-01 20:54:46,199.452
1647,2019-01-01 20:54:46,29.899
1648,2019-01-01 20:54:46,42.268
1649,2019-01-01 20:54:47,146.757
1650,2019-01-01 20:54:47,30.434
1651,2019-01-01 20:54:47,38.420
1652,2019-01-01 20:54:47,304.891
1653,2019-01-01 20:54:48,150.874
1654,2019-01-01 20:54:49,142.867
1655,2019-01-01 20:54:49,32.533
1656,2019-01-01 20:54:50,45.032
1657,2019-01-01 20:54:50,31.485
1658,2019-01-01 20:54:50,27.235
1659,2019-01-01 20:54:54,138.477
1660,2019-01-01 20:56:15,262.080
1661,2019-01-01 20:56:53,32.211
1662,2019-01-01 20:57:06,29.797
1663,2019-01-01 20:57:08,38.189
1664,2019-01-01 20:57:08,26.364
1665,2019-01-01 20:57:14,29.417
1666,2019-01-01 20:57:15,144.026
1667,2019-01-01 20:57:19,26.676
1668,2019-01-01 20:57:59,125.095
1669,2019-01-01 20:58:52,135.860
1670,2019-01-01 20:59:27,124.057
1671,2019-01-01 20:59:28,130.175
1672,2019-01-01 20:59:28,103.238
1673,2019-01-01 21:00:18,224.887
1674,2019-01-01 21:00:21,32.321
1675,2019-01-01 21:00:22,29.943
1676,2019-01-01 21:03:24,101.430
1677,2019-01-01 21:03:24,31.657
1678,2019-01-01 21:03:25,27.400
1679,2019-01-01 21:03:25,100.786
1680,2019-01-01 21:03:25,26.075
1681,2019-01-01 21:03:25,48.736
1682,2019-01-01 21:03:25,130.136
1683,2019-01-01 21:03:25,26.404
1684,2019-01-01 21:03:26,107.587
1685,2019-01-01 21:03:26,132.539
1686,2019-01-01 21:03:27,143.906
1687,2019-01-01 21:03:28,27.905
1688,2019-01-01 21:03:28,104.050
1689,2019-01-01 21:04:47,186.957
1690,2019-01-01 21:05:24,130.813
1691,2019-01-01 21:05:32,211.308
1692,2019-01-01 21:05:43,128.153
1693,2019-01-01 21:05:45,32.109
1694,2019-01-01 21:05:53,110.127
1695,2019-01-01 21:06:43,31.168
1696,2019-01-01 21:06:44,161.574
1697,2019-01-01 21:07:32,191.159
1698,2019-01-01 21:07:33,147.276
1699,2019-01-01 21:08:04,25.174
1700,2019-01-01 21:08:05,25.359
1701,2019-01-01 21:08:07,210.296
1702,2019-01-01 21:08:50,129.517
1703,2019-01-01 21:08:54,25.964
1704,2019-01-01 21:09:35,102.635
1705,2019-01-01 21:11:58,148.824
1706,2019-01-01 21:11:59,125.528
1707,2019-01-01 21:11:59,25.663
1708,2019-01-01 21:11:59,122.387
1709,2019-01-01 21:11:59,110.482
1710,2019-01-01 21:12:00,25.425
1711,2019-01-01 21:12:01,26.988
1712,2019-01-01 21:13:29,104.371
1713,2019-01-01 21:14:07,28.928
1714,2019-01-01 21:14:28,229.433
1715,2019-01-01 21:14:30,29.153
1716,2019-01-01 21:14:31,153.018
1717,2019-01-01 21:14:31,113.078
1718,2019-01-01 21:14:33,160.479
1719,2019-01-01 21:14:39,159.383
1720,2019-01-01 21:15:29,107.121
1721,2019-01-01 21:15:35,101.373
1722,2019-01-01 21:15:36,122.677
1723,2019-01-01 21:16:05,144.162
1724,2019-01-01 21:16:08,52.297
1725,2019-01-01 21:16:44,26.310
1726,2019-01-01 21:16:45,141.189
1727,2019-01-01 21:16:47,113.419
1728,2019-01-01 21:16:48,39.736
1729,2019-01-01 21:17:39,25.396
1730,2019-01-01 21:17:41,26.221
1731,2019-01-01 21:20:40,49.049
1732,2019-01-01 21:20:41,34.142
1733,2019-01-01 21:20:42,44.517
1734,2019-01-01 21:20:42,27.870
1735,2019-01-01 21:20:43,109.933
1736,2019-01-01 21:20:43,27.729
1737,2019-01-01 21:20:44,107.895
1738,2019-01-01 21:20:44,40.372
1739,2019-01-01 21:20:44,27.538
1740,2019-01-01 21:20:45,26.971
1741,2019-01-01 21:22:31,100.784
1742,2019-01-01 21:22:58,132.498
1743,2019-01-01 21:22:59,158.944
1744,2019-01-01 21:23:01,146.463
1745,2019-01-01 21:23:10,126.760
1746,2019-01-01 21:23:12,28.256
1747,2019-01-01 21:23:12,28.012
1748,2019-01-01 21:23:52,32.464
1749,2019-01-01 21:23:55,28.538
1750,2019-01-01 21:24:37,137.014
1751,2019-01-01 21:24:40,135.791
1752,2019-01-01 21:24:51,133.925
1753,2019-01-01 21:25:17,112.386
1754,2019-01-01 21:25:17,29.169
1755,2019-01-01 21:25:17,100.842
1756,2019-01-01 21:25:18,111.470
1757,2019-01-01 21:26:02,30.264
1758,2019-01-01 21:26:04,33.857
1759,2019-01-01 21:26:04,116.058
1760,2019-01-01 21:26:09,28.834
1761,2019-01-01 21:29:37,28.886
1762,2019-01-01 21:29:38,27.176
1763,2019-01-01 21:29:38,45.144
1764,2019-01-01 21:29:39,140.050
1765,2019-01-01 21:29:39,29.440
1766,2019-01-01 21:29:40,132.328
1767,2019-01-01 21:29:40,30.456
1768,2019-01-01 21:29:40,161.636
1769,2019-01-01 21:29:41,32.757
1770,2019-01-01 21:29:41,32.821
1771,2019-01-01 21:29:42,155.676
1772,2019-01-01 21:31:01,28.387
1773,2019-01-01 21:31:32,150.052
1774,2019-01-01 21:31:33,44.778
1775,2019-01-01 21:31:35,32.755
1776,2019-01-01 21:32:04,137.308
1777,2019-01-01 21:32:04,132.489
1778,2019-01-01 21:32:05,154.803
1779,2019-01-01 21:32:06,134.640
1780,2019-01-01 21:32:06,30.424
1781,2019-01-01 21:32:07,25.405
1782,2019-01-01 21:32:07,25.463
1783,2019-01-01 21:32:08,133.739
1784,2019-01-01 21:32:09,28.576
1785,2019-01-01 21:32:11,136.460
1786,2019-01-01 21:32:59,26.092
1787,2019-01-01 21:33:00,144.713
1788,2019-01-01 21:33:05,168.078
1789,2019-01-01 21:33:12,118.256
1790,2019-01-01 21:33:43,30.410
1791,2019-01-01 21:33:44,113.496
1792,2019-01-01 21:34:21,40.948
1793,2019-01-01 21:34:22,131.230
1794,2019-01-01 21:34:24,146.040
1795,2019-01-01 21:34:26,144.421
1796,2019-01-01 21:35:15,34.329
1797,2019-01-01 21:35:16,110.547
1798,2019-01-01 21:35:18,149.589
1799,2019-01-01 21:38:25,33.511
1800,2019-01-01 21:38:26,26.504
1801,2019-01-01 21:38:26,103.303
1802,2019-01-01 21:38:27,26.177
1803,2019-01-01 21:38:27,125.377
1804,2019-01-01 21:38:27,31.725
1805,2019-01-01 21:38:28,133.182
1806,2019-01-01 21:38:29,129.384
1807,2019-01-01 21:38:29,146.691
1808,2019-01-01 21:38:29,26.623
1809,2019-01-01 21:40:37,166.703
1810,2019-01-01 21:40:40,26.480
1811,2019-01-01 21:40:42,26.325
1812,2019-01-01 21:41:05,114.491
1813,2019-01-01 21:41:07,112.741
1814,2019-01-01 21:41:08,144.172
1815,2019-01-01 21:41:09,36.032
1816,2019-01-01 21:41:58,29.738
1817,2019-01-01 21:43:20,124.370
1818,2019-01-01 21:43:20,27.847
1819,2019-01-01 21:43:22,143.816
1820,2019-01-01 21:43:23,27.098
1821,2019-01-01 21:43:23,159.122
1822,2019-01-01 21:43:23,42.997
1823,2019-01-01 21:43:26,131.898
1824,2019-01-01 21:44:12,26.362
1825,2019-01-01 21:47:14,48.726
1826,2019-01-01 21:47:14,159.866
1827,2019-01-01 21:47:16,40.935
1828,2019-01-01 21:47:16,37.551
1829,2019-01-01 21:47:18,63.226
1830,2019-01-01 21:47:19,131.495
1831,2019-01-01 21:47:19,40.733
1832,2019-01-01 21:49:22,136.266
1833,2019-01-01 21:49:25,135.996
1834,2019-01-01 21:49:49,128.779
1835,2019-01-01 21:49:50,27.346
1836,2019-01-01 21:49:50,28.920
1837,2019-01-01 21:50:01,142.124
1838,2019-01-01 21:50:02,101.632
1839,2019-01-01 21:50:02,149.909
1840,2019-01-01 21:50:51,26.230
1841,2019-01-01 21:51:36,148.133
1842,2019-01-01 21:51:42,110.670
1843,2019-01-01 21:52:13,25.882
1844,2019-01-01 21:52:17,28.386
1845,2019-01-01 21:52:17,29.236
1846,2019-01-01 21:52:21,25.850
1847,2019-01-01 21:52:22,25.414
1848,2019-01-01 21:53:04,145.229
1849,2019-01-01 21:55:58,156.773
1850,2019-01-01 21:55:58,30.631
1851,2019-01-01 21:56:00,161.242
1852,2019-01-01 21:58:30,104.289
1853,2019-01-01 21:58:32,25.442
1854,2019-01-01 21:58:32,34.867
1855,2019-01-01 21:58:32,26.665
1856,2019-01-01 21:58:33,39.036
1857,2019-01-01 21:58:34,25.539
1858,2019-01-01 21:58:39,142.450
1859,2019-01-01 21:59:28,136.246
1860,2019-01-01 21:59:28,148.483
1861,2019-01-01 21:59:30,31.332
1862,2019-01-01 22:00:03,158.232
1863,2019-01-01 22:00:05,27.621
1864,2019-01-01 22:00:05,157.926
1865,2019-01-01 22:00:46,139.330
1866,2019-01-01 22:00:46,146.457
1867,2019-01-01 22:00:49,109.035
1868,2019-01-01 22:00:54,30.069
1869,2019-01-01 22:01:35,138.586
1870,2019-01-01 22:01:36,130.734
1871,2019-01-01 22:01:37,150.219
1872,2019-01-01 22:02:17,29.783
1873,2019-01-01 22:04:24,27.846
1874,2019-01-01 22:04:26,145.280
1875,2019-01-01 22:04:26,34.433
1876,2019-01-01 22:06:22,28.155
1877,2019-01-01 22:06:33,27.638
1878,2019-01-01 22:06:54,49.179
1879,2019-01-01 22:06:54,127.932
1880,2019-01-01 22:06:55,136.437
1881,2019-01-01 22:07:05,156.030
1882,2019-01-01 22:07:06,138.777
1883,2019-01-01 22:07:57,47.352
1884,2019-01-01 22:07:57,25.881
1885,2019-01-01 22:08:31,38.705
1886,2019-01-01 22:08:36,130.260
1887,2019-01-01 22:09:10,26.200
1888,2019-01-01 22:09:13,25.085
1889,2019-01-01 22:09:13,38.676
1890,2019-01-01 22:09:22,29.269
1891,2019-01-01 22:10:02,161.157
1892,2019-01-01 22:10:42,31.414
1893,2019-01-01 22:13:37,128.982
1894,2019-01-01 22:13:37,106.021
1895,2019-01-01 22:13:38,25.866
1896,2019-01-01 22:13:39,158.634
1897,2019-01-01 22:13:39,28.615
1898,2019-01-01 22:13:39,25.094
1899,2019-01-01 22:13:39,107.835
1900,2019-01-01 22:13:39,44.134
1901,2019-01-01 22:13:41,25.953
1902,2019-01-01 22:15:01,105.321
1903,2019-01-01 22:15:05,31.962
1904,2019-01-01 22:15:43,39.577
1905,2019-01-01 22:16:03,119.617
1906,2019-01-01 22:16:04,147.527
1907,2019-01-01 22:16:59,34.656
1908,2019-01-01 22:17:47,25.199
1909,2019-01-01 22:17:49,25.937
1910,2019-01-01 22:18:26,37.087
1911,2019-01-01 22:18:26,25.341
1912,2019-01-01 22:18:30,157.763
1913,2019-01-01 22:19:14,108.546
1914,2019-01-01 22:19:16,152.588
1915,2019-01-01 22:19:16,26.686
1916,2019-01-01 22:19:52,147.449
1917,2019-01-01 22:19:52,27.305
1918,2019-01-01 22:23:19,26.463
1919,2019-01-01 22:23:20,27.759
1920,2019-01-01 22:23:20,157.670
1921,2019-01-01 22:23:21,26.055
1922,2019-01-01 22:23:21,142.549
1923,2019-01-01 22:23:21,100.889
1924,2019-01-01 22:23:22,105.544
1925,2019-01-01 22:23:23,101.414
1926,2019-01-01 22:23:23,31.684
1927,2019-01-01 22:23:23,131.017
1928,2019-01-01 22:23:23,145.667
1929,2019-01-01 22:24:43,25.240
1930,2019-01-01 22:24:43,28.974
1931,2019-01-01 22:24:46,131.246
1932,2019-01-01 22:25:16,29.680
1933,2019-01-01 22:25:43,28.887
1934,2019-01-01 22:25:44,160.937
1935,2019-01-01 22:25:44,29.239
1936,2019-01-01 22:25:47,28.784
1937,2019-01-01 22:25:47,27.776
1938,2019-01-01 22:25:47,28.944
1939,2019-01-01 22:25:51,148.261
1940,2019-01-01 22:25:54,129.727
1941,2019-01-01 22:25:56,158.708
1942,2019-01-01 22:26:43,146.827
1943,2019-01-01 22:26:46,102.081
1944,2019-01-01 22:27:31,125.799
1945,2019-01-01 22:28:04,101.428
1946,2019-01-01 22:28:04,139.894
1947,2019-01-01 22:28:07,157.363
1948,2019-01-01 22:28:14,129.358
1949,2019-01-01 22:28:54,25.031
1950,2019-01-01 22:31:56,36.300
1951,2019-01-01 22:31:57,102.041
1952,2019-01-01 22:31:59,37.851
1953,2019-01-01 22:31:59,27.281
1954,2019-01-01 22:32:00,146.923
1955,2019-01-01 22:32:00,46.833
1956,2019-01-01 22:32:00,120.905
1957,2019-01-01 22:32:00,25.212
1958,2019-01-01 22:33:17,100.973
1959,2019-01-01 22:33:17,116.320
1960,2019-01-01 22:34:24,140.551
1961,2019-01-01 22:34:30,106.217
1962,2019-01-01 22:35:23,37.530
1963,2019-01-01 22:35:24,32.164
1964,2019-01-01 22:36:04,58.527
1965,2019-01-01 22:36:04,41.209
1966,2019-01-01 22:36:05,146.650
1967,2019-01-01 22:36:42,128.516
1968,2019-01-01 22:36:43,38.910
1969,2019-01-01 22:36:44,42.832
1970,2019-01-01 22:37:36,103.813
1971,2019-01-01 22:41:18,145.970
1972,2019-01-01 22:41:18,100.789
1973,2019-01-01 22:41:18,137.461
1974,2019-01-01 22:41:18,108.031
1975,2019-01-01 22:41:19,129.157
1976,2019-01-01 22:41:19,27.708
1977,2019-01-01 22:41:19,33.479
1978,2019-01-01 22:41:20,29.412
1979,2019-01-01 22:41:20,38.263
1980,2019-01-01 22:41:20,114.254
1981,2019-01-01 22:41:22,50.782
1982,2019-01-01 22:41:22,33.489
1983,2019-01-01 22:43:34,143.384
1984,2019-01-01 22:43:36,35.543
1985,2019-01-01 22:43:42,103.841
1986,2019-01-01 22:43:43,29.831
1987,2019-01-01 22:44:24,27.402
1988,2019-01-01 22:44:26,47.736
1989,2019-01-01 22:44:27,27.649
1990,2019-01-01 22:44:27,25.813
1991,2019-01-01 22:44:29,101.107
1992,2019-01-01 22:44:38,38.116
1993,2019-01-01 22:45:16,134.506
1994,2019-01-01 22:45:27,109.834
1995,2019-01-01 22:45:58,149.596
1996,2019-01-01 22:45:58,151.327
1997,2019-01-01 22:45:59,28.613
1998,2019-01-01 22:46:44,142.099
1999,2019-01-01 22:46:44,30.008
2000,2019-01-01 22:46:44,31.890
2001,2019-01-01 22:46:46,143.144
2002,2019-01-01 22:50:12,28.263
2003,2019-01-01 22:50:13,145.299
2004,2019-01-01 22:50:14,32.389
2005,2019-01-01 22:50:14,29.316
2006,2019-01-01 22:50:16,36.680
2007,2019-01-01 22:50:16,28.932
2008,2019-01-01 22:52:15,26.803
2009,2019-01-01 22:52:24,27.321
2010,2019-01-01 22:52:27,28.794
2011,2019-01-01 22:52:53,25.585
2012,2019-01-01 22:52:54,26.854
2013,2019-01-01 22:53:50,27.825
2014,2019-01-01 22:53:53,49.998
2015,2019-01-01 22:53:57,109.620
2016,2019-01-01 22:53:59,142.021
2017,2019-01-01 22:54:00,25.449
2018,2019-01-01 22:54:40,27.889
2019,2019-01-01 22:54:40,31.364
2020,2019-01-01 22:54:40,124.698
2021,2019-01-01 22:55:16,37.666
2022,2019-01-01 22:55:18,28.046
2023,2019-01-01 22:55:21,56.306
2024,2019-01-01 22:56:06,38.621
2025,2019-01-01 22:56:09,34.314
2026,2019-01-01 22:59:09,39.578
2027,2019-01-01 22:59:09,128.419
2028,2019-01-01 22:59:09,26.961
2029,2019-01-01 22:59:11,27.914
2030,2019-01-01 22:59:11,130.655
2031,2019-01-01 22:59:11,47.697
2032,2019-01-01 22:59:11,27.802
2033,2019-01-01 22:59:12,103.034
2034,2019-01-01 22:59:12,131.104
2035,2019-01-01 22:59:12,149.301
2036,2019-01-01 22:59:13,112.861
2037,2019-01-01 23:00:49,47.768
2038,2019-01-01 23:00:52,29.672
2039,2019-01-01 23:01:22,110.117
2040,2019-01-01 23:01:22,140.428
2041,2019-01-01 23:01:27,109.154
2042,2019-01-01 23:01:27,50.234
2043,2019-01-01 23:01:31,29.304
2044,2019-01-01 23:02:08,34.331
2045,2019-01-01 23:02:10,26.355
2046,2019-01-01 23:02:14,104.306
2047,2019-01-01 23:02:16,42.929
2048,2019-01-01 23:02:16,25.378
2049,2019-01-01 23:02:23,41.820
2050,2019-01-01 23:03:06,26.416
2051,2019-01-01 23:03:09,148.036
2052,2019-01-01 23:03:16,33.571
2053,2019-01-01 23:03:51,33.868
2054,2019-01-01 23:04:37,108.348
2055,2019-01-01 23:04:38,26.376
2056,2019-01-01 23:04:42,29.639
2057,2019-01-01 23:04:44,29.116
2058,2019-01-01 23:04:44,100.292
2059,2019-01-01 23:05:22,29.604
2060,2019-01-01 23:07:34,148.790
2061,2019-01-01 23:07:34,161.258
2062,2019-01-01 23:07:35,104.115
2063,2019-01-01 23:07:36,26.041
2064,2019-01-01 23:07:36,31.600
2065,2019-01-01 23:07:37,26.002
2066,2019-01-01 23:07:38,32.975
2067,2019-01-01 23:09:02,27.221
2068,2019-01-01 23:09:03,149.872
2069,2019-01-01 23:09:44,25.675
2070,2019-01-01 23:09:46,34.237
2071,2019-01-01 23:09:53,142.490
2072,2019-01-01 23:10:23,38.244
2073,2019-01-01 23:10:25,41.186
2074,2019-01-01 23:10:27,39.933
2075,2019-01-01 23:10:32,145.219
2076,2019-01-01 23:12:01,43.278
2077,2019-01-01 23:12:03,47.269
2078,2019-01-01 23:12:41,45.532
2079,2019-01-01 23:12:49,25.991
2080,2019-01-01 23:13:31,135.785
2081,2019-01-01 23:13:32,124.490
2082,2019-01-01 23:13:34,146.622
2083,2019-01-01 23:16:11,152.946
2084,2019-01-01 23:16:11,31.364
2085,2019-01-01 23:16:11,131.296
2086,2019-01-01 23:16:11,133.745
2087,2019-01-01 23:16:12,140.928
2088,2019-01-01 23:16:12,142.928
2089,2019-01-01 23:16:13,135.262
2090,2019-01-01 23:16:13,29.555
2091,2019-01-01 23:16:13,117.277
2092,2019-01-01 23:16:14,31.817
2093,2019-01-01 23:16:14,29.865
2094,2019-01-01 23:16:14,31.050
2095,2019-01-01 23:16:15,131.707
2096,2019-01-01 23:16:21,152.992
2097,2019-01-01 23:17:30,28.834
2098,2019-01-01 23:17:39,25.657
2099,2019-01-01 23:17:40,142.532
2100,2019-01-01 23:18:17,30.502
2101,2019-01-01 23:18:18,146.550
2102,2019-01-01 23:18:25,27.915
2103,2019-01-01 23:18:27,132.740
2104,2019-01-01 23:18:29,27.039
2105,2019-01-01 23:18:29,36.677
2106,2019-01-01 23:18:57,38.753
2107,2019-01-01 23:18:59,26.842
2108,2019-01-01 23:19:01,142.102
2109,2019-01-01 23:19:02,259.517
2110,2019-01-01 23:20:00,138.505
2111,2019-01-01 23:20:02,29.140
2112,2019-01-01 23:20:03,224.390
2113,2019-01-01 23:20:04,134.265
2114,2019-01-01 23:20:04,29.624
2115,2019-01-01 23:20:38,33.455
2116,2019-01-01 23:20:39,43.215
2117,2019-01-01 23:20:43,31.938
2118,2019-01-01 23:21:16,33.716
2119,2019-01-01 23:21:18,153.521
2120,2019-01-01 23:21:21,145.918
2121,2019-01-01 23:22:07,139.164
2122,2019-01-01 23:22:09,200.177
2123,2019-01-01 23:24:37,139.814
2124,2019-01-01 23:24:38,177.041
2125,2019-01-01 23:24:39,155.315
2126,2019-01-01 23:24:39,26.957
2127,2019-01-01 23:24:40,110.325
2128,2019-01-01 23:24:41,28.660
2129,2019-01-01 23:24:41,27.393
2130,2019-01-01 23:24:41,26.482
2131,2019-01-01 23:24:42,320.488
2132,2019-01-01 23:24:42,28.963
2133,2019-01-01 23:25:58,138.326
2134,2019-01-01 23:26:11,116.834
2135,2019-01-01 23:26:17,135.664
2136,2019-01-01 23:26:47,129.624
2137,2019-01-01 23:26:49,30.979
2138,2019-01-01 23:26:56,153.261
2139,2019-01-01 23:26:56,266.226
2140,2019-01-01 23:26:57,43.504
2141,2019-01-01 23:27:37,152.316
2142,2019-01-01 23:27:37,104.183
2143,2019-01-01 23:27:37,145.294
2144,2019-01-01 23:27:38,131.198
2145,2019-01-01 23:27:42,145.389
2146,2019-01-01 23:28:30,40.580
2147,2019-01-01 23:28:33,128.940
2148,2019-01-01 23:29:06,28.552
2149,2019-01-01 23:29:07,26.224
2150,2019-01-01 23:29:08,106.983
2151,2019-01-01 23:29:18,146.223
2152,2019-01-01 23:29:51,25.428
2153,2019-01-01 23:29:52,27.641
2154,2019-01-01 23:29:52,130.459
2155,2019-01-01 23:29:54,25.436
2156,2019-01-01 23:29:54,287.172
2157,2019-01-01 23:30:40,114.559
2158,2019-01-01 23:30:43,132.363
2159,2019-01-01 23:33:13,100.620
2160,2019-01-01 23:33:14,161.343
2161,2019-01-01 23:33:14,25.046
2162,2019-01-01 23:33:14,29.905
2163,2019-01-01 23:33:15,125.399
2164,2019-01-01 23:33:16,28.195
2165,2019-01-01 23:33:16,26.827
2166,2019-01-01 23:33:17,105.002
2167,2019-01-01 23:33:17,107.883
2168,2019-01-01 23:33:17,135.714
2169,2019-01-01 23:33:19,150.579
2170,2019-01-01 23:34:32,107.527
2171,2019-01-01 23:34:35,26.558
2172,2019-01-01 23:35:22,35.928
2173,2019-01-01 23:35:24,115.466
2174,2019-01-01 23:35:25,28.294
2175,2019-01-01 23:35:28,103.852
2176,2019-01-01 23:35:28,164.944
2177,2019-01-01 23:35:52,169.155
2178,2019-01-01 23:35:54,29.239
2179,2019-01-01 23:35:57,54.922
2180,2019-01-01 23:35:57,37.517
2181,2019-01-01 23:36:00,146.312
2182,2019-01-01 23:37:00,37.143
2183,2019-01-01 23:37:01,147.101
2184,2019-01-01 23:37:02,140.668
2185,2019-01-01 23:37:02,154.891
2186,2019-01-01 23:37:32,130.557
2187,2019-01-01 23:37:32,26.568
2188,2019-01-01 23:37:35,25.784
2189,2019-01-01 23:38:12,40.153
2190,2019-01-01 23:38:12,111.296
2191,2019-01-01 23:38:13,134.880
2192,2019-01-01 23:38:14,142.022
2193,2019-01-01 23:39:06,31.056
2194,2019-01-01 23:39:09,122.062
2195,2019-01-01 23:39:10,25.357
2196,2019-01-01 23:41:50,29.896
2197,2019-01-01 23:41:51,147.368
2198,2019-01-01 23:41:52,161.581
2199,2019-01-01 23:41:52,25.500
2200,2019-01-01 23:41:52,26.210
2201,2019-01-01 23:41:52,119.316
2202,2019-01-01 23:41:53,137.244
2203,2019-01-01 23:41:53,144.523
2204,2019-01-01 23:41:53,26.977
2205,2019-01-01 23:41:54,144.885
2206,2019-01-01 23:41:54,26.004
2207,2019-01-01 23:41:54,33.024
2208,2019-01-01 23:41:55,130.590
2209,2019-01-01 23:41:55,129.966
2210,2019-01-01 23:41:55,141.230
2211,2019-01-01 23:41:55,154.746
2212,2019-01-01 23:41:59,135.184
2213,2019-01-01 23:43:13,139.805
2214,2019-01-01 23:43:19,113.372
2215,2019-01-01 23:44:05,158.634
2216,2019-01-01 23:44:06,25.683
2217,2019-01-01 23:44:10,41.200
2218,2019-01-01 23:44:12,147.462
2219,2019-01-01 23:44:14,121.332
2220,2019-01-01 23:44:14,26.358
2221,2019-01-01 23:44:57,29.902
2222,2019-01-01 23:44:58,30.609
2223,2019-01-01 23:44:59,27.897
2224,2019-01-01 23:45:40,30.505
2225,2019-01-01 23:45:44,142.004
2226,2019-01-01 23:45:45,30.043
2227,2019-01-01 23:46:23,32.677
2228,2019-01-01 23:46:25,134.994
2229,2019-01-01 23:47:08,39.261
2230,2019-01-01 23:47:14,102.598
2231,2019-01-01 23:47:21,30.311
2232,2019-01-01 23:47:52,138.006
2233,2019-01-01 23:47:55,145.036
2234,2019-01-01 23:50:43,128.194
2235,2019-01-01 23:50:44,145.981
2236,2019-01-01 23:50:45,163.392
2237,2019-01-01 23:50:46,153.192
2238,2019-01-01 23:50:46,35.256
2239,2019-01-01 23:50:47,25.803
2240,2019-01-01 23:52:09,32.331
2241,2019-01-01 23:52:25,142.524
2242,2019-01-01 23:52:58,26.425
2243,2019-01-01 23:53:02,130.542
2244,2019-01-01 23:53:40,25.319
2245,2019-01-01 23:53:41,125.197
2246,2019-01-01 23:53:44,132.200
2247,2019-01-01 23:54:37,142.944
2248,2019-01-01 23:54:38,102.127
2249,2019-01-01 23:54:38,131.655
2250,2019-01-01 23:54:39,109.343
2251,2019-01-01 23:55:16,29.900
2252,2019-01-01 23:55:17,27.330
2253,2019-01-01 23:55:20,26.186
2254,2019-01-01 23:55:20,145.567
2255,2019-01-01 23:55:55,152.243
2256,2019-01-01 23:55:55,28.511
2257,2019-01-01 23:55:58,90.395
2258,2019-01-01 23:56:00,132.851
2259,2019-01-01 23:56:01,139.730
2260,2019-01-01 23:56:43,148.700
2261,2019-01-01 23:56:44,31.391
2262,2019-01-01 23:56:44,110.964
2263,2019-01-01 23:56:46,37.408
2264,2019-01-01 23:56:46,39.113
2265,2019-01-01 23:59:08,125.081
2266,2019-01-01 23:59:08,159.663
2267,2019-01-01 23:59:09,123.894
2268,2019-01-01 23:59:09,144.112
2269,2019-01-01 23:59:09,28.612
2270,2019-01-01 23:59:10,132.536
2271,2019-01-01 23:59:11,129.220
2272,2019-01-01 23:59:12,152.308
2273,2019-01-01 23:59:12,38.065
2274,2019-01-02 00:00:34,28.592
2275,2019-01-02 00:00:37,139.212
2276,2019-01-02 00:00:50,106.780
2277,2019-01-02 00:00:51,128.960
2278,2019-01-02 00:01:19,29.032
2279,2019-01-02 00:01:22,149.246
2280,2019-01-02 00:01:22,133.649
2281,2019-01-02 00:01:24,124.702
2282,2019-01-02 00:01:24,25.785
2283,2019-01-02 00:01:25,179.024
2284,2019-01-02 00:01:30,107.048
2285,2019-01-02 00:01:31,121.611
2286,2019-01-02 00:01:31,169.288
2287,2019-01-02 00:01:31,130.454
2288,2019-01-02 00:01:34,25.869
2289,2019-01-02 00:02:15,132.621
2290,2019-01-02 00:02:15,153.215
2291,2019-01-02 00:02:16,115.304
2292,2019-01-02 00:02:17,129.422
2293,2019-01-02 00:02:18,141.289
2294,2019-01-02 00:02:22,155.644
2295,2019-01-02 00:02:23,28.717
2296,2019-01-02 00:02:27,26.343
2297,2019-01-02 00:03:10,31.504
2298,2019-01-02 00:03:15,103.865
2299,2019-01-02 00:03:18,121.765
2300,2019-01-02 00:03:49,125.180
2301,2019-01-02 00:03:49,161.084
2302,2019-01-02 00:03:51,29.435
2303,2019-01-02 00:03:51,141.823
2304,2019-01-02 00:03:52,134.730
2305,2019-01-02 00:04:39,32.468
2306,2019-01-02 00:04:41,129.412
2307,2019-01-02 00:04:42,29.828
2308,2019-01-02 00:04:49,39.017
2309,2019-01-02 00:05:25,104.418
