,time,rtt,id
4133,4133,3668.0,4133
3429,3429,1088.0,3429
2758,2758,15.027,2758
2318,2318,10.82,2318
3704,3704,13.366,3704
2814,2814,81.839,2814
513,513,1880.0,513
1623,1623,1035.0,1623
1484,1484,33.011,1484
3927,3927,2163.0,3927
2721,2721,0.0,2721
2586,2586,12.307,2586
3256,3256,38.468,3256
763,763,2602.0,763
1636,1636,11.984000000000002,1636
1141,1141,3488.0,1141
1966,1966,14.767,1966
695,695,0.0,695
3199,3199,0.0,3199
3719,3719,3476.0,3719
2899,2899,2078.0,2899
2911,2911,2427.0,2911
1275,1275,2837.0,1275
3474,3474,12.235,3474
2508,2508,17.554000000000002,2508
2829,2829,3721.0,2829
2595,2595,1138.0,2595
4061,4061,0.0,4061
1206,1206,50.962,1206
4175,4175,678.0,4175
3405,3405,1393.0,3405
1885,1885,3717.0,1885
3308,3308,23.33,3308
2685,2685,330.0,2685
798,798,11.445,798
2001,2001,2155.0,2001
1191,1191,3280.0,1191
1174,1174,11.642,1174
812,812,19.637,812
3495,3495,2081.0,3495
3078,3078,68.872,3078
1491,1491,1791.0,1491
1586,1586,23.27,1586
2135,2135,2336.0,2135
3369,3369,3233.0,3369
3468,3468,17.184,3468
4263,4263,526.0,4263
1614,1614,11.844,1614
3713,3713,0.0,3713
2296,2296,137.939,2296
928,928,30.608,928
3510,3510,13.132,3510
1043,1043,2954.0,1043
2813,2813,2127.0,2813
2833,2833,1568.0,2833
2176,2176,15.262,2176
2816,2816,13.563,2816
3179,3179,1897.0,3179
2872,2872,10.906,2872
3899,3899,2601.0,3899
1877,1877,2419.0,1877
818,818,15.097,818
3735,3735,3412.0,3735
2626,2626,15.72,2626
3176,3176,25.974,3176
4123,4123,827.0,4123
2015,2015,3437.0,2015
4365,4365,0.0,4365
1664,1664,14.496,1664
4336,4336,16.413,4336
2993,2993,1685.0,2993
623,623,89.0,623
773,773,2364.0,773
4391,4391,1827.0,4391
1511,1511,671.0,1511
3264,3264,15.155,3264
720,720,25.085,720
1323,1323,3422.0,1323
4084,4084,11.12,4084
1485,1485,203.0,1485
3952,3952,40.986,3952
2887,2887,2860.0,2887
4389,4389,436.0,4389
1371,1371,3023.0,1371
3718,3718,15.376,3718
1220,1220,15.672,1220
3530,3530,18.92,3530
2545,2545,1907.0,2545
1026,1026,13.121,1026
2671,2671,163.0,2671
2314,2314,12.313,2314
1364,1364,22.049,1364
2363,2363,2438.0,2363
858,858,36.241,858
2391,2391,67.0,2391
1076,1076,25.791,1076
2373,2373,3672.0,2373
3128,3128,15.226,3128
2879,2879,1753.0,2879
2470,2470,23.678,2470
2989,2989,2703.0,2989
740,740,31.132,740
4241,4241,369.0,4241
1409,1409,3553.0,1409
688,688,76.332,688
1455,1455,3142.0,1455
4063,4063,2626.0,4063
2026,2026,12.425,2026
560,560,37.545,560
2731,2731,1002.0,2731
1256,1256,17.794,1256
1535,1535,1692.0,1535
1545,1545,2395.0,1545
3100,3100,11.707,3100
3442,3442,14.634,3442
2439,2439,1137.0,2439
3368,3368,12.8,3368
3846,3846,21.398000000000003,3846
895,895,2015.0,895
2024,2024,12.937,2024
955,955,139.0,955
3315,3315,2864.0,3315
724,724,25.044,724
1239,1239,2179.0,1239
3506,3506,18.217,3506
2579,2579,1398.0,2579
1289,1289,510.0,1289
1377,1377,2051.0,1377
2074,2074,33.604,2074
704,704,39.195,704
1667,1667,2730.0,1667
3883,3883,0.0,3883
2828,2828,13.2,2828
3963,3963,0.0,3963
1946,1946,24.677,1946
1864,1864,14.661,1864
4064,4064,41.61600000000001,4064
598,598,14.43,598
3905,3905,397.0,3905
4224,4224,29.349,4224
3617,3617,1275.0,3617
1915,1915,631.0,1915
2170,2170,14.915,2170
3390,3390,12.685,3390
2185,2185,1910.0,2185
2575,2575,3446.0,2575
859,859,2450.0,859
1308,1308,19.102,1308
2802,2802,18.753,2802
2497,2497,223.0,2497
1018,1018,26.982,1018
566,566,22.269,566
3225,3225,1995.0,3225
3269,3269,121.0,3269
2772,2772,24.351,2772
2836,2836,11.844,2836
1490,1490,13.536,1490
3257,3257,827.0,3257
651,651,2149.0,651
3966,3966,14.169,3966
578,578,16.358,578
577,577,1607.0,577
2569,2569,167.0,2569
1947,1947,2483.0,1947
1846,1846,14.343,1846
820,820,14.383,820
2745,2745,364.0,2745
1479,1479,673.0,1479
948,948,10.76,948
2137,2137,570.0,2137
4155,4155,1775.0,4155
2940,2940,11.437,2940
1029,1029,3641.0,1029
1041,1041,1141.0,1041
868,868,12.415,868
4204,4204,18.15,4204
3948,3948,31.531,3948
3838,3838,45.287,3838
2073,2073,0.0,2073
3830,3830,17.277,3830
1750,1750,11.130999999999998,1750
690,690,15.284,690
2746,2746,16.035,2746
3098,3098,12.368,3098
1736,1736,12.059,1736
4300,4300,11.36,4300
3440,3440,10.773,3440
2902,2902,25.903,2902
2986,2986,11.39,2986
642,642,16.346,642
4138,4138,10.417,4138
906,906,18.502,906
2771,2771,3774.0,2771
3642,3642,11.873,3642
1685,1685,0.0,1685
3626,3626,23.492,3626
1274,1274,12.824000000000002,1274
3253,3253,83.0,3253
2957,2957,2627.0,2957
1643,1643,2213.0,1643
3802,3802,179.01,3802
2358,2358,15.202,2358
2796,2796,16.578,2796
2710,2710,14.111,2710
2956,2956,26.812,2956
4208,4208,40.135,4208
3752,3752,14.629,3752
2934,2934,10.858,2934
3988,3988,14.351,3988
964,964,24.458,964
3258,3258,25.188,3258
3263,3263,1294.0,3263
783,783,289.0,783
692,692,17.308,692
2505,2505,200.0,2505
2334,2334,18.463,2334
2012,2012,15.14,2012
2230,2230,26.34,2230
3186,3186,11.753,3186
3609,3609,2164.0,3609
890,890,26.985,890
703,703,1118.0,703
2507,2507,959.0,2507
500,500,11.466,500
1809,1809,2213.0,1809
1063,1063,2639.0,1063
1626,1626,21.078000000000007,1626
1197,1197,2483.0,1197
1240,1240,15.07,1240
933,933,0.0,933
978,978,16.173,978
2635,2635,123.0,2635
1418,1418,15.526,1418
2619,2619,0.0,2619
2199,2199,0.0,2199
910,910,17.107,910
905,905,0.0,905
2603,2603,3270.0,2603
4301,4301,1385.0,4301
4387,4387,2792.0,4387
1971,1971,0.0,1971
2499,2499,887.0,2499
1394,1394,15.228,1394
2543,2543,3360.0,2543
3344,3344,17.281,3344
1766,1766,12.154000000000002,1766
877,877,3426.0,877
2131,2131,1883.0,2131
2113,2113,792.0,2113
3400,3400,11.963,3400
1837,1837,2656.0,1837
3937,3937,0.0,3937
2110,2110,29.472,2110
2520,2520,15.369000000000002,2520
748,748,22.879,748
1563,1563,1783.0,1563
1986,1986,12.911,1986
3259,3259,0.0,3259
1990,1990,12.348,1990
3504,3504,22.037,3504
2696,2696,11.123,2696
3813,3813,952.0,3813
2820,2820,18.785,2820
1722,1722,14.278,1722
4168,4168,18.458,4168
1171,1171,1454.0,1171
589,589,1099.0,589
2863,2863,1496.0,2863
3925,3925,0.0,3925
3603,3603,255.0,3603
2789,2789,812.0,2789
718,718,18.785,718
2556,2556,17.712,2556
1786,1786,12.137,1786
1376,1376,17.413,1376
1306,1306,21.012,1306
3661,3661,561.0,3661
3327,3327,290.0,3327
1255,1255,1254.0,1255
4388,4388,18.264,4388
3877,3877,2017.0,3877
4284,4284,15.637,4284
1067,1067,672.0,1067
1260,1260,13.648,1260
2413,2413,2452.0,2413
3182,3182,14.807,3182
2182,2182,15.85,2182
1922,1922,19.252,1922
1833,1833,3297.0,1833
4122,4122,16.093,4122
1442,1442,17.877,1442
3602,3602,189.636,3602
4002,4002,14.37,4002
1352,1352,39.524,1352
3587,3587,1362.0,3587
2670,2670,15.492,2670
1749,1749,0.0,1749
3328,3328,15.781,3328
2633,2633,3391.0,2633
2680,2680,13.717,2680
1571,1571,3616.0,1571
3284,3284,12.409,3284
1544,1544,19.586,1544
1429,1429,0.0,1429
3192,3192,15.58,3192
4161,4161,165.0,4161
3401,3401,1776.0,3401
2678,2678,39.024,2678
3918,3918,34.09,3918
2729,2729,2214.0,2729
3147,3147,167.0,3147
3015,3015,3440.0,3015
3629,3629,3244.0,3629
4291,4291,520.0,4291
1709,1709,2770.0,1709
3430,3430,41.219,3430
3286,3286,20.098,3286
776,776,17.402,776
3214,3214,13.140999999999998,3214
1896,1896,29.065,1896
1980,1980,20.208,1980
1510,1510,14.915,1510
4016,4016,11.376,4016
700,700,19.428,700
1732,1732,11.995,1732
4095,4095,1599.0,4095
1996,1996,25.489,1996
2365,2365,1123.0,2365
1182,1182,23.732,1182
2094,2094,18.291,2094
1923,1923,3490.0,1923
861,861,72.0,861
3772,3772,19.853,3772
2040,2040,10.875,2040
2717,2717,2270.0,2717
4106,4106,27.359,4106
2476,2476,27.14,2476
3358,3358,34.056999999999995,3358
2818,2818,13.837,2818
2010,2010,11.623,2010
2602,2602,11.571,2602
2480,2480,26.229,2480
4033,4033,2163.0,4033
3940,3940,179.648,3940
3949,3949,1710.0,3949
3707,3707,0.0,3707
3851,3851,413.0,3851
950,950,10.934,950
1580,1580,20.107,1580
504,504,11.712,504
2564,2564,19.446,2564
1509,1509,104.0,1509
3454,3454,10.825,3454
2730,2730,14.118,2730
2325,2325,463.0,2325
3063,3063,2579.0,3063
1016,1016,13.853,1016
3694,3694,16.637,3694
956,956,13.053,956
4015,4015,0.0,4015
4212,4212,11.611,4212
2766,2766,24.48,2766
1126,1126,11.955,1126
3300,3300,11.556,3300
3451,3451,0.0,3451
2056,2056,14.764,2056
1789,1789,3314.0,1789
3574,3574,31.503,3574
708,708,22.876,708
675,675,456.0,675
751,751,3222.0,751
2140,2140,13.958,2140
1876,1876,31.578000000000007,1876
1717,1717,992.0,1717
3020,3020,11.259,3020
3792,3792,17.338,3792
2440,2440,114.267,2440
2276,2276,16.71,2276
2364,2364,16.944000000000006,2364
3595,3595,2404.0,3595
1577,1577,2873.0,1577
3229,3229,3112.0,3229
1301,1301,3080.0,1301
3957,3957,2127.0,3957
2464,2464,10.813,2464
784,784,24.441,784
3464,3464,18.64,3464
520,520,14.553,520
2359,2359,3341.0,2359
2447,2447,1948.0,2447
3180,3180,13.667,3180
2463,2463,1223.0,2463
2297,2297,2444.0,2297
2722,2722,24.653,2722
3990,3990,13.972,3990
912,912,15.92,912
2289,2289,0.0,2289
1988,1988,14.333,1988
4160,4160,32.118,4160
941,941,0.0,941
3791,3791,3064.0,3791
2275,2275,3188.0,2275
1670,1670,15.005999999999998,1670
666,666,10.845,666
4258,4258,10.799,4258
2535,2535,3236.0,2535
3216,3216,128.187,3216
897,897,1664.0,897
2876,2876,11.042,2876
4193,4193,2462.0,4193
1616,1616,11.737,1616
3514,3514,35.576,3514
2204,2204,24.249,2204
1637,1637,1336.0,1637
3926,3926,169.12599999999995,3926
2590,2590,14.714,2590
2460,2460,18.105,2460
1523,1523,3548.0,1523
4374,4374,12.845,4374
742,742,14.323,742
3270,3270,14.584,3270
1158,1158,17.648,1158
2679,2679,3638.0,2679
1900,1900,35.7,1900
4000,4000,36.143,4000
3984,3984,202.913,3984
2261,2261,3042.0,2261
2686,2686,12.541,2686
2921,2921,1148.0,2921
2848,2848,22.593000000000004,2848
2871,2871,630.0,2871
1395,1395,1907.0,1395
3375,3375,0.0,3375
3324,3324,177.24900000000005,3324
3220,3220,32.767,3220
3655,3655,3406.0,3655
2169,2169,3357.0,2169
593,593,1020.0,593
2917,2917,196.0,2917
4384,4384,11.319,4384
571,571,289.0,571
1696,1696,15.425,1696
562,562,16.312,562
2421,2421,3285.0,2421
1037,1037,348.0,1037
2496,2496,15.831,2496
2240,2240,15.566,2240
2663,2663,0.0,2663
2366,2366,18.896,2366
1462,1462,16.235,1462
1575,1575,3534.0,1575
2943,2943,1471.0,2943
1147,1147,1974.0,1147
3044,3044,12.427,3044
1212,1212,20.788,1212
977,977,0.0,977
3141,3141,2574.0,3141
2472,2472,18.526,2472
3316,3316,14.505,3316
1161,1161,688.0,1161
2769,2769,2841.0,2769
754,754,30.765,754
934,934,22.57,934
714,714,23.753,714
3190,3190,17.792,3190
2822,2822,34.006,2822
3911,3911,1897.0,3911
1155,1155,2981.0,1155
1330,1330,41.153,1330
3761,3761,2107.0,3761
1558,1558,15.354,1558
1307,1307,1189.0,1307
2200,2200,12.753,2200
2510,2510,26.366,2510
592,592,24.303,592
4335,4335,2224.0,4335
2895,2895,330.0,2895
1436,1436,14.169,1436
2241,2241,144.0,2241
4342,4342,17.84,4342
3341,3341,2637.0,3341
521,521,665.0,521
2103,2103,2367.0,2103
3913,3913,638.0,3913
2091,2091,595.0,2091
3473,3473,3701.0,3473
1138,1138,30.234,1138
1843,1843,0.0,1843
2824,2824,35.412,2824
3778,3778,12.819,3778
787,787,1229.0,787
2428,2428,15.784,2428
4222,4222,20.682,4222
2163,2163,577.0,2163
3396,3396,21.742,3396
1082,1082,14.598,1082
3839,3839,1116.0,3839
1094,1094,15.057,1094
1004,1004,11.317,1004
3272,3272,15.928,3272
1291,1291,3034.0,1291
4369,4369,0.0,4369
2380,2380,34.686,2380
2653,2653,1515.0,2653
1916,1916,13.817,1916
641,641,173.0,641
509,509,989.0,509
3228,3228,15.851,3228
2414,2414,16.082,2414
902,902,19.941,902
4066,4066,13.326,4066
3701,3701,858.0,3701
1672,1672,13.321,1672
1619,1619,3482.0,1619
3866,3866,59.038,3866
659,659,3031.0,659
2249,2249,1989.0,2249
2877,2877,2858.0,2877
953,953,1622.0,953
3477,3477,902.0,3477
4057,4057,0.0,4057
2587,2587,0.0,2587
3777,3777,1280.0,3777
2950,2950,15.798,2950
1124,1124,15.503,1124
1384,1384,13.809,1384
1648,1648,15.332,1648
3692,3692,18.768,3692
2864,2864,13.552,2864
1552,1552,14.174,1552
741,741,1272.0,741
3047,3047,2804.0,3047
3737,3737,328.0,3737
3162,3162,15.805,3162
1630,1630,20.249,1630
2462,2462,14.636,2462
2117,2117,3524.0,2117
3379,3379,3357.0,3379
1382,1382,15.458,1382
2658,2658,15.029000000000002,2658
2351,2351,2655.0,2351
3533,3533,2629.0,3533
4203,4203,2577.0,4203
2370,2370,14.034,2370
3874,3874,11.927,3874
3206,3206,14.882,3206
3087,3087,55.0,3087
3976,3976,22.407,3976
2317,2317,0.0,2317
3207,3207,1791.0,3207
3092,3092,11.233,3092
582,582,11.571,582
775,775,1893.0,775
2009,2009,2992.0,2009
604,604,32.756,604
3663,3663,2295.0,3663
4156,4156,14.511,4156
2155,2155,1121.0,2155
1501,1501,108.0,1501
3605,3605,0.0,3605
4287,4287,2711.0,4287
3928,3928,21.102,3928
1894,1894,14.007,1894
4307,4307,1977.0,4307
3596,3596,12.118,3596
1437,1437,3725.0,1437
2849,2849,1664.0,2849
3112,3112,14.24,3112
1123,1123,1975.0,1123
4323,4323,3373.0,4323
3634,3634,14.272,3634
2039,2039,799.0,2039
974,974,16.62,974
1250,1250,14.115,1250
803,803,367.0,803
2908,2908,11.199000000000002,2908
2021,2021,0.0,2021
4330,4330,14.823,4330
680,680,16.099,680
3522,3522,12.671,3522
1556,1556,17.094,1556
4196,4196,14.311,4196
2711,2711,3747.0,2711
1633,1633,3062.0,1633
2907,2907,1259.0,2907
1341,1341,0.0,1341
2592,2592,15.095999999999998,2592
2124,2124,11.639,2124
1019,1019,3444.0,1019
1905,1905,148.0,1905
3814,3814,32.908,3814
2681,2681,2153.0,2681
1838,1838,12.845,1838
1724,1724,17.086,1724
1036,1036,27.861,1036
2127,2127,0.0,2127
1839,1839,0.0,1839
911,911,1226.0,911
1099,1099,1880.0,1099
870,870,13.142,870
1977,1977,3262.0,1977
989,989,2586.0,989
3198,3198,14.713,3198
1299,1299,2289.0,1299
2306,2306,19.43,2306
3303,3303,2415.0,3303
1557,1557,2858.0,1557
3512,3512,211.229,3512
2985,2985,1646.0,2985
2392,2392,14.345,2392
4219,4219,2336.0,4219
1139,1139,3761.0,1139
2689,2689,688.0,2689
1624,1624,10.842,1624
3779,3779,2720.0,3779
772,772,31.801,772
2422,2422,16.391,2422
3399,3399,1983.0,3399
3549,3549,1244.0,3549
2562,2562,21.591,2562
2847,2847,2983.0,2847
3236,3236,12.616,3236
3345,3345,2806.0,3345
2528,2528,14.277,2528
4314,4314,27.225,4314
1920,1920,14.468,1920
1680,1680,18.722,1680
3720,3720,17.016,3720
3359,3359,2308.0,3359
1427,1427,1569.0,1427
2825,2825,0.0,2825
1505,1505,198.0,1505
1620,1620,50.1,1620
4214,4214,14.232,4214
1493,1493,3109.0,1493
2919,2919,232.0,2919
4065,4065,2985.0,4065
1573,1573,2757.0,1573
1186,1186,13.515999999999998,1186
3189,3189,0.0,3189
2437,2437,2547.0,2437
2395,2395,1208.0,2395
4240,4240,15.656,4240
3288,3288,13.237,3288
2425,2425,0.0,2425
3356,3356,17.590999999999998,3356
2861,2861,1425.0,2861
3380,3380,11.502,3380
3323,3323,0.0,3323
852,852,24.494,852
983,983,1166.0,983
2446,2446,11.829,2446
2043,2043,1022.0,2043
3226,3226,59.817,3226
3624,3624,146.061,3624
1660,1660,24.228,1660
931,931,1301.0,931
2987,2987,1970.0,2987
1478,1478,11.101,1478
3493,3493,1253.0,3493
630,630,11.925999999999998,630
702,702,33.743,702
867,867,1362.0,867
1805,1805,778.0,1805
3929,3929,3411.0,3929
1097,1097,1207.0,1097
2783,2783,2718.0,2783
2466,2466,16.052,2466
4360,4360,12.136,4360
2011,2011,47.0,2011
3633,3633,2239.0,3633
1641,1641,3211.0,1641
3695,3695,2330.0,3695
3158,3158,11.164,3158
717,717,2007.0,717
707,707,0.0,707
2493,2493,2725.0,2493
3232,3232,14.406,3232
3750,3750,12.132,3750
2576,2576,21.955,2576
2238,2238,12.762,2238
2532,2532,16.26,2532
1414,1414,15.941,1414
3665,3665,3663.0,3665
3095,3095,2900.0,3095
3880,3880,37.984,3880
1686,1686,15.951,1686
1801,1801,0.0,1801
3330,3330,69.782,3330
2913,2913,223.0,2913
2559,2559,2360.0,2559
2750,2750,14.838,2750
4295,4295,3054.0,4295
3738,3738,11.185,3738
506,506,11.484000000000002,506
1763,1763,3461.0,1763
2660,2660,14.056,2660
2570,2570,10.333,2570
3730,3730,11.836,3730
3532,3532,19.13,3532
3993,3993,2356.0,3993
4082,4082,12.899,4082
2430,2430,11.247,2430
3536,3536,30.012,3536
2419,2419,3639.0,2419
558,558,32.611,558
3205,3205,2378.0,3205
2118,2118,11.764,2118
3313,3313,1517.0,3313
4159,4159,2912.0,4159
875,875,3016.0,875
2298,2298,158.058,2298
4145,4145,2619.0,4145
2008,2008,13.857,2008
2732,2732,12.278,2732
1102,1102,11.232,1102
1001,1001,2130.0,1001
3660,3660,17.634,3660
1244,1244,12.864,1244
1671,1671,3320.0,1671
2064,2064,17.052,2064
1148,1148,20.384,1148
619,619,3274.0,619
2858,2858,13.951,2858
3969,3969,3113.0,3969
2347,2347,1964.0,2347
3431,3431,1901.0,3431
876,876,13.806,876
2329,2329,0.0,2329
3149,3149,0.0,3149
2843,2843,1498.0,2843
3636,3636,12.392,3636
1665,1665,2190.0,1665
3233,3233,2182.0,3233
2454,2454,11.435,2454
1408,1408,13.481,1408
1824,1824,15.329,1824
1241,1241,913.0,1241
1293,1293,0.0,1293
3667,3667,199.0,3667
4179,4179,997.0,4179
2886,2886,14.556,2886
2291,2291,3348.0,2291
568,568,15.26,568
1532,1532,53.863,1532
2733,2733,1196.0,2733
2608,2608,11.545,2608
3543,3543,3069.0,3543
3939,3939,802.0,3939
4078,4078,11.572,4078
811,811,3573.0,811
819,819,3753.0,819
1711,1711,3502.0,1711
1456,1456,33.654,1456
3580,3580,176.68900000000005,3580
2823,2823,1949.0,2823
3036,3036,12.944,3036
684,684,18.331,684
2236,2236,14.522,2236
1593,1593,2156.0,1593
3317,3317,3162.0,3317
2389,2389,2100.0,2389
2341,2341,1482.0,2341
924,924,22.787,924
3447,3447,858.0,3447
1267,1267,1617.0,1267
2000,2000,22.196,2000
3703,3703,651.0,3703
2760,2760,14.991,2760
1754,1754,13.878,1754
4238,4238,12.75,4238
4177,4177,1300.0,4177
1524,1524,17.173,1524
844,844,12.363,844
3408,3408,27.289,3408
1014,1014,22.163,1014
1362,1362,13.283,1362
2315,2315,0.0,2315
833,833,1579.0,833
1471,1471,779.0,1471
2246,2246,13.624,2246
3833,3833,697.0,3833
1062,1062,12.267,1062
1743,1743,3749.0,1743
3394,3394,18.421,3394
2631,2631,469.0,2631
2770,2770,42.784,2770
3392,3392,14.428,3392
1982,1982,18.508,1982
3977,3977,3747.0,3977
4309,4309,1950.0,4309
1578,1578,21.619,1578
1639,1639,2165.0,1639
2780,2780,23.124,2780
4340,4340,13.776,4340
1765,1765,2194.0,1765
958,958,12.36,958
1928,1928,12.03,1928
979,979,0.0,979
4223,4223,3473.0,4223
2757,2757,1814.0,2757
2638,2638,16.762,2638
738,738,11.434,738
1585,1585,2268.0,1585
3196,3196,21.639,3196
2161,2161,239.0,2161
2673,2673,2232.0,2673
1329,1329,1017.0,1329
2933,2933,1890.0,2933
716,716,15.11,716
3222,3222,129.974,3222
1603,1603,2244.0,1603
1669,1669,977.0,1669
1334,1334,21.18,1334
1317,1317,1163.0,1317
4046,4046,15.45,4046
3869,3869,1884.0,3869
1027,1027,0.0,1027
4354,4354,26.331,4354
3114,3114,85.81700000000002,3114
1714,1714,12.604,1714
4192,4192,26.376,4192
3638,3638,12.815,3638
3542,3542,16.127,3542
1246,1246,18.429,1246
1492,1492,10.785,1492
909,909,2166.0,909
1452,1452,15.542,1452
834,834,10.722,834
1678,1678,66.509,1678
4181,4181,1171.0,4181
1090,1090,14.992,1090
3956,3956,12.73,3956
1472,1472,24.313,1472
935,935,420.0,935
4090,4090,12.935,4090
3727,3727,1834.0,3727
3184,3184,10.703,3184
4176,4176,12.884,4176
1525,1525,1769.0,1525
898,898,17.994,898
2572,2572,19.385,2572
545,545,2680.0,545
4174,4174,27.203000000000007,4174
3416,3416,11.795,3416
2196,2196,28.304,2196
2226,2226,12.422,2226
621,621,52.0,621
2233,2233,976.0,2233
3497,3497,1035.0,3497
815,815,3056.0,815
2624,2624,11.19,2624
2484,2484,11.88,2484
2514,2514,19.63,2514
608,608,17.069000000000006,608
1066,1066,16.807000000000002,1066
3148,3148,11.278,3148
2728,2728,16.73,2728
4337,4337,1954.0,4337
3834,3834,13.865,3834
1720,1720,16.011,1720
3338,3338,28.359,3338
4103,4103,727.0,4103
2245,2245,1276.0,2245
2175,2175,2704.0,2175
4060,4060,173.68,4060
2205,2205,243.0,2205
2427,2427,485.0,2427
3129,3129,2976.0,3129
1179,1179,3528.0,1179
3631,3631,2420.0,3631
1597,1597,218.0,1597
1054,1054,11.784,1054
1184,1184,15.229,1184
572,572,15.102,572
1909,1909,2170.0,1909
918,918,11.36,918
1262,1262,14.811,1262
1568,1568,10.857,1568
1181,1181,3117.0,1181
1939,1939,1063.0,1939
1003,1003,2935.0,1003
595,595,147.0,595
2640,2640,15.462,2640
3945,3945,1997.0,3945
2093,2093,0.0,2093
810,810,14.802,810
4151,4151,1356.0,4151
1514,1514,11.656,1514
1742,1742,11.342,1742
1000,1000,12.854,1000
1859,1859,857.0,1859
4167,4167,873.0,4167
1415,1415,3225.0,1415
4049,4049,3190.0,4049
3755,3755,1214.0,3755
3351,3351,823.0,3351
4275,4275,1376.0,4275
2547,2547,208.0,2547
1247,1247,3270.0,1247
2979,2979,1296.0,2979
4085,4085,417.0,4085
1035,1035,3272.0,1035
4210,4210,18.542,4210
4170,4170,16.083,4170
3886,3886,18.123,3886
3203,3203,1928.0,3203
2331,2331,842.0,2331
2724,2724,19.936,2724
726,726,19.309,726
4186,4186,10.593,4186
4050,4050,14.772,4050
3971,3971,1331.0,3971
2411,2411,3196.0,2411
2260,2260,75.667,2260
4013,4013,3240.0,4013
3967,3967,3231.0,3967
3537,3537,1644.0,3537
1508,1508,19.398,1508
1412,1412,20.355,1412
2452,2452,13.732,2452
3061,3061,1851.0,3061
1965,1965,2538.0,1965
770,770,19.156,770
4041,4041,2039.0,4041
4257,4257,629.0,4257
3275,3275,3661.0,3275
3056,3056,11.553,3056
2162,2162,13.466,2162
1280,1280,20.227,1280
2561,2561,1123.0,2561
617,617,0.0,617
3144,3144,10.422,3144
2855,2855,2421.0,2855
755,755,351.0,755
2486,2486,33.816,2486
3290,3290,13.23,3290
1202,1202,14.672,1202
1170,1170,15.418,1170
2258,2258,20.248,2258
766,766,17.115,766
4221,4221,71.0,4221
1176,1176,22.521,1176
565,565,0.0,565
1873,1873,2490.0,1873
2714,2714,14.968,2714
2134,2134,33.439,2134
960,960,18.399,960
3999,3999,774.0,3999
3362,3362,24.332,3362
4215,4215,3285.0,4215
1695,1695,3661.0,1695
1051,1051,1867.0,1051
2795,2795,1175.0,2795
3011,3011,2900.0,3011
1893,1893,1089.0,1893
3612,3612,21.058000000000003,3612
3551,3551,2967.0,3551
3413,3413,979.0,3413
3466,3466,14.614,3466
2393,2393,1761.0,2393
596,596,22.157,596
1968,1968,12.325,1968
2533,2533,67.0,2533
2272,2272,24.328000000000007,2272
1621,1621,1626.0,1621
1218,1218,68.655,1218
1183,1183,2240.0,1183
2693,2693,2992.0,2693
3893,3893,1492.0,3893
2235,2235,2759.0,2235
4338,4338,14.124,4338
2830,2830,23.876,2830
3428,3428,150.293,3428
3274,3274,17.187,3274
1481,1481,901.0,1481
4100,4100,12.106,4100
3759,3759,487.0,3759
3812,3812,12.729,3812
3366,3366,196.022,3366
2953,2953,0.0,2953
1592,1592,15.339,1592
2898,2898,16.055999999999994,2898
1189,1189,2348.0,1189
1513,1513,3700.0,1513
2348,2348,146.533,2348
1165,1165,1138.0,1165
1450,1450,13.675,1450
2992,2992,22.959,2992
887,887,3450.0,887
1178,1178,21.959,1178
2875,2875,1918.0,2875
1861,1861,1025.0,1861
2782,2782,21.428,2782
2910,2910,14.081,2910
997,997,2834.0,997
1741,1741,3356.0,1741
683,683,1015.0,683
915,915,0.0,915
637,637,792.0,637
1730,1730,17.309,1730
3343,3343,3249.0,3343
828,828,25.475,828
4333,4333,376.0,4333
2529,2529,174.0,2529
2804,2804,11.884,2804
2558,2558,16.750999999999998,2558
970,970,14.706,970
992,992,16.454,992
2788,2788,22.34,2788
2076,2076,16.441,2076
2187,2187,492.0,2187
3160,3160,12.556,3160
4009,4009,1295.0,4009
4077,4077,973.0,4077
821,821,1633.0,821
3398,3398,13.291,3398
4277,4277,1541.0,4277
2690,2690,14.220999999999998,2690
1690,1690,13.481,1690
4011,4011,2097.0,4011
3906,3906,108.399,3906
2960,2960,13.492,2960
4326,4326,58.43899999999999,4326
2016,2016,14.874,2016
1226,1226,10.92,1226
1337,1337,3154.0,1337
3942,3942,53.316,3942
2775,2775,2230.0,2775
3511,3511,2765.0,3511
3085,3085,3462.0,3085
3347,3347,1046.0,3347
3773,3773,1569.0,3773
1890,1890,26.442,1890
2656,2656,12.931,2656
1358,1358,46.464,1358
3118,3118,28.497,3118
3093,3093,778.0,3093
2025,2025,2468.0,2025
2657,2657,604.0,2657
3679,3679,1564.0,3679
1290,1290,14.229,1290
3080,3080,19.021,3080
557,557,1495.0,557
4038,4038,183.485,4038
3000,3000,15.399,3000
3386,3386,174.112,3386
4120,4120,11.853,4120
1315,1315,2627.0,1315
2615,2615,2700.0,2615
3140,3140,10.44,3140
2374,2374,14.497,2374
3238,3238,13.825,3238
3584,3584,17.494,3584
1278,1278,24.958,1278
4126,4126,16.415,4126
752,752,12.49,752
3480,3480,12.468,3480
4047,4047,1654.0,4047
1788,1788,18.593,1788
2097,2097,3075.0,2097
4372,4372,37.845,4372
2546,2546,14.689,2546
2915,2915,3457.0,2915
1263,1263,1378.0,1263
3646,3646,12.541,3646
1798,1798,11.193,1798
1858,1858,11.526,1858
842,842,11.58,842
848,848,10.893,848
3096,3096,54.32100000000001,3096
3677,3677,2617.0,3677
3108,3108,19.598,3108
2345,2345,1578.0,2345
823,823,3103.0,823
3310,3310,13.865,3310
747,747,1542.0,747
4254,4254,12.652,4254
736,736,12.568,736
1188,1188,11.774,1188
524,524,11.028,524
1612,1612,22.517,1612
3378,3378,19.296,3378
1746,1746,11.6,1746
2335,2335,101.0,2335
2935,2935,2941.0,2935
3847,3847,3402.0,3847
2548,2548,12.156,2548
824,824,26.388,824
4128,4128,61.478,4128
3784,3784,11.484000000000002,3784
1372,1372,22.77,1372
3570,3570,35.725,3570
4022,4022,11.433,4022
2571,2571,1681.0,2571
1224,1224,11.297,1224
4260,4260,13.277,4260
3348,3348,15.238,3348
3505,3505,2236.0,3505
3844,3844,17.675,3844
1423,1423,3275.0,1423
2281,2281,231.0,2281
3439,3439,0.0,3439
3415,3415,1059.0,3415
3766,3766,11.386,3766
4008,4008,21.224,4008
4039,4039,3338.0,4039
988,988,10.827,988
3513,3513,1129.0,3513
945,945,0.0,945
3153,3153,1437.0,3153
3133,3133,2238.0,3133
1232,1232,13.733,1232
2568,2568,22.129,2568
1878,1878,11.175,1878
3252,3252,15.613,3252
765,765,1075.0,765
2301,2301,2928.0,2301
2905,2905,3197.0,2905
1810,1810,18.908,1810
1228,1228,21.532,1228
4121,4121,0.0,4121
1052,1052,14.933,1052
1967,1967,2367.0,1967
4279,4279,580.0,4279
2360,2360,16.739,2360
1867,1867,2192.0,1867
2892,2892,18.506,2892
2970,2970,12.991,2970
2180,2180,14.97,2180
1814,1814,12.628,1814
3443,3443,2854.0,3443
2672,2672,19.702,2672
3862,3862,12.255,3862
1311,1311,2390.0,1311
3867,3867,0.0,3867
3775,3775,2351.0,3775
4079,4079,2294.0,4079
3482,3482,12.209,3482
3467,3467,0.0,3467
3243,3243,1504.0,3243
2426,2426,15.021,2426
2017,2017,372.0,2017
2109,2109,1661.0,2109
3125,3125,0.0,3125
761,761,2849.0,761
634,634,15.578,634
1410,1410,12.115,1410
1881,1881,3473.0,1881
3958,3958,12.933,3958
2704,2704,13.267,2704
2945,2945,681.0,2945
1096,1096,14.372,1096
3673,3673,447.0,3673
1297,1297,76.0,1297
4027,4027,2156.0,4027
2057,2057,0.0,2057
3018,3018,11.661,3018
3248,3248,10.752,3248
1213,1213,2817.0,1213
1237,1237,1712.0,1237
4213,4213,858.0,4213
886,886,15.424,886
1516,1516,15.992,1516
4363,4363,3111.0,4363
2461,2461,1962.0,2461
3217,3217,1374.0,3217
1851,1851,1841.0,1851
1116,1116,12.359000000000002,1116
1951,1951,912.0,1951
2259,2259,1986.0,2259
1252,1252,17.436,1252
2243,2243,1579.0,2243
1279,1279,3452.0,1279
4302,4302,11.109000000000002,4302
536,536,16.09,536
3731,3731,2590.0,3731
3554,3554,13.08,3554
3710,3710,44.31800000000001,3710
3688,3688,137.835,3688
4390,4390,25.407,4390
1057,1057,0.0,1057
2537,2537,1875.0,2537
569,569,1233.0,569
3165,3165,2783.0,3165
758,758,12.813,758
2785,2785,3633.0,2785
3201,3201,729.0,3201
2160,2160,18.398,2160
1281,1281,0.0,1281
3591,3591,0.0,3591
1811,1811,2723.0,1811
995,995,471.0,995
737,737,3400.0,737
3882,3882,12.594,3882
3733,3733,2794.0,3733
1251,1251,714.0,1251
4098,4098,11.562,4098
3808,3808,21.588,3808
3901,3901,1892.0,3901
2929,2929,1386.0,2929
4245,4245,1652.0,4245
1487,1487,2057.0,1487
624,624,25.203000000000007,624
2651,2651,2084.0,2651
588,588,41.231,588
2146,2146,14.723,2146
4234,4234,16.563,4234
3558,3558,113.457,3558
809,809,1934.0,809
2581,2581,0.0,2581
1080,1080,17.784000000000006,1080
2310,2310,18.717,2310
1210,1210,21.521,1210
1913,1913,2118.0,1913
2336,2336,11.071,2336
2920,2920,12.662,2920
1339,1339,149.0,1339
2007,2007,2908.0,2007
2194,2194,19.05,2194
3352,3352,12.859000000000002,3352
1697,1697,2168.0,1697
1473,1473,2589.0,1473
4266,4266,15.635,4266
2211,2211,2181.0,2211
1196,1196,18.89,1196
3821,3821,1981.0,3821
1647,1647,2923.0,1647
3931,3931,0.0,3931
3947,3947,2412.0,3947
1970,1970,16.792,1970
2247,2247,3726.0,2247
1646,1646,10.818,1646
1961,1961,2448.0,1961
2926,2926,17.323,2926
3819,3819,2710.0,3819
3161,3161,669.0,3161
2991,2991,1238.0,2991
3807,3807,0.0,3807
4188,4188,13.869000000000002,4188
1588,1588,21.963,1588
885,885,3185.0,885
3155,3155,1498.0,3155
3200,3200,15.607,3200
1925,1925,692.0,1925
1295,1295,1615.0,1295
3621,3621,2344.0,3621
878,878,13.394,878
3648,3648,28.99,3648
1733,1733,1109.0,1733
1879,1879,3178.0,1879
1835,1835,539.0,1835
590,590,23.794,590
3526,3526,11.108,3526
3728,3728,15.311,3728
1391,1391,178.0,1391
1972,1972,16.589000000000002,1972
3760,3760,11.114,3760
4107,4107,2261.0,4107
4373,4373,2667.0,4373
2167,2167,644.0,2167
3503,3503,2107.0,3503
2473,2473,2742.0,2473
2662,2662,16.355,2662
1640,1640,43.97,1640
3717,3717,2223.0,3717
3987,3987,2882.0,3987
2020,2020,12.511,2020
1631,1631,2188.0,1631
722,722,42.94600000000001,722
1918,1918,12.571,1918
677,677,2931.0,677
1590,1590,15.562,1590
2458,2458,12.089,2458
4349,4349,1440.0,4349
2066,2066,12.792,2066
669,669,0.0,669
3748,3748,29.253,3748
3816,3816,21.462,3816
1020,1020,12.724,1020
883,883,513.0,883
2582,2582,12.443,2582
2969,2969,1128.0,2969
517,517,2339.0,517
1328,1328,31.186,1328
2208,2208,15.174,2208
4143,4143,0.0,4143
3051,3051,3604.0,3051
4195,4195,506.0,4195
2738,2738,33.261,2738
4094,4094,27.773000000000003,4094
946,946,12.845,946
4359,4359,959.0,4359
4088,4088,13.828,4088
2506,2506,17.581,2506
3110,3110,11.712,3110
2773,2773,118.0,2773
2102,2102,16.835,2102
2449,2449,613.0,2449
2116,2116,14.054,2116
3892,3892,14.215,3892
3521,3521,1186.0,3521
3986,3986,14.61,3986
606,606,24.047,606
663,663,3420.0,663
1059,1059,3109.0,1059
986,986,19.431,986
1379,1379,825.0,1379
3826,3826,16.336,3826
4101,4101,866.0,4101
1615,1615,1121.0,1615
3410,3410,189.023,3410
966,966,14.797,966
2346,2346,11.656,2346
4201,4201,3718.0,4201
1300,1300,49.819,1300
1296,1296,30.877,1296
1705,1705,2151.0,1705
2114,2114,15.086,2114
2530,2530,20.622,2530
1258,1258,14.309,1258
3037,3037,2068.0,3037
1572,1572,49.78100000000001,1572
873,873,832.0,873
2665,2665,251.0,2665
3974,3974,12.866,3974
3152,3152,16.962,3152
4127,4127,922.0,4127
3393,3393,193.0,3393
2387,2387,803.0,2387
3169,3169,2583.0,3169
1464,1464,14.813,1464
2894,2894,24.122,2894
2453,2453,1029.0,2453
628,628,14.524,628
3082,3082,20.333,3082
2444,2444,12.162,2444
3462,3462,11.712,3462
3745,3745,3422.0,3745
3650,3650,11.821,3650
3349,3349,81.0,3349
1400,1400,17.543,1400
1378,1378,10.669,1378
4380,4380,11.887,4380
2265,2265,1534.0,2265
1953,1953,3596.0,1953
3111,3111,0.0,3111
2248,2248,64.908,2248
1962,1962,16.023,1962
2661,2661,572.0,2661
1899,1899,2621.0,1899
1863,1863,2407.0,1863
1954,1954,16.584,1954
1381,1381,2588.0,1381
4282,4282,15.377,4282
3630,3630,213.275,3630
1098,1098,13.948,1098
3266,3266,166.17700000000005,3266
3848,3848,20.252,3848
2620,2620,11.116,2620
899,899,0.0,899
1912,1912,23.32,1912
1185,1185,3460.0,1185
1591,1591,1540.0,1591
1367,1367,740.0,1367
4182,4182,12.365,4182
2492,2492,13.075,2492
1627,1627,2940.0,1627
3485,3485,2094.0,3485
771,771,1634.0,771
2853,2853,540.0,2853
3805,3805,689.0,3805
1013,1013,2988.0,1013
1338,1338,12.053,1338
1249,1249,1946.0,1249
3516,3516,13.88,3516
2468,2468,16.932000000000002,2468
2867,2867,2442.0,2867
3185,3185,271.0,3185
1937,1937,1230.0,1937
1531,1531,2181.0,1531
3709,3709,2746.0,3709
2357,2357,2312.0,2357
2781,2781,2178.0,2781
1499,1499,1539.0,1499
2321,2321,891.0,2321
2338,2338,11.555,2338
3265,3265,693.0,3265
1151,1151,1277.0,1151
518,518,10.314,518
1868,1868,16.385,1868
4318,4318,34.706,4318
2067,2067,1975.0,2067
2488,2488,11.831,2488
3787,3787,0.0,3787
2599,2599,1612.0,2599
2435,2435,343.0,2435
1169,1169,3318.0,1169
2815,2815,2014.0,2815
1945,1945,2530.0,1945
1403,1403,0.0,1403
1841,1841,3613.0,1841
1015,1015,334.0,1015
835,835,2338.0,835
4142,4142,12.521,4142
2874,2874,10.706,2874
3209,3209,1825.0,3209
4029,4029,3611.0,4029
1964,1964,15.337,1964
3790,3790,210.007,3790
2451,2451,959.0,2451
639,639,828.0,639
3843,3843,2731.0,3843
1649,1649,2955.0,1649
3567,3567,2747.0,3567
4147,4147,0.0,4147
3433,3433,3251.0,3433
2708,2708,13.988,2708
2202,2202,13.753,2202
4376,4376,14.323,4376
1993,1993,3214.0,1993
3668,3668,181.304,3668
1480,1480,70.91199999999998,1480
2971,2971,752.0,2971
2327,2327,1365.0,2327
1266,1266,12.169,1266
1976,1976,17.482,1976
2232,2232,10.890999999999998,2232
3471,3471,1811.0,3471
3991,3991,2960.0,3991
829,829,0.0,829
1565,1565,3151.0,1565
3136,3136,30.184,3136
2384,2384,19.43,2384
3798,3798,14.421,3798
1804,1804,10.831,1804
3017,3017,0.0,3017
3364,3364,13.588,3364
3608,3608,19.921,3608
1441,1441,2567.0,1441
1500,1500,27.191,1500
2385,2385,2717.0,2385
3086,3086,16.072,3086
1529,1529,2926.0,1529
1331,1331,892.0,1331
2811,2811,1327.0,2811
1504,1504,13.843,1504
4164,4164,11.204,4164
4278,4278,11.274,4278
2438,2438,30.053,2438
534,534,10.948,534
4312,4312,24.721,4312
1609,1609,3370.0,1609
1375,1375,3745.0,1375
1779,1779,3463.0,1779
626,626,15.167,626
1776,1776,12.445,1776
2578,2578,10.646,2578
853,853,2242.0,853
1831,1831,1076.0,1831
1407,1407,2186.0,1407
882,882,10.894,882
3177,3177,2347.0,3177
2768,2768,43.342,2768
3320,3320,12.044,3320
1088,1088,45.245,1088
4329,4329,2375.0,4329
3475,3475,0.0,3475
1162,1162,38.118,1162
3559,3559,2296.0,3559
2840,2840,15.544,2840
3024,3024,15.992,3024
2217,2217,1202.0,2217
817,817,2762.0,817
3932,3932,22.702,3932
610,610,12.333,610
725,725,1127.0,725
1769,1769,0.0,1769
1825,1825,2166.0,1825
2487,2487,1093.0,2487
1897,1897,1203.0,1897
1137,1137,3541.0,1137
2539,2539,2592.0,2539
994,994,18.669,994
2904,2904,10.626,2904
575,575,811.0,575
4247,4247,2380.0,4247
2832,2832,18.302,2832
2266,2266,13.559,2266
1747,1747,2843.0,1747
1420,1420,10.643,1420
3501,3501,3635.0,3501
3742,3742,10.746,3742
1243,1243,2105.0,1243
594,594,24.585,594
1231,1231,928.0,1231
613,613,3632.0,613
3459,3459,2777.0,3459
2534,2534,17.635,2534
2228,2228,12.785,2228
2078,2078,20.342,2078
570,570,21.588,570
3455,3455,2151.0,3455
3853,3853,1375.0,3853
2128,2128,16.515,2128
3729,3729,1831.0,3729
2244,2244,196.305,2244
3961,3961,3052.0,3961
3796,3796,15.742,3796
2605,2605,1357.0,2605
2606,2606,12.212,2606
1132,1132,28.468000000000004,1132
2069,2069,345.0,2069
4062,4062,13.507,4062
4232,4232,17.433,4232
730,730,17.813,730
2300,2300,11.209,2300
2434,2434,28.806,2434
2647,2647,866.0,2647
2826,2826,16.095,2826
3803,3803,3190.0,3803
2371,2371,2651.0,2371
1853,1853,3769.0,1853
938,938,16.226,938
3014,3014,15.236,3014
2474,2474,23.756,2474
3350,3350,16.208,3350
3680,3680,11.092,3680
3241,3241,924.0,3241
2723,2723,3061.0,2723
4129,4129,618.0,4129
1673,1673,2914.0,1673
2079,2079,248.0,2079
2003,2003,3258.0,2003
4068,4068,11.931,4068
2201,2201,2087.0,2201
3499,3499,1399.0,3499
2583,2583,674.0,2583
4059,4059,1860.0,4059
2168,2168,12.552,2168
1302,1302,16.003,1302
2061,2061,2313.0,2061
3891,3891,0.0,3891
1689,1689,2136.0,1689
2181,2181,2202.0,2181
3488,3488,14.063,3488
1875,1875,745.0,1875
1582,1582,16.234,1582
2172,2172,13.427,2172
4162,4162,13.595999999999998,4162
2332,2332,149.336,2332
1519,1519,1397.0,1519
2812,2812,14.952,2812
4010,4010,195.044,4010
744,744,12.835,744
2959,2959,2836.0,2959
2604,2604,31.636,2604
3879,3879,1940.0,3879
799,799,896.0,799
2479,2479,2281.0,2479
1114,1114,16.546,1114
831,831,558.0,831
2084,2084,11.755,2084
2184,2184,12.175999999999998,2184
3531,3531,992.0,3531
1175,1175,1301.0,1175
1815,1815,675.0,1815
2511,2511,1698.0,2511
3920,3920,12.343,3920
1083,1083,1861.0,1083
535,535,1128.0,535
2726,2726,16.674,2726
1793,1793,653.0,1793
2761,2761,2119.0,2761
3652,3652,16.342,3652
993,993,3497.0,993
1078,1078,15.509,1078
3054,3054,17.430999999999994,3054
3622,3622,66.738,3622
2378,2378,16.002,2378
3995,3995,3773.0,3995
1716,1716,16.942,1716
698,698,17.551,698
793,793,2864.0,793
3842,3842,11.148,3842
3469,3469,1782.0,3469
900,900,16.179000000000002,900
3099,3099,0.0,3099
2055,2055,793.0,2055
2964,2964,16.234,2964
949,949,1283.0,949
2223,2223,542.0,2223
3305,3305,2801.0,3305
4099,4099,2793.0,4099
4083,4083,3321.0,4083
3721,3721,2075.0,3721
522,522,10.816,522
2355,2355,3454.0,2355
699,699,504.0,699
4274,4274,21.108,4274
884,884,12.53,884
1180,1180,12.353,1180
1871,1871,3417.0,1871
1617,1617,2577.0,1617
3523,3523,3335.0,3523
1661,1661,594.0,1661
3859,3859,2349.0,3859
796,796,10.894,796
1467,1467,3636.0,1467
3048,3048,21.611,3048
3598,3598,11.395,3598
903,903,2518.0,903
2659,2659,2448.0,2659
729,729,556.0,729
647,647,1387.0,647
1142,1142,14.977,1142
599,599,3130.0,599
3373,3373,2790.0,3373
1955,1955,1494.0,1955
2390,2390,12.584,2390
3283,3283,714.0,3283
721,721,450.0,721
1780,1780,16.979,1780
1416,1416,16.648,1416
2382,2382,11.105,2382
880,880,15.422,880
2552,2552,16.840999999999998,2552
1518,1518,14.748,1518
4361,4361,532.0,4361
1321,1321,0.0,1321
913,913,3547.0,913
2912,2912,18.231,2912
3329,3329,2685.0,3329
1406,1406,19.691,1406
4139,4139,346.0,4139
4269,4269,460.0,4269
1024,1024,16.254,1024
849,849,0.0,849
3992,3992,205.459,3992
3109,3109,0.0,3109
2765,2765,2147.0,2765
1850,1850,19.765,1850
3861,3861,393.0,3861
1829,1829,0.0,1829
3687,3687,3700.0,3687
2139,2139,2032.0,2139
1781,1781,3224.0,1781
1021,1021,867.0,1021
3281,3281,2597.0,3281
4067,4067,1408.0,4067
2267,2267,1231.0,2267
3245,3245,2752.0,3245
3194,3194,24.524,3194
3881,3881,0.0,3881
3171,3171,3326.0,3171
2036,2036,12.677,2036
3465,3465,0.0,3465
1353,1353,3724.0,1353
1077,1077,3585.0,1077
2827,2827,3184.0,2827
3170,3170,55.61,3170
3509,3509,827.0,3509
620,620,20.915,620
2807,2807,2104.0,2807
2309,2309,2859.0,2309
2004,2004,13.954,2004
4230,4230,22.683000000000003,4230
2237,2237,1021.0,2237
2295,2295,1434.0,2295
3064,3064,12.563,3064
2227,2227,252.0,2227
1999,1999,2994.0,1999
4001,4001,3101.0,4001
3032,3032,21.386,3032
531,531,3028.0,531
3581,3581,0.0,3581
4348,4348,15.904000000000002,4348
2469,2469,3489.0,2469
3575,3575,273.0,3575
3894,3894,10.973,3894
3933,3933,2871.0,3933
3548,3548,20.464,3548
1589,1589,314.0,1589
1883,1883,1582.0,1883
4311,4311,1892.0,4311
1852,1852,15.563,1852
3271,3271,1039.0,3271
975,975,1200.0,975
2285,2285,3222.0,2285
1752,1752,11.125,1752
1604,1604,14.099,1604
2080,2080,11.549,2080
1101,1101,166.0,1101
1723,1723,908.0,1723
4004,4004,180.831,4004
1796,1796,12.406,1796
1775,1775,0.0,1775
3583,3583,2545.0,3583
3453,3453,730.0,3453
2786,2786,15.653,2786
2302,2302,17.875,2302
2554,2554,29.464,2554
2156,2156,12.691,2156
1380,1380,14.345,1380
3643,3643,0.0,3643
1396,1396,14.816,1396
3682,3682,171.58900000000003,3682
4053,4053,1693.0,4053
2695,2695,1335.0,2695
2068,2068,10.773,2068
985,985,1186.0,985
1349,1349,253.0,1349
2983,2983,208.0,2983
2924,2924,11.553,2924
2896,2896,12.983,2896
3009,3009,396.0,3009
4136,4136,11.142,4136
3418,3418,21.281,3418
1316,1316,20.445,1316
1470,1470,17.31,1470
4028,4028,19.771,4028
4268,4268,31.575,4268
2051,2051,391.0,2051
2588,2588,13.265,2588
3890,3890,19.754,3890
1817,1817,635.0,1817
1294,1294,25.229,1294
1533,1533,1399.0,1533
1728,1728,38.925,1728
4169,4169,3116.0,4169
1434,1434,11.791,1434
1103,1103,739.0,1103
4055,4055,0.0,4055
3910,3910,15.523,3910
633,633,840.0,633
3571,3571,212.0,3571
3005,3005,2724.0,3005
1199,1199,87.0,1199
2195,2195,1538.0,2195
3365,3365,2969.0,3365
3930,3930,14.774,3930
1596,1596,21.307,1596
1369,1369,398.0,1369
3615,3615,2511.0,3615
4355,4355,2162.0,4355
987,987,3264.0,987
2797,2797,1033.0,2797
646,646,26.808000000000003,646
3498,3498,16.855999999999998,3498
2188,2188,21.599,2188
671,671,3582.0,671
750,750,14.485,750
1772,1772,10.322,1772
1607,1607,1898.0,1607
3432,3432,137.916,3432
1936,1936,21.683000000000003,1936
2834,2834,13.228,2834
1652,1652,11.948,1652
2501,2501,1133.0,2501
2694,2694,12.959,2694
1040,1040,20.473,1040
1440,1440,14.233,1440
3691,3691,3719.0,3691
2270,2270,13.819,2270
1991,1991,3201.0,1991
4185,4185,988.0,4185
3599,3599,2262.0,3599
1613,1613,1251.0,1613
2749,2749,2895.0,2749
4288,4288,10.913,4288
627,627,0.0,627
1880,1880,15.121,1880
660,660,32.935,660
2436,2436,19.317,2436
3743,3743,3180.0,3743
4097,4097,2100.0,4097
3371,3371,452.0,3371
4225,4225,94.0,4225
1272,1272,15.885,1272
1892,1892,23.864,1892
622,622,24.783,622
3588,3588,12.424,3588
2718,2718,14.635,2718
1131,1131,0.0,1131
3234,3234,13.313,3234
1595,1595,1854.0,1595
3914,3914,33.402,3914
3865,3865,0.0,3865
2416,2416,15.411,2416
1214,1214,22.938,1214
1495,1495,1038.0,1495
794,794,10.813,794
2928,2928,11.929,2928
1451,1451,794.0,1451
3746,3746,17.464000000000002,3746
3127,3127,2395.0,3127
2835,2835,0.0,2835
1503,1503,463.0,1503
2448,2448,13.057,2448
4344,4344,37.04,4344
2339,2339,1436.0,2339
625,625,1122.0,625
1042,1042,12.550999999999998,1042
4166,4166,13.701,4166
2292,2292,157.881,2292
942,942,12.904000000000002,942
3331,3331,1693.0,3331
3597,3597,3767.0,3597
1821,1821,0.0,1821
3319,3319,1235.0,3319
2852,2852,13.195,2852
2691,2691,2163.0,2691
3751,3751,3658.0,3751
3799,3799,3096.0,3799
1952,1952,18.63,1952
2901,2901,3377.0,2901
715,715,143.0,715
3006,3006,20.006,3006
1674,1674,22.564,1674
2394,2394,31.833,2394
2522,2522,30.866,2522
1560,1560,18.177,1560
3924,3924,182.556,3924
785,785,3187.0,785
1025,1025,853.0,1025
888,888,16.993,888
1448,1448,18.636,1448
2319,2319,0.0,2319
2408,2408,11.123,2408
1948,1948,12.717,1948
2878,2878,13.225,2878
3994,3994,78.514,3994
3223,3223,1625.0,3223
2974,2974,14.404000000000002,2974
3463,3463,1132.0,3463
1288,1288,28.061,1288
790,790,12.623,790
4089,4089,3016.0,4089
3884,3884,137.995,3884
1413,1413,3399.0,1413
3604,3604,194.93,3604
2622,2622,28.05,2622
777,777,2620.0,777
1466,1466,14.393,1466
1737,1737,2063.0,1737
4358,4358,21.886,4358
2410,2410,11.914,2410
2150,2150,11.649,2150
3361,3361,2082.0,3361
1421,1421,2344.0,1421
3057,3057,1225.0,3057
3219,3219,3475.0,3219
2952,2952,35.397,2952
3854,3854,13.345999999999998,3854
1120,1120,13.614,1120
3831,3831,0.0,3831
1979,1979,3454.0,1979
1693,1693,3301.0,1693
3287,3287,3484.0,3287
3437,3437,628.0,3437
2842,2842,14.746,2842
3732,3732,16.158,3732
1734,1734,19.02,1734
3747,3747,962.0,3747
2551,2551,2831.0,2551
3675,3675,0.0,3675
4261,4261,1299.0,4261
3137,3137,1421.0,3137
3357,3357,1373.0,3357
1430,1430,10.9,1430
4152,4152,18.557,4152
1259,1259,2445.0,1259
1745,1745,37.0,1745
2753,2753,0.0,2753
1653,1653,0.0,1653
4115,4115,621.0,4115
1512,1512,16.129,1512
2975,2975,1009.0,2975
2712,2712,14.843,2712
1911,1911,0.0,1911
3166,3166,135.784,3166
2676,2676,19.003,2676
3822,3822,11.104,3822
2946,2946,13.973,2946
731,731,2456.0,731
2041,2041,3328.0,2041
2400,2400,32.571,2400
3426,3426,14.858,3426
1204,1204,14.744000000000002,1204
894,894,16.361,894
4226,4226,11.363,4226
1537,1537,1191.0,1537
2755,2755,0.0,2755
2442,2442,15.552,2442
1995,1995,2477.0,1995
920,920,30.594,920
3794,3794,20.092,3794
1313,1313,116.0,1313
1095,1095,0.0,1095
2098,2098,14.643,2098
2060,2060,33.751,2060
2046,2046,21.194000000000006,2046
2994,2994,17.347,2994
1236,1236,14.698,1236
612,612,32.169000000000004,612
2019,2019,0.0,2019
1360,1360,27.109,1360
1985,1985,2659.0,1985
3066,3066,26.596,3066
2277,2277,231.0,2277
3360,3360,11.5,3360
1489,1489,2958.0,1489
3744,3744,12.71,3744
552,552,16.962,552
3850,3850,11.556,3850
2018,2018,21.465,2018
3818,3818,13.157,3818
2027,2027,0.0,2027
1791,1791,3261.0,1791
3384,3384,19.023,3384
764,764,18.209,764
2038,2038,12.498,2038
923,923,2280.0,923
3872,3872,10.686,3872
3698,3698,11.595999999999998,3698
837,837,1725.0,837
2865,2865,1551.0,2865
782,782,13.633,782
2279,2279,323.0,2279
4021,4021,2896.0,4021
4118,4118,23.688,4118
3502,3502,11.147,3502
901,901,60.0,901
2752,2752,19.06,2752
2513,2513,3759.0,2513
4381,4381,1497.0,4381
3769,3769,573.0,3769
3666,3666,19.751,3666
600,600,24.796,600
2100,2100,16.275,2100
2652,2652,13.601,2652
3406,3406,127.702,3406
4239,4239,2142.0,4239
4023,4023,977.0,4023
3215,3215,1686.0,3215
3541,3541,3525.0,3541
2641,2641,3506.0,2641
3346,3346,130.67700000000002,3346
2191,2191,419.0,2191
4110,4110,10.734000000000002,4110
1713,1713,392.0,1713
580,580,16.301,580
1795,1795,1683.0,1795
2930,2930,11.112,2930
706,706,39.12,706
2845,2845,1483.0,2845
2081,2081,799.0,2081
3627,3627,2500.0,3627
3070,3070,10.919,3070
1333,1333,2912.0,1333
3683,3683,2483.0,3683
1150,1150,15.467,1150
1348,1348,18.861,1348
1960,1960,11.554,1960
4313,4313,1637.0,4313
2171,2171,1025.0,2171
965,965,198.0,965
4264,4264,11.536,4264
1366,1366,12.038,1366
1854,1854,13.064,1854
691,691,1557.0,691
3340,3340,18.204,3340
3339,3339,232.0,3339
1517,1517,2146.0,1517
1668,1668,14.767,1668
4286,4286,12.323,4286
1133,1133,0.0,1133
2809,2809,2077.0,2809
3500,3500,15.745,3500
2107,2107,552.0,2107
581,581,2902.0,581
1561,1561,1265.0,1561
952,952,11.093,952
3016,3016,15.241,3016
4205,4205,0.0,4205
1140,1140,38.538,1140
2491,2491,2476.0,2491
567,567,2106.0,567
1034,1034,10.592,1034
1005,1005,3687.0,1005
1973,1973,231.0,1973
1105,1105,1567.0,1105
1635,1635,3533.0,1635
538,538,11.253,538
591,591,552.0,591
1832,1832,104.021,1832
1887,1887,2776.0,1887
1969,1969,2473.0,1969
1030,1030,13.649,1030
3811,3811,1654.0,3811
1902,1902,56.794,1902
1983,1983,1423.0,1983
1303,1303,1269.0,1303
3273,3273,3774.0,3273
4019,4019,391.0,4019
561,561,2529.0,561
2141,2141,896.0,2141
2754,2754,18.207,2754
1806,1806,16.773,1806
2367,2367,3128.0,2367
3449,3449,3418.0,3449
1225,1225,3397.0,1225
2577,2577,319.0,2577
1679,1679,839.0,1679
1023,1023,2982.0,1023
1638,1638,14.043,1638
1587,1587,2388.0,1587
3951,3951,1228.0,3951
2035,2035,160.0,2035
1242,1242,21.074,1242
2948,2948,13.267,2948
4270,4270,15.459,4270
2023,2023,0.0,2023
1476,1476,31.762,1476
1539,1539,0.0,1539
2403,2403,1528.0,2403
556,556,16.573,556
3786,3786,15.353,3786
3970,3970,13.093,3970
3699,3699,1464.0,3699
3478,3478,16.386,3478
3435,3435,1421.0,3435
1950,1950,10.725,1950
2307,2307,3166.0,2307
739,739,1542.0,739
1515,1515,2775.0,1515
3941,3941,1841.0,3941
4024,4024,18.088,4024
2125,2125,3644.0,2125
2481,2481,2655.0,2481
505,505,3272.0,505
3671,3671,1269.0,3671
3724,3724,11.55,3724
3676,3676,15.312,3676
2070,2070,15.076,2070
4368,4368,11.498,4368
539,539,2739.0,539
3178,3178,25.039,3178
3337,3337,2184.0,3337
602,602,14.3,602
1092,1092,14.949000000000002,1092
1264,1264,15.112,1264
2229,2229,3089.0,2229
1917,1917,2706.0,1917
1110,1110,12.693,1110
2720,2720,42.36600000000001,2720
4371,4371,2316.0,4371
2973,2973,3011.0,2973
4199,4199,1872.0,4199
2525,2525,888.0,2525
3458,3458,11.561,3458
3312,3312,14.753,3312
1834,1834,186.829,1834
4272,4272,14.355,4272
3525,3525,3611.0,3525
980,980,13.733,980
3684,3684,148.833,3684
4146,4146,18.468,4146
2703,2703,1457.0,2703
1934,1934,17.441,1934
2369,2369,3370.0,2369
2941,2941,3165.0,2941
1687,1687,1194.0,1687
4012,4012,11.482,4012
967,967,1817.0,967
2456,2456,11.247,2456
3174,3174,15.237,3174
1554,1554,15.074000000000002,1554
972,972,15.575,972
2719,2719,94.0,2719
2042,2042,15.213,2042
1038,1038,19.965,1038
804,804,36.666,804
1056,1056,23.829,1056
2022,2022,14.056,2022
3705,3705,428.0,3705
1402,1402,13.84,1402
1422,1422,49.64100000000001,1422
3367,3367,383.0,3367
3193,3193,1338.0,3193
2450,2450,11.178,2450
3448,3448,16.781,3448
4072,4072,21.693,4072
1618,1618,16.506,1618
2870,2870,25.129,2870
3260,3260,13.318,3260
1156,1156,15.105,1156
841,841,3576.0,841
2402,2402,12.888,2402
3304,3304,13.050999999999998,3304
2271,2271,1740.0,2271
2503,2503,332.0,2503
2475,2475,2046.0,2475
1940,1940,15.658,1940
1797,1797,2983.0,1797
2664,2664,20.446,2664
3301,3301,2318.0,3301
2280,2280,12.322,2280
3601,3601,3733.0,3601
2831,2831,2565.0,2831
631,631,1450.0,631
2862,2862,14.457,2862
4362,4362,11.686,4362
2549,2549,490.0,2549
3490,3490,10.731,3490
1370,1370,13.476,1370
3982,3982,183.534,3982
1417,1417,233.0,1417
840,840,12.512,840
3590,3590,13.478,3590
2323,2323,3613.0,2323
4343,4343,1802.0,4343
1033,1033,1092.0,1033
3975,3975,3314.0,3975
658,658,24.08,658
908,908,19.101,908
1813,1813,1216.0,1813
961,961,1941.0,961
676,676,17.625,676
2949,2949,2797.0,2949
507,507,234.0,507
3782,3782,56.27,3782
1569,1569,454.0,1569
2883,2883,1815.0,2883
3764,3764,12.24,3764
3887,3887,335.0,3887
3827,3827,692.0,3827
1235,1235,3650.0,1235
1465,1465,2774.0,1465
1109,1109,1639.0,1109
1702,1702,24.037,1702
1217,1217,1580.0,1217
1104,1104,51.109,1104
1238,1238,35.786,1238
1106,1106,12.66,1106
2597,2597,1264.0,2597
2747,2747,3179.0,2747
3907,3907,1841.0,3907
1345,1345,2069.0,1345
3450,3450,23.356,3450
1844,1844,14.642,1844
2557,2557,1996.0,2557
1344,1344,21.216,1344
1447,1447,2821.0,1447
1764,1764,11.246,1764
927,927,1902.0,927
1127,1127,2834.0,1127
1540,1540,12.51,1540
3672,3672,21.933000000000003,3672
3414,3414,14.72,3414
3965,3965,1041.0,3965
3917,3917,2443.0,3917
3606,3606,194.174,3606
3436,3436,173.303,3436
615,615,1418.0,615
4228,4228,12.782,4228
3441,3441,1068.0,3441
508,508,10.915,508
4253,4253,800.0,4253
2173,2173,3534.0,2173
4184,4184,24.573,4184
1160,1160,13.987,1160
1865,1865,0.0,1865
3714,3714,11.438,3714
3483,3483,783.0,3483
551,551,799.0,551
1128,1128,18.777,1128
1397,1397,1544.0,1397
2890,2890,17.456,2890
3146,3146,12.918,3146
1312,1312,14.347,1312
548,548,35.73900000000001,548
860,860,13.4,860
4237,4237,3241.0,4237
1085,1085,2413.0,1085
3912,3912,19.822,3912
2958,2958,14.816,2958
685,685,1513.0,685
1459,1459,2033.0,1459
2293,2293,3649.0,2293
686,686,16.385,686
1009,1009,3265.0,1009
1091,1091,1397.0,1091
1683,1683,591.0,1683
1283,1283,1163.0,1283
1651,1651,0.0,1651
3762,3762,22.049,3762
657,657,3056.0,657
3204,3204,12.273,3204
2455,2455,3693.0,2455
2225,2225,439.0,2225
512,512,13.045,512
3632,3632,18.578,3632
745,745,3323.0,745
3065,3065,897.0,3065
3725,3725,100.0,3725
797,797,1449.0,797
3145,3145,1605.0,3145
767,767,1154.0,767
653,653,1190.0,653
1058,1058,14.201,1058
2136,2136,12.588,2136
3619,3619,2477.0,3619
857,857,3692.0,857
998,998,15.082,998
759,759,1005.0,759
839,839,1538.0,839
1548,1548,16.384,1548
609,609,539.0,609
3175,3175,0.0,3175
2613,2613,894.0,2613
3556,3556,13.241,3556
2998,2998,11.468,2998
4014,4014,202.334,4014
762,762,12.962,762
3656,3656,17.142,3656
1071,1071,3244.0,1071
2299,2299,2346.0,2299
1802,1802,13.36,1802
2431,2431,0.0,2431
788,788,15.011,788
4071,4071,2483.0,4071
3377,3377,1991.0,3377
3678,3678,11.143,3678
3904,3904,21.942,3904
2596,2596,11.082,2596
2083,2083,1929.0,2083
2787,2787,3191.0,2787
3001,3001,740.0,3001
4025,4025,1565.0,4025
2601,2601,494.0,2601
1404,1404,17.889,1404
2482,2482,28.81,2482
667,667,2731.0,667
2465,2465,777.0,2465
4306,4306,22.573,4306
3060,3060,15.234000000000002,3060
1012,1012,13.36,1012
1949,1949,3460.0,1949
2207,2207,816.0,2207
2502,2502,43.264,2502
3938,3938,176.257,3938
3582,3582,11.083,3582
1081,1081,1990.0,1081
1292,1292,28.607,1292
3915,3915,2002.0,3915
1475,1475,3533.0,1475
957,957,0.0,957
1700,1700,12.202,1700
3355,3355,0.0,3355
3395,3395,2229.0,3395
1541,1541,404.0,1541
4377,4377,674.0,4377
3239,3239,869.0,3239
1794,1794,14.26,1794
4034,4034,13.967,4034
2190,2190,18.526,2190
2967,2967,2328.0,2967
2674,2674,18.267,2674
3950,3950,12.405,3950
2645,2645,3405.0,2645
3370,3370,13.833,3370
1401,1401,2745.0,1401
1975,1975,2175.0,1975
2337,2337,2676.0,2337
921,921,3340.0,921
1145,1145,2242.0,1145
996,996,19.622,996
2700,2700,12.983,2700
807,807,3581.0,807
1112,1112,15.188,1112
4148,4148,12.07,4148
687,687,3573.0,687
2649,2649,2266.0,2649
806,806,29.561,806
1681,1681,1079.0,1681
2126,2126,13.071,2126
3998,3998,24.4,3998
4220,4220,14.233,4220
1477,1477,237.0,1477
2183,2183,2260.0,2183
2889,2889,1502.0,2889
689,689,0.0,689
4292,4292,21.77,4292
1800,1800,13.26,1800
694,694,14.729,694
2748,2748,11.064,2748
2054,2054,12.011,2054
4246,4246,17.730999999999995,4246
1663,1663,305.0,1663
4109,4109,58.0,4109
4006,4006,11.502,4006
1895,1895,318.0,1895
638,638,27.33,638
2567,2567,2124.0,2567
778,778,15.347,778
2742,2742,15.785,2742
1762,1762,10.595999999999998,1762
1386,1386,15.571,1386
3231,3231,3110.0,3231
2216,2216,12.009,2216
3104,3104,13.135,3104
2013,2013,0.0,2013
3059,3059,799.0,3059
1998,1998,14.479,1998
1445,1445,3724.0,1445
3740,3740,35.314,3740
4345,4345,3714.0,4345
3247,3247,1714.0,3247
2383,2383,3123.0,2383
3289,3289,1037.0,3289
1740,1740,12.788,1740
2189,2189,644.0,2189
3039,3039,0.0,3039
1468,1468,19.672,1468
2644,2644,19.447,2644
1536,1536,12.416,1536
2254,2254,14.087,2254
1694,1694,14.550999999999998,1694
2751,2751,1152.0,2751
1774,1774,11.476,1774
1927,1927,1869.0,1927
2340,2340,13.274,2340
2706,2706,47.57,2706
526,526,11.052,526
645,645,2551.0,645
2618,2618,15.911,2618
2705,2705,85.0,2705
2866,2866,11.758,2866
1222,1222,53.235,1222
1645,1645,2318.0,1645
2283,2283,347.0,2283
825,825,415.0,825
976,976,17.441,976
2538,2538,16.511,2538
1538,1538,13.758,1538
2584,2584,12.219,2584
892,892,17.015,892
1755,1755,1839.0,1755
564,564,13.894,564
4251,4251,694.0,4251
3968,3968,11.121,3968
891,891,2706.0,891
2585,2585,2764.0,2585
769,769,3478.0,769
2800,2800,15.262,2800
4178,4178,12.464,4178
3758,3758,12.187,3758
2743,2743,2931.0,2743
1706,1706,16.989,1706
1546,1546,13.833,1546
3592,3592,28.942,3592
2623,2623,1854.0,2623
3700,3700,10.656,3700
3187,3187,2548.0,3187
3050,3050,19.874,3050
2099,2099,2945.0,2099
2406,2406,13.085,2406
1343,1343,1951.0,1343
3600,3600,11.322,3600
2143,2143,1983.0,2143
1944,1944,18.796,1944
4135,4135,3018.0,4135
3645,3645,2070.0,3645
3685,3685,3098.0,3685
1847,1847,3527.0,1847
1107,1107,2604.0,1107
2790,2790,26.361,2790
2701,2701,2701.0,2701
3296,3296,11.237,3296
2050,2050,13.025,2050
1233,1233,3067.0,1233
709,709,2201.0,709
1208,1208,14.238,1208
3227,3227,3222.0,3227
1855,1855,158.0,1855
3116,3116,11.448,3116
1154,1154,13.049,1154
586,586,23.283,586
2049,2049,0.0,2049
2600,2600,25.665,2600
1502,1502,14.393,1502
3438,3438,14.982,3438
3119,3119,2172.0,3119
3163,3163,3164.0,3163
893,893,0.0,893
1277,1277,438.0,1277
3649,3649,2547.0,3649
3916,3916,19.572,3916
937,937,0.0,937
1374,1374,23.219,1374
1276,1276,19.164,1276
3151,3151,1767.0,3151
2268,2268,23.907,2268
3863,3863,886.0,3863
2897,2897,3313.0,2897
2407,2407,1637.0,2407
1069,1069,583.0,1069
2495,2495,369.0,2495
2777,2777,740.0,2777
973,973,35.0,973
1605,1605,3581.0,1605
550,550,25.643,550
1458,1458,67.923,1458
3389,3389,1989.0,3389
3314,3314,14.491,3314
1163,1163,1883.0,1163
3242,3242,11.37,3242
2354,2354,16.939,2354
3561,3561,3641.0,3561
3321,3321,1317.0,3321
1193,1193,514.0,1193
4315,4315,862.0,4315
1625,1625,1027.0,1625
1346,1346,52.31,1346
549,549,661.0,549
1496,1496,11.328,1496
2646,2646,14.515,2646
682,682,12.061,682
4273,4273,826.0,4273
3997,3997,1331.0,3997
1997,1997,2782.0,1997
3224,3224,141.58100000000005,3224
2149,2149,1797.0,2149
1494,1494,23.1,1494
2256,2256,24.138,2256
3820,3820,11.413,3820
916,916,16.35,916
2490,2490,25.068,2490
2697,2697,0.0,2697
879,879,432.0,879
1914,1914,18.113,1914
1129,1129,891.0,1129
1248,1248,15.569,1248
2115,2115,827.0,2115
3445,3445,3157.0,3445
3585,3585,2034.0,3585
3117,3117,451.0,3117
795,795,444.0,795
4250,4250,21.519,4250
1439,1439,1521.0,1439
2153,2153,780.0,2153
2627,2627,3516.0,2627
2053,2053,0.0,2053
3195,3195,1379.0,3195
2716,2716,15.115,2716
3555,3555,544.0,3555
554,554,28.997,554
1708,1708,15.615,1708
2869,2869,294.0,2869
2286,2286,58.312,2286
3801,3801,2326.0,3801
3183,3183,3314.0,3183
1032,1032,13.259,1032
3871,3871,982.0,3871
1857,1857,2524.0,1857
1002,1002,29.689,1002
930,930,24.281,930
2692,2692,11.196,2692
3268,3268,16.373,3268
723,723,0.0,723
2133,2133,2567.0,2133
3383,3383,2468.0,3383
644,644,15.4,644
1028,1028,10.915,1028
3545,3545,176.0,3545
2844,2844,13.694,2844
1166,1166,13.6,1166
2498,2498,17.055,2498
2607,2607,2842.0,2607
4332,4332,12.795,4332
3723,3723,2932.0,3723
3774,3774,13.702,3774
774,774,14.918,774
1483,1483,3396.0,1483
1325,1325,0.0,1325
827,827,3493.0,827
3757,3757,2177.0,3757
2741,2741,2494.0,2741
3142,3142,11.244000000000002,3142
1320,1320,15.011,1320
2880,2880,11.159,2880
4293,4293,3412.0,4293
1778,1778,44.2,1778
2639,2639,1066.0,2639
1273,1273,1919.0,1273
2147,2147,2728.0,2147
3255,3255,2788.0,3255
1567,1567,3359.0,1567
3546,3546,21.72,3546
1701,1701,0.0,1701
1192,1192,40.192,1192
2727,2727,1126.0,2727
2999,2999,727.0,2999
1347,1347,785.0,1347
1393,1393,2311.0,1393
2467,2467,0.0,2467
2396,2396,12.194,2396
3131,3131,1959.0,3131
3896,3896,41.931,3896
4102,4102,205.096,4102
2563,2563,127.0,2563
2316,2316,111.353,2316
3277,3277,2672.0,3277
3840,3840,14.174,3840
2591,2591,507.0,2591
2063,2063,3591.0,2063
2799,2799,2759.0,2799
4197,4197,498.0,4197
3246,3246,14.382,3246
3434,3434,213.453,3434
4058,4058,13.309,4058
3299,3299,0.0,3299
1195,1195,0.0,1195
1201,1201,1936.0,1201
2821,2821,2358.0,2821
4367,4367,855.0,4367
2632,2632,12.933,2632
4299,4299,2050.0,4299
733,733,1978.0,733
1787,1787,1375.0,1787
3295,3295,2229.0,3295
1356,1356,16.221,1356
2616,2616,12.52,2616
2320,2320,10.922,2320
1823,1823,796.0,1823
3023,3023,1831.0,3023
4276,4276,15.075,4276
2837,2837,439.0,2837
1784,1784,14.396,1784
3074,3074,15.628,3074
1773,1773,2685.0,1773
3708,3708,24.474,3708
3756,3756,18.718,3756
1739,1739,2700.0,1739
3789,3789,242.0,3789
3613,3613,1201.0,3613
1884,1884,14.077,1884
1361,1361,2412.0,1361
553,553,1443.0,553
4211,4211,349.0,4211
4334,4334,18.604,4334
1792,1792,11.427,1792
3508,3508,10.982,3508
4171,4171,1195.0,4171
3113,3113,1676.0,3113
2817,2817,2999.0,2817
3823,3823,1340.0,3823
3168,3168,24.878,3168
4054,4054,49.54,4054
1497,1497,789.0,1497
4346,4346,11.768,4346
2034,2034,11.625,2034
1753,1753,1301.0,1753
1121,1121,1794.0,1121
4350,4350,10.461,4350
2779,2779,1547.0,2779
951,951,445.0,951
753,753,1899.0,753
629,629,270.0,629
652,652,16.009,652
3484,3484,11.605,3484
3702,3702,10.962,3702
3012,3012,32.022,3012
1785,1785,0.0,1785
1845,1845,680.0,1845
1826,1826,23.802,1826
1205,1205,2920.0,1205
1598,1598,22.398000000000003,1598
1958,1958,12.388,1958
2269,2269,1713.0,2269
1365,1365,66.0,1365
2857,2857,1524.0,2857
1530,1530,16.947,1530
3651,3651,3286.0,3651
1507,1507,1655.0,1507
2239,2239,1941.0,2239
2090,2090,14.627,2090
3985,3985,1890.0,3985
2234,2234,13.839,2234
1426,1426,24.591,1426
4206,4206,16.817,4206
3979,3979,3337.0,3979
2352,2352,27.328000000000007,2352
3115,3115,3383.0,3115
2417,2417,2764.0,2417
1662,1662,27.301,1662
605,605,1935.0,605
907,907,713.0,907
1856,1856,38.529,1856
574,574,11.751,574
2636,2636,19.468,2636
800,800,17.175,800
2386,2386,16.147000000000002,2386
3878,3878,13.427,3878
1215,1215,2245.0,1215
3754,3754,18.585,3754
3105,3105,3633.0,3105
1153,1153,1131.0,1153
672,672,17.799,672
2573,2573,0.0,2573
3810,3810,20.449,3810
713,713,1859.0,713
2130,2130,15.962,2130
1388,1388,10.843,1388
3029,3029,0.0,3029
2255,2255,3024.0,2255
4248,4248,11.794,4248
4035,4035,128.0,4035
4217,4217,1048.0,4217
2372,2372,22.259,2372
4150,4150,18.311,4150
968,968,15.345,968
2650,2650,15.503,2650
4086,4086,13.31,4086
1135,1135,1660.0,1135
2682,2682,15.707,2682
2947,2947,2861.0,2947
2198,2198,38.074,2198
1017,1017,0.0,1017
1543,1543,2943.0,1543
3795,3795,3724.0,3795
3572,3572,20.981,3572
2977,2977,2496.0,2977
4236,4236,18.672,4236
3026,3026,19.674,3026
1234,1234,13.907,1234
1060,1060,12.852,1060
2087,2087,3569.0,2087
4040,4040,16.338,4040
4216,4216,16.599,4216
2222,2222,11.53,2222
597,597,3396.0,597
555,555,2740.0,555
543,543,3031.0,543
4037,4037,759.0,4037
2381,2381,3446.0,2381
2158,2158,45.539,2158
2072,2072,13.783,2072
3494,3494,13.775,3494
2566,2566,22.351,2566
3706,3706,15.201,3706
4042,4042,12.318,4042
1703,1703,995.0,1703
4070,4070,21.087,4070
4187,4187,2209.0,4187
1200,1200,15.075,1200
2048,2048,11.672,2048
1981,1981,3077.0,1981
780,780,16.104,780
1534,1534,13.569,1534
3470,3470,14.719,3470
2333,2333,0.0,2333
3770,3770,37.407,3770
4375,4375,0.0,4375
3734,3734,16.061,3734
4386,4386,12.053,4386
1978,1978,11.587,1978
2457,2457,1612.0,2457
3374,3374,17.453,3374
2978,2978,13.488,2978
3285,3285,2618.0,3285
1562,1562,22.952,1562
1008,1008,11.237,1008
661,661,1818.0,661
2594,2594,12.907,2594
3607,3607,1131.0,3607
1526,1526,13.645,1526
932,932,14.42,932
3662,3662,25.746,3662
3936,3936,164.326,3936
3996,3996,33.996,3996
3876,3876,21.412,3876
1310,1310,19.194000000000006,1310
3824,3824,13.871,3824
1888,1888,14.253,1888
3989,3989,2568.0,3989
2311,2311,1265.0,2311
1111,1111,2557.0,1111
3674,3674,14.034,3674
2219,2219,3142.0,2219
4108,4108,21.585,4108
1117,1117,0.0,1117
601,601,2609.0,601
3960,3960,11.630999999999998,3960
3657,3657,395.0,3657
4327,4327,1247.0,4327
3712,3712,23.84,3712
4017,4017,2153.0,4017
2531,2531,2672.0,2531
711,711,855.0,711
1715,1715,834.0,1715
3307,3307,77.0,3307
3864,3864,164.80200000000005,3864
2399,2399,2245.0,2399
4357,4357,0.0,4357
3097,3097,3157.0,3097
1433,1433,1040.0,1433
1959,1959,3334.0,1959
1463,1463,1321.0,1463
1443,1443,3268.0,1443
4132,4132,14.05,4132
3090,3090,30.861,3090
4289,4289,1804.0,4289
1177,1177,555.0,1177
1207,1207,3734.0,1207
2420,2420,15.003,2420
3311,3311,3430.0,3311
3618,3618,33.639,3618
2376,2376,13.913,2376
1634,1634,14.209,1634
2854,2854,15.262,2854
1849,1849,0.0,1849
3981,3981,3661.0,3981
4259,4259,553.0,4259
3213,3213,2050.0,3213
1061,1061,1653.0,1061
3763,3763,139.0,3763
2526,2526,19.831,2526
1363,1363,1881.0,1363
3397,3397,2039.0,3397
2628,2628,22.114,2628
4032,4032,13.813,4032
516,516,11.537,516
2725,2725,518.0,2725
3102,3102,15.988,3102
2932,2932,10.792,2932
1326,1326,38.404,1326
2368,2368,25.733,2368
2031,2031,1415.0,2031
971,971,1749.0,971
1115,1115,2472.0,1115
3336,3336,114.011,3336
2224,2224,33.775,2224
2294,2294,170.763,2294
3489,3489,2278.0,3489
1767,1767,0.0,1767
2972,2972,11.376,2972
2088,2088,15.921,2088
674,674,17.829,674
1084,1084,26.736,1084
3716,3716,11.103,3716
1435,1435,0.0,1435
1444,1444,18.504,1444
1926,1926,12.953,1926
1227,1227,3750.0,1227
3962,3962,38.124,3962
959,959,0.0,959
1314,1314,20.255,1314
1656,1656,109.797,1656
3010,3010,11.4,3010
3013,3013,2613.0,3013
3322,3322,15.548,3322
2282,2282,11.880999999999998,2282
1748,1748,10.498,1748
1710,1710,11.651,1710
3955,3955,3348.0,3955
523,523,267.0,523
1065,1065,2159.0,1065
1963,1963,443.0,1963
2002,2002,15.237,2002
4044,4044,12.245,4044
1357,1357,3588.0,1357
2089,2089,2297.0,2089
1942,1942,49.971,1942
3518,3518,11.182,3518
3953,3953,2326.0,3953
3411,3411,2897.0,3411
2032,2032,12.128,2032
1555,1555,3420.0,1555
3333,3333,2620.0,3333
1860,1860,28.106,1860
3156,3156,11.25,3156
2536,2536,12.624,2536
3069,3069,3067.0,3069
2193,2193,1887.0,2193
693,693,940.0,693
1727,1727,0.0,1727
3491,3491,1089.0,3491
3809,3809,0.0,3809
3202,3202,33.655,3202
3409,3409,1883.0,3409
3686,3686,63.12300000000001,3686
3240,3240,10.887,3240
2881,2881,3529.0,2881
3553,3553,3478.0,3553
2215,2215,1906.0,2215
4233,4233,377.0,4233
4256,4256,42.331,4256
1522,1522,18.296,1522
2152,2152,88.601,2152
2401,2401,658.0,2401
2252,2252,13.264,2252
3385,3385,2413.0,3385
1173,1173,508.0,1173
2589,2589,0.0,2589
3836,3836,13.033,3836
1882,1882,12.287,1882
4117,4117,2430.0,4117
2885,2885,917.0,2885
2220,2220,182.892,2220
947,947,1451.0,947
1340,1340,43.71100000000001,1340
1904,1904,16.042,1904
4392,4392,14.659,4392
2553,2553,1580.0,2553
584,584,25.946,584
1075,1075,2658.0,1075
4231,4231,1043.0,4231
4081,4081,2924.0,4081
2082,2082,12.975,2082
1100,1100,12.544,1100
2675,2675,3087.0,2675
1527,1527,3393.0,1527
3563,3563,744.0,3563
3832,3832,12.306,3832
1221,1221,0.0,1221
1211,1211,281.0,1211
2654,2654,14.880999999999998,2654
2981,2981,2537.0,2981
2343,2343,0.0,2343
678,678,20.017,678
1072,1072,18.499,1072
1149,1149,741.0,1149
1257,1257,3490.0,1257
2916,2916,16.621,2916
2029,2029,689.0,2029
3143,3143,597.0,3143
1840,1840,13.183,1840
2477,2477,2237.0,2477
3922,3922,28.17,3922
814,814,21.029,814
3620,3620,18.035,3620
1836,1836,12.852,1836
2433,2433,2678.0,2433
1387,1387,1594.0,1387
2580,2580,17.407,2580
2995,2995,2262.0,2995
1457,1457,697.0,1457
3235,3235,0.0,3235
3781,3781,3574.0,3781
1783,1783,1364.0,1783
3422,3422,12.431,3422
3888,3888,14.548,3888
3535,3535,306.0,3535
2104,2104,20.89,2104
1474,1474,19.874,1474
3855,3855,1642.0,3855
2253,2253,2135.0,2253
2101,2101,711.0,2101
3292,3292,66.233,3292
2655,2655,597.0,2655
845,845,2102.0,845
3342,3342,180.02700000000004,3342
904,904,13.675999999999998,904
3486,3486,75.689,3486
2071,2071,0.0,2071
3487,3487,675.0,3487
1159,1159,3735.0,1159
3875,3875,1902.0,3875
1053,1053,1113.0,1053
4183,4183,271.0,4183
2218,2218,12.547,2218
3452,3452,19.86,3452
1050,1050,14.757,1050
3659,3659,913.0,3659
1622,1622,14.728,1622
2713,2713,1728.0,2713
2927,2927,713.0,2927
710,710,17.052,710
1819,1819,1098.0,1819
2075,2075,2608.0,2075
3547,3547,742.0,3547
1432,1432,14.456,1432
4364,4364,25.323,4364
4317,4317,2989.0,4317
3079,3079,868.0,3079
929,929,1413.0,929
3722,3722,33.477,3722
2313,2313,3090.0,2313
3297,3297,3702.0,3297
3403,3403,1872.0,3403
1827,1827,679.0,1827
4209,4209,2246.0,4209
4200,4200,18.098,4200
3008,3008,15.584,3008
2560,2560,24.113000000000003,2560
1932,1932,24.272,1932
3035,3035,2308.0,3035
1068,1068,20.751,1068
2445,2445,1137.0,2445
3670,3670,14.537,3670
4304,4304,15.324000000000002,4304
3858,3858,16.184,3858
1157,1157,970.0,1157
2033,2033,1936.0,2033
3250,3250,169.718,3250
2303,2303,2056.0,2303
3829,3829,0.0,3829
3088,3088,13.026,3088
3889,3889,2150.0,3889
2120,2120,11.908,2120
664,664,14.015999999999998,664
1431,1431,3488.0,1431
4382,4382,28.802,4382
843,843,3079.0,843
1735,1735,2116.0,1735
1842,1842,10.779000000000002,1842
2085,2085,198.0,2085
3885,3885,770.0,3885
2759,2759,1462.0,2759
2388,2388,17.445999999999998,2388
2405,2405,1994.0,2405
1073,1073,65.0,1073
4020,4020,11.418,4020
1284,1284,52.619,1284
2312,2312,14.525,2312
515,515,1632.0,515
1599,1599,1053.0,1599
3041,3041,534.0,3041
4092,4092,12.787,4092
3780,3780,13.485,3780
4165,4165,3131.0,4165
3689,3689,1814.0,3689
2489,2489,999.0,2489
832,832,25.302,832
3334,3334,15.124,3334
2839,2839,1618.0,2839
712,712,23.409,712
865,865,3332.0,865
3019,3019,2508.0,3019
3062,3062,62.38800000000001,3062
3230,3230,11.12,3230
2925,2925,374.0,2925
2197,2197,2018.0,2197
4172,4172,16.296,4172
1816,1816,14.702,1816
939,939,328.0,939
2349,2349,0.0,2349
2006,2006,15.712,2006
546,546,16.303,546
4356,4356,12.93,4356
4163,4163,292.0,4163
3302,3302,12.048,3302
1654,1654,18.095,1654
1119,1119,3129.0,1119
3972,3972,22.275,3972
1398,1398,15.688,1398
3388,3388,10.652,3388
3075,3075,2043.0,3075
4352,4352,13.155,4352
1253,1253,3691.0,1253
636,636,32.412,636
940,940,13.285,940
650,650,15.456,650
2356,2356,38.213,2356
2415,2415,90.0,2415
3640,3640,17.93,3640
3540,3540,191.521,3540
1550,1550,13.863,1550
3335,3335,2181.0,3335
3425,3425,3359.0,3425
3261,3261,1139.0,3261
896,896,14.715,896
2322,2322,14.783,2322
1271,1271,2817.0,1271
1666,1666,15.173,1666
3573,3573,2019.0,3573
925,925,3670.0,925
4198,4198,16.008,4198
3421,3421,3318.0,3421
872,872,14.591,872
969,969,1562.0,969
2996,2996,11.07,2996
2984,2984,10.937,2984
2798,2798,14.887,2798
4341,4341,2652.0,4341
2523,2523,1992.0,2523
2667,2667,0.0,2667
2744,2744,24.106,2744
4069,4069,3096.0,4069
1901,1901,1284.0,1901
2965,2965,2583.0,2965
846,846,11.862,846
4281,4281,3575.0,4281
854,854,20.035,854
3181,3181,236.0,3181
3828,3828,23.426,3828
4189,4189,1834.0,4189
2888,2888,12.866,2888
1707,1707,746.0,1707
1074,1074,17.27,1074
3309,3309,1951.0,3309
2982,2982,18.536,2982
3211,3211,695.0,3211
2882,2882,12.923,2882
1759,1759,1885.0,1759
2859,2859,3358.0,2859
2893,2893,1344.0,2893
603,603,3097.0,603
2630,2630,17.148,2630
1528,1528,27.354,1528
3856,3856,38.191,3856
510,510,13.465,510
3094,3094,19.869,3094
1411,1411,3406.0,1411
1187,1187,550.0,1187
2922,2922,11.058,2922
2792,2792,48.239,2792
3562,3562,161.564,3562
3107,3107,1382.0,3107
2274,2274,16.422,2274
2231,2231,2319.0,2231
3544,3544,12.624,3544
635,635,1591.0,635
3354,3354,13.701,3354
1889,1889,2852.0,1889
3030,3030,11.91,3030
2210,2210,216.514,2210
2121,2121,1773.0,2121
1542,1542,22.57,1542
2213,2213,1354.0,2213
2851,2851,1517.0,2851
3527,3527,343.0,3527
1486,1486,24.654,1486
1610,1610,32.786,1610
2784,2784,24.614,2784
2988,2988,12.036,2988
541,541,0.0,541
3076,3076,34.844,3076
2593,2593,2285.0,2593
1608,1608,11.056,1608
4173,4173,3523.0,4173
1520,1520,16.609,1520
1261,1261,801.0,1261
4243,4243,3731.0,4243
3539,3539,2483.0,3539
1125,1125,3058.0,1125
3569,3569,2718.0,3569
697,697,2003.0,697
4347,4347,1651.0,4347
1108,1108,11.255,1108
616,616,15.693,616
2305,2305,51.0,2305
1355,1355,58.0,1355
3653,3653,71.0,3653
3472,3472,208.671,3472
3167,3167,2003.0,3167
990,990,17.503,990
3003,3003,915.0,3003
3815,3815,738.0,3815
3586,3586,22.219,3586
1989,1989,555.0,1989
2542,2542,40.496,2542
4191,4191,0.0,4191
871,871,2793.0,871
3007,3007,2547.0,3007
2485,2485,0.0,2485
3456,3456,32.933,3456
1799,1799,1694.0,1799
1782,1782,15.351,1782
503,503,589.0,503
2884,2884,22.923,2884
1245,1245,3487.0,1245
3188,3188,11.702,3188
3711,3711,236.0,3711
3291,3291,59.0,3291
1719,1719,2484.0,1719
2030,2030,11.773,2030
2326,2326,11.079,2326
2841,2841,2978.0,2841
1600,1600,25.314,1600
2287,2287,1579.0,2287
4324,4324,11.394,4324
2086,2086,15.326,2086
4003,4003,2496.0,4003
3058,3058,61.679,3058
746,746,12.903,746
2931,2931,1406.0,2931
1469,1469,3067.0,1469
3908,3908,43.185,3908
3897,3897,1375.0,3897
4048,4048,74.135,4048
2404,2404,11.858,2404
2668,2668,18.595,2668
2990,2990,20.268,2990
1898,1898,19.021,1898
4366,4366,11.403,4366
4320,4320,11.662,4320
1682,1682,16.410999999999998,1682
4255,4255,2164.0,4255
530,530,10.821,530
3726,3726,12.362,3726
1757,1757,439.0,1757
779,779,2335.0,779
3237,3237,2419.0,3237
4227,4227,0.0,4227
2541,2541,0.0,2541
1164,1164,31.239,1164
3944,3944,15.259,3944
3776,3776,11.277,3776
3625,3625,3251.0,3625
1818,1818,29.124,1818
1223,1223,3736.0,1223
3363,3363,3233.0,3363
