index,rtt,outage,congestion,noise,changepoint
0,33.0,0,1,0,1
1,177.0,0,0,1,1
2,67.0,0,0,1,0
3,24.824,0,0,0,1
4,154.0,0,0,1,1
5,25.609,0,0,0,1
6,138.0,0,0,1,1
7,126.0,0,0,1,0
8,0.0,1,0,0,1
9,0.0,1,0,0,0
10,0.0,1,0,0,1
11,145.0,0,0,1,1
12,0.0,1,0,0,1
13,0.0,1,0,0,0
14,42.0,0,1,0,0
15,121.0,0,0,1,1
16,0.0,1,0,0,1
17,167.0,0,0,1,1
18,0.0,1,0,0,1
19,40.0,0,1,0,0
20,36.0,0,1,0,0
21,25.105,0,0,0,0
22,36.0,0,1,0,0
23,43.0,0,1,0,0
24,31.0,0,1,0,0
25,25.098,0,0,0,1
26,211.0,0,0,1,1
27,0.0,1,0,0,1
28,212.0,0,0,1,1
29,23.186,0,0,0,1
30,33.0,0,1,0,0
31,0.0,1,0,0,0
32,0.0,1,0,0,0
33,0.0,1,0,0,0
34,33.0,0,1,0,0
35,49.0,0,0,1,0
36,35.0,0,1,0,0
37,31.0,0,1,0,0
38,33.0,0,1,0,0
39,25.636,0,0,0,0
40,0.0,1,0,0,0
41,0.0,1,0,0,1
42,204.0,0,0,1,1
43,214.0,0,0,1,1
44,38.0,0,1,0,1
45,33.0,0,1,0,0
46,0.0,1,0,0,0
47,32.0,0,1,0,0
48,29.78,0,0,0,0
49,29.0,0,0,0,0
50,35.0,0,1,0,0
51,43.0,0,1,0,0
52,0.0,1,0,0,0
53,29.0,0,0,0,1
54,179.0,0,0,1,1
55,25.632,0,0,0,1
56,107.0,0,0,1,1
57,0.0,1,0,0,0
58,0.0,1,0,0,0
59,42.0,0,1,0,0
60,0.0,1,0,0,0
61,38.0,0,1,0,0
62,25.687,0,0,0,0
63,40.0,0,1,0,0
64,30.147,0,1,0,0
65,30.0,0,1,0,0
66,38.0,0,1,0,0
67,26.756,0,0,0,0
68,0.0,1,0,0,0
69,41.0,0,1,0,0
70,0.0,1,0,0,0
71,40.0,0,1,0,0
72,33.0,0,1,0,0
73,56.0,0,0,1,0
74,26.908,0,0,0,0
75,26.901,0,0,0,0
76,0.0,1,0,0,1
77,209.0,0,0,1,1
78,28.224,0,0,0,1
79,0.0,1,0,0,0
80,37.0,0,1,0,0
81,43.0,0,1,0,1
82,194.0,0,0,1,1
83,29.271,0,0,0,1
84,0.0,1,0,0,0
85,27.042,0,0,0,0
86,0.0,1,0,0,1
87,129.0,0,0,1,1
88,33.0,0,1,0,0
89,23.479,0,0,0,0
90,34.0,0,1,0,0
91,0.0,1,0,0,1
92,106.0,0,0,1,1
93,42.0,0,1,0,1
94,154.0,0,0,1,1
95,24.488,0,0,0,1
96,119.0,0,0,1,1
97,0.0,1,0,0,1
98,116.0,0,0,1,1
99,39.0,0,1,0,0
100,33.0,0,1,0,1
101,195.0,0,0,1,1
102,50.0,0,0,1,1
103,36.0,0,1,0,0
104,0.0,1,0,0,1
105,172.0,0,0,1,1
106,0.0,1,0,0,1
107,31.0,0,1,0,0
108,147.0,0,0,1,1
109,71.0,0,0,1,0
110,39.0,0,1,0,0
111,25.19,0,0,0,0
112,22.911,0,0,0,0
113,29.0,0,0,0,0
114,0.0,1,0,0,0
115,23.94,0,0,0,0
116,23.148,0,0,0,0
117,42.0,0,1,0,0
118,29.0,0,0,0,0
119,28.625,0,0,0,0
120,34.0,0,1,0,0
121,24.256,0,0,0,0
122,0.0,1,0,0,0
123,33.0,0,1,0,0
124,39.0,0,1,0,0
125,0.0,1,0,0,0
126,25.75,0,0,0,0
127,0.0,1,0,0,1
128,145.0,0,0,1,1
129,31.0,0,1,0,0
130,34.107,0,1,0,0
131,97.0,0,0,1,1
132,0.0,1,0,0,1
133,67.0,0,0,1,0
134,43.0,0,1,0,0
135,0.0,1,0,0,1
136,199.0,0,0,1,1
137,24.56,0,0,0,1
138,34.0,0,1,0,0
139,41.0,0,1,0,0
140,0.0,1,0,0,0
141,59.0,0,0,1,0
142,56.0,0,0,1,0
143,143.0,0,0,1,1
144,32.0,0,1,0,0
145,31.619,0,1,0,0
146,25.916,0,0,0,0
147,42.0,0,1,0,1
148,214.0,0,0,1,1
149,0.0,1,0,0,1
150,35.0,0,1,0,0
151,32.065,0,1,0,0
152,0.0,1,0,0,0
153,0.0,1,0,0,0
154,30.843,0,1,0,0
155,42.0,0,1,0,0
156,23.947,0,0,0,0
157,0.0,1,0,0,0
158,31.0,0,1,0,0
159,0.0,1,0,0,1
160,134.0,0,0,1,1
161,76.0,0,0,1,1
162,158.0,0,0,1,1
163,31.0,0,1,0,0
164,0.0,1,0,0,0
165,0.0,1,0,0,1
166,207.0,0,0,1,1
167,31.0,0,1,0,1
168,34.0,0,1,0,0
169,40.0,0,1,0,1
170,186.0,0,0,1,1
171,29.91,0,1,0,1
172,32.0,0,1,0,0
173,0.0,1,0,0,1
174,163.0,0,0,1,1
175,0.0,1,0,0,1
176,140.0,0,0,1,1
177,67.0,0,0,1,0
178,39.0,0,1,0,0
179,29.0,0,0,0,0
180,0.0,1,0,0,1
181,118.0,0,0,1,1
182,29.0,0,0,0,0
183,33.784,0,1,0,0
184,66.0,0,0,1,0
185,29.0,0,0,0,0
186,37.0,0,1,0,0
187,42.0,0,1,0,0
188,43.0,0,1,0,0
189,99.0,0,0,1,0
190,200.0,0,0,1,1
191,0.0,1,0,0,1
192,202.0,0,0,1,1
193,29.0,0,0,0,1
194,141.0,0,0,1,1
195,30.0,0,1,0,0
196,26.632,0,0,0,0
197,49.0,0,0,1,0
198,0.0,1,0,0,1
199,83.0,0,0,1,0
200,85.0,0,0,1,0
201,42.0,0,1,0,0
202,32.0,0,1,0,0
203,0.0,1,0,0,0
204,0.0,1,0,0,0
205,75.0,0,0,1,0
206,38.0,0,1,0,0
207,0.0,1,0,0,0
208,39.0,0,1,0,0
209,0.0,1,0,0,0
210,33.0,0,1,0,0
211,31.287,0,1,0,0
212,37.0,0,1,0,0
213,112.0,0,0,1,1
214,34.999,0,1,0,0
215,25.925,0,0,0,0
216,0.0,1,0,0,0
217,24.401,0,0,0,0
218,41.0,0,1,0,0
219,0.0,1,0,0,1
220,182.0,0,0,1,1
221,31.0,0,1,0,1
222,32.495,0,1,0,0
223,117.0,0,0,1,0
224,146.0,0,0,1,0
225,166.0,0,0,1,0
226,145.0,0,0,1,0
227,34.633,0,1,0,0
228,0.0,1,0,0,0
229,26.941,0,0,0,0
230,36.0,0,1,0,1
231,195.0,0,0,1,1
232,29.296,0,0,0,1
233,0.0,1,0,0,1
234,204.0,0,0,1,1
235,0.0,1,0,0,1
236,0.0,1,0,0,0
237,0.0,1,0,0,0
238,23.428,0,0,0,0
239,24.23,0,0,0,0
240,0.0,1,0,0,0
241,62.0,0,0,1,0
242,30.0,0,1,0,0
243,98.0,0,0,1,1
244,0.0,1,0,0,1
245,182.0,0,0,1,1
246,31.0,0,1,0,1
247,60.0,0,0,1,0
248,0.0,1,0,0,0
249,0.0,1,0,0,0
250,23.804,0,0,0,0
251,24.087,0,0,0,0
252,0.0,1,0,0,0
253,38.0,0,1,0,0
254,104.0,0,0,1,1
255,26.523,0,0,0,0
256,31.0,0,1,0,0
257,0.0,1,0,0,0
258,34.264,0,1,0,0
259,34.0,0,1,0,0
260,25.675,0,0,0,0
261,31.0,0,1,0,0
262,33.0,0,1,0,0
263,37.0,0,1,0,0
264,146.0,0,0,1,1
265,29.286,0,0,0,0
266,27.371,0,0,0,0
267,0.0,1,0,0,0
268,30.0,0,1,0,0
269,0.0,1,0,0,0
270,44.0,0,1,0,0
271,0.0,1,0,0,0
272,0.0,1,0,0,0
273,0.0,1,0,0,0
274,0.0,1,0,0,0
275,35.0,0,1,0,0
276,27.366,0,0,0,0
277,32.0,0,1,0,0
278,39.0,0,1,0,0
279,0.0,1,0,0,1
280,162.0,0,0,1,1
281,177.0,0,0,1,1
282,0.0,1,0,0,1
283,22.801,0,0,0,0
284,30.883,0,1,0,0
285,98.0,0,0,1,1
286,0.0,1,0,0,1
287,26.689,0,0,0,0
288,0.0,1,0,0,0
289,32.0,0,1,0,0
290,64.0,0,0,1,0
291,31.0,0,1,0,1
292,217.0,0,0,1,1
293,206.0,0,0,1,1
294,32.0,0,1,0,1
295,51.0,0,0,1,0
296,0.0,1,0,0,0
297,0.0,1,0,0,0
298,0.0,1,0,0,0
299,24.025,0,0,0,0
300,25.587,0,0,0,0
301,30.0,0,1,0,0
302,0.0,1,0,0,0
303,0.0,1,0,0,0
304,32.0,0,1,0,0
305,150.0,0,0,1,1
306,0.0,1,0,0,1
307,31.0,0,1,0,0
308,35.0,0,1,0,0
309,45.0,0,0,1,0
310,38.574,0,1,0,0
311,44.0,0,1,0,0
312,28.476,0,0,0,0
313,0.0,1,0,0,0
314,23.152,0,0,0,0
315,0.0,1,0,0,0
316,44.0,0,1,0,0
317,32.264,0,1,0,0
318,0.0,1,0,0,0
319,34.0,0,1,0,0
320,31.0,0,1,0,0
321,35.0,0,1,0,0
322,0.0,1,0,0,0
323,28.918,0,0,0,0
324,28.219,0,0,0,0
325,0.0,1,0,0,0
326,0.0,1,0,0,0
327,36.0,0,1,0,0
328,135.0,0,0,1,1
329,61.0,0,0,1,0
330,33.927,0,1,0,0
331,36.0,0,1,0,1
332,203.0,0,0,1,1
333,216.0,0,0,1,1
334,29.0,0,0,0,1
335,35.525,0,1,0,0
336,0.0,1,0,0,0
337,38.0,0,1,0,0
338,0.0,1,0,0,1
339,116.0,0,0,1,1
340,31.696,0,1,0,0
341,28.436,0,0,0,0
342,32.55,0,1,0,0
343,29.0,0,0,0,0
344,0.0,1,0,0,0
345,0.0,1,0,0,0
346,23.564,0,0,0,0
347,24.111,0,0,0,0
348,0.0,1,0,0,1
349,204.0,0,0,1,1
350,26.228,0,0,0,1
351,0.0,1,0,0,0
352,71.0,0,0,1,0
353,35.0,0,1,0,0
354,96.0,0,0,1,0
355,40.0,0,1,0,1
356,123.0,0,0,1,1
357,23.978,0,0,0,1
358,181.0,0,0,1,1
359,42.0,0,1,0,1
360,24.843,0,0,0,1
361,146.0,0,0,1,1
362,79.0,0,0,1,0
363,0.0,1,0,0,1
364,77.0,0,0,1,1
365,24.219,0,0,0,0
366,36.0,0,1,0,0
367,27.268,0,0,0,0
368,27.751,0,0,0,0
369,0.0,1,0,0,0
370,25.238,0,0,0,1
371,189.0,0,0,1,1
372,37.0,0,1,0,0
373,0.0,1,0,0,1
374,208.0,0,0,1,1
375,37.0,0,1,0,1
376,43.0,0,1,0,0
377,37.0,0,1,0,0
378,42.0,0,1,0,0
379,51.0,0,0,1,0
380,36.0,0,1,0,0
381,32.0,0,1,0,1
382,155.0,0,0,1,1
383,23.684,0,0,0,0
384,0.0,1,0,0,0
385,0.0,1,0,0,1
386,137.0,0,0,1,1
387,23.405,0,0,0,1
388,32.0,0,1,0,0
389,42.0,0,1,0,0
390,0.0,1,0,0,0
391,30.0,0,1,0,0
392,0.0,1,0,0,0
393,24.678,0,0,0,0
394,111.0,0,0,1,0
395,219.0,0,0,1,1
396,110.0,0,0,1,0
397,30.0,0,1,0,0
398,30.788,0,1,0,1
399,154.0,0,0,1,1
400,24.628,0,0,0,1
401,23.986,0,0,0,0
402,23.751,0,0,0,0
403,0.0,1,0,0,0
404,0.0,1,0,0,0
405,23.91,0,0,0,0
406,23.088,0,0,0,0
407,61.0,0,0,1,0
408,24.234,0,0,0,0
409,99.0,0,0,1,0
410,194.0,0,0,1,1
411,78.0,0,0,1,0
412,0.0,1,0,0,1
413,177.0,0,0,1,1
414,30.165,0,1,0,1
415,161.0,0,0,1,1
416,28.848,0,0,0,1
417,69.0,0,0,1,0
418,104.0,0,0,1,1
419,0.0,1,0,0,1
420,24.743,0,0,0,0
421,131.0,0,0,1,1
422,28.456,0,0,0,0
423,43.0,0,1,0,0
424,0.0,1,0,0,0
425,39.0,0,1,0,0
426,28.912,0,0,0,0
427,75.0,0,0,1,0
428,183.0,0,0,1,1
429,23.883,0,0,0,1
430,28.431,0,0,0,0
431,33.0,0,1,0,0
432,0.0,1,0,0,0
433,0.0,1,0,0,0
434,26.429,0,0,0,0
435,35.0,0,1,0,0
436,129.0,0,0,1,0
437,198.0,0,0,1,1
438,0.0,1,0,0,1
439,31.894,0,1,0,0
440,34.827,0,1,0,0
441,43.0,0,1,0,0
442,0.0,1,0,0,0
443,0.0,1,0,0,0
444,23.202,0,0,0,0
445,0.0,1,0,0,0
446,35.0,0,1,0,0
447,24.333,0,0,0,0
448,24.723,0,0,0,0
449,25.244,0,0,0,0
450,88.0,0,0,1,1
451,27.053,0,0,0,0
452,0.0,1,0,0,0
453,78.0,0,0,1,0
454,38.0,0,1,0,0
455,26.323,0,0,0,0
456,66.0,0,0,1,0
457,184.0,0,0,1,1
458,38.0,0,1,0,1
459,174.0,0,0,1,1
460,72.0,0,0,1,0
461,30.0,0,1,0,0
462,34.632,0,1,0,0
463,40.0,0,1,0,0
464,0.0,1,0,0,0
465,35.0,0,1,0,0
466,27.719,0,0,0,1
467,207.0,0,0,1,1
468,156.0,0,0,1,0
469,28.548,0,0,0,1
470,34.0,0,1,0,0
471,39.0,0,1,0,1
472,209.0,0,0,1,1
473,161.0,0,0,1,0
474,0.0,1,0,0,1
475,205.0,0,0,1,1
476,29.0,0,0,0,1
477,31.0,0,1,0,0
478,151.0,0,0,1,1
479,0.0,1,0,0,1
480,32.921,0,1,0,1
481,217.0,0,0,1,1
482,129.0,0,0,1,0
483,41.0,0,1,0,0
484,40.0,0,1,0,0
485,29.035,0,0,0,0
486,97.0,0,0,1,1
487,0.0,1,0,0,0
488,0.0,1,0,0,0
489,41.0,0,1,0,0
490,0.0,1,0,0,0
491,0.0,1,0,0,0
492,27.757,0,0,0,0
493,26.511,0,0,0,0
494,24.266,0,0,0,0
495,0.0,1,0,0,0
496,26.782,0,0,0,0
497,0.0,1,0,0,0
498,0.0,1,0,0,0
499,0.0,1,0,0,0
500,33.0,0,1,0,0
501,38.0,0,1,0,0
502,25.464,0,0,0,0
503,38.0,0,1,0,0
504,28.423,0,0,0,0
505,33.0,0,1,0,0
506,52.0,0,0,1,0
507,169.0,0,0,1,1
508,0.0,1,0,0,1
509,26.221,0,0,0,0
510,33.0,0,1,0,0
511,27.653,0,0,0,0
512,120.0,0,0,1,1
513,53.0,0,0,1,0
514,34.0,0,1,0,0
515,101.0,0,0,1,1
516,0.0,1,0,0,0
517,0.0,1,0,0,1
518,156.0,0,0,1,0
519,205.0,0,0,1,1
520,0.0,1,0,0,1
521,0.0,1,0,0,0
522,38.0,0,1,0,0
523,78.0,0,0,1,0
524,146.0,0,0,1,1
525,35.0,0,1,0,0
526,27.178,0,0,0,0
527,29.0,0,0,0,0
528,36.0,0,1,0,1
529,203.0,0,0,1,1
530,35.0,0,1,0,1
531,140.0,0,0,1,1
532,26.03,0,0,0,1
533,179.0,0,0,1,0
534,217.0,0,0,1,1
535,42.0,0,1,0,1
536,23.746,0,0,0,0
537,27.498,0,0,0,0
538,30.0,0,1,0,0
539,0.0,1,0,0,0
540,25.996,0,0,0,0
541,0.0,1,0,0,1
542,179.0,0,0,1,1
543,31.0,0,1,0,1
544,26.503,0,0,0,1
545,149.0,0,0,1,1
546,35.0,0,1,0,1
547,120.0,0,0,1,1
548,0.0,1,0,0,1
549,34.0,0,1,0,0
550,30.443,0,1,0,0
551,0.0,1,0,0,0
552,33.0,0,1,0,0
553,154.0,0,0,1,1
554,39.0,0,1,0,1
555,57.0,0,0,1,0
556,39.0,0,1,0,0
557,0.0,1,0,0,0
558,0.0,1,0,0,0
559,26.692,0,0,0,0
560,0.0,1,0,0,0
561,30.0,0,1,0,0
562,0.0,1,0,0,0
563,30.0,0,1,0,0
564,41.0,0,1,0,0
565,0.0,1,0,0,1
566,151.0,0,0,1,1
567,25.295,0,0,0,1
568,43.0,0,1,0,0
569,29.0,0,0,0,0
570,42.0,0,1,0,0
571,91.0,0,0,1,0
572,39.0,0,1,0,0
573,24.338,0,0,0,0
574,25.295,0,0,0,0
575,36.0,0,1,0,0
576,36.0,0,1,0,0
577,29.0,0,0,0,0
578,33.0,0,1,0,0
579,55.0,0,0,1,0
580,0.0,1,0,0,0
581,23.252,0,0,0,1
582,209.0,0,0,1,1
583,43.0,0,1,0,1
584,0.0,1,0,0,0
585,26.7,0,0,0,0
586,31.69,0,1,0,1
587,189.0,0,0,1,1
588,0.0,1,0,0,1
589,0.0,1,0,0,0
590,34.782,0,1,0,0
591,38.0,0,1,0,0
592,26.061,0,0,0,0
593,0.0,1,0,0,0
594,28.75,0,0,0,0
595,0.0,1,0,0,0
596,43.0,0,1,0,0
597,33.0,0,1,0,0
598,113.0,0,0,1,1
599,0.0,1,0,0,1
600,83.521,0,0,1,1
601,0.0,1,0,0,0
602,24.04,0,0,0,0
603,37.0,0,1,0,0
604,43.0,0,1,0,0
605,0.0,1,0,0,1
606,213.0,0,0,1,1
607,29.0,0,0,0,1
608,28.953,0,0,0,0
609,0.0,1,0,0,0
610,41.0,0,1,0,0
611,0.0,1,0,0,0
612,38.0,0,1,0,0
613,84.0,0,0,1,0
614,43.0,0,1,0,0
615,42.0,0,1,0,0
616,0.0,1,0,0,1
617,172.0,0,0,1,1
618,60.0,0,0,1,1
619,96.0,0,0,1,0
620,23.1,0,0,0,1
621,161.0,0,0,1,1
622,0.0,1,0,0,1
623,0.0,1,0,0,0
624,41.0,0,1,0,0
625,0.0,1,0,0,1
626,202.0,0,0,1,1
627,42.0,0,1,0,1
628,179.0,0,0,1,1
629,0.0,1,0,0,1
630,201.0,0,0,1,1
631,31.47,0,1,0,1
632,0.0,1,0,0,0
633,0.0,1,0,0,0
634,27.077,0,0,0,0
635,26.522,0,0,0,0
636,29.329,0,0,0,0
637,34.585,0,1,0,0
638,37.148,0,1,0,0
639,0.0,1,0,0,1
640,120.0,0,0,1,1
641,30.0,0,1,0,1
642,88.0,0,0,1,0
643,30.0,0,1,0,0
644,23.715,0,0,0,0
645,0.0,1,0,0,0
646,31.0,0,1,0,0
647,41.0,0,1,0,0
648,31.0,0,1,0,0
649,41.0,0,1,0,0
650,0.0,1,0,0,0
651,31.0,0,1,0,0
652,111.0,0,0,1,1
653,31.0,0,1,0,0
654,0.0,1,0,0,0
655,63.249,0,0,1,1
656,0.0,1,0,0,0
657,0.0,1,0,0,0
658,0.0,1,0,0,0
659,52.995,0,0,1,0
660,23.513,0,0,0,0
661,30.0,0,1,0,0
662,0.0,1,0,0,0
663,25.299,0,0,0,0
664,37.0,0,1,0,0
665,34.0,0,1,0,0
666,31.0,0,1,0,1
667,164.0,0,0,1,1
668,24.18,0,0,0,1
669,207.0,0,0,1,1
670,32.0,0,1,0,1
671,36.0,0,1,0,0
672,0.0,1,0,0,0
673,82.0,0,0,1,0
674,106.0,0,0,1,0
675,171.0,0,0,1,1
676,35.0,0,1,0,0
677,0.0,1,0,0,0
678,0.0,1,0,0,0
679,0.0,1,0,0,0
680,0.0,1,0,0,0
681,38.0,0,1,0,0
682,0.0,1,0,0,1
683,102.0,0,0,1,1
684,33.0,0,1,0,0
685,43.0,0,1,0,0
686,35.0,0,1,0,0
687,32.0,0,1,0,0
688,131.0,0,0,1,1
689,37.0,0,1,0,1
690,216.0,0,0,1,1
691,62.0,0,0,1,1
692,35.0,0,1,0,0
693,0.0,1,0,0,0
694,40.0,0,1,0,0
695,25.235,0,0,0,0
696,28.309,0,0,0,0
697,0.0,1,0,0,0
698,38.0,0,1,0,0
699,37.0,0,1,0,0
700,109.0,0,0,1,1
701,23.263,0,0,0,0
702,27.498,0,0,0,0
703,35.0,0,1,0,0
704,43.0,0,1,0,0
705,41.0,0,1,0,1
706,189.0,0,0,1,1
707,25.118,0,0,0,1
708,27.183,0,0,0,0
709,25.755,0,0,0,0
710,26.785,0,0,0,0
711,35.0,0,1,0,1
712,172.0,0,0,1,1
713,43.0,0,1,0,1
714,174.0,0,0,1,1
715,43.0,0,1,0,0
716,0.0,1,0,0,0
717,33.0,0,1,0,0
718,26.558,0,0,0,1
719,169.0,0,0,1,1
720,0.0,1,0,0,1
721,40.0,0,1,0,0
722,0.0,1,0,0,0
723,24.364,0,0,0,0
724,22.646,0,0,0,0
725,42.0,0,1,0,0
726,28.638,0,0,0,0
727,0.0,1,0,0,0
728,30.885,0,1,0,0
729,54.0,0,0,1,0
730,0.0,1,0,0,0
731,65.0,0,0,1,0
732,43.0,0,1,0,1
733,168.0,0,0,1,1
734,30.102,0,1,0,1
735,100.0,0,0,1,1
736,0.0,1,0,0,1
737,37.0,0,1,0,0
738,0.0,1,0,0,1
739,174.0,0,0,1,1
740,0.0,1,0,0,1
741,201.0,0,0,1,1
742,24.874,0,0,0,1
743,0.0,1,0,0,1
744,171.0,0,0,1,1
745,41.0,0,1,0,1
746,33.646,0,1,0,0
747,79.0,0,0,1,0
748,35.0,0,1,0,1
749,161.0,0,0,1,1
750,36.295,0,1,0,1
751,115.0,0,0,1,1
752,34.0,0,1,0,0
753,24.617,0,0,0,0
754,111.0,0,0,1,0
755,146.0,0,0,1,1
756,0.0,1,0,0,1
757,202.0,0,0,1,1
758,24.559,0,0,0,1
759,23.092,0,0,0,0
760,41.0,0,1,0,0
761,25.245,0,0,0,0
762,39.0,0,1,0,0
763,32.0,0,1,0,0
764,41.0,0,1,0,0
765,37.0,0,1,0,0
766,116.0,0,0,1,1
767,27.021,0,0,0,0
768,0.0,1,0,0,0
769,0.0,1,0,0,0
770,35.0,0,1,0,0
771,34.763,0,1,0,0
772,33.0,0,1,0,0
773,132.0,0,0,1,1
774,34.506,0,1,0,0
775,37.0,0,1,0,0
776,0.0,1,0,0,1
777,119.0,0,0,1,1
778,35.62,0,1,0,0
779,41.0,0,1,0,0
780,33.788,0,1,0,0
781,39.0,0,1,0,0
782,159.0,0,0,1,0
783,182.0,0,0,1,1
784,29.173,0,0,0,1
785,197.0,0,0,1,1
786,25.45,0,0,0,1
787,96.0,0,0,1,1
788,42.0,0,1,0,0
789,28.63,0,0,0,0
790,32.336,0,1,0,0
791,28.936,0,0,0,0
792,36.0,0,1,0,0
793,32.619,0,1,0,0
794,0.0,1,0,0,0
795,0.0,1,0,0,0
796,0.0,1,0,0,0
797,38.0,0,1,0,0
798,43.0,0,1,0,0
799,79.0,0,0,1,0
800,24.162,0,0,0,0
801,24.123,0,0,0,0
802,53.0,0,0,1,0
803,38.0,0,1,0,0
804,24.575,0,0,0,0
805,63.0,0,0,1,0
806,0.0,1,0,0,0
807,41.0,0,1,0,0
808,87.0,0,0,1,0
809,30.043,0,1,0,0
810,42.0,0,1,0,0
811,37.0,0,1,0,0
812,43.0,0,1,0,0
813,0.0,1,0,0,0
814,32.794,0,1,0,0
815,29.339,0,0,0,0
816,37.0,0,1,0,0
817,114.0,0,0,1,1
818,38.0,0,1,0,0
819,28.029,0,0,0,0
820,36.0,0,1,0,0
821,0.0,1,0,0,0
822,23.672,0,0,0,0
823,40.0,0,1,0,0
824,103.0,0,0,1,1
825,0.0,1,0,0,0
826,0.0,1,0,0,0
827,32.0,0,1,0,0
828,36.0,0,1,0,0
829,42.0,0,1,0,0
830,59.0,0,0,1,0
831,72.0,0,0,1,0
832,31.0,0,1,0,1
833,162.0,0,0,1,1
834,31.0,0,1,0,0
835,0.0,1,0,0,0
836,0.0,1,0,0,0
837,0.0,1,0,0,0
838,38.003,0,1,0,0
839,39.0,0,1,0,0
840,24.671,0,0,0,0
841,35.0,0,1,0,0
842,26.096,0,0,0,0
843,96.0,0,0,1,1
844,32.0,0,1,0,0
845,0.0,1,0,0,1
846,158.0,0,0,1,1
847,36.0,0,1,0,0
848,0.0,1,0,0,0
849,32.0,0,1,0,0
850,22.908,0,0,0,0
851,36.0,0,1,0,0
852,0.0,1,0,0,0
853,24.615,0,0,0,0
854,38.0,0,1,0,0
855,24.94,0,0,0,0
856,31.0,0,1,0,0
857,38.0,0,1,0,0
858,0.0,1,0,0,1
859,120.0,0,0,1,1
860,0.0,1,0,0,1
861,23.227,0,0,0,0
862,24.311,0,0,0,0
863,31.979,0,1,0,0
864,30.039,0,1,0,0
865,113.0,0,0,1,0
866,154.0,0,0,1,1
867,33.0,0,1,0,1
868,33.0,0,1,0,0
869,24.431,0,0,0,0
870,0.0,1,0,0,0
871,0.0,1,0,0,0
872,41.0,0,1,0,0
873,49.0,0,0,1,0
874,24.416,0,0,0,0
875,39.0,0,1,0,0
876,29.0,0,0,0,0
877,43.0,0,1,0,0
878,23.761,0,0,0,0
879,58.0,0,0,1,0
880,42.0,0,1,0,0
881,35.0,0,1,0,0
882,43.0,0,1,0,0
883,33.0,0,1,0,0
884,0.0,1,0,0,0
885,0.0,1,0,0,1
886,164.0,0,0,1,1
887,0.0,1,0,0,1
888,38.0,0,1,0,0
889,0.0,1,0,0,1
890,150.0,0,0,1,1
891,43.0,0,1,0,0
892,0.0,1,0,0,0
893,32.0,0,1,0,0
894,59.0,0,0,1,0
895,35.792,0,1,0,0
896,25.236,0,0,0,0
897,24.687,0,0,0,0
898,142.0,0,0,1,1
899,34.0,0,1,0,0
900,0.0,1,0,0,1
901,96.0,0,0,1,0
902,120.0,0,0,1,1
903,0.0,1,0,0,1
904,25.719,0,0,0,0
905,29.0,0,0,0,0
906,136.0,0,0,1,1
907,0.0,1,0,0,1
908,217.0,0,0,1,1
909,30.0,0,1,0,1
910,0.0,1,0,0,0
911,30.0,0,1,0,0
912,0.0,1,0,0,1
913,186.0,0,0,1,1
914,0.0,1,0,0,1
915,28.176,0,0,0,0
916,39.0,0,1,0,0
917,24.108,0,0,0,0
918,30.0,0,1,0,1
919,180.0,0,0,1,1
920,69.0,0,0,1,0
921,31.0,0,1,0,0
922,31.825,0,1,0,0
923,0.0,1,0,0,1
924,143.0,0,0,1,1
925,24.872,0,0,0,0
926,0.0,1,0,0,0
927,90.0,0,0,1,1
928,33.0,0,1,0,1
929,105.0,0,0,1,1
930,32.0,0,1,0,0
931,0.0,1,0,0,0
932,32.0,0,1,0,0
933,176.0,0,0,1,1
934,0.0,1,0,0,1
935,24.965,0,0,0,0
936,35.662,0,1,0,0
937,38.0,0,1,0,0
938,43.0,0,1,0,0
939,37.0,0,1,0,0
940,40.0,0,1,0,1
941,196.0,0,0,1,1
942,201.0,0,0,1,1
943,57.0,0,0,1,0
944,0.0,1,0,0,0
945,33.452,0,1,0,0
946,0.0,1,0,0,0
947,0.0,1,0,0,0
948,32.926,0,1,0,0
949,0.0,1,0,0,1
950,129.0,0,0,1,1
951,28.845,0,0,0,1
952,214.0,0,0,1,1
953,0.0,1,0,0,1
954,199.0,0,0,1,1
955,62.0,0,0,1,1
956,145.0,0,0,1,1
957,35.469,0,1,0,0
958,29.253,0,0,0,0
959,26.583,0,0,0,0
960,38.0,0,1,0,0
961,0.0,1,0,0,0
962,35.527,0,1,0,0
963,0.0,1,0,0,0
964,0.0,1,0,0,0
965,32.0,0,1,0,0
966,122.0,0,0,1,1
967,0.0,1,0,0,1
968,39.0,0,1,0,0
969,0.0,1,0,0,0
970,0.0,1,0,0,1
971,141.0,0,0,1,1
972,37.0,0,1,0,1
973,195.0,0,0,1,1
974,34.0,0,1,0,1
975,29.0,0,0,0,0
976,28.132,0,0,0,1
977,199.0,0,0,1,1
978,93.0,0,0,1,0
979,53.0,0,0,1,0
980,25.853,0,0,0,0
981,33.0,0,1,0,0
982,101.0,0,0,1,1
983,27.504,0,0,0,1
984,205.0,0,0,1,1
985,43.0,0,1,0,1
986,41.0,0,1,0,0
987,0.0,1,0,0,0
988,39.0,0,1,0,0
989,28.865,0,0,0,0
990,0.0,1,0,0,0
991,0.0,1,0,0,1
992,214.0,0,0,1,1
993,182.0,0,0,1,1
994,29.0,0,0,0,1
995,38.0,0,1,0,0
996,42.0,0,1,0,0
997,30.9,0,1,0,0
998,30.465,0,1,0,0
999,0.0,1,0,0,0
1000,0.0,1,0,0,0
1001,0.0,1,0,0,0
1002,32.674,0,1,0,0
1003,0.0,1,0,0,0
1004,23.302,0,0,0,0
1005,27.101,0,0,0,0
1006,41.0,0,1,0,0
1007,172.0,0,0,1,0
1008,192.0,0,0,1,0
1009,105.0,0,0,1,0
1010,25.38,0,0,0,1
1011,130.0,0,0,1,0
1012,116.0,0,0,1,0
1013,0.0,1,0,0,1
1014,36.0,0,1,0,0
1015,27.353,0,0,0,0
1016,29.838,0,1,0,0
1017,0.0,1,0,0,0
1018,26.915,0,0,0,0
1019,44.0,0,1,0,0
1020,64.0,0,0,1,0
1021,34.0,0,1,0,0
1022,47.0,0,0,1,0
1023,29.0,0,0,0,0
1024,31.0,0,1,0,0
1025,38.0,0,1,0,0
1026,106.0,0,0,1,1
1027,31.145,0,1,0,0
1028,0.0,1,0,0,0
1029,43.0,0,1,0,0
1030,32.0,0,1,0,0
1031,32.0,0,1,0,0
1032,0.0,1,0,0,0
1033,72.0,0,0,1,0
1034,217.0,0,0,1,1
1035,112.0,0,0,1,0
1036,0.0,1,0,0,1
1037,200.0,0,0,1,1
1038,43.0,0,1,0,0
1039,0.0,1,0,0,0
1040,43.0,0,1,0,0
1041,0.0,1,0,0,0
1042,0.0,1,0,0,0
1043,0.0,1,0,0,0
1044,39.0,0,1,0,0
1045,30.738,0,1,0,0
1046,0.0,1,0,0,0
1047,0.0,1,0,0,1
1048,196.0,0,0,1,1
1049,187.0,0,0,1,1
1050,32.0,0,1,0,1
1051,84.0,0,0,1,0
1052,29.0,0,0,0,0
1053,0.0,1,0,0,0
1054,0.0,1,0,0,0
1055,0.0,1,0,0,0
1056,33.0,0,1,0,0
1057,0.0,1,0,0,0
1058,24.992,0,0,0,0
1059,25.739,0,0,0,1
1060,191.0,0,0,1,1
1061,207.0,0,0,1,1
1062,91.0,0,0,1,0
1063,30.0,0,1,0,0
1064,30.0,0,1,0,0
1065,41.0,0,1,0,1
1066,187.0,0,0,1,1
1067,0.0,1,0,0,1
1068,0.0,1,0,0,1
1069,206.0,0,0,1,1
1070,28.903,0,0,0,1
1071,43.0,0,1,0,0
1072,105.0,0,0,1,1
1073,39.0,0,1,0,1
1074,149.0,0,0,1,1
1075,41.054,0,1,0,0
1076,29.0,0,0,0,1
1077,175.0,0,0,1,1
1078,29.0,0,0,0,1
1079,69.409,0,0,1,0
1080,32.0,0,1,0,0
1081,84.765,0,0,1,0
1082,141.296,0,0,1,0
1083,132.0,0,0,1,1
1084,0.0,1,0,0,1
1085,29.0,0,0,0,0
1086,121.0,0,0,1,1
1087,36.0,0,1,0,0
1088,39.0,0,1,0,1
1089,163.073,0,0,1,1
1090,68.0,0,0,1,1
1091,201.693,0,0,1,1
1092,199.0,0,0,1,1
1093,50.0,0,0,1,1
1094,29.0,0,0,0,0
1095,0.0,1,0,0,0
1096,0.0,1,0,0,0
1097,79.0,0,0,1,0
1098,53.0,0,0,1,0
1099,29.0,0,0,0,0
1100,79.0,0,0,1,0
1101,43.0,0,1,0,0
1102,31.0,0,1,0,0
1103,30.0,0,1,0,0
1104,29.0,0,0,0,0
1105,0.0,1,0,0,1
1106,177.0,0,0,1,1
1107,0.0,1,0,0,1
1108,0.0,1,0,0,0
1109,0.0,1,0,0,0
1110,0.0,1,0,0,0
1111,26.642,0,0,0,0
1112,0.0,1,0,0,1
1113,178.0,0,0,1,1
1114,192.354,0,0,1,1
1115,34.0,0,1,0,1
1116,32.716,0,1,0,0
1117,37.0,0,1,0,0
1118,0.0,1,0,0,1
1119,183.0,0,0,1,1
1120,37.0,0,1,0,1
1121,68.0,0,0,1,0
1122,25.81,0,0,0,0
1123,29.0,0,0,0,0
1124,33.0,0,1,0,0
1125,0.0,1,0,0,0
1126,24.322,0,0,0,0
1127,45.064,0,0,1,0
1128,29.0,0,0,0,0
1129,24.449,0,0,0,0
1130,0.0,1,0,0,0
1131,35.0,0,1,0,0
1132,0.0,1,0,0,0
1133,0.0,1,0,0,0
1134,0.0,1,0,0,0
1135,23.588,0,0,0,0
1136,37.0,0,1,0,0
1137,49.0,0,0,1,0
1138,0.0,1,0,0,0
1139,0.0,1,0,0,0
1140,42.0,0,1,0,0
1141,180.0,0,0,1,1
1142,31.0,0,1,0,1
1143,25.916,0,0,0,0
1144,37.0,0,1,0,0
1145,23.433,0,0,0,0
1146,36.0,0,1,0,0
1147,0.0,1,0,0,0
1148,0.0,1,0,0,0
1149,43.0,0,1,0,0
1150,0.0,1,0,0,0
1151,26.865,0,0,0,0
1152,25.844,0,0,0,0
1153,41.0,0,1,0,0
1154,151.0,0,0,1,1
1155,0.0,1,0,0,1
1156,35.0,0,1,0,1
1157,211.0,0,0,1,1
1158,38.0,0,1,0,1
1159,28.593,0,0,0,0
1160,34.0,0,1,0,1
1161,206.0,0,0,1,1
1162,185.0,0,0,1,1
1163,0.0,1,0,0,1
1164,33.0,0,1,0,0
1165,24.022,0,0,0,1
1166,218.0,0,0,1,1
1167,35.0,0,1,0,1
1168,35.0,0,1,0,0
1169,0.0,1,0,0,0
1170,85.0,0,0,1,1
1171,30.764,0,1,0,1
1172,190.0,0,0,1,1
1173,0.0,1,0,0,1
1174,0.0,1,0,0,0
1175,0.0,1,0,0,0
1176,109.0,0,0,1,0
1177,218.0,0,0,1,1
1178,0.0,1,0,0,1
1179,32.364,0,1,0,0
1180,26.743,0,0,0,0
1181,85.0,0,0,1,1
1182,0.0,1,0,0,0
1183,0.0,1,0,0,0
1184,23.689,0,0,0,0
1185,26.93,0,0,0,0
1186,34.0,0,1,0,0
1187,34.0,0,1,0,0
1188,0.0,1,0,0,0
1189,34.428,0,1,0,0
1190,0.0,1,0,0,0
1191,26.414,0,0,0,0
1192,0.0,1,0,0,0
1193,23.767,0,0,0,1
1194,184.0,0,0,1,1
1195,23.566,0,0,0,1
1196,38.0,0,1,0,0
1197,0.0,1,0,0,1
1198,215.0,0,0,1,1
1199,0.0,1,0,0,1
1200,36.0,0,1,0,0
1201,139.0,0,0,1,0
1202,201.0,0,0,1,1
1203,0.0,1,0,0,1
1204,0.0,1,0,0,0
1205,25.329,0,0,0,0
1206,113.0,0,0,1,0
1207,81.0,0,0,1,0
1208,23.833,0,0,0,1
1209,140.0,0,0,1,1
1210,45.719,0,0,1,0
1211,32.883,0,1,0,1
1212,151.0,0,0,1,1
1213,27.248,0,0,0,1
1214,24.217,0,0,0,1
1215,162.0,0,0,1,1
1216,24.739,0,0,0,1
1217,194.0,0,0,1,1
1218,24.581,0,0,0,1
1219,27.21,0,0,0,0
1220,38.0,0,1,0,0
1221,37.0,0,1,0,0
1222,153.0,0,0,1,1
1223,23.668,0,0,0,1
1224,122.0,0,0,1,1
1225,40.0,0,1,0,0
1226,0.0,1,0,0,0
1227,35.0,0,1,0,0
1228,36.0,0,1,0,0
1229,79.0,0,0,1,0
1230,37.0,0,1,0,0
1231,26.467,0,0,0,1
1232,172.0,0,0,1,1
1233,46.0,0,0,1,0
1234,25.753,0,0,0,0
1235,0.0,1,0,0,0
1236,57.0,0,0,1,0
1237,29.0,0,0,0,0
1238,30.0,0,1,0,0
1239,24.4,0,0,0,0
1240,26.907,0,0,0,0
1241,0.0,1,0,0,1
1242,113.0,0,0,1,1
1243,33.0,0,1,0,0
1244,23.858,0,0,0,0
1245,42.0,0,1,0,0
1246,31.0,0,1,0,1
1247,147.0,0,0,1,1
1248,41.0,0,1,0,0
1249,0.0,1,0,0,0
1250,0.0,1,0,0,0
1251,31.0,0,1,0,0
1252,91.0,0,0,1,0
1253,137.0,0,0,1,0
1254,122.0,0,0,1,0
1255,33.0,0,1,0,0
1256,0.0,1,0,0,1
1257,187.0,0,0,1,1
1258,24.285,0,0,0,1
1259,37.0,0,1,0,0
1260,0.0,1,0,0,0
1261,0.0,1,0,0,1
1262,181.0,0,0,1,1
1263,22.753,0,0,0,1
1264,190.0,0,0,1,1
1265,28.13,0,0,0,1
1266,33.0,0,1,0,0
1267,30.0,0,1,0,0
1268,31.0,0,1,0,0
1269,34.016,0,1,0,0
1270,23.545,0,0,0,0
1271,32.0,0,1,0,0
1272,0.0,1,0,0,1
1273,175.0,0,0,1,1
1274,118.0,0,0,1,1
1275,204.0,0,0,1,1
1276,71.0,0,0,1,0
1277,24.311,0,0,0,0
1278,37.0,0,1,0,0
1279,52.0,0,0,1,0
1280,177.0,0,0,1,1
1281,39.0,0,1,0,0
1282,0.0,1,0,0,1
1283,92.0,0,0,1,1
1284,0.0,1,0,0,1
1285,39.0,0,1,0,0
1286,26.87,0,0,0,0
1287,0.0,1,0,0,0
1288,41.0,0,1,0,0
1289,40.0,0,1,0,0
1290,0.0,1,0,0,1
1291,193.0,0,0,1,1
1292,147.0,0,0,1,0
1293,33.0,0,1,0,0
1294,33.0,0,1,0,0
1295,27.507,0,0,0,0
1296,29.0,0,0,0,0
1297,29.0,0,0,0,0
1298,23.999,0,0,0,1
1299,200.0,0,0,1,1
1300,24.941,0,0,0,1
1301,96.0,0,0,1,1
1302,41.137,0,1,0,0
1303,0.0,1,0,0,0
1304,0.0,1,0,0,0
1305,83.0,0,0,1,0
1306,61.0,0,0,1,0
1307,26.921,0,0,0,0
1308,43.0,0,1,0,0
1309,32.0,0,1,0,0
1310,0.0,1,0,0,0
1311,0.0,1,0,0,0
1312,56.0,0,0,1,0
1313,198.0,0,0,1,1
1314,27.269,0,0,0,1
1315,117.0,0,0,1,1
1316,27.725,0,0,0,0
1317,30.631,0,1,0,0
1318,37.0,0,1,0,1
1319,216.0,0,0,1,1
1320,174.0,0,0,1,0
1321,34.0,0,1,0,1
1322,23.795,0,0,0,0
1323,39.0,0,1,0,0
1324,110.0,0,0,1,1
1325,0.0,1,0,0,1
1326,27.532,0,0,0,0
1327,0.0,1,0,0,0
1328,0.0,1,0,0,0
1329,24.089,0,0,0,0
1330,76.0,0,0,1,1
1331,0.0,1,0,0,0
1332,24.958,0,0,0,0
1333,45.0,0,0,1,0
1334,118.0,0,0,1,0
1335,217.0,0,0,1,1
1336,38.0,0,1,0,1
1337,0.0,1,0,0,0
1338,35.0,0,1,0,0
1339,0.0,1,0,0,0
1340,35.0,0,1,0,0
1341,40.0,0,1,0,0
1342,29.0,0,0,0,1
1343,178.0,0,0,1,1
1344,186.0,0,0,1,1
1345,35.066,0,1,0,1
1346,69.0,0,0,1,0
1347,0.0,1,0,0,0
1348,0.0,1,0,0,1
1349,182.0,0,0,1,1
1350,171.0,0,0,1,1
1351,0.0,1,0,0,1
1352,28.001,0,0,0,0
1353,34.0,0,1,0,0
1354,23.261,0,0,0,0
1355,70.0,0,0,1,0
1356,0.0,1,0,0,0
1357,0.0,1,0,0,1
1358,178.0,0,0,1,1
1359,32.336,0,1,0,1
1360,26.373,0,0,0,0
1361,29.0,0,0,0,0
1362,0.0,1,0,0,0
1363,38.0,0,1,0,0
1364,33.0,0,1,0,0
1365,0.0,1,0,0,1
1366,122.0,0,0,1,1
1367,33.224,0,1,0,0
1368,0.0,1,0,0,1
1369,201.0,0,0,1,1
1370,30.766,0,1,0,1
1371,0.0,1,0,0,0
1372,0.0,1,0,0,0
1373,26.746,0,0,0,0
1374,30.653,0,1,0,0
1375,42.0,0,1,0,0
1376,0.0,1,0,0,0
1377,27.805,0,0,0,0
1378,36.0,0,1,0,0
1379,27.067,0,0,0,0
1380,27.58,0,0,0,0
1381,36.0,0,1,0,0
1382,24.848,0,0,0,0
1383,25.012,0,0,0,0
1384,0.0,1,0,0,0
1385,0.0,1,0,0,0
1386,0.0,1,0,0,0
1387,31.0,0,1,0,0
1388,31.0,0,1,0,0
1389,98.0,0,0,1,0
1390,186.0,0,0,1,1
1391,32.0,0,1,0,1
1392,0.0,1,0,0,0
1393,34.0,0,1,0,0
1394,0.0,1,0,0,0
1395,24.975,0,0,0,0
1396,37.0,0,1,0,0
1397,85.0,0,0,1,0
1398,93.0,0,0,1,0
1399,0.0,1,0,0,1
1400,27.859,0,0,0,0
1401,30.639,0,1,0,1
1402,155.0,0,0,1,1
1403,29.427,0,0,0,1
1404,32.183,0,1,0,0
1405,25.977,0,0,0,1
1406,189.0,0,0,1,1
1407,34.0,0,1,0,1
1408,0.0,1,0,0,1
1409,93.0,0,0,1,1
1410,42.0,0,1,0,0
1411,41.0,0,1,0,0
1412,35.0,0,1,0,0
1413,28.547,0,0,0,0
1414,27.741,0,0,0,0
1415,0.0,1,0,0,0
1416,0.0,1,0,0,1
1417,159.0,0,0,1,1
1418,23.154,0,0,0,1
1419,24.736,0,0,0,0
1420,0.0,1,0,0,0
1421,40.0,0,1,0,0
1422,102.0,0,0,1,1
1423,40.0,0,1,0,1
1424,215.0,0,0,1,1
1425,175.0,0,0,1,0
1426,23.17,0,0,0,1
1427,32.0,0,1,0,0
1428,23.466,0,0,0,0
1429,0.0,1,0,0,0
1430,25.361,0,0,0,0
1431,91.0,0,0,1,0
1432,42.0,0,1,0,0
1433,29.0,0,0,0,0
1434,0.0,1,0,0,1
1435,92.0,0,0,1,1
1436,31.0,0,1,0,1
1437,120.0,0,0,1,0
1438,180.0,0,0,1,1
1439,64.0,0,0,1,1
1440,148.0,0,0,1,0
1441,115.0,0,0,1,0
1442,0.0,1,0,0,1
1443,59.0,0,0,1,0
1444,0.0,1,0,0,1
1445,187.0,0,0,1,1
1446,0.0,1,0,0,1
1447,71.0,0,0,1,0
1448,26.658,0,0,0,0
1449,33.167,0,1,0,0
1450,31.0,0,1,0,0
1451,123.0,0,0,1,1
1452,31.012,0,1,0,0
1453,0.0,1,0,0,0
1454,22.909,0,0,0,0
1455,37.0,0,1,0,0
1456,153.0,0,0,1,1
1457,24.897,0,0,0,1
1458,26.69,0,0,0,0
1459,95.0,0,0,1,1
1460,42.0,0,1,0,0
1461,42.0,0,1,0,0
1462,24.84,0,0,0,1
1463,209.0,0,0,1,1
1464,127.0,0,0,1,0
1465,41.0,0,1,0,1
1466,91.0,0,0,1,0
1467,43.0,0,1,0,0
1468,37.0,0,1,0,0
1469,0.0,1,0,0,0
1470,27.058,0,0,0,0
1471,0.0,1,0,0,0
1472,23.9,0,0,0,0
1473,27.19,0,0,0,0
1474,141.0,0,0,1,1
1475,28.693,0,0,0,0
1476,34.0,0,1,0,0
1477,39.0,0,1,0,0
1478,23.188,0,0,0,0
1479,41.0,0,1,0,0
1480,110.0,0,0,1,1
1481,23.005,0,0,0,0
1482,0.0,1,0,0,0
1483,23.237,0,0,0,0
1484,117.0,0,0,1,0
1485,127.0,0,0,1,0
1486,198.0,0,0,1,1
1487,36.0,0,1,0,1
1488,53.0,0,0,1,0
1489,0.0,1,0,0,0
1490,36.0,0,1,0,0
1491,29.0,0,0,0,0
1492,38.0,0,1,0,0
1493,34.0,0,1,0,0
1494,0.0,1,0,0,0
1495,0.0,1,0,0,0
1496,29.0,0,0,0,0
1497,0.0,1,0,0,0
1498,0.0,1,0,0,0
1499,49.0,0,0,1,0
1500,210.0,0,0,1,1
1501,43.0,0,1,0,1
1502,61.0,0,0,1,0
1503,37.0,0,1,0,0
1504,115.0,0,0,1,1
1505,37.0,0,1,0,0
1506,0.0,1,0,0,0
1507,36.303,0,1,0,0
1508,27.609,0,0,0,0
1509,0.0,1,0,0,0
1510,43.0,0,1,0,0
1511,85.0,0,0,1,1
1512,0.0,1,0,0,0
1513,27.634,0,0,0,0
1514,0.0,1,0,0,0
1515,27.537,0,0,0,0
1516,0.0,1,0,0,0
1517,41.0,0,1,0,0
1518,26.685,0,0,0,0
1519,32.0,0,1,0,0
1520,0.0,1,0,0,0
1521,32.0,0,1,0,0
1522,0.0,1,0,0,0
1523,0.0,1,0,0,0
1524,40.0,0,1,0,0
1525,25.578,0,0,0,0
1526,36.0,0,1,0,0
1527,147.0,0,0,1,1
1528,35.0,0,1,0,0
1529,23.405,0,0,0,0
1530,40.0,0,1,0,0
1531,66.0,0,0,1,0
1532,0.0,1,0,0,0
1533,0.0,1,0,0,0
1534,24.413,0,0,0,0
1535,90.0,0,0,1,1
1536,0.0,1,0,0,1
1537,41.0,0,1,0,0
1538,187.0,0,0,1,1
1539,138.0,0,0,1,0
1540,59.0,0,0,1,0
1541,24.198,0,0,0,1
1542,162.0,0,0,1,0
1543,208.0,0,0,1,0
1544,160.0,0,0,1,0
1545,32.704,0,1,0,1
1546,53.0,0,0,1,0
1547,0.0,1,0,0,0
1548,28.704,0,0,0,0
1549,0.0,1,0,0,0
1550,38.0,0,1,0,0
1551,29.095,0,0,0,0
1552,0.0,1,0,0,0
1553,81.0,0,0,1,1
1554,0.0,1,0,0,0
1555,0.0,1,0,0,0
1556,40.0,0,1,0,0
1557,30.668,0,1,0,0
1558,43.0,0,1,0,0
1559,0.0,1,0,0,0
1560,38.0,0,1,0,0
1561,0.0,1,0,0,0
1562,0.0,1,0,0,0
1563,23.341,0,0,0,0
1564,34.0,0,1,0,0
1565,28.153,0,0,0,0
1566,24.212,0,0,0,0
1567,0.0,1,0,0,1
1568,156.0,0,0,1,1
1569,94.0,0,0,1,0
1570,30.788,0,1,0,0
1571,0.0,1,0,0,0
1572,0.0,1,0,0,0
1573,28.801,0,0,0,0
1574,32.0,0,1,0,0
1575,0.0,1,0,0,1
1576,135.0,0,0,1,1
1577,30.157,0,1,0,0
1578,40.0,0,1,0,0
1579,102.0,0,0,1,0
1580,56.0,0,0,1,0
1581,0.0,1,0,0,0
1582,0.0,1,0,0,0
1583,0.0,1,0,0,0
1584,37.0,0,1,0,0
1585,55.0,0,0,1,0
1586,0.0,1,0,0,0
1587,23.769,0,0,0,0
1588,0.0,1,0,0,0
1589,0.0,1,0,0,0
1590,93.0,0,0,1,1
1591,25.543,0,0,0,0
1592,0.0,1,0,0,0
1593,0.0,1,0,0,0
1594,100.0,0,0,1,1
1595,0.0,1,0,0,1
1596,51.719,0,0,1,0
1597,162.0,0,0,1,1
1598,30.637,0,1,0,1
1599,37.0,0,1,0,0
1600,24.099,0,0,0,0
1601,0.0,1,0,0,1
1602,129.763,0,0,1,1
1603,24.212,0,0,0,1
1604,51.0,0,0,1,0
1605,23.04,0,0,0,1
1606,149.0,0,0,1,0
1607,180.0,0,0,1,1
1608,40.0,0,1,0,1
1609,163.0,0,0,1,1
1610,30.0,0,1,0,1
1611,106.0,0,0,1,1
1612,0.0,1,0,0,1
1613,115.0,0,0,1,0
1614,174.0,0,0,1,1
1615,37.0,0,1,0,1
1616,25.017,0,0,0,1
1617,179.284,0,0,1,1
1618,41.0,0,1,0,1
1619,37.0,0,1,0,0
1620,43.0,0,1,0,0
1621,0.0,1,0,0,0
1622,0.0,1,0,0,0
1623,37.0,0,1,0,0
1624,24.88,0,0,0,0
1625,24.603,0,0,0,1
1626,182.967,0,0,1,1
1627,0.0,1,0,0,1
1628,95.0,0,0,1,1
1629,0.0,1,0,0,0
1630,0.0,1,0,0,0
1631,0.0,1,0,0,0
1632,40.0,0,1,0,0
1633,42.0,0,1,0,0
1634,35.0,0,1,0,0
1635,0.0,1,0,0,0
1636,28.07,0,0,0,0
1637,28.077,0,0,0,1
1638,188.644,0,0,1,1
1639,152.0,0,0,1,0
1640,36.0,0,1,0,1
1641,43.0,0,1,0,0
1642,24.494,0,0,0,1
1643,138.0,0,0,1,1
1644,22.834,0,0,0,1
1645,168.0,0,0,1,1
1646,27.497,0,0,0,1
1647,216.0,0,0,1,1
1648,96.0,0,0,1,0
1649,0.0,1,0,0,1
1650,41.0,0,1,0,0
1651,43.0,0,1,0,0
1652,0.0,1,0,0,0
1653,24.148,0,0,0,0
1654,0.0,1,0,0,1
1655,138.0,0,0,1,1
1656,124.0,0,0,1,0
1657,43.0,0,1,0,0
1658,0.0,1,0,0,1
1659,100.0,0,0,1,1
1660,34.0,0,1,0,0
1661,25.876,0,0,0,0
1662,0.0,1,0,0,1
1663,190.0,0,0,1,1
1664,31.0,0,1,0,1
1665,31.518,0,1,0,1
1666,181.936,0,0,1,1
1667,42.0,0,1,0,0
1668,0.0,1,0,0,1
1669,137.0,0,0,1,1
1670,22.943,0,0,0,1
1671,181.0,0,0,1,1
1672,23.75,0,0,0,1
1673,29.0,0,0,0,0
1674,136.0,0,0,1,1
1675,23.733,0,0,0,1
1676,36.0,0,1,0,0
1677,31.513,0,1,0,1
1678,189.0,0,0,1,1
1679,183.0,0,0,1,1
1680,0.0,1,0,0,1
1681,26.648,0,0,0,0
1682,92.0,0,0,1,1
1683,0.0,1,0,0,1
1684,66.0,0,0,1,0
1685,105.0,0,0,1,1
1686,0.0,1,0,0,1
1687,192.961,0,0,1,1
1688,25.944,0,0,0,1
1689,0.0,1,0,0,0
1690,0.0,1,0,0,0
1691,39.0,0,1,0,0
1692,0.0,1,0,0,1
1693,116.0,0,0,1,1
1694,34.0,0,1,0,1
1695,131.0,0,0,1,0
1696,132.0,0,0,1,0
1697,98.0,0,0,1,0
1698,28.496,0,0,0,0
1699,37.0,0,1,0,0
1700,52.0,0,0,1,0
1701,40.0,0,1,0,0
1702,0.0,1,0,0,0
1703,39.0,0,1,0,0
1704,156.0,0,0,1,0
1705,209.0,0,0,1,1
1706,40.0,0,1,0,1
1707,24.031,0,0,0,0
1708,51.0,0,0,1,0
1709,38.0,0,1,0,0
1710,0.0,1,0,0,0
1711,0.0,1,0,0,0
1712,0.0,1,0,0,0
1713,0.0,1,0,0,0
1714,0.0,1,0,0,1
1715,218.0,0,0,1,1
1716,151.551,0,0,1,0
1717,184.014,0,0,1,1
1718,32.0,0,1,0,1
1719,168.0,0,0,1,1
1720,0.0,1,0,0,1
1721,0.0,1,0,0,0
1722,25.272,0,0,0,0
1723,93.0,0,0,1,0
1724,150.0,0,0,1,1
1725,33.816,0,1,0,1
1726,52.0,0,0,1,0
1727,28.946,0,0,0,0
1728,0.0,1,0,0,0
1729,31.509,0,1,0,0
1730,28.866,0,0,0,0
1731,25.898,0,0,0,0
1732,29.681,0,0,0,0
1733,110.0,0,0,1,1
1734,33.0,0,1,0,0
1735,30.0,0,1,0,0
1736,42.0,0,1,0,1
1737,181.431,0,0,1,1
1738,31.0,0,1,0,0
1739,0.0,1,0,0,0
1740,29.0,0,0,0,0
1741,96.0,0,0,1,1
1742,0.0,1,0,0,0
1743,0.0,1,0,0,0
1744,0.0,1,0,0,1
1745,199.0,0,0,1,1
1746,157.0,0,0,1,0
1747,0.0,1,0,0,1
1748,0.0,1,0,0,0
1749,0.0,1,0,0,0
1750,29.908,0,1,0,0
1751,43.0,0,1,0,0
1752,43.0,0,1,0,0
1753,0.0,1,0,0,0
1754,0.0,1,0,0,0
1755,31.0,0,1,0,0
1756,167.0,0,0,1,1
1757,129.0,0,0,1,0
1758,29.611,0,0,0,0
1759,34.0,0,1,0,0
1760,43.0,0,1,0,0
1761,151.0,0,0,1,1
1762,0.0,1,0,0,1
1763,37.0,0,1,0,0
1764,32.0,0,1,0,0
1765,0.0,1,0,0,0
1766,80.0,0,0,1,1
1767,0.0,1,0,0,0
1768,0.0,1,0,0,0
1769,29.341,0,0,0,0
1770,39.0,0,1,0,0
1771,0.0,1,0,0,0
1772,0.0,1,0,0,0
1773,0.0,1,0,0,0
1774,0.0,1,0,0,0
1775,23.634,0,0,0,0
1776,0.0,1,0,0,0
1777,30.0,0,1,0,0
1778,79.0,0,0,1,0
1779,176.0,0,0,1,1
1780,35.0,0,1,0,1
1781,28.239,0,0,0,0
1782,0.0,1,0,0,0
1783,34.0,0,1,0,0
1784,0.0,1,0,0,0
1785,0.0,1,0,0,0
1786,0.0,1,0,0,1
1787,163.0,0,0,1,1
1788,23.705,0,0,0,1
1789,34.0,0,1,0,0
1790,24.125,0,0,0,1
1791,185.478,0,0,1,1
1792,89.0,0,0,1,1
1793,211.0,0,0,1,1
1794,26.719,0,0,0,1
1795,23.646,0,0,0,0
1796,41.0,0,1,0,0
1797,42.0,0,1,0,0
1798,148.729,0,0,1,1
1799,89.0,0,0,1,0
1800,32.0,0,1,0,0
1801,26.835,0,0,0,0
1802,26.204,0,0,0,0
1803,40.0,0,1,0,0
1804,0.0,1,0,0,0
1805,0.0,1,0,0,0
1806,35.0,0,1,0,0
1807,0.0,1,0,0,0
1808,26.213,0,0,0,0
1809,78.0,0,0,1,0
1810,172.0,0,0,1,1
1811,41.0,0,1,0,1
1812,52.0,0,0,1,0
1813,52.0,0,0,1,0
1814,34.0,0,1,0,0
1815,113.0,0,0,1,1
1816,25.497,0,0,0,1
1817,184.0,0,0,1,1
1818,190.0,0,0,1,1
1819,23.888,0,0,0,1
1820,43.0,0,1,0,1
1821,204.0,0,0,1,1
1822,24.612,0,0,0,1
1823,23.289,0,0,0,0
1824,34.061,0,1,0,0
1825,28.863,0,0,0,0
1826,38.0,0,1,0,0
1827,28.539,0,0,0,0
1828,108.0,0,0,1,1
1829,0.0,1,0,0,1
1830,26.098,0,0,0,0
1831,0.0,1,0,0,0
1832,23.066,0,0,0,0
1833,40.0,0,1,0,0
1834,40.0,0,1,0,0
1835,86.0,0,0,1,0
1836,23.438,0,0,0,0
1837,41.0,0,1,0,0
1838,0.0,1,0,0,0
1839,60.0,0,0,1,0
1840,32.0,0,1,0,0
1841,72.0,0,0,1,0
1842,178.0,0,0,1,1
1843,0.0,1,0,0,1
1844,87.0,0,0,1,1
1845,31.792,0,1,0,1
1846,176.0,0,0,1,1
1847,40.0,0,1,0,1
1848,34.0,0,1,0,0
1849,50.0,0,0,1,1
1850,217.0,0,0,1,1
1851,25.771,0,0,0,1
1852,97.0,0,0,1,1
1853,0.0,1,0,0,1
1854,89.0,0,0,1,1
1855,24.353,0,0,0,1
1856,181.0,0,0,1,1
1857,32.0,0,1,0,1
1858,196.0,0,0,1,1
1859,23.795,0,0,0,1
1860,35.0,0,1,0,0
1861,0.0,1,0,0,0
1862,31.366,0,1,0,0
1863,39.0,0,1,0,0
1864,0.0,1,0,0,0
1865,0.0,1,0,0,0
1866,104.0,0,0,1,0
1867,209.0,0,0,1,1
1868,35.0,0,1,0,1
1869,43.0,0,1,0,0
1870,80.0,0,0,1,0
1871,0.0,1,0,0,0
1872,26.75,0,0,0,0
1873,31.0,0,1,0,0
1874,0.0,1,0,0,0
1875,0.0,1,0,0,0
1876,0.0,1,0,0,0
1877,56.0,0,0,1,0
1878,0.0,1,0,0,0
1879,23.385,0,0,0,1
1880,205.0,0,0,1,1
1881,36.0,0,1,0,1
1882,29.0,0,0,0,0
1883,27.776,0,0,0,0
1884,40.0,0,1,0,0
1885,36.0,0,1,0,0
1886,126.0,0,0,1,1
1887,52.0,0,0,1,0
1888,40.0,0,1,0,0
1889,121.0,0,0,1,1
1890,23.992,0,0,0,0
1891,27.475,0,0,0,0
1892,27.622,0,0,0,0
1893,27.334,0,0,0,0
1894,40.0,0,1,0,0
1895,39.0,0,1,0,0
1896,0.0,1,0,0,1
1897,189.0,0,0,1,1
1898,38.0,0,1,0,1
1899,23.994,0,0,0,0
1900,28.63,0,0,0,0
1901,84.0,0,0,1,0
1902,34.0,0,1,0,0
1903,29.0,0,0,0,0
1904,132.0,0,0,1,1
1905,24.849,0,0,0,1
1906,120.0,0,0,1,1
1907,34.0,0,1,0,0
1908,35.0,0,1,0,0
1909,32.0,0,1,0,0
1910,0.0,1,0,0,1
1911,140.0,0,0,1,1
1912,33.0,0,1,0,1
1913,141.0,0,0,1,1
1914,0.0,1,0,0,1
1915,36.0,0,1,0,0
1916,143.0,0,0,1,0
1917,188.0,0,0,1,1
1918,38.0,0,1,0,1
1919,35.0,0,1,0,0
1920,25.737,0,0,0,0
1921,40.0,0,1,0,0
1922,0.0,1,0,0,1
1923,173.0,0,0,1,1
1924,185.0,0,0,1,0
1925,212.0,0,0,1,1
1926,30.0,0,1,0,1
1927,23.93,0,0,0,0
1928,31.0,0,1,0,0
1929,39.0,0,1,0,0
1930,132.0,0,0,1,1
1931,29.0,0,0,0,1
1932,173.0,0,0,1,1
1933,194.866,0,0,1,1
1934,35.126,0,1,0,1
1935,70.0,0,0,1,0
1936,30.0,0,1,0,0
1937,38.0,0,1,0,1
1938,181.0,0,0,1,1
1939,26.997,0,0,0,1
1940,0.0,1,0,0,0
1941,0.0,1,0,0,0
1942,31.0,0,1,0,0
1943,38.0,0,1,0,0
1944,23.664,0,0,0,1
1945,184.0,0,0,1,1
1946,0.0,1,0,0,1
1947,0.0,1,0,0,0
1948,23.824,0,0,0,0
1949,30.0,0,1,0,0
1950,0.0,1,0,0,0
1951,27.343,0,0,0,0
1952,24.759,0,0,0,0
1953,99.0,0,0,1,1
1954,0.0,1,0,0,1
1955,138.0,0,0,1,1
1956,0.0,1,0,0,1
1957,41.0,0,1,0,0
1958,37.0,0,1,0,0
1959,98.035,0,0,1,1
1960,39.0,0,1,0,0
1961,35.0,0,1,0,1
1962,192.0,0,0,1,1
1963,100.0,0,0,1,0
1964,24.24,0,0,0,0
1965,0.0,1,0,0,1
1966,145.0,0,0,1,1
1967,37.0,0,1,0,0
1968,26.665,0,0,0,0
1969,25.017,0,0,0,0
1970,41.0,0,1,0,0
1971,34.0,0,1,0,0
1972,30.0,0,1,0,0
1973,0.0,1,0,0,0
1974,24.198,0,0,0,0
1975,29.0,0,0,0,0
1976,40.0,0,1,0,0
1977,0.0,1,0,0,1
1978,206.0,0,0,1,1
1979,0.0,1,0,0,1
1980,134.0,0,0,1,1
1981,23.652,0,0,0,0
1982,23.455,0,0,0,0
1983,0.0,1,0,0,0
1984,0.0,1,0,0,0
1985,48.0,0,0,1,0
1986,23.037,0,0,0,0
1987,0.0,1,0,0,1
1988,100.0,0,0,1,1
1989,38.0,0,1,0,0
1990,30.203,0,1,0,0
1991,40.0,0,1,0,0
1992,0.0,1,0,0,0
1993,32.0,0,1,0,0
1994,38.0,0,1,0,0
1995,0.0,1,0,0,0
1996,0.0,1,0,0,0
1997,25.843,0,0,0,0
1998,23.777,0,0,0,0
1999,30.0,0,1,0,0
2000,23.955,0,0,0,0
2001,0.0,1,0,0,0
2002,0.0,1,0,0,0
2003,31.0,0,1,0,1
2004,208.0,0,0,1,1
2005,24.021,0,0,0,1
2006,25.063,0,0,0,0
2007,24.977,0,0,0,1
2008,155.0,0,0,1,1
2009,32.0,0,1,0,1
2010,56.0,0,0,1,0
2011,165.0,0,0,1,1
2012,26.068,0,0,0,0
2013,0.0,1,0,0,0
2014,0.0,1,0,0,0
2015,24.074,0,0,0,0
2016,152.0,0,0,1,0
2017,190.0,0,0,1,1
2018,0.0,1,0,0,1
2019,25.188,0,0,0,0
2020,40.0,0,1,0,0
2021,145.0,0,0,1,1
2022,26.382,0,0,0,1
2023,99.0,0,0,1,1
2024,41.0,0,1,0,0
2025,28.85,0,0,0,0
2026,27.379,0,0,0,0
2027,29.625,0,0,0,0
2028,30.594,0,1,0,0
2029,29.023,0,0,0,0
2030,74.001,0,0,1,0
2031,103.0,0,0,1,0
2032,24.372,0,0,0,0
2033,32.0,0,1,0,0
2034,23.079,0,0,0,0
2035,97.0,0,0,1,1
2036,32.53,0,1,0,0
2037,0.0,1,0,0,0
2038,27.474,0,0,0,0
2039,27.927,0,0,0,0
2040,33.0,0,1,0,0
2041,29.488,0,0,0,0
2042,31.0,0,1,0,0
2043,27.572,0,0,0,0
2044,0.0,1,0,0,0
2045,80.0,0,0,1,1
2046,29.602,0,0,0,0
2047,57.0,0,0,1,0
2048,0.0,1,0,0,0
2049,28.457,0,0,0,0
2050,138.0,0,0,1,0
2051,215.0,0,0,1,1
2052,24.231,0,0,0,1
2053,145.0,0,0,1,1
2054,27.809,0,0,0,1
2055,31.0,0,1,0,0
2056,85.0,0,0,1,0
2057,44.0,0,1,0,0
2058,27.258,0,0,0,0
2059,66.0,0,0,1,0
2060,0.0,1,0,0,1
2061,71.0,0,0,1,0
2062,175.0,0,0,1,0
2063,212.0,0,0,1,1
2064,40.0,0,1,0,1
2065,0.0,1,0,0,0
2066,30.0,0,1,0,0
2067,0.0,1,0,0,0
2068,26.541,0,0,0,0
2069,43.0,0,1,0,0
2070,92.0,0,0,1,0
2071,27.011,0,0,0,0
2072,28.548,0,0,0,0
2073,43.0,0,1,0,0
2074,26.328,0,0,0,0
2075,0.0,1,0,0,0
2076,31.0,0,1,0,0
2077,82.0,0,0,1,0
2078,49.0,0,0,1,0
2079,96.0,0,0,1,0
2080,40.0,0,1,0,0
2081,24.363,0,0,0,0
2082,25.23,0,0,0,0
2083,25.984,0,0,0,0
2084,31.752,0,1,0,0
2085,0.0,1,0,0,0
2086,68.0,0,0,1,0
2087,31.0,0,1,0,0
2088,0.0,1,0,0,0
2089,0.0,1,0,0,0
2090,29.0,0,0,0,0
2091,23.95,0,0,0,0
2092,24.651,0,0,0,0
2093,33.0,0,1,0,0
2094,35.944,0,1,0,0
2095,51.0,0,0,1,0
2096,35.0,0,1,0,0
2097,43.0,0,1,0,0
2098,86.0,0,0,1,0
2099,30.0,0,1,0,0
2100,24.043,0,0,0,0
2101,0.0,1,0,0,0
2102,0.0,1,0,0,0
2103,42.0,0,1,0,0
2104,25.791,0,0,0,0
2105,39.0,0,1,0,0
2106,37.0,0,1,0,1
2107,176.0,0,0,1,1
2108,0.0,1,0,0,1
2109,35.0,0,1,0,0
2110,47.0,0,0,1,0
2111,0.0,1,0,0,1
2112,151.0,0,0,1,1
2113,0.0,1,0,0,1
2114,0.0,1,0,0,1
2115,136.0,0,0,1,1
2116,24.937,0,0,0,1
2117,172.0,0,0,1,1
2118,25.382,0,0,0,1
2119,27.655,0,0,0,0
2120,24.385,0,0,0,0
2121,42.0,0,1,0,0
2122,27.953,0,0,0,0
2123,99.0,0,0,1,1
2124,41.0,0,1,0,0
2125,0.0,1,0,0,0
2126,29.0,0,0,0,0
2127,33.068,0,1,0,0
2128,0.0,1,0,0,0
2129,46.0,0,0,1,0
2130,34.0,0,1,0,0
2131,36.0,0,1,0,0
2132,35.14,0,1,0,0
2133,36.0,0,1,0,0
2134,61.0,0,0,1,0
2135,28.705,0,0,0,0
2136,27.775,0,0,0,0
2137,24.951,0,0,0,0
2138,0.0,1,0,0,1
2139,196.0,0,0,1,1
2140,32.0,0,1,0,1
2141,32.0,0,1,0,0
2142,0.0,1,0,0,0
2143,43.0,0,1,0,0
2144,73.0,0,0,1,0
2145,123.0,0,0,1,1
2146,0.0,1,0,0,1
2147,109.0,0,0,1,1
2148,0.0,1,0,0,0
2149,0.0,1,0,0,0
2150,53.0,0,0,1,0
2151,24.057,0,0,0,0
2152,23.518,0,0,0,0
2153,102.0,0,0,1,1
2154,25.544,0,0,0,1
2155,94.0,0,0,1,1
2156,32.0,0,1,0,0
2157,0.0,1,0,0,1
2158,166.0,0,0,1,1
2159,24.463,0,0,0,1
2160,23.761,0,0,0,0
2161,0.0,1,0,0,1
2162,180.0,0,0,1,1
2163,0.0,1,0,0,1
2164,23.721,0,0,0,0
2165,22.915,0,0,0,0
2166,23.169,0,0,0,0
2167,23.483,0,0,0,0
2168,0.0,1,0,0,1
2169,97.0,0,0,1,1
2170,0.0,1,0,0,1
2171,42.0,0,1,0,0
2172,27.059,0,0,0,0
2173,26.515,0,0,0,0
2174,29.0,0,0,0,0
2175,37.0,0,1,0,0
2176,23.239,0,0,0,0
2177,37.0,0,1,0,0
2178,33.0,0,1,0,0
2179,0.0,1,0,0,0
2180,36.0,0,1,0,0
2181,22.85,0,0,0,0
2182,82.0,0,0,1,1
2183,0.0,1,0,0,0
2184,27.795,0,0,0,0
2185,0.0,1,0,0,0
2186,0.0,1,0,0,0
2187,0.0,1,0,0,0
2188,39.0,0,1,0,0
2189,179.0,0,0,1,1
2190,37.0,0,1,0,1
2191,42.0,0,1,0,0
2192,30.0,0,1,0,0
2193,38.0,0,1,0,0
2194,33.0,0,1,0,1
2195,195.0,0,0,1,1
2196,28.303,0,0,0,1
2197,31.0,0,1,0,0
2198,0.0,1,0,0,1
2199,202.0,0,0,1,1
2200,182.0,0,0,1,1
2201,34.0,0,1,0,1
2202,24.682,0,0,0,0
2203,113.0,0,0,1,0
2204,203.0,0,0,1,1
2205,23.745,0,0,0,1
2206,24.012,0,0,0,0
2207,23.696,0,0,0,0
2208,82.0,0,0,1,1
2209,0.0,1,0,0,1
2210,41.0,0,1,0,0
2211,39.0,0,1,0,0
2212,0.0,1,0,0,0
2213,0.0,1,0,0,0
2214,26.885,0,0,0,0
2215,31.0,0,1,0,0
2216,36.0,0,1,0,0
2217,0.0,1,0,0,0
2218,84.0,0,0,1,1
2219,24.169,0,0,0,0
2220,36.0,0,1,0,0
2221,0.0,1,0,0,0
2222,31.0,0,1,0,0
2223,0.0,1,0,0,0
2224,34.0,0,1,0,0
2225,37.0,0,1,0,0
2226,124.0,0,0,1,1
2227,77.0,0,0,1,0
2228,40.0,0,1,0,0
2229,113.0,0,0,1,1
2230,54.0,0,0,1,0
2231,23.725,0,0,0,0
2232,23.609,0,0,0,0
2233,0.0,1,0,0,0
2234,0.0,1,0,0,0
2235,0.0,1,0,0,0
2236,0.0,1,0,0,1
2237,155.0,0,0,1,1
2238,70.0,0,0,1,0
2239,0.0,1,0,0,0
2240,0.0,1,0,0,0
2241,23.574,0,0,0,0
2242,148.179,0,0,1,1
2243,36.0,0,1,0,0
2244,0.0,1,0,0,0
2245,0.0,1,0,0,0
2246,30.0,0,1,0,0
2247,39.0,0,1,0,0
2248,24.172,0,0,0,0
2249,27.979,0,0,0,0
2250,34.0,0,1,0,0
2251,35.0,0,1,0,0
2252,25.542,0,0,0,0
2253,0.0,1,0,0,0
2254,27.36,0,0,0,0
2255,25.66,0,0,0,0
2256,0.0,1,0,0,1
2257,163.0,0,0,1,1
2258,26.853,0,0,0,1
2259,64.0,0,0,1,0
2260,39.0,0,1,0,0
2261,23.741,0,0,0,0
2262,0.0,1,0,0,0
2263,0.0,1,0,0,1
2264,158.0,0,0,1,1
2265,23.651,0,0,0,1
2266,205.0,0,0,1,1
2267,36.0,0,1,0,1
2268,0.0,1,0,0,0
2269,0.0,1,0,0,0
2270,101.0,0,0,1,1
2271,26.624,0,0,0,0
2272,43.0,0,1,0,1
2273,219.0,0,0,1,1
2274,40.888,0,1,0,1
2275,0.0,1,0,0,0
2276,34.0,0,1,0,0
2277,30.0,0,1,0,0
2278,46.0,0,0,1,0
2279,36.0,0,1,0,1
2280,172.0,0,0,1,1
2281,34.0,0,1,0,1
2282,24.537,0,0,0,0
2283,0.0,1,0,0,0
2284,0.0,1,0,0,0
2285,31.0,0,1,0,0
2286,24.174,0,0,0,0
2287,34.0,0,1,0,0
2288,31.0,0,1,0,0
2289,39.0,0,1,0,0
2290,39.0,0,1,0,0
2291,24.075,0,0,0,0
2292,36.0,0,1,0,0
2293,30.376,0,1,0,0
2294,23.449,0,0,0,0
2295,25.814,0,0,0,0
2296,28.112,0,0,0,0
2297,0.0,1,0,0,0
2298,0.0,1,0,0,1
2299,202.196,0,0,1,1
2300,116.0,0,0,1,0
2301,0.0,1,0,0,1
2302,121.89,0,0,1,1
2303,25.271,0,0,0,1
2304,90.0,0,0,1,1
2305,25.484,0,0,0,1
2306,128.0,0,0,1,1
2307,40.0,0,1,0,0
2308,31.961,0,1,0,0
2309,0.0,1,0,0,0
2310,0.0,1,0,0,0
2311,42.0,0,1,0,0
2312,32.0,0,1,0,1
2313,163.0,0,0,1,1
2314,36.0,0,1,0,0
2315,0.0,1,0,0,1
2316,179.0,0,0,1,1
2317,0.0,1,0,0,1
2318,159.0,0,0,1,1
2319,41.0,0,1,0,1
2320,60.0,0,0,1,0
2321,23.418,0,0,0,0
2322,77.0,0,0,1,1
2323,0.0,1,0,0,0
2324,32.0,0,1,0,0
2325,0.0,1,0,0,1
2326,205.0,0,0,1,1
2327,39.0,0,1,0,1
2328,25.312,0,0,0,0
2329,38.0,0,1,0,0
2330,42.0,0,1,0,0
2331,42.0,0,1,0,0
2332,23.746,0,0,0,0
2333,0.0,1,0,0,0
2334,25.19,0,0,0,0
2335,31.0,0,1,0,1
2336,196.0,0,0,1,1
2337,170.0,0,0,1,1
2338,0.0,1,0,0,1
2339,24.37,0,0,0,0
2340,153.0,0,0,1,1
2341,43.0,0,1,0,0
2342,39.0,0,1,0,0
2343,23.661,0,0,0,1
2344,148.0,0,0,1,1
2345,29.149,0,0,0,1
2346,35.0,0,1,0,0
2347,24.329,0,0,0,0
2348,43.0,0,1,0,0
2349,27.191,0,0,0,0
2350,127.0,0,0,1,1
2351,46.0,0,0,1,0
2352,43.0,0,1,0,0
2353,42.0,0,1,0,1
2354,207.0,0,0,1,1
2355,38.0,0,1,0,1
2356,25.418,0,0,0,1
2357,181.0,0,0,1,1
2358,25.621,0,0,0,1
2359,30.0,0,1,0,0
2360,45.344,0,0,1,0
2361,51.0,0,0,1,0
2362,98.0,0,0,1,1
2363,0.0,1,0,0,1
2364,34.845,0,1,0,0
2365,0.0,1,0,0,1
2366,134.0,0,0,1,1
2367,0.0,1,0,0,1
2368,25.584,0,0,0,0
2369,0.0,1,0,0,1
2370,181.0,0,0,1,1
2371,0.0,1,0,0,1
2372,157.0,0,0,1,1
2373,43.0,0,1,0,0
2374,33.0,0,1,0,0
2375,129.0,0,0,1,1
2376,41.0,0,1,0,1
2377,93.0,0,0,1,1
2378,0.0,1,0,0,0
2379,0.0,1,0,0,0
2380,43.0,0,1,0,0
2381,45.0,0,0,1,0
2382,41.0,0,1,0,0
2383,0.0,1,0,0,0
2384,30.932,0,1,0,0
2385,28.47,0,0,0,0
2386,0.0,1,0,0,0
2387,26.846,0,0,0,0
2388,43.0,0,1,0,0
2389,0.0,1,0,0,0
2390,0.0,1,0,0,0
2391,42.0,0,1,0,0
2392,0.0,1,0,0,0
2393,0.0,1,0,0,1
2394,185.0,0,0,1,1
2395,38.0,0,1,0,0
2396,0.0,1,0,0,0
2397,42.0,0,1,0,0
2398,33.052,0,1,0,0
2399,143.0,0,0,1,1
2400,31.647,0,1,0,0
2401,0.0,1,0,0,1
2402,154.0,0,0,1,1
2403,0.0,1,0,0,1
2404,36.972,0,1,0,0
2405,0.0,1,0,0,0
2406,36.0,0,1,0,0
2407,0.0,1,0,0,0
2408,25.624,0,0,0,0
2409,0.0,1,0,0,0
2410,58.0,0,0,1,0
2411,42.0,0,1,0,0
2412,43.0,0,1,0,0
2413,41.0,0,1,0,0
2414,0.0,1,0,0,0
2415,0.0,1,0,0,0
2416,0.0,1,0,0,0
2417,0.0,1,0,0,0
2418,23.563,0,0,0,0
2419,0.0,1,0,0,0
2420,39.0,0,1,0,0
2421,0.0,1,0,0,0
2422,23.742,0,0,0,0
2423,0.0,1,0,0,1
2424,128.0,0,0,1,1
2425,27.921,0,0,0,0
2426,36.718,0,1,0,0
2427,52.0,0,0,1,0
2428,63.0,0,0,1,0
2429,31.0,0,1,0,0
2430,28.364,0,0,0,0
2431,122.0,0,0,1,1
2432,0.0,1,0,0,1
2433,24.519,0,0,0,0
2434,36.0,0,1,0,0
2435,25.065,0,0,0,0
2436,23.803,0,0,0,0
2437,0.0,1,0,0,0
2438,26.625,0,0,0,0
2439,100.0,0,0,1,1
2440,26.97,0,0,0,0
2441,0.0,1,0,0,0
2442,32.0,0,1,0,0
2443,0.0,1,0,0,0
2444,0.0,1,0,0,0
2445,118.0,0,0,1,1
2446,37.0,0,1,0,0
2447,36.0,0,1,0,0
2448,31.0,0,1,0,0
2449,0.0,1,0,0,0
2450,31.0,0,1,0,0
2451,0.0,1,0,0,1
2452,148.0,0,0,1,0
2453,207.0,0,0,1,1
2454,0.0,1,0,0,1
2455,29.947,0,1,0,1
2456,207.0,0,0,1,1
2457,54.0,0,0,1,0
2458,0.0,1,0,0,0
2459,31.0,0,1,0,0
2460,23.774,0,0,0,0
2461,23.691,0,0,0,0
2462,42.0,0,1,0,0
2463,27.653,0,0,0,0
2464,35.0,0,1,0,0
2465,34.0,0,1,0,0
2466,60.0,0,0,1,1
2467,213.0,0,0,1,1
2468,36.0,0,1,0,1
2469,29.0,0,0,0,0
2470,22.864,0,0,0,0
2471,0.0,1,0,0,0
2472,0.0,1,0,0,0
2473,23.987,0,0,0,0
2474,23.556,0,0,0,0
2475,27.93,0,0,0,0
2476,27.101,0,0,0,0
2477,32.0,0,1,0,0
2478,50.0,0,0,1,0
2479,42.0,0,1,0,0
2480,24.599,0,0,0,0
2481,54.0,0,0,1,0
2482,0.0,1,0,0,0
2483,0.0,1,0,0,0
2484,24.444,0,0,0,0
2485,55.0,0,0,1,0
2486,42.0,0,1,0,0
2487,0.0,1,0,0,1
2488,176.0,0,0,1,1
2489,176.0,0,0,1,1
2490,32.0,0,1,0,1
2491,27.822,0,0,0,0
2492,0.0,1,0,0,1
2493,97.0,0,0,1,1
2494,27.311,0,0,0,0
2495,29.024,0,0,0,0
2496,35.0,0,1,0,0
2497,0.0,1,0,0,0
2498,38.0,0,1,0,0
2499,122.0,0,0,1,1
2500,0.0,1,0,0,1
2501,38.0,0,1,0,0
2502,29.0,0,0,0,0
2503,26.777,0,0,0,0
2504,0.0,1,0,0,0
2505,0.0,1,0,0,0
2506,0.0,1,0,0,1
2507,170.0,0,0,1,1
2508,24.199,0,0,0,1
2509,42.0,0,1,0,0
2510,36.0,0,1,0,0
2511,35.0,0,1,0,0
2512,0.0,1,0,0,0
2513,23.626,0,0,0,0
2514,0.0,1,0,0,0
2515,37.0,0,1,0,0
2516,31.0,0,1,0,0
2517,38.0,0,1,0,0
2518,0.0,1,0,0,0
2519,0.0,1,0,0,0
2520,26.126,0,0,0,0
2521,31.2,0,1,0,0
2522,143.0,0,0,1,1
2523,0.0,1,0,0,1
2524,219.0,0,0,1,1
2525,114.0,0,0,1,1
2526,193.0,0,0,1,1
2527,28.96,0,0,0,1
2528,0.0,1,0,0,0
2529,0.0,1,0,0,0
2530,57.0,0,0,1,0
2531,91.0,0,0,1,0
2532,41.0,0,1,0,0
2533,0.0,1,0,0,0
2534,0.0,1,0,0,0
2535,93.0,0,0,1,1
2536,30.0,0,1,0,0
2537,38.0,0,1,0,0
2538,0.0,1,0,0,0
2539,35.0,0,1,0,0
2540,70.0,0,0,1,0
2541,0.0,1,0,0,0
2542,0.0,1,0,0,1
2543,122.0,0,0,1,1
2544,0.0,1,0,0,1
2545,139.0,0,0,1,1
2546,33.551,0,1,0,0
2547,32.596,0,1,0,0
2548,0.0,1,0,0,0
2549,32.038,0,1,0,1
2550,199.0,0,0,1,1
2551,24.514,0,0,0,1
2552,180.0,0,0,1,1
2553,35.0,0,1,0,1
2554,123.0,0,0,1,0
2555,197.0,0,0,1,1
2556,28.127,0,0,0,1
2557,27.649,0,0,0,0
2558,31.515,0,1,0,0
2559,124.0,0,0,1,0
2560,130.0,0,0,1,0
2561,51.0,0,0,1,0
2562,30.0,0,1,0,0
2563,0.0,1,0,0,0
2564,43.0,0,1,0,0
2565,0.0,1,0,0,1
2566,166.0,0,0,1,1
2567,24.018,0,0,0,0
2568,0.0,1,0,0,0
2569,37.0,0,1,0,0
2570,41.0,0,1,0,0
2571,0.0,1,0,0,0
2572,27.181,0,0,0,0
2573,27.347,0,0,0,0
2574,46.0,0,0,1,0
2575,23.17,0,0,0,0
2576,25.812,0,0,0,1
2577,179.0,0,0,1,1
2578,39.0,0,1,0,1
2579,218.513,0,0,1,1
2580,45.0,0,0,1,1
2581,0.0,1,0,0,0
2582,43.0,0,1,0,0
2583,0.0,1,0,0,0
2584,0.0,1,0,0,0
2585,0.0,1,0,0,0
2586,0.0,1,0,0,0
2587,0.0,1,0,0,0
2588,0.0,1,0,0,1
2589,158.0,0,0,1,1
2590,0.0,1,0,0,1
2591,22.744,0,0,0,0
2592,29.0,0,0,0,0
2593,33.0,0,1,0,1
2594,220.398,0,0,1,1
2595,0.0,1,0,0,1
2596,191.0,0,0,1,1
2597,41.0,0,1,0,1
2598,188.0,0,0,1,1
2599,38.0,0,1,0,1
2600,37.0,0,1,0,0
2601,34.0,0,1,0,0
2602,49.0,0,0,1,0
2603,0.0,1,0,0,0
2604,0.0,1,0,0,0
2605,42.0,0,1,0,0
2606,0.0,1,0,0,0
2607,74.0,0,0,1,1
2608,0.0,1,0,0,0
2609,0.0,1,0,0,1
2610,162.0,0,0,1,1
2611,0.0,1,0,0,1
2612,40.0,0,1,0,0
2613,40.0,0,1,0,0
2614,43.0,0,1,0,1
2615,187.0,0,0,1,1
2616,37.0,0,1,0,1
2617,193.0,0,0,1,1
2618,23.253,0,0,0,1
2619,134.0,0,0,1,1
2620,25.484,0,0,0,0
2621,36.0,0,1,0,0
2622,28.288,0,0,0,0
2623,119.0,0,0,1,1
2624,33.0,0,1,0,0
2625,30.0,0,1,0,0
2626,28.988,0,0,0,0
2627,25.78,0,0,0,0
2628,88.0,0,0,1,0
2629,43.0,0,1,0,0
2630,23.585,0,0,0,0
2631,32.0,0,1,0,0
2632,36.564,0,1,0,0
2633,0.0,1,0,0,0
2634,40.0,0,1,0,0
2635,31.075,0,1,0,0
2636,29.0,0,0,0,0
2637,0.0,1,0,0,0
2638,26.376,0,0,0,1
2639,204.0,0,0,1,1
2640,23.403,0,0,0,1
2641,30.746,0,1,0,0
2642,34.0,0,1,0,0
2643,0.0,1,0,0,0
2644,25.31,0,0,0,0
2645,23.665,0,0,0,0
2646,61.0,0,0,1,0
2647,0.0,1,0,0,0
2648,0.0,1,0,0,0
2649,34.0,0,1,0,0
2650,155.0,0,0,1,1
2651,0.0,1,0,0,1
2652,0.0,1,0,0,0
2653,0.0,1,0,0,0
2654,29.0,0,0,0,0
2655,25.326,0,0,0,0
2656,70.0,0,0,1,0
2657,121.0,0,0,1,0
2658,196.0,0,0,1,1
2659,0.0,1,0,0,1
2660,23.366,0,0,0,1
2661,205.0,0,0,1,1
2662,36.0,0,1,0,1
2663,34.0,0,1,0,0
2664,40.0,0,1,0,0
2665,34.0,0,1,0,0
2666,35.0,0,1,0,0
2667,0.0,1,0,0,0
2668,48.0,0,0,1,0
2669,0.0,1,0,0,1
2670,166.0,0,0,1,1
2671,23.331,0,0,0,1
2672,28.967,0,0,0,1
2673,207.0,0,0,1,1
2674,0.0,1,0,0,1
2675,97.0,0,0,1,0
2676,207.0,0,0,1,1
2677,82.0,0,0,1,0
2678,27.387,0,0,0,1
2679,152.0,0,0,1,0
2680,175.0,0,0,1,1
2681,38.0,0,1,0,0
2682,0.0,1,0,0,0
2683,32.0,0,1,0,0
2684,0.0,1,0,0,0
2685,29.0,0,0,0,1
2686,211.0,0,0,1,1
2687,31.68,0,1,0,1
2688,80.0,0,0,1,0
2689,31.0,0,1,0,1
2690,154.0,0,0,1,0
2691,202.0,0,0,1,1
2692,39.0,0,1,0,1
2693,0.0,1,0,0,0
2694,29.0,0,0,0,0
2695,0.0,1,0,0,0
2696,27.343,0,0,0,0
2697,41.0,0,1,0,0
2698,0.0,1,0,0,0
2699,35.0,0,1,0,0
2700,0.0,1,0,0,1
2701,90.0,0,0,1,0
2702,198.0,0,0,1,1
2703,0.0,1,0,0,1
2704,31.0,0,1,0,0
2705,0.0,1,0,0,0
2706,32.0,0,1,0,0
2707,28.336,0,0,0,0
2708,42.0,0,1,0,0
2709,33.0,0,1,0,0
2710,41.0,0,1,0,0
2711,43.0,0,1,0,0
2712,0.0,1,0,0,1
2713,87.0,0,0,1,1
2714,0.0,1,0,0,1
2715,195.0,0,0,1,1
2716,0.0,1,0,0,1
2717,24.806,0,0,0,0
2718,41.0,0,1,0,0
2719,23.348,0,0,0,0
2720,23.513,0,0,0,0
2721,35.0,0,1,0,1
2722,174.0,0,0,1,1
2723,169.0,0,0,1,1
2724,39.0,0,1,0,0
2725,22.944,0,0,0,1
2726,181.0,0,0,1,1
2727,23.816,0,0,0,1
2728,0.0,1,0,0,0
