index,rtt,outage,congestion,noise,changepoint
0,80.0,0,1,0,1
1,75.0,0,1,0,1
2,203.0,0,0,1,1
3,68.0,0,0,0,1
4,80.0,0,1,0,0
5,0.0,1,0,0,1
6,58.522,0,0,0,0
7,75.0,0,1,0,0
8,85.0,0,1,0,0
9,0.0,1,0,0,1
10,283.0,0,0,1,1
11,0.0,1,0,0,1
12,55.275,0,0,0,0
13,0.0,1,0,0,1
14,76.0,0,1,0,0
15,266.0,0,0,1,1
16,0.0,1,0,0,1
17,128.0,0,0,1,1
18,85.0,0,1,0,0
19,77.0,0,1,0,0
20,57.103,0,0,0,1
21,226.0,0,0,1,1
22,92.0,0,1,0,0
23,73.0,0,1,0,0
24,125.0,0,0,1,0
25,64.583,0,0,0,1
26,229.0,0,0,1,1
27,91.0,0,1,0,1
28,452.0,0,0,1,1
29,434.0,0,0,1,1
30,85.0,0,1,0,1
31,427.0,0,0,1,1
32,61.272,0,0,0,1
33,82.0,0,1,0,0
34,0.0,1,0,0,0
35,0.0,1,0,0,0
36,77.0,0,1,0,1
37,0.0,1,0,0,0
38,0.0,1,0,0,0
39,61.339,0,0,0,0
40,59.103,0,0,0,0
41,0.0,1,0,0,1
42,137.0,0,0,1,1
43,0.0,1,0,0,1
44,0.0,1,0,0,0
45,0.0,1,0,0,0
46,74.0,0,1,0,0
47,121.0,0,0,1,0
48,253.0,0,0,1,0
49,426.0,0,0,1,1
50,300.0,0,0,1,0
51,85.0,0,1,0,1
52,0.0,1,0,0,0
53,0.0,1,0,0,0
54,62.056,0,0,0,0
55,74.0,0,1,0,0
56,0.0,1,0,0,1
57,62.257,0,0,0,0
58,59.487,0,0,0,0
59,57.926,0,0,0,0
60,58.552,0,0,0,0
61,57.687,0,0,0,0
62,0.0,1,0,0,1
63,73.0,0,1,0,1
64,0.0,1,0,0,1
65,212.0,0,0,1,1
66,232.0,0,0,1,1
67,57.304,0,0,0,1
68,56.489,0,0,0,1
69,253.0,0,0,1,1
70,75.0,0,1,0,1
71,241.0,0,0,1,1
72,0.0,1,0,0,1
73,446.0,0,0,1,1
74,0.0,1,0,0,1
75,336.0,0,0,1,1
76,128.0,0,0,1,1
77,72.0,0,1,0,1
78,448.0,0,0,1,1
79,82.0,0,1,0,1
80,0.0,1,0,0,1
81,427.0,0,0,1,1
82,242.0,0,0,1,0
83,82.0,0,1,0,1
84,54.844,0,0,0,0
85,60.813,0,0,0,0
86,62.089,0,0,0,0
87,110.0,0,0,1,0
88,58.873,0,0,0,0
89,55.464,0,0,0,0
90,85.0,0,1,0,0
91,0.0,1,0,0,1
92,83.859,0,1,0,0
93,69.0,0,1,0,0
94,79.0,0,1,0,0
95,83.0,0,1,0,0
96,61.218,0,0,0,0
97,71.0,0,1,0,0
98,0.0,1,0,0,1
99,92.0,0,1,0,0
100,71.564,0,1,0,0
101,0.0,1,0,0,1
102,58.329,0,0,0,0
103,69.0,0,1,0,0
104,59.496,0,0,0,0
105,64.108,0,0,0,0
106,0.0,1,0,0,1
107,56.286,0,0,0,0
108,58.815,0,0,0,0
109,81.0,0,1,0,0
110,78.0,0,1,0,0
111,55.169,0,0,0,1
112,298.0,0,0,1,1
113,55.839,0,0,0,1
114,246.0,0,0,1,1
115,55.802,0,0,0,1
116,55.469,0,0,0,0
117,55.418,0,0,0,0
118,63.883,0,0,0,0
119,61.422,0,0,0,0
120,74.0,0,1,0,0
121,58.96,0,0,0,0
122,0.0,1,0,0,1
123,295.0,0,0,1,1
124,373.0,0,0,1,1
125,68.0,0,0,0,1
126,0.0,1,0,0,0
127,0.0,1,0,0,0
128,88.0,0,1,0,1
129,0.0,1,0,0,1
130,56.881,0,0,0,0
131,57.565,0,0,0,0
132,0.0,1,0,0,1
133,246.0,0,0,1,1
134,249.0,0,0,1,1
135,0.0,1,0,0,1
136,257.0,0,0,1,1
137,0.0,1,0,0,1
138,175.0,0,0,1,1
139,73.0,0,1,0,0
140,0.0,1,0,0,0
141,0.0,1,0,0,1
142,415.0,0,0,1,1
143,70.0,0,1,0,1
144,81.0,0,1,0,0
145,75.0,0,1,0,0
146,188.0,0,0,1,0
147,397.0,0,0,1,1
148,60.789,0,0,0,1
149,419.0,0,0,1,1
150,81.0,0,1,0,1
151,0.0,1,0,0,1
152,62.29,0,0,0,0
153,61.665,0,0,0,0
154,55.465,0,0,0,0
155,0.0,1,0,0,0
156,61.427,0,0,0,1
157,0.0,1,0,0,1
158,70.0,0,1,0,1
159,269.0,0,0,1,1
160,61.91,0,0,0,1
161,61.889,0,0,0,0
162,68.0,0,0,0,0
163,56.58,0,0,0,0
164,0.0,1,0,0,0
165,0.0,1,0,0,0
166,79.0,0,1,0,1
167,348.0,0,0,1,1
168,156.0,0,0,1,0
169,81.0,0,1,0,0
170,0.0,1,0,0,0
171,0.0,1,0,0,0
172,55.225,0,0,0,0
173,0.0,1,0,0,0
174,0.0,1,0,0,1
175,339.0,0,0,1,1
176,54.951,0,0,0,1
177,55.462,0,0,0,0
178,86.0,0,1,0,0
179,76.0,0,1,0,0
180,164.0,0,0,1,1
181,59.982,0,0,0,0
182,56.103,0,0,0,0
183,0.0,1,0,0,1
184,459.0,0,0,1,1
185,63.839,0,0,0,1
186,0.0,1,0,0,1
187,322.0,0,0,1,1
188,85.0,0,1,0,1
189,0.0,1,0,0,1
190,76.0,0,1,0,1
191,0.0,1,0,0,1
192,65.051,0,0,0,1
193,0.0,1,0,0,1
194,88.0,0,1,0,0
195,74.0,0,1,0,0
196,64.838,0,0,0,1
197,353.0,0,0,1,1
198,92.0,0,1,0,1
199,0.0,1,0,0,1
200,64.54,0,0,0,0
201,60.886,0,0,0,0
202,63.282,0,0,0,0
203,56.897,0,0,0,0
204,0.0,1,0,0,1
205,270.0,0,0,1,1
206,79.0,0,1,0,1
207,73.0,0,1,0,0
208,62.54,0,0,0,0
209,58.281,0,0,0,0
210,85.0,0,1,0,0
211,114.0,0,0,1,0
212,221.0,0,0,1,0
213,288.0,0,0,1,1
214,58.347,0,0,0,1
215,69.0,0,1,0,0
216,0.0,1,0,0,0
217,0.0,1,0,0,1
218,277.0,0,0,1,1
219,90.0,0,1,0,1
220,454.0,0,0,1,1
221,61.546,0,0,0,1
222,0.0,1,0,0,1
223,453.0,0,0,1,1
224,0.0,1,0,0,1
225,55.328,0,0,0,1
226,417.0,0,0,1,1
227,253.0,0,0,1,1
228,287.0,0,0,1,1
229,56.328,0,0,0,1
230,0.0,1,0,0,0
231,59.044,0,0,0,0
232,203.0,0,0,1,1
233,69.054,0,1,0,0
234,0.0,1,0,0,1
235,69.0,0,1,0,0
236,69.0,0,1,0,0
237,0.0,1,0,0,1
238,89.0,0,1,0,1
239,56.882,0,0,0,0
240,66.737,0,0,0,0
241,65.443,0,0,0,0
242,0.0,1,0,0,1
243,137.0,0,0,1,1
244,0.0,1,0,0,1
245,73.0,0,1,0,1
246,303.0,0,0,1,1
247,71.0,0,1,0,1
248,112.0,0,0,1,0
249,80.0,0,1,0,0
250,0.0,1,0,0,1
251,56.355,0,0,0,0
252,55.554,0,0,0,0
253,87.0,0,1,0,0
254,0.0,1,0,0,1
255,315.0,0,0,1,1
256,310.0,0,0,1,1
257,56.182,0,0,0,1
258,316.0,0,0,1,1
259,55.223,0,0,0,1
260,69.0,0,1,0,0
261,75.0,0,1,0,0
262,86.0,0,1,0,1
263,390.0,0,0,1,1
264,0.0,1,0,0,1
265,93.0,0,1,0,1
266,0.0,1,0,0,0
267,0.0,1,0,0,0
268,55.884,0,0,0,0
269,121.0,0,0,1,1
270,0.0,1,0,0,1
271,58.842,0,0,0,0
272,55.816,0,0,0,0
273,0.0,1,0,0,1
274,71.0,0,1,0,1
275,316.0,0,0,1,1
276,63.398,0,0,0,1
277,56.179,0,0,0,0
278,0.0,1,0,0,0
279,0.0,1,0,0,1
280,173.0,0,0,1,1
281,56.233,0,0,0,1
282,86.0,0,1,0,0
283,64.742,0,0,0,1
284,195.0,0,0,1,1
285,65.865,0,0,0,0
286,0.0,1,0,0,1
287,83.0,0,1,0,1
288,0.0,1,0,0,1
289,65.35,0,0,0,0
290,59.45,0,0,0,0
291,77.0,0,1,0,0
292,80.0,0,1,0,0
293,193.0,0,0,1,1
294,471.0,0,0,1,1
295,71.0,0,1,0,1
296,157.0,0,0,1,1
297,0.0,1,0,0,1
298,57.608,0,0,0,0
299,0.0,1,0,0,0
300,0.0,1,0,0,0
301,0.0,1,0,0,0
302,0.0,1,0,0,0
303,86.0,0,1,0,0
304,79.0,0,1,0,1
305,411.0,0,0,1,1
306,0.0,1,0,0,1
307,234.0,0,0,1,1
308,118.0,0,0,1,0
309,0.0,1,0,0,1
310,71.0,0,1,0,0
311,64.92,0,0,0,0
312,92.0,0,1,0,0
313,77.0,0,1,0,1
314,466.0,0,0,1,1
315,388.0,0,0,1,1
316,60.462,0,0,0,1
317,72.0,0,1,0,0
318,61.897,0,0,0,1
319,174.0,0,0,1,1
320,0.0,1,0,0,1
321,0.0,1,0,0,0
322,85.0,0,1,0,1
323,0.0,1,0,0,1
324,200.0,0,0,1,1
325,59.432,0,0,0,1
326,204.0,0,0,1,1
327,88.0,0,1,0,0
328,60.71,0,0,0,0
329,0.0,1,0,0,1
330,307.0,0,0,1,1
331,74.0,0,1,0,1
332,85.0,0,1,0,0
333,93.0,0,1,0,0
334,57.511,0,0,0,1
335,214.0,0,0,1,1
336,73.0,0,1,0,1
337,64.859,0,0,0,1
338,399.0,0,0,1,1
339,83.0,0,1,0,1
340,464.0,0,0,1,1
341,68.0,0,0,0,1
342,92.0,0,1,0,0
343,0.0,1,0,0,0
344,0.0,1,0,0,0
345,58.953,0,0,0,0
346,93.0,0,1,0,1
347,456.0,0,0,1,1
348,54.776,0,0,0,1
349,58.838,0,0,0,0
350,0.0,1,0,0,1
351,87.0,0,1,0,0
352,55.611,0,0,0,0
353,141.0,0,0,1,1
354,56.366,0,0,0,0
355,56.136,0,0,0,0
356,0.0,1,0,0,0
357,0.0,1,0,0,0
358,55.175,0,0,0,0
359,180.0,0,0,1,1
360,0.0,1,0,0,1
361,0.0,1,0,0,0
362,68.0,0,0,0,1
363,0.0,1,0,0,1
364,59.616,0,0,0,0
365,57.077,0,0,0,0
366,86.0,0,1,0,0
367,61.013,0,0,0,0
368,59.214,0,0,0,0
369,81.0,0,1,0,0
370,0.0,1,0,0,1
371,55.152,0,0,0,0
372,149.0,0,0,1,1
373,72.0,0,1,0,1
374,238.0,0,0,1,1
375,0.0,1,0,0,1
376,185.0,0,0,1,1
377,175.0,0,0,1,0
378,68.0,0,0,0,1
379,82.0,0,1,0,0
380,0.0,1,0,0,1
381,56.548,0,0,0,0
382,56.724,0,0,0,0
383,0.0,1,0,0,0
384,62.651,0,0,0,0
385,89.0,0,1,0,1
386,454.0,0,0,1,1
387,0.0,1,0,0,1
388,376.0,0,0,1,1
389,404.0,0,0,1,1
390,72.0,0,1,0,1
391,80.0,0,1,0,0
392,0.0,1,0,0,1
393,66.26,0,0,0,1
394,0.0,1,0,0,1
395,249.0,0,0,1,1
396,91.0,0,1,0,1
397,77.0,0,1,0,1
398,434.0,0,0,1,1
399,81.0,0,1,0,1
400,435.0,0,0,1,1
401,0.0,1,0,0,1
402,0.0,1,0,0,0
403,67.488,0,0,0,0
404,56.129,0,0,0,0
405,54.947,0,0,0,1
406,210.0,0,0,1,1
407,0.0,1,0,0,1
408,55.89,0,0,0,0
409,54.733,0,0,0,1
410,247.0,0,0,1,1
411,79.0,0,1,0,1
412,78.0,0,1,0,0
413,90.0,0,1,0,0
414,54.82,0,0,0,0
415,64.299,0,0,0,0
416,62.46,0,0,0,0
417,74.0,0,1,0,0
418,84.0,0,1,0,0
419,95.377,0,0,1,0
420,85.0,0,1,0,0
421,0.0,1,0,0,1
422,58.472,0,0,0,0
423,0.0,1,0,0,1
424,74.0,0,1,0,1
425,0.0,1,0,0,1
426,59.854,0,0,0,1
427,277.0,0,0,1,1
428,241.0,0,0,1,0
429,259.0,0,0,1,1
430,61.19,0,0,0,1
431,168.0,0,0,1,1
432,79.0,0,1,0,1
433,407.0,0,0,1,1
434,0.0,1,0,0,1
435,0.0,1,0,0,0
436,83.0,0,1,0,0
437,86.0,0,1,0,0
438,0.0,1,0,0,1
439,376.0,0,0,1,1
440,0.0,1,0,0,1
441,60.444,0,0,0,0
442,144.0,0,0,1,0
443,168.0,0,0,1,0
444,237.0,0,0,1,1
445,0.0,1,0,0,1
446,436.0,0,0,1,1
447,56.675,0,0,0,1
448,0.0,1,0,0,0
449,60.811,0,0,0,1
450,0.0,1,0,0,1
451,79.0,0,1,0,0
452,66.394,0,0,0,0
453,0.0,1,0,0,1
454,56.325,0,0,0,0
455,75.0,0,1,0,0
456,70.0,0,1,0,0
457,65.095,0,0,0,0
458,0.0,1,0,0,0
459,0.0,1,0,0,1
460,223.0,0,0,1,1
461,0.0,1,0,0,1
462,57.562,0,0,0,0
463,59.412,0,0,0,1
464,345.0,0,0,1,1
465,0.0,1,0,0,1
466,451.0,0,0,1,1
467,73.221,0,1,0,1
468,66.489,0,0,0,0
469,83.0,0,1,0,1
470,273.0,0,0,1,1
471,91.0,0,1,0,1
472,442.0,0,0,1,1
473,0.0,1,0,0,1
474,82.0,0,1,0,1
475,0.0,1,0,0,1
476,203.0,0,0,1,1
477,69.0,0,1,0,0
478,0.0,1,0,0,1
479,67.425,0,0,0,1
480,0.0,1,0,0,1
481,431.0,0,0,1,1
482,59.075,0,0,0,1
483,0.0,1,0,0,0
484,0.0,1,0,0,0
485,0.0,1,0,0,0
486,81.0,0,1,0,0
487,95.0,0,0,1,0
488,58.221,0,0,0,0
489,0.0,1,0,0,1
490,414.0,0,0,1,1
491,64.122,0,0,0,1
492,57.085,0,0,0,1
493,369.0,0,0,1,1
494,67.474,0,0,0,1
495,383.0,0,0,1,1
496,60.259,0,0,0,1
497,390.0,0,0,1,1
498,76.0,0,1,0,1
499,83.0,0,1,0,0
500,0.0,1,0,0,0
501,0.0,1,0,0,0
502,78.0,0,1,0,0
503,116.0,0,0,1,1
504,0.0,1,0,0,1
505,73.0,0,1,0,0
506,55.625,0,0,0,0
507,0.0,1,0,0,1
508,79.0,0,1,0,1
509,416.0,0,0,1,1
510,56.805,0,0,0,1
511,411.0,0,0,1,1
512,0.0,1,0,0,1
513,79.0,0,1,0,0
514,60.693,0,0,0,0
515,57.88,0,0,0,0
516,0.0,1,0,0,1
517,379.0,0,0,1,1
518,436.0,0,0,1,1
519,62.007,0,0,0,1
520,69.023,0,1,0,0
521,68.0,0,0,0,0
522,0.0,1,0,0,1
523,65.434,0,0,0,1
524,262.0,0,0,1,1
525,61.845,0,0,0,1
526,0.0,1,0,0,0
527,55.78,0,0,0,0
528,87.0,0,1,0,0
529,211.0,0,0,1,1
530,58.616,0,0,0,1
531,60.183,0,0,0,0
532,61.56,0,0,0,0
533,0.0,1,0,0,1
534,99.0,0,0,1,1
535,424.0,0,0,1,1
536,0.0,1,0,0,1
537,0.0,1,0,0,1
538,225.0,0,0,1,1
539,0.0,1,0,0,1
540,186.0,0,0,1,0
541,344.0,0,0,1,1
542,55.341,0,0,0,1
543,59.249,0,0,0,0
544,77.0,0,1,0,0
545,86.0,0,1,0,0
546,73.0,0,1,0,0
547,68.491,0,0,0,0
548,68.0,0,0,0,0
549,0.0,1,0,0,1
550,56.397,0,0,0,0
551,0.0,1,0,0,1
552,75.0,0,1,0,1
553,0.0,1,0,0,1
554,342.0,0,0,1,1
555,73.0,0,1,0,1
556,84.0,0,1,0,0
557,58.742,0,0,0,0
558,0.0,1,0,0,1
559,176.0,0,0,1,1
560,0.0,1,0,0,1
561,0.0,1,0,0,0
562,68.0,0,0,0,0
563,236.0,0,0,1,0
564,330.0,0,0,1,1
565,0.0,1,0,0,1
566,65.239,0,0,0,1
567,0.0,1,0,0,0
568,0.0,1,0,0,0
569,0.0,1,0,0,0
570,0.0,1,0,0,0
571,0.0,1,0,0,0
572,88.0,0,1,0,0
573,59.513,0,0,0,1
574,384.0,0,0,1,1
575,76.0,0,1,0,1
576,60.058,0,0,0,0
577,83.0,0,1,0,0
578,0.0,1,0,0,1
579,61.679,0,0,0,0
580,66.067,0,0,0,1
581,277.0,0,0,1,1
582,138.0,0,0,1,0
583,0.0,1,0,0,1
584,86.0,0,1,0,0
585,56.477,0,0,0,0
586,57.286,0,0,0,0
587,85.0,0,1,0,0
588,88.0,0,1,0,0
589,0.0,1,0,0,1
590,64.018,0,0,0,0
591,56.386,0,0,0,0
592,57.518,0,0,0,1
593,361.0,0,0,1,1
594,0.0,1,0,0,1
595,74.471,0,1,0,0
596,79.0,0,1,0,1
597,382.0,0,0,1,1
598,61.801,0,0,0,1
599,305.0,0,0,1,1
600,60.076,0,0,0,1
601,75.0,0,1,0,0
602,84.0,0,1,0,0
603,0.0,1,0,0,0
604,0.0,1,0,0,0
605,60.409,0,0,0,0
606,114.0,0,0,1,0
607,87.0,0,1,0,1
608,326.0,0,0,1,1
609,59.694,0,0,0,1
610,60.156,0,0,0,0
611,0.0,1,0,0,1
612,216.0,0,0,1,0
613,455.0,0,0,1,1
614,71.0,0,1,0,1
615,307.0,0,0,1,1
616,0.0,1,0,0,1
617,0.0,1,0,0,1
618,420.0,0,0,1,1
619,74.0,0,1,0,1
620,75.0,0,1,0,0
621,66.286,0,0,0,0
622,118.118,0,0,1,1
623,411.0,0,0,1,1
624,311.0,0,0,1,1
625,56.889,0,0,0,1
626,91.0,0,1,0,0
627,55.4,0,0,0,0
628,57.362,0,0,0,1
629,373.0,0,0,1,1
630,59.457,0,0,0,1
631,75.0,0,1,0,0
632,60.927,0,0,0,0
633,0.0,1,0,0,0
634,58.193,0,0,0,1
635,333.0,0,0,1,1
636,425.0,0,0,1,1
637,80.118,0,1,0,1
638,229.0,0,0,1,1
639,0.0,1,0,0,1
640,275.0,0,0,1,1
641,76.0,0,1,0,1
642,56.491,0,0,0,0
643,0.0,1,0,0,1
644,63.612,0,0,0,1
645,352.0,0,0,1,1
646,0.0,1,0,0,1
647,89.0,0,1,0,1
648,0.0,1,0,0,1
649,88.0,0,1,0,1
650,444.0,0,0,1,1
651,83.0,0,1,0,1
652,289.0,0,0,1,1
653,60.0,0,0,0,1
654,87.0,0,1,0,0
655,0.0,1,0,0,0
656,0.0,1,0,0,0
657,109.0,0,0,1,0
658,295.0,0,0,1,1
659,0.0,1,0,0,1
660,456.0,0,0,1,1
661,311.0,0,0,1,1
662,0.0,1,0,0,1
663,186.0,0,0,1,1
664,0.0,1,0,0,1
665,58.406,0,0,0,0
666,226.0,0,0,1,1
667,0.0,1,0,0,1
668,232.0,0,0,1,1
669,62.176,0,0,0,1
670,64.135,0,0,0,0
671,55.213,0,0,0,1
672,250.0,0,0,1,0
673,428.0,0,0,1,1
674,62.058,0,0,0,1
675,163.0,0,0,1,1
676,55.988,0,0,0,0
677,60.781,0,0,0,0
678,83.0,0,1,0,0
679,0.0,1,0,0,1
680,82.0,0,1,0,0
681,78.0,0,1,0,0
682,60.057,0,0,0,1
683,305.0,0,0,1,1
684,69.0,0,1,0,1
685,0.0,1,0,0,0
686,0.0,1,0,0,1
687,153.0,0,0,1,1
688,0.0,1,0,0,1
689,67.247,0,0,0,0
690,58.447,0,0,0,0
691,56.94,0,0,0,1
692,345.0,0,0,1,1
693,95.0,0,0,1,1
694,0.0,1,0,0,0
695,0.0,1,0,0,0
696,0.0,1,0,0,0
697,0.0,1,0,0,0
698,107.982,0,0,1,1
699,66.346,0,0,0,0
700,0.0,1,0,0,1
701,58.924,0,0,0,1
702,329.0,0,0,1,1
703,83.0,0,1,0,1
704,86.0,0,1,0,0
705,69.0,0,1,0,0
706,142.0,0,0,1,1
707,81.0,0,1,0,0
708,57.154,0,0,0,0
709,121.0,0,0,1,0
710,141.0,0,0,1,0
711,189.0,0,0,1,1
712,72.0,0,1,0,1
713,77.0,0,1,0,0
714,0.0,1,0,0,0
715,0.0,1,0,0,1
716,458.0,0,0,1,1
717,0.0,1,0,0,1
718,0.0,1,0,0,1
719,269.0,0,0,1,1
720,0.0,1,0,0,1
721,166.0,0,0,1,0
722,449.0,0,0,1,1
723,0.0,1,0,0,1
724,122.0,0,0,1,0
725,250.0,0,0,1,1
726,93.0,0,1,0,0
727,0.0,1,0,0,1
728,83.0,0,1,0,1
729,0.0,1,0,0,1
730,90.0,0,1,0,1
731,55.386,0,0,0,0
732,0.0,1,0,0,1
733,78.0,0,1,0,0
734,100.0,0,0,1,0
735,63.335,0,0,0,0
736,55.797,0,0,0,0
737,0.0,1,0,0,1
738,84.0,0,1,0,1
739,0.0,1,0,0,0
740,0.0,1,0,0,0
741,62.981,0,0,0,0
742,60.894,0,0,0,1
743,275.0,0,0,1,1
744,80.0,0,1,0,1
745,71.0,0,1,0,0
746,0.0,1,0,0,1
747,55.182,0,0,0,0
748,0.0,1,0,0,1
749,81.0,0,1,0,0
750,77.0,0,1,0,0
751,77.0,0,1,0,1
752,280.0,0,0,1,1
753,0.0,1,0,0,1
754,79.0,0,1,0,1
755,422.0,0,0,1,1
756,450.0,0,0,1,1
757,75.0,0,1,0,1
758,54.713,0,0,0,0
759,146.0,0,0,1,0
760,292.0,0,0,1,1
761,74.0,0,1,0,1
762,58.283,0,0,0,1
763,230.0,0,0,1,1
764,70.0,0,1,0,0
765,0.0,1,0,0,1
766,55.822,0,0,0,0
767,81.0,0,1,0,0
768,0.0,1,0,0,1
769,84.0,0,1,0,0
770,85.0,0,1,0,0
771,63.657,0,0,0,0
772,0.0,1,0,0,1
773,265.0,0,0,1,1
774,89.0,0,1,0,1
775,55.001,0,0,0,0
776,60.881,0,0,0,0
777,0.0,1,0,0,1
778,139.0,0,0,1,1
779,0.0,1,0,0,1
780,57.6,0,0,0,0
781,0.0,1,0,0,0
782,0.0,1,0,0,0
783,93.0,0,1,0,0
784,74.193,0,1,0,1
785,279.0,0,0,1,1
786,249.0,0,0,1,0
787,102.0,0,0,1,1
788,86.0,0,1,0,0
789,67.608,0,0,0,1
790,247.0,0,0,1,1
791,223.0,0,0,1,1
792,0.0,1,0,0,1
793,78.0,0,1,0,0
794,58.327,0,0,0,0
795,84.0,0,1,0,1
796,383.0,0,0,1,1
797,0.0,1,0,0,1
798,86.0,0,1,0,1
799,388.0,0,0,1,1
800,0.0,1,0,0,1
801,362.0,0,0,1,1
802,226.0,0,0,1,0
803,60.256,0,0,0,1
804,143.0,0,0,1,1
805,79.33,0,1,0,0
806,116.0,0,0,1,0
807,57.997,0,0,0,0
808,93.0,0,1,0,1
809,469.0,0,0,1,1
810,0.0,1,0,0,1
811,56.132,0,0,0,0
812,91.0,0,1,0,0
813,205.0,0,0,1,1
814,82.0,0,1,0,0
815,61.601,0,0,0,1
816,165.0,0,0,1,0
817,247.0,0,0,1,1
818,150.0,0,0,1,0
819,58.654,0,0,0,0
820,62.58,0,0,0,0
821,68.0,0,0,0,0
822,84.0,0,1,0,0
823,82.0,0,1,0,0
824,63.795,0,0,0,0
825,81.0,0,1,0,0
826,81.0,0,1,0,0
827,62.789,0,0,0,0
828,55.676,0,0,0,0
829,0.0,1,0,0,0
830,57.53,0,0,0,0
831,72.961,0,1,0,0
832,0.0,1,0,0,1
833,199.0,0,0,1,1
834,0.0,1,0,0,1
835,69.0,0,1,0,1
836,280.0,0,0,1,1
837,252.0,0,0,1,0
838,291.0,0,0,1,1
839,84.0,0,1,0,1
840,65.893,0,0,0,1
841,354.0,0,0,1,1
842,380.0,0,0,1,1
843,64.7,0,0,0,1
844,0.0,1,0,0,1
845,85.984,0,1,0,0
846,55.421,0,0,0,0
847,0.0,1,0,0,0
848,0.0,1,0,0,0
849,72.0,0,1,0,1
850,428.0,0,0,1,1
851,82.0,0,1,0,1
852,0.0,1,0,0,1
853,401.0,0,0,1,1
854,290.0,0,0,1,0
855,68.0,0,0,0,1
856,78.0,0,1,0,0
857,60.379,0,0,0,0
858,0.0,1,0,0,1
859,136.0,0,0,1,1
860,61.616,0,0,0,0
861,0.0,1,0,0,0
862,0.0,1,0,0,1
863,244.0,0,0,1,1
864,0.0,1,0,0,1
865,389.0,0,0,1,1
866,156.0,0,0,1,1
867,223.0,0,0,1,1
868,0.0,1,0,0,1
869,82.0,0,1,0,0
870,90.0,0,1,0,0
871,89.0,0,1,0,0
872,76.0,0,1,0,1
873,197.0,0,0,1,1
874,83.0,0,1,0,1
875,408.0,0,0,1,1
876,57.904,0,0,0,1
877,81.0,0,1,0,0
878,60.168,0,0,0,0
879,82.0,0,1,0,0
880,0.0,1,0,0,0
881,0.0,1,0,0,0
882,55.787,0,0,0,0
883,87.0,0,1,0,0
884,0.0,1,0,0,1
885,80.0,0,1,0,0
886,76.0,0,1,0,0
887,68.0,0,0,0,0
888,73.0,0,1,0,0
889,75.0,0,1,0,1
890,344.0,0,0,1,1
891,87.0,0,1,0,1
892,239.0,0,0,1,1
893,85.0,0,1,0,1
894,61.486,0,0,0,0
895,57.476,0,0,0,0
896,0.0,1,0,0,1
897,445.0,0,0,1,1
898,56.85,0,0,0,1
899,93.0,0,1,0,0
900,66.682,0,0,0,0
901,84.0,0,1,0,0
902,60.065,0,0,0,0
903,55.542,0,0,0,1
904,381.0,0,0,1,1
905,338.0,0,0,1,1
906,0.0,1,0,0,1
907,58.043,0,0,0,0
908,141.0,0,0,1,1
909,80.0,0,1,0,0
910,0.0,1,0,0,0
911,0.0,1,0,0,1
912,449.0,0,0,1,1
913,71.0,0,1,0,1
914,88.0,0,1,0,0
915,61.426,0,0,0,0
916,0.0,1,0,0,1
917,395.0,0,0,1,1
918,258.0,0,0,1,0
919,57.264,0,0,0,1
920,219.0,0,0,1,0
921,395.0,0,0,1,1
922,214.0,0,0,1,0
923,80.059,0,1,0,1
924,71.829,0,1,0,0
925,58.636,0,0,0,1
926,181.0,0,0,1,0
927,310.0,0,0,1,1
928,55.738,0,0,0,1
929,55.341,0,0,0,0
930,0.0,1,0,0,0
931,58.802,0,0,0,0
932,0.0,1,0,0,0
933,0.0,1,0,0,1
934,154.0,0,0,1,1
935,55.353,0,0,0,1
936,395.0,0,0,1,1
937,55.805,0,0,0,1
938,0.0,1,0,0,0
939,0.0,1,0,0,0
940,86.0,0,1,0,0
941,58.575,0,0,0,1
942,283.0,0,0,1,1
943,0.0,1,0,0,1
944,256.0,0,0,1,1
945,174.0,0,0,1,0
946,59.003,0,0,0,0
947,0.0,1,0,0,0
948,0.0,1,0,0,0
949,81.0,0,1,0,1
950,0.0,1,0,0,1
951,263.0,0,0,1,1
952,394.0,0,0,1,0
953,467.0,0,0,1,1
954,71.0,0,1,0,1
955,78.0,0,1,0,0
956,56.151,0,0,0,0
957,82.0,0,1,0,0
958,0.0,1,0,0,1
959,251.0,0,0,1,1
960,287.0,0,0,1,1
961,78.0,0,1,0,1
962,69.0,0,1,0,0
963,90.0,0,1,0,0
964,72.0,0,1,0,0
965,80.0,0,1,0,0
966,68.0,0,0,0,0
967,0.0,1,0,0,1
968,292.0,0,0,1,1
969,74.0,0,1,0,1
970,77.0,0,1,0,0
971,0.0,1,0,0,0
972,0.0,1,0,0,0
973,73.0,0,1,0,1
974,0.0,1,0,0,1
975,87.0,0,1,0,0
976,64.279,0,0,0,0
977,128.954,0,0,1,1
978,67.361,0,0,0,0
979,58.997,0,0,0,0
980,0.0,1,0,0,0
981,55.179,0,0,0,1
982,285.0,0,0,1,1
983,0.0,1,0,0,1
984,309.0,0,0,1,1
985,61.104,0,0,0,1
986,377.0,0,0,1,1
987,62.145,0,0,0,1
988,445.0,0,0,1,1
989,200.0,0,0,1,1
990,85.0,0,1,0,0
991,69.0,0,1,0,0
992,61.003,0,0,0,0
993,60.633,0,0,0,0
994,83.0,0,1,0,0
995,0.0,1,0,0,1
996,57.009,0,0,0,0
997,69.0,0,1,0,1
998,323.0,0,0,1,1
999,0.0,1,0,0,1
1000,68.0,0,0,0,1
1001,0.0,1,0,0,1
1002,59.041,0,0,0,0
1003,59.919,0,0,0,0
1004,0.0,1,0,0,1
1005,78.0,0,1,0,0
1006,85.0,0,1,0,0
1007,209.835,0,0,1,1
1008,60.293,0,0,0,1
1009,135.0,0,0,1,1
1010,57.081,0,0,0,0
1011,0.0,1,0,0,0
1012,57.357,0,0,0,0
1013,54.926,0,0,0,0
1014,0.0,1,0,0,0
1015,0.0,1,0,0,0
1016,0.0,1,0,0,0
1017,63.546,0,0,0,0
1018,188.0,0,0,1,0
1019,347.0,0,0,1,1
1020,55.605,0,0,0,1
1021,281.0,0,0,1,1
1022,68.0,0,0,0,1
1023,0.0,1,0,0,1
1024,400.0,0,0,1,1
1025,260.0,0,0,1,0
1026,82.0,0,1,0,1
1027,218.0,0,0,1,1
1028,58.353,0,0,0,1
1029,254.0,0,0,1,1
1030,0.0,1,0,0,1
1031,180.0,0,0,1,0
1032,402.0,0,0,1,1
1033,319.0,0,0,1,1
1034,73.342,0,1,0,1
1035,0.0,1,0,0,1
1036,84.0,0,1,0,0
1037,92.0,0,1,0,1
1038,341.0,0,0,1,1
1039,62.375,0,0,0,1
1040,59.863,0,0,0,0
1041,62.304,0,0,0,0
1042,77.0,0,1,0,0
1043,59.613,0,0,0,0
1044,73.0,0,1,0,0
1045,124.0,0,0,1,0
1046,72.0,0,1,0,0
1047,57.758,0,0,0,0
1048,75.0,0,1,0,0
1049,75.0,0,1,0,0
1050,67.493,0,0,0,1
1051,418.0,0,0,1,1
1052,64.311,0,0,0,1
1053,59.948,0,0,0,0
1054,72.97,0,1,0,0
1055,63.298,0,0,0,0
1056,60.219,0,0,0,0
1057,63.305,0,0,0,0
1058,0.0,1,0,0,0
1059,0.0,1,0,0,1
1060,228.0,0,0,1,1
1061,80.0,0,1,0,1
1062,80.0,0,1,0,0
1063,97.0,0,0,1,0
1064,59.537,0,0,0,1
1065,271.0,0,0,1,1
1066,77.0,0,1,0,1
1067,61.926,0,0,0,0
1068,0.0,1,0,0,0
1069,0.0,1,0,0,0
1070,70.0,0,1,0,1
1071,0.0,1,0,0,1
1072,59.665,0,0,0,0
1073,55.526,0,0,0,1
1074,233.0,0,0,1,1
1075,0.0,1,0,0,1
1076,68.0,0,0,0,1
1077,0.0,1,0,0,0
1078,0.0,1,0,0,0
1079,78.0,0,1,0,0
1080,85.0,0,1,0,0
1081,0.0,1,0,0,1
1082,58.737,0,0,0,0
1083,80.0,0,1,0,0
1084,0.0,1,0,0,1
1085,57.379,0,0,0,0
1086,110.0,0,0,1,0
1087,61.301,0,0,0,0
1088,75.0,0,1,0,0
1089,95.694,0,0,1,0
1090,0.0,1,0,0,1
1091,125.0,0,0,1,1
1092,87.0,0,1,0,0
1093,0.0,1,0,0,1
1094,86.0,0,1,0,0
1095,84.0,0,1,0,0
1096,69.0,0,1,0,0
1097,56.202,0,0,0,0
1098,55.439,0,0,0,0
1099,55.561,0,0,0,0
1100,0.0,1,0,0,1
1101,384.0,0,0,1,1
1102,63.169,0,0,0,1
1103,55.429,0,0,0,1
1104,327.0,0,0,1,1
1105,0.0,1,0,0,1
1106,0.0,1,0,0,0
1107,0.0,1,0,0,0
1108,0.0,1,0,0,0
1109,91.0,0,1,0,1
1110,0.0,1,0,0,0
1111,0.0,1,0,0,1
1112,275.0,0,0,1,1
1113,85.0,0,1,0,1
1114,85.0,0,1,0,0
1115,196.0,0,0,1,1
1116,126.0,0,0,1,1
1117,182.0,0,0,1,1
1118,62.98,0,0,0,0
1119,0.0,1,0,0,1
1120,72.0,0,1,0,0
1121,60.301,0,0,0,1
1122,434.0,0,0,1,1
1123,58.509,0,0,0,1
1124,55.568,0,0,0,0
1125,0.0,1,0,0,0
1126,0.0,1,0,0,0
1127,0.0,1,0,0,0
1128,84.0,0,1,0,1
1129,359.0,0,0,1,1
1130,316.0,0,0,1,0
1131,329.0,0,0,1,1
1132,92.0,0,1,0,1
1133,87.0,0,1,0,0
1134,57.59,0,0,0,0
1135,92.0,0,1,0,0
1136,69.0,0,1,0,1
1137,468.0,0,0,1,1
1138,205.0,0,0,1,1
1139,108.0,0,0,1,1
1140,362.0,0,0,1,1
1141,85.0,0,1,0,1
1142,0.0,1,0,0,1
1143,345.0,0,0,1,1
1144,0.0,1,0,0,1
1145,89.734,0,1,0,1
1146,0.0,1,0,0,1
1147,87.0,0,1,0,1
1148,0.0,1,0,0,1
1149,89.0,0,1,0,0
1150,235.0,0,0,1,1
1151,207.0,0,0,1,1
1152,383.0,0,0,1,1
1153,59.568,0,0,0,1
1154,450.0,0,0,1,1
1155,92.0,0,1,0,1
1156,461.0,0,0,1,1
1157,89.0,0,1,0,1
1158,348.0,0,0,1,1
1159,58.01,0,0,0,1
1160,0.0,1,0,0,1
1161,361.0,0,0,1,1
1162,0.0,1,0,0,1
1163,76.0,0,1,0,0
1164,93.0,0,1,0,0
1165,0.0,1,0,0,1
1166,81.0,0,1,0,0
1167,63.62,0,0,0,0
1168,0.0,1,0,0,1
1169,58.404,0,0,0,0
1170,68.939,0,1,0,0
1171,0.0,1,0,0,1
1172,146.0,0,0,1,1
1173,461.0,0,0,1,1
1174,58.11,0,0,0,1
1175,89.549,0,1,0,0
1176,78.0,0,1,0,1
1177,259.0,0,0,1,1
1178,55.243,0,0,0,1
1179,135.0,0,0,1,1
1180,75.0,0,1,0,0
1181,0.0,1,0,0,1
1182,58.387,0,0,0,1
1183,269.0,0,0,1,1
1184,58.314,0,0,0,1
1185,0.0,1,0,0,0
1186,57.313,0,0,0,0
1187,67.386,0,0,0,0
1188,70.0,0,1,0,0
1189,159.0,0,0,1,0
1190,176.0,0,0,1,1
1191,443.0,0,0,1,1
1192,60.054,0,0,0,1
1193,76.0,0,1,0,1
1194,380.0,0,0,1,1
1195,467.0,0,0,1,1
1196,93.0,0,1,0,1
1197,377.0,0,0,1,1
1198,55.327,0,0,0,1
1199,0.0,1,0,0,1
1200,97.0,0,0,1,0
1201,231.0,0,0,1,1
1202,58.787,0,0,0,0
1203,0.0,1,0,0,0
1204,56.363,0,0,0,0
1205,0.0,1,0,0,0
1206,61.25,0,0,0,1
1207,0.0,1,0,0,1
1208,66.174,0,0,0,1
1209,0.0,1,0,0,1
1210,60.825,0,0,0,1
1211,0.0,1,0,0,1
1212,272.0,0,0,1,1
1213,0.0,1,0,0,1
1214,80.0,0,1,0,0
1215,59.609,0,0,0,0
1216,111.0,0,0,1,1
1217,396.0,0,0,1,1
1218,71.0,0,1,0,1
1219,56.712,0,0,0,0
1220,76.0,0,1,0,0
1221,71.0,0,1,0,0
1222,75.199,0,1,0,0
1223,122.0,0,0,1,1
1224,0.0,1,0,0,1
1225,83.0,0,1,0,0
1226,88.0,0,1,0,0
1227,82.0,0,1,0,0
1228,60.42,0,0,0,1
1229,280.0,0,0,1,1
1230,0.0,1,0,0,1
1231,81.0,0,1,0,0
1232,59.288,0,0,0,0
1233,70.0,0,1,0,0
1234,0.0,1,0,0,1
1235,89.0,0,1,0,1
1236,449.0,0,0,1,1
1237,83.536,0,1,0,1
1238,0.0,1,0,0,1
1239,347.0,0,0,1,1
1240,0.0,1,0,0,1
1241,124.0,0,0,1,1
1242,0.0,1,0,0,1
1243,61.659,0,0,0,1
1244,0.0,1,0,0,1
1245,68.0,0,0,0,1
1246,308.0,0,0,1,1
1247,0.0,1,0,0,1
1248,262.0,0,0,1,1
1249,0.0,1,0,0,1
1250,174.0,0,0,1,1
1251,0.0,1,0,0,1
1252,0.0,1,0,0,0
1253,0.0,1,0,0,1
1254,139.0,0,0,1,1
1255,56.478,0,0,0,0
1256,0.0,1,0,0,1
1257,142.0,0,0,1,0
1258,391.0,0,0,1,1
1259,62.421,0,0,0,1
1260,461.0,0,0,1,1
1261,376.0,0,0,1,1
1262,0.0,1,0,0,1
1263,58.93,0,0,0,0
1264,92.0,0,1,0,0
1265,86.0,0,1,0,0
1266,181.0,0,0,1,1
1267,92.0,0,1,0,0
1268,70.0,0,1,0,1
1269,409.0,0,0,1,1
1270,79.0,0,1,0,1
1271,55.874,0,0,0,1
1272,320.0,0,0,1,1
1273,172.0,0,0,1,0
1274,59.585,0,0,0,0
1275,61.545,0,0,0,0
1276,69.645,0,1,0,0
1277,66.294,0,0,0,1
1278,238.0,0,0,1,1
1279,0.0,1,0,0,1
1280,61.195,0,0,0,0
1281,85.0,0,1,0,0
1282,74.0,0,1,0,0
1283,69.689,0,1,0,0
1284,56.506,0,0,0,0
1285,62.546,0,0,0,0
1286,0.0,1,0,0,1
1287,304.0,0,0,1,1
1288,164.0,0,0,1,0
1289,0.0,1,0,0,1
1290,0.0,1,0,0,0
1291,72.0,0,1,0,0
1292,151.0,0,0,1,1
1293,0.0,1,0,0,1
1294,75.0,0,1,0,0
1295,205.0,0,0,1,1
1296,141.0,0,0,1,1
1297,278.0,0,0,1,1
1298,56.018,0,0,0,1
1299,59.308,0,0,0,0
1300,0.0,1,0,0,1
1301,82.0,0,1,0,0
1302,74.0,0,1,0,0
1303,74.666,0,1,0,0
1304,72.0,0,1,0,1
1305,308.0,0,0,1,0
1306,424.0,0,0,1,1
1307,0.0,1,0,0,1
1308,0.0,1,0,0,1
1309,423.0,0,0,1,1
1310,0.0,1,0,0,1
1311,0.0,1,0,0,0
1312,92.0,0,1,0,0
1313,88.0,0,1,0,0
1314,90.0,0,1,0,0
1315,0.0,1,0,0,1
1316,76.0,0,1,0,1
1317,446.0,0,0,1,1
1318,0.0,1,0,0,1
1319,87.0,0,1,0,1
1320,0.0,1,0,0,1
1321,64.523,0,0,0,1
1322,0.0,1,0,0,1
1323,382.0,0,0,1,1
1324,0.0,1,0,0,1
1325,261.0,0,0,1,1
1326,58.878,0,0,0,1
1327,127.0,0,0,1,1
1328,56.833,0,0,0,0
1329,71.0,0,1,0,0
1330,0.0,1,0,0,1
1331,86.0,0,1,0,0
1332,78.0,0,1,0,0
1333,72.0,0,1,0,1
1334,284.0,0,0,1,1
1335,56.506,0,0,0,1
1336,314.0,0,0,1,1
1337,0.0,1,0,0,1
1338,72.816,0,1,0,0
1339,103.0,0,0,1,0
1340,91.0,0,1,0,0
1341,58.231,0,0,0,1
1342,216.0,0,0,1,1
1343,0.0,1,0,0,1
1344,0.0,1,0,0,1
1345,340.0,0,0,1,1
1346,75.0,0,1,0,1
1347,0.0,1,0,0,1
1348,80.0,0,1,0,1
1349,0.0,1,0,0,0
1350,0.0,1,0,0,1
1351,314.0,0,0,1,1
1352,72.0,0,1,0,1
1353,151.0,0,0,1,1
1354,408.0,0,0,1,1
1355,79.0,0,1,0,1
1356,221.0,0,0,1,1
1357,0.0,1,0,0,1
1358,80.0,0,1,0,0
1359,89.0,0,1,0,0
1360,75.0,0,1,0,0
1361,56.507,0,0,0,1
1362,236.0,0,0,1,0
1363,298.0,0,0,1,1
1364,222.0,0,0,1,1
1365,0.0,1,0,0,1
1366,0.0,1,0,0,1
1367,339.0,0,0,1,1
1368,56.954,0,0,0,1
1369,0.0,1,0,0,0
1370,57.416,0,0,0,0
1371,0.0,1,0,0,1
1372,73.0,0,1,0,1
1373,456.0,0,0,1,1
1374,57.413,0,0,0,1
1375,80.0,0,1,0,0
1376,88.0,0,1,0,0
1377,145.0,0,0,1,0
1378,94.0,0,1,0,0
1379,54.916,0,0,0,0
1380,0.0,1,0,0,1
1381,104.0,0,0,1,1
1382,407.0,0,0,1,1
1383,78.0,0,1,0,1
1384,0.0,1,0,0,1
1385,57.527,0,0,0,0
1386,0.0,1,0,0,1
1387,75.0,0,1,0,0
1388,89.0,0,1,0,0
1389,0.0,1,0,0,1
1390,70.0,0,1,0,1
1391,336.0,0,0,1,1
1392,60.048,0,0,0,1
1393,137.0,0,0,1,1
1394,73.0,0,1,0,0
1395,56.039,0,0,0,0
1396,58.836,0,0,0,1
1397,964.167,0,0,1,1
1398,249.0,0,0,1,1
1399,101.0,0,0,1,0
1400,59.492,0,0,0,0
1401,98.0,0,0,1,0
1402,58.332,0,0,0,0
1403,89.489,0,1,0,0
1404,57.346,0,0,0,0
1405,0.0,1,0,0,1
1406,77.0,0,1,0,0
1407,58.881,0,0,0,0
1408,0.0,1,0,0,1
1409,275.0,0,0,1,1
1410,205.0,0,0,1,1
1411,0.0,1,0,0,1
1412,79.0,0,1,0,1
1413,366.0,0,0,1,1
1414,0.0,1,0,0,1
1415,64.664,0,0,0,0
1416,73.0,0,1,0,0
1417,76.0,0,1,0,0
1418,0.0,1,0,0,1
1419,65.323,0,0,0,0
1420,58.72,0,0,0,0
1421,0.0,1,0,0,1
1422,77.0,0,1,0,0
1423,65.83,0,0,0,0
1424,87.0,0,1,0,0
1425,0.0,1,0,0,0
1426,0.0,1,0,0,0
1427,0.0,1,0,0,0
1428,0.0,1,0,0,1
1429,171.0,0,0,1,1
1430,0.0,1,0,0,1
1431,0.0,1,0,0,0
1432,81.0,0,1,0,1
1433,0.0,1,0,0,1
1434,58.399,0,0,0,0
1435,93.0,0,1,0,1
1436,0.0,1,0,0,0
1437,0.0,1,0,0,0
1438,0.0,1,0,0,1
1439,314.0,0,0,1,1
1440,56.037,0,0,0,1
1441,0.0,1,0,0,1
1442,462.0,0,0,1,1
1443,64.837,0,0,0,1
1444,58.187,0,0,0,0
1445,0.0,1,0,0,0
1446,59.207,0,0,0,1
1447,440.0,0,0,1,1
1448,0.0,1,0,0,1
1449,0.0,1,0,0,0
1450,118.0,0,0,1,1
1451,0.0,1,0,0,0
1452,0.0,1,0,0,0
1453,0.0,1,0,0,0
1454,65.434,0,0,0,0
1455,64.558,0,0,0,0
1456,63.006,0,0,0,0
1457,83.0,0,1,0,0
1458,57.725,0,0,0,0
1459,71.0,0,1,0,0
1460,69.0,0,1,0,0
1461,83.0,0,1,0,0
1462,56.124,0,0,0,0
1463,96.0,0,0,1,0
1464,90.0,0,1,0,0
1465,0.0,1,0,0,1
1466,205.0,0,0,1,1
1467,285.0,0,0,1,1
1468,55.092,0,0,0,1
1469,0.0,1,0,0,0
1470,0.0,1,0,0,1
1471,140.0,0,0,1,0
1472,314.0,0,0,1,1
1473,85.0,0,1,0,1
1474,290.0,0,0,1,1
1475,91.0,0,1,0,1
1476,55.798,0,0,0,0
1477,56.261,0,0,0,1
1478,314.0,0,0,1,1
1479,65.418,0,0,0,1
1480,0.0,1,0,0,0
1481,0.0,1,0,0,1
1482,183.0,0,0,1,0
1483,325.0,0,0,1,1
1484,0.0,1,0,0,1
1485,416.0,0,0,1,1
1486,57.008,0,0,0,1
1487,55.4,0,0,0,0
1488,0.0,1,0,0,1
1489,69.0,0,1,0,1
1490,0.0,1,0,0,0
1491,0.0,1,0,0,0
1492,92.0,0,1,0,1
1493,0.0,1,0,0,0
1494,0.0,1,0,0,0
1495,0.0,1,0,0,0
1496,86.0,0,1,0,1
1497,351.0,0,0,1,1
1498,86.0,0,1,0,1
1499,158.0,0,0,1,1
1500,59.737,0,0,0,1
1501,89.0,0,1,0,0
1502,80.0,0,1,0,0
1503,90.0,0,1,0,0
1504,89.263,0,1,0,1
1505,349.0,0,0,1,1
1506,87.0,0,1,0,1
1507,0.0,1,0,0,1
1508,72.116,0,1,0,1
1509,0.0,1,0,0,1
1510,84.0,0,1,0,0
1511,70.0,0,1,0,0
1512,57.224,0,0,0,0
1513,56.115,0,0,0,0
1514,55.697,0,0,0,0
1515,61.443,0,0,0,0
1516,162.0,0,0,1,1
1517,0.0,1,0,0,1
1518,62.271,0,0,0,1
1519,0.0,1,0,0,0
1520,0.0,1,0,0,0
1521,0.0,1,0,0,1
1522,219.0,0,0,1,1
1523,0.0,1,0,0,1
1524,88.0,0,1,0,1
1525,0.0,1,0,0,1
1526,88.0,0,1,0,0
1527,88.0,0,1,0,0
1528,83.0,0,1,0,1
1529,252.0,0,0,1,1
1530,83.0,0,1,0,1
1531,60.259,0,0,0,0
1532,0.0,1,0,0,1
1533,89.0,0,1,0,0
1534,232.0,0,0,1,1
1535,0.0,1,0,0,1
1536,206.0,0,0,1,1
1537,0.0,1,0,0,1
1538,59.164,0,0,0,0
1539,236.0,0,0,1,1
1540,58.727,0,0,0,1
1541,59.763,0,0,0,0
1542,85.0,0,1,0,0
1543,54.589,0,0,0,0
1544,77.0,0,1,0,0
1545,0.0,1,0,0,1
1546,58.226,0,0,0,0
1547,59.719,0,0,0,1
1548,397.0,0,0,1,1
1549,0.0,1,0,0,1
1550,60.118,0,0,0,1
1551,0.0,1,0,0,1
1552,124.0,0,0,1,1
1553,62.134,0,0,0,0
1554,0.0,1,0,0,1
1555,386.0,0,0,1,1
1556,79.0,0,1,0,1
1557,0.0,1,0,0,1
1558,73.0,0,1,0,0
1559,81.0,0,1,0,1
1560,215.0,0,0,1,1
1561,90.0,0,1,0,1
1562,365.0,0,0,1,1
1563,92.0,0,1,0,1
1564,0.0,1,0,0,1
1565,74.0,0,1,0,1
1566,415.0,0,0,1,1
1567,0.0,1,0,0,1
1568,387.0,0,0,1,1
1569,262.0,0,0,1,0
1570,74.0,0,1,0,0
1571,0.0,1,0,0,1
1572,56.207,0,0,0,0
1573,69.0,0,1,0,0
1574,86.0,0,1,0,0
1575,133.0,0,0,1,1
1576,58.16,0,0,0,0
1577,0.0,1,0,0,1
1578,328.0,0,0,1,1
1579,92.0,0,1,0,1
1580,193.0,0,0,1,0
1581,237.0,0,0,1,1
1582,54.979,0,0,0,1
1583,175.0,0,0,1,1
1584,80.0,0,1,0,0
1585,0.0,1,0,0,1
1586,152.0,0,0,1,1
1587,0.0,1,0,0,1
1588,60.253,0,0,0,1
1589,322.0,0,0,1,1
1590,55.248,0,0,0,1
1591,69.0,0,1,0,0
1592,61.545,0,0,0,0
1593,94.0,0,1,0,0
1594,63.975,0,0,0,1
1595,362.0,0,0,1,1
1596,72.0,0,1,0,1
1597,0.0,1,0,0,1
1598,85.0,0,1,0,0
1599,81.0,0,1,0,1
1600,234.0,0,0,1,1
1601,74.0,0,1,0,1
1602,75.0,0,1,0,0
1603,59.157,0,0,0,0
1604,0.0,1,0,0,1
1605,143.0,0,0,1,1
1606,74.0,0,1,0,0
1607,0.0,1,0,0,1
1608,237.149,0,0,1,0
1609,465.0,0,0,1,1
1610,0.0,1,0,0,1
1611,0.0,1,0,0,0
1612,84.0,0,1,0,0
1613,58.254,0,0,0,0
1614,83.0,0,1,0,0
1615,58.231,0,0,0,0
1616,78.0,0,1,0,0
1617,86.0,0,1,0,0
1618,58.803,0,0,0,1
1619,248.0,0,0,1,1
1620,153.0,0,0,1,0
1621,64.476,0,0,0,0
1622,0.0,1,0,0,0
1623,0.0,1,0,0,0
1624,68.0,0,0,0,0
1625,220.0,0,0,1,0
1626,314.0,0,0,1,1
1627,228.36,0,0,1,0
1628,148.867,0,0,1,1
1629,293.0,0,0,1,1
1630,248.716,0,0,1,1
1631,0.0,1,0,0,1
1632,219.0,0,0,1,1
1633,61.07,0,0,0,0
1634,0.0,1,0,0,1
1635,134.0,0,0,1,1
1636,0.0,1,0,0,1
1637,0.0,1,0,0,0
1638,0.0,1,0,0,1
1639,368.0,0,0,1,1
1640,0.0,1,0,0,1
1641,99.973,0,0,1,1
1642,390.0,0,0,1,1
1643,57.124,0,0,0,1
1644,88.0,0,1,0,0
1645,0.0,1,0,0,1
1646,92.0,0,1,0,0
1647,173.229,0,0,1,1
1648,77.0,0,1,0,0
1649,56.845,0,0,0,0
1650,60.29,0,0,0,0
1651,55.832,0,0,0,0
1652,91.0,0,1,0,0
1653,58.445,0,0,0,0
1654,0.0,1,0,0,0
1655,0.0,1,0,0,0
1656,0.0,1,0,0,0
1657,56.486,0,0,0,0
1658,90.0,0,1,0,0
1659,78.0,0,1,0,0
1660,0.0,1,0,0,1
1661,126.0,0,0,1,0
1662,369.0,0,0,1,1
1663,246.0,0,0,1,0
1664,183.0,0,0,1,0
1665,60.211,0,0,0,0
1666,0.0,1,0,0,1
1667,75.0,0,1,0,0
1668,105.0,0,0,1,0
1669,68.0,0,0,0,0
1670,60.49,0,0,0,1
1671,289.0,0,0,1,0
1672,400.0,0,0,1,1
1673,60.038,0,0,0,1
1674,62.058,0,0,0,1
1675,355.0,0,0,1,1
1676,72.0,0,1,0,1
1677,162.0,0,0,1,1
1678,85.0,0,1,0,0
1679,0.0,1,0,0,1
1680,70.0,0,1,0,1
1681,0.0,1,0,0,0
1682,0.0,1,0,0,0
1683,0.0,1,0,0,1
1684,307.0,0,0,1,1
1685,0.0,1,0,0,1
1686,58.479,0,0,0,0
1687,0.0,1,0,0,1
1688,65.688,0,0,0,0
1689,180.655,0,0,1,1
1690,0.0,1,0,0,1
1691,69.0,0,1,0,0
1692,70.378,0,1,0,0
1693,58.873,0,0,0,1
1694,239.0,0,0,1,1
1695,76.0,0,1,0,0
1696,0.0,1,0,0,1
1697,86.0,0,1,0,1
1698,0.0,1,0,0,1
1699,58.505,0,0,0,0
1700,59.287,0,0,0,1
1701,238.253,0,0,1,1
1702,63.85,0,0,0,1
1703,327.0,0,0,1,1
1704,89.0,0,1,0,1
1705,0.0,1,0,0,1
1706,82.0,0,1,0,1
1707,0.0,1,0,0,0
1708,0.0,1,0,0,0
1709,0.0,1,0,0,0
1710,0.0,1,0,0,1
1711,154.0,0,0,1,1
1712,456.0,0,0,1,1
1713,81.0,0,1,0,1
1714,55.158,0,0,0,0
1715,0.0,1,0,0,0
1716,59.742,0,0,0,0
1717,55.778,0,0,0,1
1718,188.0,0,0,1,1
1719,71.456,0,1,0,1
1720,77.0,0,1,0,1
1721,309.0,0,0,1,1
1722,306.0,0,0,1,1
1723,68.038,0,0,0,1
1724,0.0,1,0,0,0
1725,0.0,1,0,0,1
1726,397.0,0,0,1,1
1727,0.0,1,0,0,1
1728,293.0,0,0,1,1
1729,445.0,0,0,1,1
1730,55.228,0,0,0,1
1731,56.689,0,0,0,0
1732,0.0,1,0,0,0
1733,59.878,0,0,0,0
1734,55.332,0,0,0,0
1735,69.0,0,1,0,1
1736,436.0,0,0,1,1
1737,228.0,0,0,1,0
1738,86.0,0,1,0,1
1739,74.0,0,1,0,0
1740,0.0,1,0,0,1
1741,68.332,0,0,0,0
1742,140.0,0,0,1,1
1743,59.626,0,0,0,0
1744,75.0,0,1,0,1
1745,299.0,0,0,1,1
1746,68.0,0,0,0,1
1747,170.0,0,0,1,1
1748,70.0,0,1,0,1
1749,185.0,0,0,1,1
1750,73.0,0,1,0,1
1751,193.0,0,0,1,1
1752,61.679,0,0,0,1
1753,288.0,0,0,1,1
1754,54.757,0,0,0,1
1755,71.0,0,1,0,0
1756,58.487,0,0,0,0
1757,0.0,1,0,0,1
1758,335.0,0,0,1,1
1759,63.958,0,0,0,1
1760,0.0,1,0,0,0
1761,0.0,1,0,0,1
1762,183.0,0,0,1,1
1763,58.563,0,0,0,1
1764,92.0,0,1,0,1
1765,0.0,1,0,0,0
1766,0.0,1,0,0,0
1767,0.0,1,0,0,0
1768,77.0,0,1,0,1
1769,0.0,1,0,0,0
1770,0.0,1,0,0,0
1771,75.0,0,1,0,1
1772,0.0,1,0,0,1
1773,58.89,0,0,0,0
1774,79.0,0,1,0,1
1775,413.0,0,0,1,1
1776,0.0,1,0,0,1
1777,89.0,0,1,0,1
1778,56.731,0,0,0,0
1779,93.0,0,1,0,0
1780,152.0,0,0,1,1
1781,0.0,1,0,0,1
1782,70.0,0,1,0,1
1783,0.0,1,0,0,0
1784,0.0,1,0,0,1
1785,143.0,0,0,1,1
1786,63.999,0,0,0,0
1787,90.0,0,1,0,0
1788,75.0,0,1,0,0
1789,0.0,1,0,0,0
1790,0.0,1,0,0,0
1791,0.0,1,0,0,0
1792,93.0,0,1,0,0
1793,81.629,0,1,0,0
1794,56.391,0,0,0,0
1795,59.153,0,0,0,0
1796,0.0,1,0,0,1
1797,190.0,0,0,1,1
1798,62.848,0,0,0,1
1799,220.0,0,0,1,1
1800,89.0,0,1,0,1
1801,180.0,0,0,1,1
1802,80.0,0,1,0,0
1803,0.0,1,0,0,1
1804,192.386,0,0,1,1
1805,0.0,1,0,0,1
1806,470.0,0,0,1,1
1807,0.0,1,0,0,1
1808,0.0,1,0,0,1
1809,208.593,0,0,1,1
1810,297.0,0,0,1,1
1811,60.606,0,0,0,1
1812,70.0,0,1,0,1
1813,239.0,0,0,1,1
1814,242.0,0,0,1,1
1815,0.0,1,0,0,1
1816,57.776,0,0,0,0
1817,204.0,0,0,1,1
1818,222.0,0,0,1,1
1819,73.0,0,1,0,1
1820,76.0,0,1,0,0
1821,0.0,1,0,0,0
1822,0.0,1,0,0,1
1823,230.0,0,0,1,0
1824,372.0,0,0,1,0
1825,427.0,0,0,1,1
1826,56.877,0,0,0,1
1827,103.833,0,0,1,1
1828,0.0,1,0,0,0
1829,0.0,1,0,0,0
1830,0.0,1,0,0,0
1831,78.0,0,1,0,1
1832,0.0,1,0,0,1
1833,62.742,0,0,0,0
1834,74.0,0,1,0,0
1835,91.0,0,1,0,0
1836,0.0,1,0,0,1
1837,119.0,0,0,1,1
1838,69.0,0,1,0,0
1839,56.849,0,0,0,0
1840,0.0,1,0,0,1
1841,213.319,0,0,1,1
1842,195.0,0,0,1,1
1843,0.0,1,0,0,1
1844,162.0,0,0,1,1
1845,59.716,0,0,0,0
1846,72.0,0,1,0,0
1847,0.0,1,0,0,1
1848,282.0,0,0,1,1
1849,304.0,0,0,1,0
1850,243.002,0,0,1,1
1851,0.0,1,0,0,1
1852,336.0,0,0,1,1
1853,60.618,0,0,0,1
1854,0.0,1,0,0,1
1855,73.0,0,1,0,0
1856,154.0,0,0,1,1
1857,77.0,0,1,0,0
1858,57.405,0,0,0,0
1859,90.0,0,1,0,0
1860,56.415,0,0,0,1
1861,206.0,0,0,1,1
1862,70.0,0,1,0,1
1863,68.0,0,0,0,1
1864,327.0,0,0,1,1
1865,70.0,0,1,0,1
1866,0.0,1,0,0,0
1867,0.0,1,0,0,0
1868,72.0,0,1,0,1
1869,0.0,1,0,0,1
1870,470.0,0,0,1,1
1871,154.921,0,0,1,1
1872,432.0,0,0,1,1
1873,221.25,0,0,1,1
1874,229.562,0,0,1,0
1875,263.0,0,0,1,0
1876,411.0,0,0,1,1
1877,0.0,1,0,0,1
1878,279.0,0,0,1,1
1879,150.0,0,0,1,1
1880,333.0,0,0,1,1
1881,350.0,0,0,1,0
1882,451.0,0,0,1,1
1883,62.767,0,0,0,1
1884,66.652,0,0,0,0
1885,76.0,0,1,0,1
1886,418.0,0,0,1,1
1887,408.0,0,0,1,1
1888,56.39,0,0,0,1
1889,61.724,0,0,0,0
1890,81.0,0,1,0,0
1891,59.137,0,0,0,0
1892,0.0,1,0,0,1
1893,199.0,0,0,1,1
1894,0.0,1,0,0,1
1895,383.0,0,0,1,1
1896,72.0,0,1,0,1
1897,59.252,0,0,0,0
1898,68.0,0,0,0,1
1899,246.0,0,0,1,1
1900,0.0,1,0,0,1
1901,0.0,1,0,0,0
1902,77.0,0,1,0,0
1903,56.377,0,0,0,0
1904,60.228,0,0,0,0
1905,0.0,1,0,0,1
1906,122.0,0,0,1,1
1907,56.086,0,0,0,0
1908,0.0,1,0,0,0
1909,56.97,0,0,0,1
1910,246.0,0,0,1,1
1911,89.0,0,1,0,1
1912,166.0,0,0,1,1
1913,0.0,1,0,0,1
1914,70.0,0,1,0,0
1915,62.195,0,0,0,0
1916,0.0,1,0,0,0
1917,0.0,1,0,0,0
1918,82.0,0,1,0,0
1919,71.0,0,1,0,0
1920,80.0,0,1,0,0
1921,0.0,1,0,0,0
1922,0.0,1,0,0,1
1923,131.0,0,0,1,1
1924,59.186,0,0,0,0
1925,63.514,0,0,0,0
1926,87.0,0,1,0,0
1927,206.0,0,0,1,1
1928,90.0,0,1,0,0
1929,56.973,0,0,0,0
1930,0.0,1,0,0,1
1931,72.0,0,1,0,0
1932,82.0,0,1,0,0
1933,75.0,0,1,0,0
1934,62.266,0,0,0,1
1935,341.0,0,0,1,1
1936,61.915,0,0,0,1
1937,0.0,1,0,0,1
1938,394.0,0,0,1,1
1939,68.0,0,0,0,1
1940,0.0,1,0,0,1
1941,126.0,0,0,1,1
1942,0.0,1,0,0,1
1943,0.0,1,0,0,1
1944,228.0,0,0,1,1
1945,0.0,1,0,0,1
1946,89.0,0,1,0,0
1947,226.0,0,0,1,1
1948,81.0,0,1,0,1
1949,82.0,0,1,0,0
1950,88.0,0,1,0,0
1951,92.0,0,1,0,0
1952,110.0,0,0,1,0
1953,60.502,0,0,0,1
1954,405.0,0,0,1,1
1955,143.0,0,0,1,1
1956,228.0,0,0,1,1
1957,60.954,0,0,0,1
1958,59.821,0,0,0,0
1959,0.0,1,0,0,1
1960,211.0,0,0,1,0
1961,471.0,0,0,1,1
1962,0.0,1,0,0,1
1963,0.0,1,0,0,1
1964,399.0,0,0,1,1
1965,61.693,0,0,0,1
1966,153.0,0,0,1,1
1967,0.0,1,0,0,1
1968,0.0,1,0,0,0
1969,0.0,1,0,0,0
1970,86.0,0,1,0,1
1971,0.0,1,0,0,1
1972,209.0,0,0,1,1
1973,266.0,0,0,1,0
1974,280.0,0,0,1,0
1975,181.0,0,0,1,0
1976,0.0,1,0,0,1
1977,61.05,0,0,0,0
1978,78.0,0,1,0,0
1979,76.0,0,1,0,0
1980,56.702,0,0,0,0
1981,0.0,1,0,0,1
1982,90.0,0,1,0,0
1983,68.0,0,0,0,0
1984,89.0,0,1,0,0
1985,63.216,0,0,0,1
1986,445.0,0,0,1,1
1987,75.0,0,1,0,1
1988,274.0,0,0,1,1
1989,0.0,1,0,0,1
1990,393.0,0,0,1,1
1991,56.153,0,0,0,1
1992,69.0,0,1,0,0
1993,0.0,1,0,0,1
1994,242.0,0,0,1,1
1995,62.87,0,0,0,0
1996,0.0,1,0,0,1
1997,91.0,0,1,0,0
1998,85.0,0,1,0,0
1999,84.0,0,1,0,0
2000,59.862,0,0,0,0
2001,0.0,1,0,0,1
2002,82.0,0,1,0,0
2003,58.34,0,0,0,0
2004,87.0,0,1,0,0
2005,87.0,0,1,0,0
2006,0.0,1,0,0,0
2007,0.0,1,0,0,1
2008,230.0,0,0,1,0
2009,448.0,0,0,1,1
2010,64.242,0,0,0,1
2011,62.58,0,0,0,0
2012,57.722,0,0,0,1
2013,304.0,0,0,1,1
2014,239.0,0,0,1,0
2015,87.0,0,1,0,1
2016,123.0,0,0,1,0
2017,75.0,0,1,0,0
2018,0.0,1,0,0,1
2019,56.542,0,0,0,0
2020,87.116,0,1,0,0
2021,68.0,0,0,0,0
2022,91.0,0,1,0,0
2023,91.0,0,1,0,1
2024,304.0,0,0,1,1
2025,315.0,0,0,1,1
2026,93.0,0,1,0,1
2027,77.0,0,1,0,0
2028,79.0,0,1,0,0
2029,73.0,0,1,0,0
2030,170.0,0,0,1,1
2031,0.0,1,0,0,1
2032,71.0,0,1,0,0
2033,59.468,0,0,0,0
2034,0.0,1,0,0,0
2035,0.0,1,0,0,0
2036,80.0,0,1,0,1
2037,446.0,0,0,1,1
2038,64.933,0,0,0,1
2039,55.125,0,0,0,0
2040,0.0,1,0,0,1
2041,185.0,0,0,1,1
2042,91.0,0,1,0,0
2043,84.0,0,1,0,0
2044,85.0,0,1,0,0
2045,69.937,0,1,0,0
2046,58.974,0,0,0,0
2047,74.0,0,1,0,0
2048,54.579,0,0,0,0
2049,0.0,1,0,0,1
2050,461.0,0,0,1,1
2051,139.0,0,0,1,1
2052,86.0,0,1,0,0
2053,58.821,0,0,0,0
2054,0.0,1,0,0,1
2055,360.0,0,0,1,1
2056,0.0,1,0,0,1
2057,59.282,0,0,0,1
2058,361.0,0,0,1,1
2059,80.0,0,1,0,1
2060,413.0,0,0,1,1
2061,65.486,0,0,0,1
2062,86.349,0,1,0,0
2063,0.0,1,0,0,1
2064,75.0,0,1,0,0
2065,69.954,0,1,0,0
2066,68.0,0,0,0,0
2067,76.0,0,1,0,0
2068,171.0,0,0,1,1
2069,67.111,0,0,0,0
2070,58.451,0,0,0,0
2071,80.0,0,1,0,0
2072,56.465,0,0,0,1
2073,333.0,0,0,1,1
2074,56.645,0,0,0,1
2075,55.239,0,0,0,1
2076,351.0,0,0,1,1
2077,0.0,1,0,0,1
2078,87.812,0,1,0,0
2079,289.0,0,0,1,1
2080,0.0,1,0,0,1
2081,55.464,0,0,0,1
2082,423.0,0,0,1,1
2083,0.0,1,0,0,1
2084,0.0,1,0,0,0
2085,82.027,0,1,0,0
2086,224.0,0,0,1,0
2087,436.0,0,0,1,1
2088,0.0,1,0,0,1
2089,0.0,1,0,0,0
2090,72.0,0,1,0,0
2091,85.0,0,1,0,0
2092,0.0,1,0,0,0
2093,0.0,1,0,0,0
2094,70.0,0,1,0,1
2095,0.0,1,0,0,1
2096,77.0,0,1,0,0
2097,78.0,0,1,0,0
2098,86.0,0,1,0,0
2099,58.641,0,0,0,0
2100,81.0,0,1,0,0
2101,61.05,0,0,0,1
2102,242.0,0,0,1,1
2103,0.0,1,0,0,1
2104,78.0,0,1,0,0
2105,121.0,0,0,1,0
2106,242.0,0,0,1,1
2107,0.0,1,0,0,1
2108,373.0,0,0,1,1
2109,89.0,0,1,0,1
2110,259.0,0,0,1,1
2111,110.0,0,0,1,1
2112,243.0,0,0,1,0
2113,432.0,0,0,1,1
2114,0.0,1,0,0,1
2115,138.0,0,0,1,1
2116,0.0,1,0,0,1
2117,89.0,0,1,0,1
2118,54.967,0,0,0,0
2119,0.0,1,0,0,0
2120,0.0,1,0,0,1
2121,423.0,0,0,1,1
2122,0.0,1,0,0,1
2123,60.493,0,0,0,1
2124,282.0,0,0,1,1
2125,57.489,0,0,0,1
2126,0.0,1,0,0,1
2127,232.0,0,0,1,1
2128,73.0,0,1,0,0
2129,0.0,1,0,0,1
2130,415.0,0,0,1,1
2131,126.0,0,0,1,1
2132,78.0,0,1,0,0
2133,55.467,0,0,0,0
2134,0.0,1,0,0,1
2135,83.0,0,1,0,1
2136,384.0,0,0,1,1
2137,0.0,1,0,0,1
2138,55.635,0,0,0,0
2139,0.0,1,0,0,0
2140,57.18,0,0,0,0
2141,72.0,0,1,0,0
2142,82.0,0,1,0,0
2143,0.0,1,0,0,1
2144,57.43,0,0,0,0
2145,55.77,0,0,0,1
2146,193.0,0,0,1,1
2147,90.0,0,1,0,0
2148,58.604,0,0,0,1
2149,311.0,0,0,1,1
2150,71.71,0,1,0,1
2151,182.0,0,0,1,1
2152,0.0,1,0,0,1
2153,0.0,1,0,0,0
2154,58.262,0,0,0,1
2155,302.0,0,0,1,1
2156,82.0,0,1,0,1
2157,0.0,1,0,0,0
2158,0.0,1,0,0,0
2159,0.0,1,0,0,1
2160,330.0,0,0,1,1
2161,302.0,0,0,1,0
2162,371.0,0,0,1,1
2163,58.013,0,0,0,1
2164,60.883,0,0,0,1
2165,299.0,0,0,1,1
2166,81.0,0,1,0,1
2167,0.0,1,0,0,0
2168,0.0,1,0,0,1
2169,421.0,0,0,1,1
2170,69.0,0,1,0,1
2171,439.0,0,0,1,1
2172,55.826,0,0,0,1
2173,80.0,0,1,0,1
2174,443.0,0,0,1,1
2175,429.0,0,0,1,1
2176,83.0,0,1,0,1
2177,56.281,0,0,0,0
2178,0.0,1,0,0,1
2179,73.0,0,1,0,1
2180,321.0,0,0,1,1
2181,0.0,1,0,0,1
2182,54.909,0,0,0,0
2183,0.0,1,0,0,0
2184,55.157,0,0,0,0
2185,0.0,1,0,0,1
2186,70.0,0,1,0,0
2187,73.0,0,1,0,0
2188,71.0,0,1,0,1
2189,375.0,0,0,1,1
2190,55.868,0,0,0,1
2191,57.169,0,0,0,0
2192,0.0,1,0,0,1
2193,194.0,0,0,1,1
2194,76.0,0,1,0,1
2195,168.0,0,0,1,1
2196,0.0,1,0,0,1
2197,55.627,0,0,0,0
2198,0.0,1,0,0,0
2199,60.182,0,0,0,0
2200,73.0,0,1,0,0
2201,0.0,1,0,0,1
2202,83.0,0,1,0,0
2203,176.0,0,0,1,1
2204,78.0,0,1,0,0
2205,56.069,0,0,0,0
2206,55.59,0,0,0,0
2207,54.493,0,0,0,0
2208,58.403,0,0,0,1
2209,236.0,0,0,1,1
2210,61.89,0,0,0,1
2211,149.0,0,0,1,1
2212,0.0,1,0,0,1
2213,64.117,0,0,0,1
2214,0.0,1,0,0,1
2215,454.0,0,0,1,1
2216,64.289,0,0,0,1
2217,61.335,0,0,0,0
2218,91.0,0,1,0,1
2219,0.0,1,0,0,1
2220,68.522,0,0,0,0
2221,86.0,0,1,0,1
2222,272.0,0,0,1,1
2223,91.0,0,1,0,1
2224,67.925,0,0,0,0
2225,0.0,1,0,0,1
2226,151.0,0,0,1,1
2227,76.0,0,1,0,0
2228,0.0,1,0,0,1
2229,55.504,0,0,0,0
2230,90.0,0,1,0,0
2231,71.0,0,1,0,0
2232,0.0,1,0,0,1
2233,60.987,0,0,0,0
2234,54.685,0,0,0,0
2235,55.111,0,0,0,0
2236,55.345,0,0,0,1
2237,359.0,0,0,1,1
2238,54.781,0,0,0,1
2239,0.0,1,0,0,0
2240,0.0,1,0,0,0
2241,76.0,0,1,0,1
2242,364.0,0,0,1,1
2243,86.0,0,1,0,1
2244,0.0,1,0,0,1
2245,69.0,0,1,0,1
2246,0.0,1,0,0,1
2247,55.526,0,0,0,0
2248,77.0,0,1,0,0
2249,86.0,0,1,0,0
2250,84.0,0,1,0,0
2251,156.0,0,0,1,1
2252,55.249,0,0,0,1
2253,465.0,0,0,1,1
2254,0.0,1,0,0,1
2255,0.0,1,0,0,1
2256,277.0,0,0,1,1
2257,88.0,0,1,0,0
2258,0.0,1,0,0,1
2259,69.0,0,1,0,0
2260,55.521,0,0,0,1
2261,336.0,0,0,1,1
2262,84.0,0,1,0,1
2263,55.15,0,0,0,0
2264,0.0,1,0,0,0
2265,0.0,1,0,0,0
2266,0.0,1,0,0,1
2267,239.0,0,0,1,1
2268,84.0,0,1,0,1
2269,69.0,0,1,0,0
2270,0.0,1,0,0,0
2271,0.0,1,0,0,0
2272,86.0,0,1,0,1
2273,0.0,1,0,0,1
2274,70.304,0,1,0,0
2275,56.952,0,0,0,0
2276,0.0,1,0,0,1
2277,68.0,0,0,0,0
2278,58.966,0,0,0,0
2279,64.148,0,0,0,0
2280,55.398,0,0,0,0
2281,136.0,0,0,1,1
2282,406.0,0,0,1,1
2283,386.0,0,0,1,1
2284,55.151,0,0,0,1
2285,0.0,1,0,0,0
2286,0.0,1,0,0,1
2287,269.0,0,0,1,0
2288,469.0,0,0,1,1
2289,60.408,0,0,0,1
2290,0.0,1,0,0,1
2291,162.0,0,0,1,1
2292,66.158,0,0,0,1
2293,91.0,0,1,0,0
2294,212.0,0,0,1,1
2295,63.98,0,0,0,1
2296,79.0,0,1,0,0
2297,148.0,0,0,1,1
2298,73.0,0,1,0,1
2299,336.0,0,0,1,1
2300,0.0,1,0,0,1
2301,76.0,0,1,0,0
2302,79.0,0,1,0,0
2303,93.0,0,1,0,0
2304,82.0,0,1,0,1
2305,237.0,0,0,1,1
2306,170.0,0,0,1,1
2307,402.0,0,0,1,1
2308,0.0,1,0,0,1
2309,91.0,0,1,0,0
2310,66.189,0,0,0,0
2311,68.552,0,1,0,0
2312,74.0,0,1,0,1
2313,278.0,0,0,1,1
2314,0.0,1,0,0,1
2315,148.0,0,0,1,1
2316,87.0,0,1,0,0
2317,0.0,1,0,0,1
2318,97.0,0,0,1,1
2319,55.26,0,0,0,0
2320,57.754,0,0,0,1
2321,392.0,0,0,1,1
2322,75.0,0,1,0,1
2323,0.0,1,0,0,1
2324,73.0,0,1,0,1
2325,470.0,0,0,1,1
2326,61.93,0,0,0,1
2327,57.094,0,0,0,1
2328,379.0,0,0,1,1
2329,0.0,1,0,0,1
2330,231.0,0,0,1,1
2331,196.0,0,0,1,0
2332,59.556,0,0,0,0
2333,0.0,1,0,0,1
2334,74.0,0,1,0,0
2335,74.772,0,1,0,0
2336,60.654,0,0,0,0
2337,0.0,1,0,0,0
2338,0.0,1,0,0,0
2339,0.0,1,0,0,0
2340,71.0,0,1,0,1
2341,458.0,0,0,1,1
2342,62.003,0,0,0,1
2343,0.0,1,0,0,1
2344,59.28,0,0,0,0
2345,87.0,0,1,0,0
2346,60.936,0,0,0,0
2347,55.265,0,0,0,0
2348,84.0,0,1,0,0
2349,0.0,1,0,0,1
2350,59.212,0,0,0,0
2351,62.334,0,0,0,1
2352,189.0,0,0,1,1
2353,74.0,0,1,0,1
2354,270.0,0,0,1,1
2355,183.0,0,0,1,0
2356,0.0,1,0,0,1
2357,375.0,0,0,1,1
2358,71.0,0,1,0,1
2359,60.828,0,0,0,0
2360,78.0,0,1,0,0
2361,0.0,1,0,0,1
2362,219.0,0,0,1,1
2363,70.0,0,1,0,1
2364,56.511,0,0,0,0
2365,78.0,0,1,0,0
2366,59.316,0,0,0,1
2367,448.0,0,0,1,1
2368,66.543,0,0,0,1
2369,0.0,1,0,0,1
2370,297.0,0,0,1,1
2371,54.484,0,0,0,1
2372,382.0,0,0,1,1
2373,71.0,0,1,0,1
2374,190.0,0,0,1,0
2375,331.0,0,0,1,1
2376,54.813,0,0,0,1
2377,80.0,0,1,0,1
2378,394.0,0,0,1,1
2379,0.0,1,0,0,1
2380,91.0,0,1,0,0
2381,82.0,0,1,0,0
2382,64.264,0,0,0,0
2383,58.248,0,0,0,0
2384,0.0,1,0,0,1
2385,63.259,0,0,0,0
2386,84.0,0,1,0,0
2387,79.0,0,1,0,0
2388,0.0,1,0,0,1
2389,56.517,0,0,0,0
2390,59.235,0,0,0,0
2391,56.5,0,0,0,0
2392,56.582,0,0,0,0
2393,0.0,1,0,0,0
2394,59.598,0,0,0,1
2395,347.0,0,0,1,1
2396,60.28,0,0,0,1
2397,89.0,0,1,0,0
2398,90.0,0,1,0,0
2399,78.617,0,1,0,1
2400,439.0,0,0,1,1
2401,59.463,0,0,0,1
2402,427.0,0,0,1,1
2403,58.401,0,0,0,1
2404,60.044,0,0,0,0
2405,79.0,0,1,0,0
2406,85.0,0,1,0,0
2407,161.0,0,0,1,1
2408,57.795,0,0,0,0
2409,59.812,0,0,0,1
2410,459.0,0,0,1,1
2411,272.0,0,0,1,0
2412,80.0,0,1,0,1
2413,406.0,0,0,1,1
2414,90.0,0,1,0,1
2415,56.958,0,0,0,0
2416,0.0,1,0,0,1
2417,85.0,0,1,0,1
2418,456.0,0,0,1,1
2419,54.694,0,0,0,1
2420,73.0,0,1,0,1
2421,326.0,0,0,1,1
2422,0.0,1,0,0,1
2423,79.0,0,1,0,0
2424,86.0,0,1,0,0
2425,204.0,0,0,1,1
2426,0.0,1,0,0,1
2427,55.746,0,0,0,0
2428,57.448,0,0,0,0
2429,56.112,0,0,0,0
2430,0.0,1,0,0,0
2431,61.39,0,0,0,0
2432,78.0,0,1,0,0
2433,0.0,1,0,0,1
2434,451.0,0,0,1,1
2435,331.0,0,0,1,1
2436,58.866,0,0,0,1
2437,57.982,0,0,0,0
2438,56.854,0,0,0,0
2439,96.0,0,0,1,0
2440,86.0,0,1,0,0
2441,58.791,0,0,0,0
2442,118.0,0,0,1,1
2443,0.0,1,0,0,0
2444,0.0,1,0,0,0
2445,78.0,0,1,0,0
2446,91.0,0,1,0,0
2447,62.048,0,0,0,0
2448,0.0,1,0,0,0
2449,0.0,1,0,0,0
2450,84.0,0,1,0,0
2451,55.023,0,0,0,0
2452,0.0,1,0,0,1
2453,84.0,0,1,0,1
2454,0.0,1,0,0,1
2455,148.0,0,0,1,1
2456,60.905,0,0,0,0
2457,63.155,0,0,0,0
2458,0.0,1,0,0,1
2459,62.013,0,0,0,1
2460,0.0,1,0,0,1
2461,256.0,0,0,1,1
2462,280.0,0,0,1,1
2463,74.0,0,1,0,1
2464,0.0,1,0,0,0
2465,0.0,1,0,0,0
2466,92.0,0,1,0,0
2467,176.0,0,0,1,1
2468,55.235,0,0,0,1
2469,70.0,0,1,0,0
2470,0.0,1,0,0,1
2471,58.503,0,0,0,0
2472,69.0,0,1,0,0
2473,93.0,0,1,0,0
2474,206.0,0,0,1,0
2475,323.0,0,0,1,1
2476,91.0,0,1,0,1
2477,88.0,0,1,0,0
2478,76.0,0,1,0,0
2479,0.0,1,0,0,1
2480,55.515,0,0,0,1
2481,380.0,0,0,1,1
2482,248.0,0,0,1,1
2483,258.0,0,0,1,1
2484,61.108,0,0,0,1
2485,59.724,0,0,0,1
2486,275.0,0,0,1,1
2487,82.0,0,1,0,1
2488,76.0,0,1,0,0
2489,86.0,0,1,0,0
2490,55.167,0,0,0,0
2491,77.0,0,1,0,0
2492,58.851,0,0,0,0
2493,0.0,1,0,0,0
2494,0.0,1,0,0,0
2495,0.0,1,0,0,1
2496,359.0,0,0,1,1
2497,0.0,1,0,0,1
2498,59.911,0,0,0,1
2499,280.0,0,0,1,1
2500,75.0,0,1,0,1
2501,89.0,0,1,0,0
2502,0.0,1,0,0,1
2503,80.0,0,1,0,1
2504,0.0,1,0,0,0
2505,0.0,1,0,0,0
2506,56.149,0,0,0,0
2507,74.0,0,1,0,0
2508,74.0,0,1,0,0
2509,71.0,0,1,0,0
2510,82.0,0,1,0,0
2511,87.448,0,1,0,0
2512,63.729,0,0,0,0
2513,57.335,0,0,0,0
2514,56.081,0,0,0,0
2515,79.0,0,1,0,0
2516,79.415,0,1,0,1
2517,239.833,0,0,1,1
2518,54.615,0,0,0,1
2519,57.329,0,0,0,0
2520,58.723,0,0,0,1
2521,269.0,0,0,1,1
2522,0.0,1,0,0,1
2523,56.772,0,0,0,0
2524,73.0,0,1,0,0
2525,76.0,0,1,0,0
2526,70.0,0,1,0,0
2527,0.0,1,0,0,0
2528,0.0,1,0,0,1
2529,287.542,0,0,1,1
2530,0.0,1,0,0,1
2531,75.0,0,1,0,1
2532,0.0,1,0,0,1
2533,292.0,0,0,1,1
2534,66.855,0,0,0,1
2535,0.0,1,0,0,1
2536,66.297,0,0,0,1
2537,289.0,0,0,1,1
2538,93.0,0,1,0,0
2539,0.0,1,0,0,1
2540,80.0,0,1,0,0
2541,112.0,0,0,1,1
2542,0.0,1,0,0,0
2543,0.0,1,0,0,0
2544,57.003,0,0,0,0
2545,0.0,1,0,0,0
2546,58.885,0,0,0,0
2547,155.0,0,0,1,1
2548,57.602,0,0,0,0
2549,74.0,0,1,0,1
2550,374.0,0,0,1,1
2551,79.0,0,1,0,1
2552,0.0,1,0,0,1
2553,58.299,0,0,0,0
2554,0.0,1,0,0,0
2555,0.0,1,0,0,0
2556,55.693,0,0,0,0
2557,54.621,0,0,0,0
2558,55.559,0,0,0,1
2559,343.0,0,0,1,1
2560,58.032,0,0,0,1
2561,70.0,0,1,0,0
2562,93.0,0,1,0,1
2563,469.0,0,0,1,1
2564,0.0,1,0,0,1
2565,55.438,0,0,0,1
2566,297.0,0,0,1,1
2567,55.377,0,0,0,1
2568,336.0,0,0,1,1
2569,0.0,1,0,0,1
2570,0.0,1,0,0,0
2571,0.0,1,0,0,0
2572,82.0,0,1,0,1
2573,425.0,0,0,1,1
2574,56.544,0,0,0,1
2575,0.0,1,0,0,0
2576,0.0,1,0,0,0
2577,87.0,0,1,0,1
2578,419.0,0,0,1,1
2579,345.0,0,0,1,1
2580,59.425,0,0,0,1
2581,77.0,0,1,0,0
2582,0.0,1,0,0,1
2583,69.0,0,1,0,0
2584,55.389,0,0,0,0
2585,60.399,0,0,0,0
2586,91.0,0,1,0,0
2587,61.342,0,0,0,0
2588,80.0,0,1,0,0
2589,0.0,1,0,0,1
2590,92.0,0,1,0,0
2591,74.0,0,1,0,0
2592,75.0,0,1,0,0
2593,56.961,0,0,0,0
2594,90.0,0,1,0,1
2595,333.0,0,0,1,1
2596,78.0,0,1,0,1
2597,215.0,0,0,1,1
2598,0.0,1,0,0,1
2599,71.0,0,1,0,0
2600,142.0,0,0,1,1
2601,0.0,1,0,0,1
2602,0.0,1,0,0,1
2603,397.0,0,0,1,1
2604,208.0,0,0,1,0
2605,62.044,0,0,0,1
2606,436.0,0,0,1,1
2607,62.181,0,0,0,1
2608,0.0,1,0,0,0
2609,0.0,1,0,0,0
2610,0.0,1,0,0,0
2611,62.435,0,0,0,0
2612,78.0,0,1,0,0
2613,74.0,0,1,0,1
2614,312.0,0,0,1,1
2615,170.0,0,0,1,0
2616,0.0,1,0,0,1
2617,86.0,0,1,0,0
2618,54.927,0,0,0,0
2619,84.0,0,1,0,0
2620,93.0,0,1,0,0
2621,56.283,0,0,0,0
2622,60.671,0,0,0,0
2623,56.507,0,0,0,0
2624,92.0,0,1,0,0
2625,217.0,0,0,1,1
2626,89.0,0,1,0,0
2627,80.0,0,1,0,0
2628,0.0,1,0,0,1
2629,79.0,0,1,0,0
2630,61.613,0,0,0,0
2631,0.0,1,0,0,1
2632,420.0,0,0,1,1
2633,94.0,0,1,0,1
2634,0.0,1,0,0,1
2635,68.0,0,0,0,0
2636,59.353,0,0,0,1
2637,337.0,0,0,1,1
2638,0.0,1,0,0,1
2639,0.0,1,0,0,0
2640,0.0,1,0,0,0
2641,90.0,0,1,0,0
2642,60.546,0,0,0,0
2643,60.247,0,0,0,0
2644,81.0,0,1,0,1
2645,344.0,0,0,1,1
2646,82.0,0,1,0,1
2647,157.0,0,0,1,1
2648,392.0,0,0,1,1
2649,56.158,0,0,0,1
2650,91.0,0,1,0,0
2651,55.669,0,0,0,1
2652,390.0,0,0,1,1
2653,0.0,1,0,0,1
2654,0.0,1,0,0,0
2655,62.984,0,0,0,0
2656,62.147,0,0,0,1
2657,208.0,0,0,1,0
2658,388.0,0,0,1,1
2659,0.0,1,0,0,1
2660,68.0,0,0,0,0
2661,134.0,0,0,1,0
2662,266.0,0,0,1,1
2663,91.0,0,1,0,1
2664,69.0,0,1,0,0
2665,57.102,0,0,0,0
2666,0.0,1,0,0,0
2667,58.416,0,0,0,0
2668,69.0,0,1,0,0
2669,0.0,1,0,0,1
2670,181.0,0,0,1,1
2671,82.0,0,1,0,0
2672,55.815,0,0,0,0
2673,0.0,1,0,0,0
2674,55.443,0,0,0,1
2675,234.0,0,0,1,1
2676,0.0,1,0,0,1
2677,71.858,0,1,0,0
2678,164.0,0,0,1,1
2679,76.0,0,1,0,1
2680,192.0,0,0,1,1
2681,90.0,0,1,0,0
2682,57.605,0,0,0,0
2683,56.618,0,0,0,1
