,time,rtt,id
630,630,0.0,630
917,917,0.0,917
2293,2293,34.723,2293
1637,1637,31.401,1637
1575,1575,189.0,1575
1931,1931,205.0,1931
1995,1995,27.121,1995
606,606,57.0,606
1589,1589,36.0,1589
1648,1648,35.935,1648
833,833,33.516999999999996,833
1777,1777,47.0,1777
1262,1262,28.28,1262
2098,2098,0.0,2098
1003,1003,239.0,1003
866,866,30.058000000000003,866
1423,1423,40.0,1423
1265,1265,91.0,1265
2074,2074,28.621,2074
2449,2449,0.0,2449
1455,1455,0.0,1455
1231,1231,36.124,1231
862,862,0.0,862
1573,1573,44.0,1573
2684,2684,0.0,2684
808,808,0.0,808
1510,1510,28.881999999999998,1510
1124,1124,0.0,1124
1723,1723,0.0,1723
666,666,30.749000000000002,666
1631,1631,26.658,1631
2612,2612,135.0,2612
1206,1206,176.0,1206
2722,2722,29.177,2722
747,747,194.0,747
2334,2334,0.0,2334
2203,2203,41.0,2203
1642,1642,0.0,1642
875,875,0.0,875
2665,2665,35.0,2665
1837,1837,44.0,1837
1392,1392,36.0,1392
869,869,69.0,869
868,868,46.0,868
651,651,36.0,651
2300,2300,42.0,2300
1602,1602,0.0,1602
1804,1804,27.737,1804
1086,1086,27.735,1086
1733,1733,133.0,1733
1968,1968,34.0,1968
960,960,31.199,960
2325,2325,197.0,2325
1516,1516,65.0,1516
2387,2387,0.0,2387
1754,1754,30.776,1754
673,673,0.0,673
1731,1731,30.767,1731
1900,1900,30.449,1900
2339,2339,72.0,2339
934,934,38.483000000000004,934
956,956,0.0,956
936,936,185.0,936
532,532,36.0,532
838,838,34.0,838
1619,1619,45.625,1619
2414,2414,45.0,2414
2495,2495,0.0,2495
1814,1814,0.0,1814
771,771,0.0,771
1812,1812,49.0,1812
1013,1013,177.0,1013
1505,1505,0.0,1505
1301,1301,31.368000000000002,1301
2094,2094,68.0,2094
2435,2435,32.467,2435
2221,2221,37.0,2221
1315,1315,36.0,1315
2577,2577,216.0,2577
1168,1168,34.113,1168
2417,2417,31.296,2417
2165,2165,34.224000000000004,2165
844,844,0.0,844
1043,1043,40.0,1043
2134,2134,165.0,2134
1908,1908,44.0,1908
1062,1062,0.0,1062
784,784,140.0,784
2106,2106,206.0,2106
1358,1358,0.0,1358
1324,1324,37.0,1324
2129,2129,0.0,2129
1999,1999,120.0,1999
1350,1350,221.0,1350
1934,1934,43.0,1934
1420,1420,47.0,1420
2616,2616,0.0,2616
1381,1381,213.0,1381
911,911,48.0,911
2662,2662,32.954,2662
2260,2260,31.204,2260
1378,1378,43.0,1378
1143,1143,225.0,1143
639,639,0.0,639
2500,2500,30.551,2500
2081,2081,218.0,2081
589,589,62.0,589
740,740,37.0,740
1134,1134,44.0,1134
1636,1636,27.941,1636
2725,2725,0.0,2725
2150,2150,34.196999999999996,2150
1342,1342,36.0,1342
2723,2723,30.905,2723
2467,2467,28.037,2467
2456,2456,204.0,2456
2377,2377,27.439,2377
1337,1337,30.706,1337
2357,2357,0.0,2357
1590,1590,38.562,1590
544,544,210.0,544
741,741,36.0,741
2259,2259,193.0,2259
1574,1574,93.0,1574
2419,2419,32.095,2419
2043,2043,44.0,2043
1980,1980,34.501999999999995,1980
1579,1579,0.0,1579
1118,1118,0.0,1118
2319,2319,124.0,2319
1090,1090,0.0,1090
669,669,29.592,669
2672,2672,0.0,2672
1152,1152,0.0,1152
2608,2608,47.0,2608
2504,2504,27.33,2504
852,852,31.509,852
576,576,179.0,576
2680,2680,0.0,2680
2681,2681,43.0,2681
1577,1577,0.0,1577
2023,2023,49.0,2023
2618,2618,28.750999999999998,2618
1297,1297,0.0,1297
534,534,0.0,534
1317,1317,47.0,1317
1677,1677,199.0,1677
585,585,0.0,585
1874,1874,43.0,1874
755,755,37.0,755
2008,2008,163.984,2008
2111,2111,198.0,2111
2097,2097,46.0,2097
2731,2731,99.0,2731
1267,1267,0.0,1267
2020,2020,200.0,2020
1699,1699,0.0,1699
1652,1652,35.086,1652
1240,1240,69.0,1240
2406,2406,131.0,2406
2442,2442,0.0,2442
1724,1724,0.0,1724
2022,2022,34.0,2022
1941,1941,241.0,1941
1568,1568,42.143,1568
1870,1870,0.0,1870
2464,2464,41.0,2464
2227,2227,31.83,2227
1122,1122,0.0,1122
1287,1287,0.0,1287
610,610,39.0,610
725,725,27.691,725
2440,2440,44.0,2440
1939,1939,0.0,1939
801,801,35.0,801
2324,2324,45.0,2324
873,873,46.0,873
1419,1419,248.0,1419
2061,2061,51.0,2061
1742,1742,198.0,1742
1375,1375,121.0,1375
517,517,0.0,517
1923,1923,35.979,1923
1308,1308,30.389,1308
2564,2564,150.0,2564
1624,1624,187.153,1624
1254,1254,28.945999999999998,1254
2423,2423,41.082,2423
2242,2242,0.0,2242
2206,2206,30.835,2206
594,594,33.95,594
836,836,0.0,836
992,992,94.0,992
613,613,36.0,613
2640,2640,42.0,2640
1064,1064,219.0,1064
2584,2584,0.0,2584
1678,1678,162.0,1678
1209,1209,43.0,1209
2056,2056,0.0,2056
914,914,40.0,914
1909,1909,49.0,1909
1300,1300,40.0,1300
2431,2431,33.661,2431
2657,2657,0.0,2657
1258,1258,238.0,1258
2103,2103,27.184,2103
2664,2664,217.0,2664
928,928,38.0,928
1789,1789,42.0,1789
557,557,141.0,557
2735,2735,0.0,2735
1438,1438,30.954,1438
1045,1045,29.388,1045
730,730,0.0,730
1309,1309,39.0,1309
1490,1490,156.0,1490
2237,2237,47.0,2237
829,829,92.0,829
641,641,238.0,641
938,938,154.0,938
2730,2730,0.0,2730
1509,1509,0.0,1509
2124,2124,68.0,2124
1228,1228,89.0,1228
885,885,33.679,885
1482,1482,60.0,1482
944,944,84.0,944
1169,1169,46.0,1169
2554,2554,37.0,2554
675,675,41.521,675
1848,1848,0.0,1848
2249,2249,28.354,2249
855,855,32.942,855
2037,2037,136.0,2037
2653,2653,42.0,2653
1123,1123,41.0,1123
2182,2182,27.12,2182
1437,1437,0.0,1437
1189,1189,176.61599999999999,1189
1306,1306,126.0,1306
1055,1055,204.0,1055
2108,2108,29.111,2108
763,763,46.0,763
2488,2488,28.059,2488
1408,1408,0.0,1408
2383,2383,40.077,2383
2174,2174,0.0,2174
2710,2710,42.0,2710
1249,1249,0.0,1249
2283,2283,52.0,2283
1144,1144,38.0,1144
812,812,37.0,812
974,974,40.0,974
1037,1037,0.0,1037
1491,1491,125.0,1491
665,665,0.0,665
1174,1174,0.0,1174
2380,2380,30.628,2380
1137,1137,239.0,1137
1946,1946,0.0,1946
1929,1929,74.042,1929
1010,1010,46.0,1010
851,851,86.0,851
558,558,129.0,558
2635,2635,28.593000000000004,2635
1705,1705,31.453000000000003,1705
1921,1921,0.0,1921
1670,1670,0.0,1670
1138,1138,61.0,1138
2503,2503,242.0,2503
2463,2463,41.0,2463
744,744,35.438,744
1657,1657,37.0,1657
1270,1270,31.709,1270
1993,1993,42.0,1993
2633,2633,40.0,2633
2064,2064,0.0,2064
2155,2155,96.0,2155
799,799,41.0,799
1210,1210,0.0,1210
2507,2507,34.0,2507
1629,1629,45.0,1629
1114,1114,28.219,1114
2175,2175,248.0,2175
1987,1987,45.0,1987
1765,1765,56.0,1765
831,831,179.0,831
1450,1450,35.615,1450
1376,1376,225.0,1376
2595,2595,48.0,2595
2288,2288,49.0,2288
1883,1883,44.0,1883
2302,2302,92.0,2302
1331,1331,174.0,1331
2613,2613,0.0,2613
2568,2568,205.0,2568
2337,2337,225.0,2337
1659,1659,32.62,1659
2600,2600,38.327,2600
2257,2257,40.0,2257
535,535,31.544,535
1695,1695,28.484,1695
1758,1758,29.383000000000003,1758
2096,2096,35.0,2096
2370,2370,34.0,2370
2598,2598,0.0,2598
993,993,205.0,993
2418,2418,0.0,2418
1299,1299,204.0,1299
1547,1547,28.500999999999998,1547
2569,2569,0.0,2569
595,595,241.0,595
692,692,0.0,692
1338,1338,44.0,1338
1529,1529,232.0,1529
1488,1488,36.027,1488
2655,2655,222.0,2655
1924,1924,0.0,1924
1671,1671,234.0,1671
1379,1379,34.0,1379
2347,2347,0.0,2347
2306,2306,47.0,2306
1226,1226,30.598000000000003,1226
2687,2687,29.086,2687
949,949,38.0,949
2472,2472,37.834,2472
1890,1890,135.0,1890
748,748,31.002,748
1769,1769,0.0,1769
2570,2570,232.0,2570
1493,1493,124.0,1493
522,522,49.0,522
1281,1281,0.0,1281
1425,1425,0.0,1425
1093,1093,0.0,1093
2679,2679,33.479,2679
915,915,0.0,915
2516,2516,0.0,2516
1180,1180,69.0,1180
847,847,27.679000000000002,847
1197,1197,0.0,1197
1549,1549,49.0,1549
1692,1692,29.058000000000003,1692
1332,1332,39.0,1332
637,637,36.0,637
1689,1689,176.171,1689
2223,2223,41.0,2223
2015,2015,75.0,2015
2143,2143,0.0,2143
903,903,39.0,903
1078,1078,41.582,1078
1035,1035,0.0,1035
2271,2271,217.0,2271
1414,1414,35.82,1414
2157,2157,49.0,2157
1456,1456,48.0,1456
1142,1142,237.0,1142
979,979,196.0,979
945,945,122.0,945
1219,1219,0.0,1219
599,599,103.0,599
1832,1832,0.0,1832
931,931,117.0,931
2670,2670,169.0,2670
2576,2576,203.0,2576
721,721,27.414,721
756,756,31.078000000000003,756
1858,1858,28.684,1858
1672,1672,28.65,1672
1323,1323,0.0,1323
1586,1586,34.0,1586
1051,1051,0.0,1051
1296,1296,0.0,1296
504,504,195.0,504
2448,2448,74.0,2448
1321,1321,159.0,1321
1592,1592,76.0,1592
1492,1492,43.0,1492
2525,2525,69.0,2525
1479,1479,0.0,1479
1803,1803,168.0,1803
1182,1182,0.0,1182
1991,1991,32.984,1991
1632,1632,28.296999999999997,1632
2499,2499,38.0,2499
2062,2062,165.0,2062
1500,1500,39.0,1500
1024,1024,0.0,1024
1801,1801,31.308000000000003,1801
698,698,0.0,698
1916,1916,43.0,1916
2487,2487,27.518,2487
1593,1593,0.0,1593
1910,1910,45.0,1910
2555,2555,40.305,2555
826,826,149.0,826
2340,2340,29.363000000000003,2340
1427,1427,0.0,1427
2136,2136,0.0,2136
757,757,37.0,757
1021,1021,171.0,1021
1015,1015,29.397,1015
2482,2482,0.0,2482
2689,2689,197.0,2689
621,621,0.0,621
1453,1453,26.74,1453
1713,1713,216.0,1713
2078,2078,51.0,2078
2395,2395,39.0,2395
2361,2361,37.0,2361
1647,1647,141.0,1647
2009,2009,28.743000000000002,2009
1514,1514,28.575,1514
1353,1353,225.0,1353
1829,1829,74.282,1829
1077,1077,39.733000000000004,1077
2733,2733,26.724,2733
2502,2502,147.0,2502
513,513,187.0,513
1452,1452,27.365,1452
1969,1969,0.0,1969
620,620,32.214,620
1952,1952,175.076,1952
1584,1584,49.0,1584
2476,2476,31.378,2476
1798,1798,100.0,1798
2105,2105,46.0,2105
2634,2634,0.0,2634
573,573,32.415,573
2604,2604,0.0,2604
2331,2331,116.0,2331
2342,2342,32.205999999999996,2342
1796,1796,27.528000000000002,1796
994,994,0.0,994
2669,2669,32.445,2669
571,571,36.0,571
1203,1203,160.0,1203
1871,1871,28.987,1871
1260,1260,28.166,1260
1328,1328,169.0,1328
2408,2408,41.0,2408
583,583,89.0,583
531,531,34.0,531
2245,2245,37.0,2245
1181,1181,43.0,1181
511,511,30.754,511
775,775,37.0,775
2694,2694,0.0,2694
717,717,247.0,717
1875,1875,0.0,1875
2505,2505,213.0,2505
2040,2040,0.0,2040
1831,1831,30.19,1831
1525,1525,113.0,1525
2358,2358,237.0,2358
1863,1863,46.0,1863
1643,1643,200.0,1643
1761,1761,121.0,1761
1170,1170,0.0,1170
2481,2481,196.0,2481
859,859,0.0,859
803,803,39.0,803
828,828,0.0,828
1721,1721,252.101,1721
1295,1295,42.836999999999996,1295
611,611,38.0,611
2290,2290,0.0,2290
2172,2172,61.0,2172
2140,2140,43.0,2140
728,728,43.0,728
943,943,46.0,943
2275,2275,93.0,2275
1696,1696,39.0,1696
1820,1820,0.0,1820
1101,1101,156.0,1101
1036,1036,30.529,1036
1880,1880,177.0,1880
2682,2682,105.0,2682
805,805,35.0,805
2430,2430,35.04,2430
772,772,49.0,772
2267,2267,211.0,2267
1786,1786,118.0,1786
2046,2046,242.0,2046
1523,1523,218.0,1523
738,738,49.0,738
1278,1278,199.0,1278
2596,2596,30.116999999999997,2596
506,506,202.0,506
1132,1132,36.0,1132
1380,1380,39.0,1380
2139,2139,120.0,2139
1020,1020,226.0,1020
2709,2709,37.0,2709
1396,1396,47.0,1396
1004,1004,109.0,1004
1244,1244,0.0,1244
1902,1902,0.0,1902
1155,1155,0.0,1155
1511,1511,202.0,1511
918,918,0.0,918
912,912,29.458000000000002,912
2007,2007,137.32,2007
2455,2455,28.724,2455
1243,1243,170.0,1243
1428,1428,0.0,1428
1116,1116,0.0,1116
647,647,37.0,647
1467,1467,225.0,1467
2567,2567,47.0,2567
1897,1897,0.0,1897
727,727,0.0,727
1044,1044,0.0,1044
985,985,0.0,985
2301,2301,0.0,2301
890,890,49.0,890
1415,1415,188.0,1415
560,560,29.44,560
2509,2509,0.0,2509
1454,1454,26.589000000000002,1454
935,935,85.0,935
876,876,0.0,876
848,848,86.0,848
1499,1499,0.0,1499
802,802,0.0,802
1611,1611,0.0,1611
1316,1316,39.0,1316
2460,2460,26.998,2460
533,533,0.0,533
2316,2316,28.46,2316
2530,2530,35.0,2530
2597,2597,28.318,2597
696,696,0.0,696
1027,1027,38.0,1027
2563,2563,39.0,2563
540,540,0.0,540
563,563,74.0,563
1352,1352,217.0,1352
2413,2413,26.658,2413
793,793,33.012,793
2688,2688,222.0,2688
1881,1881,129.0,1881
1698,1698,48.0,1698
913,913,0.0,913
2524,2524,150.0,2524
1385,1385,0.0,1385
1294,1294,0.0,1294
1885,1885,201.0,1885
2552,2552,42.0,2552
2371,2371,51.0,2371
1434,1434,40.0,1434
2432,2432,34.523,2432
2114,2114,0.0,2114
2243,2243,0.0,2243
1052,1052,166.0,1052
2441,2441,212.0,2441
2641,2641,37.0,2641
2070,2070,151.0,2070
1039,1039,100.0,1039
633,633,34.872,633
2036,2036,0.0,2036
1996,1996,30.471,1996
2059,2059,0.0,2059
1171,1171,33.489000000000004,1171
1861,1861,46.0,1861
2289,2289,143.0,2289
2170,2170,33.429,2170
572,572,0.0,572
1369,1369,37.0,1369
2057,2057,28.176,2057
2079,2079,27.669,2079
2291,2291,41.0,2291
987,987,28.465999999999998,987
749,749,34.781,749
1531,1531,43.0,1531
1649,1649,59.0,1649
1824,1824,45.0,1824
1615,1615,138.342,1615
1714,1714,28.078000000000003,1714
1887,1887,43.0,1887
786,786,0.0,786
2055,2055,129.0,2055
646,646,88.58200000000001,646
1040,1040,167.0,1040
2341,2341,0.0,2341
1440,1440,108.0,1440
2156,2156,42.0,2156
1088,1088,48.0,1088
1473,1473,0.0,1473
1616,1616,126.0,1616
701,701,132.0,701
2683,2683,97.0,2683
1250,1250,27.811999999999998,1250
627,627,35.0,627
2362,2362,0.0,2362
660,660,0.0,660
2309,2309,234.0,2309
1852,1852,38.0,1852
1876,1876,0.0,1876
1779,1779,61.0,1779
1272,1272,139.0,1272
622,622,183.0,622
670,670,0.0,670
1594,1594,27.665,1594
1131,1131,227.0,1131
1873,1873,0.0,1873
2396,2396,0.0,2396
2192,2192,44.0,2192
1214,1214,0.0,1214
1495,1495,26.498,1495
1620,1620,118.0,1620
880,880,37.0,880
1451,1451,0.0,1451
2211,2211,49.0,2211
2159,2159,31.534000000000002,2159
1578,1578,73.0,1578
787,787,156.0,787
1503,1503,31.874000000000002,1503
2713,2713,140.0,2713
2021,2021,26.429000000000002,2021
625,625,31.689,625
1617,1617,40.0,1617
2486,2486,0.0,2486
1063,1063,35.0,1063
1920,1920,37.0,1920
942,942,0.0,942
2060,2060,122.0,2060
2469,2469,46.0,2469
2496,2496,0.0,2496
1691,1691,37.431999999999995,1691
643,643,34.227,643
2497,2497,237.0,2497
1391,1391,39.0,1391
853,853,126.0,853
715,715,41.0,715
958,958,37.522,958
1726,1726,0.0,1726
1560,1560,36.719,1560
2410,2410,67.0,2410
2194,2194,36.433,2194
785,785,235.0,785
1025,1025,30.206,1025
888,888,26.403000000000002,888
1448,1448,173.0,1448
830,830,37.358000000000004,830
2244,2244,159.0,2244
1429,1429,44.0,1429
1684,1684,29.337,1684
926,926,0.0,926
1919,1919,0.0,1919
2675,2675,0.0,2675
790,790,73.0,790
2363,2363,35.0,2363
1413,1413,0.0,1413
2266,2266,59.0,2266
2065,2065,33.018,2065
2359,2359,48.0,2359
777,777,54.0,777
1466,1466,43.398,1466
2615,2615,37.0,2615
1421,1421,37.0,1421
1925,1925,0.0,1925
1872,1872,0.0,1872
2278,2278,86.0,2278
2606,2606,215.0,2606
2315,2315,0.0,2315
2173,2173,28.996,2173
1285,1285,37.734,1285
1730,1730,45.0,1730
2160,2160,36.0,2160
2250,2250,0.0,2250
794,794,159.0,794
2702,2702,43.0,2702
1175,1175,0.0,1175
2696,2696,230.0,2696
2321,2321,78.0,2321
2138,2138,27.43,2138
2673,2673,28.009,2673
1089,1089,35.786,1089
1815,1815,37.0,1815
1430,1430,43.0,1430
2471,2471,64.0,2471
705,705,55.424,705
2028,2028,186.0,2028
1512,1512,47.0,1512
2692,2692,37.0,2692
1148,1148,48.0,1148
2125,2125,38.0,2125
628,628,0.0,628
2225,2225,42.0,2225
898,898,186.0,898
2728,2728,44.0,2728
2042,2042,39.0,2042
894,894,191.0,894
2161,2161,46.0,2161
2651,2651,136.0,2651
2189,2189,27.278000000000002,2189
1563,1563,51.0,1563
707,707,30.86,707
920,920,39.0,920
2263,2263,120.0,2263
2084,2084,29.935,2084
1313,1313,178.0,1313
1095,1095,40.0,1095
1756,1756,28.838,1756
946,946,0.0,946
1236,1236,105.0,1236
612,612,31.006999999999998,612
1360,1360,0.0,1360
1850,1850,51.0,1850
1018,1018,213.0,1018
1400,1400,46.0,1400
2736,2736,28.221,2736
1936,1936,47.0,1936
1204,1204,137.0,1204
2622,2622,37.0,2622
2132,2132,49.0,2132
1409,1409,0.0,1409
2556,2556,77.0,2556
1351,1351,105.0,1351
1839,1839,47.0,1839
764,764,127.0,764
1582,1582,35.0,1582
923,923,28.408,923
2024,2024,80.925,2024
837,837,29.096,837
817,817,0.0,817
782,782,0.0,782
1790,1790,0.0,1790
1962,1962,36.0,1962
2256,2256,35.188,2256
2490,2490,0.0,2490
704,704,155.0,704
1970,1970,49.0,1970
1718,1718,0.0,1718
2236,2236,29.772,2236
2127,2127,92.0,2127
600,600,30.75,600
604,604,115.0,604
2559,2559,211.0,2559
2659,2659,30.968000000000004,2659
1167,1167,212.0,1167
2578,2578,36.474000000000004,2578
593,593,38.0,593
1903,1903,29.971999999999998,1903
1967,1967,35.525,1967
2587,2587,49.0,2587
2510,2510,28.221999999999998,2510
2119,2119,29.932,2119
2484,2484,62.0,2484
882,882,27.823,882
2519,2519,29.717,2519
1746,1746,0.0,1746
1943,1943,38.0,1943
1282,1282,115.0,1282
2444,2444,27.554000000000002,2444
1022,1022,102.0,1022
1564,1564,33.315,1564
1333,1333,0.0,1333
2113,2113,166.0,2113
1150,1150,67.0,1150
1348,1348,132.0,1348
1305,1305,42.0,1305
2697,2697,0.0,2697
2400,2400,34.783,2400
750,750,30.163,750
1983,1983,41.56,1983
691,691,226.0,691
2547,2547,35.0,2547
1517,1517,0.0,1517
2533,2533,46.0,2533
811,811,163.0,811
1133,1133,0.0,1133
761,761,0.0,761
1960,1960,35.991,1960
1389,1389,0.0,1389
581,581,0.0,581
1561,1561,121.0,1561
952,952,194.0,952
2412,2412,27.414,2412
1661,1661,0.0,1661
1140,1140,184.78099999999998,1140
567,567,30.842,567
1034,1034,0.0,1034
1005,1005,0.0,1005
1105,1105,220.0,1105
1635,1635,0.0,1635
538,538,29.203000000000003,538
2240,2240,0.0,2240
1481,1481,28.616,1481
1030,1030,46.0,1030
2285,2285,38.0,2285
1303,1303,108.0,1303
1795,1795,34.0,1795
2521,2521,37.0,2521
561,561,0.0,561
1412,1412,37.047,1412
706,706,35.0,706
1225,1225,29.258000000000003,1225
529,529,36.0,529
1533,1533,36.0,1533
1679,1679,0.0,1679
1588,1588,0.0,1588
1023,1023,143.0,1023
1638,1638,44.0,1638
2416,2416,78.0,2416
2378,2378,36.0,2378
1587,1587,46.0,1587
1275,1275,42.0,1275
2439,2439,0.0,2439
1242,1242,40.0,1242
900,900,40.0,900
1476,1476,27.436,1476
1539,1539,30.538,1539
556,556,46.0,556
2459,2459,39.0,2459
1891,1891,36.0,1891
2548,2548,204.0,2548
2014,2014,146.0,2014
1515,1515,46.0,1515
1947,1947,46.0,1947
2591,2591,205.81,2591
1612,1612,174.0,1612
2328,2328,0.0,2328
505,505,34.0,505
1688,1688,207.0,1688
2077,2077,0.0,2077
2726,2726,35.312,2726
539,539,248.0,539
1130,1130,127.0,1130
2233,2233,0.0,2233
1279,1279,33.069,1279
1628,1628,67.0,1628
1791,1791,27.589000000000002,1791
2382,2382,215.0,2382
1092,1092,40.0,1092
2251,2251,43.0,2251
2004,2004,26.521,2004
1110,1110,44.0,1110
2367,2367,49.0,2367
1372,1372,96.0,1372
2671,2671,0.0,2671
2207,2207,202.0,2207
2462,2462,0.0,2462
1771,1771,46.0,1771
1264,1264,45.0,1264
2391,2391,0.0,2391
2678,2678,32.244,2678
2520,2520,37.649,2520
980,980,36.845,980
2617,2617,37.327,2617
2298,2298,0.0,2298
2176,2176,0.0,2176
1945,1945,31.71,1945
655,655,31.898000000000003,655
2093,2093,0.0,2093
1606,1606,0.0,1606
2110,2110,29.088,2110
1368,1368,48.0,1368
1990,1990,41.0,1990
2512,2512,40.0,2512
1768,1768,191.0,1768
967,967,0.0,967
1126,1126,0.0,1126
1405,1405,35.0,1405
1554,1554,32.159,1554
972,972,110.0,972
671,671,48.0,671
1462,1462,220.0,1462
1038,1038,0.0,1038
804,804,88.0,804
1853,1853,105.0,1853
1478,1478,134.0,1478
2212,2212,31.511999999999997,2212
1402,1402,0.0,1402
2475,2475,54.0,2475
2429,2429,0.0,2429
1319,1319,0.0,1319
2017,2017,0.0,2017
1472,1472,28.194000000000003,1472
2248,2248,37.0,2248
1817,1817,31.969,1817
1618,1618,34.718,1618
822,822,31.57,822
1212,1212,197.0,1212
1935,1935,0.0,1935
2318,2318,117.0,2318
1256,1256,30.051,1256
1518,1518,0.0,1518
1797,1797,0.0,1797
2707,2707,39.0,2707
2660,2660,31.64,2660
783,783,38.0,783
631,631,29.883000000000003,631
2594,2594,0.0,2594
2663,2663,39.0,2663
501,501,0.0,501
1418,1418,49.0,1418
1382,1382,161.0,1382
1370,1370,38.696999999999996,1370
2200,2200,125.0,2200
1417,1417,41.0,1417
840,840,32.783,840
2716,2716,93.0,2716
2052,2052,168.0,2052
1576,1576,35.74,1576
2631,2631,30.879,2631
1033,1033,116.0,1033
2073,2073,180.0,2073
908,908,28.588,908
1813,1813,61.0,1813
961,961,29.596,961
676,676,0.0,676
901,901,0.0,901
507,507,0.0,507
2603,2603,0.0,2603
1569,1569,38.0,1569
835,835,0.0,835
2514,2514,46.0,2514
2366,2366,0.0,2366
2304,2304,37.0,2304
1235,1235,122.0,1235
1465,1465,36.858000000000004,1465
1109,1109,0.0,1109
1702,1702,43.0,1702
1728,1728,0.0,1728
1217,1217,36.0,1217
1104,1104,210.0,1104
1238,1238,0.0,1238
1106,1106,27.67,1106
2168,2168,0.0,2168
699,699,32.317,699
1650,1650,81.0,1650
1345,1345,0.0,1345
2402,2402,0.0,2402
1844,1844,161.0,1844
509,509,0.0,509
1344,1344,0.0,1344
1447,1447,37.0,1447
1764,1764,248.0,1764
927,927,45.0,927
2001,2001,171.0,2001
1956,1956,45.0,1956
1540,1540,32.876,1540
2644,2644,0.0,2644
1966,1966,74.0,1966
1738,1738,167.0,1738
1366,1366,28.059,1366
2453,2453,0.0,2453
2427,2427,30.802,2427
615,615,0.0,615
2374,2374,47.0,2374
508,508,39.0,508
1591,1591,28.747,1591
1406,1406,49.0,1406
1743,1743,57.0,1743
1160,1160,0.0,1160
1865,1865,45.0,1865
1940,1940,227.0,1940
551,551,29.121,551
1128,1128,39.0,1128
2188,2188,34.0,2188
842,842,75.0,842
1098,1098,81.0,1098
2148,2148,27.28,2148
1312,1312,48.0,1312
1580,1580,33.624,1580
1974,1974,0.0,1974
860,860,114.0,860
2575,2575,200.0,2575
1085,1085,62.0,1085
2394,2394,0.0,2394
910,910,154.0,910
685,685,0.0,685
1459,1459,227.0,1459
686,686,35.556,686
1009,1009,31.98,1009
2508,2508,27.372,2508
1091,1091,30.287,1091
1683,1683,222.0,1683
1519,1519,37.0,1519
1283,1283,41.0,1283
1651,1651,0.0,1651
2229,2229,151.0,2229
1906,1906,0.0,1906
2080,2080,124.0,2080
1156,1156,185.02900000000002,1156
1489,1489,0.0,1489
512,512,40.0,512
2095,2095,31.323,2095
745,745,32.852,745
2389,2389,185.764,2389
1506,1506,29.844,1506
2039,2039,151.467,2039
797,797,32.836,797
1097,1097,0.0,1097
767,767,29.944000000000003,767
2118,2118,38.37,2118
1058,1058,31.072,1058
2310,2310,0.0,2310
2083,2083,0.0,2083
857,857,214.0,857
998,998,0.0,998
759,759,64.0,759
839,839,44.0,839
1548,1548,32.5,1548
609,609,141.0,609
1127,1127,210.0,1127
1811,1811,0.0,1811
2247,2247,0.0,2247
565,565,29.421,565
2018,2018,238.0,2018
950,950,0.0,950
2515,2515,39.0,2515
1770,1770,168.0,1770
762,762,0.0,762
2117,2117,170.0,2117
2135,2135,29.019000000000002,2135
1802,1802,31.349,1802
2451,2451,0.0,2451
788,788,36.177,788
2411,2411,35.0,2411
1329,1329,31.03,1329
2141,2141,36.0,2141
2205,2205,224.0,2205
548,548,31.455,548
739,739,207.0,739
953,953,35.424,953
2527,2527,0.0,2527
2292,2292,105.0,2292
1404,1404,40.0,1404
667,667,212.0,667
982,982,36.938,982
2639,2639,0.0,2639
2573,2573,39.009,2573
1655,1655,37.964,1655
2169,2169,0.0,2169
1012,1012,142.0,1012
1949,1949,39.0,1949
2209,2209,0.0,2209
2426,2426,47.0,2426
2016,2016,29.053,2016
2045,2045,43.0,2045
1081,1081,193.0,1081
1292,1292,47.0,1292
2397,2397,96.0,2397
1475,1475,27.904,1475
957,957,38.0,957
1700,1700,0.0,1700
1307,1307,0.0,1307
2470,2470,40.0,2470
1541,1541,27.723000000000003,1541
1763,1763,70.907,1763
2701,2701,0.0,2701
1191,1191,49.0,1191
1794,1794,180.0,1794
2537,2537,0.0,2537
2674,2674,157.0,2674
919,919,60.0,919
626,626,40.0,626
1838,1838,0.0,1838
2438,2438,35.817,2438
2727,2727,198.0,2727
1322,1322,0.0,1322
1401,1401,0.0,1401
1975,1975,35.0,1975
921,921,30.324,921
1687,1687,37.0,1687
1145,1145,34.760999999999996,1145
996,996,0.0,996
2721,2721,43.0,2721
807,807,32.097,807
1112,1112,0.0,1112
2624,2624,236.0,2624
2355,2355,0.0,2355
687,687,0.0,687
2461,2461,35.379,2461
1879,1879,37.0,1879
2498,2498,28.789,2498
1979,1979,215.0,1979
1681,1681,35.0,1681
1014,1014,0.0,1014
1477,1477,36.0,1477
1744,1744,230.0,1744
1571,1571,0.0,1571
841,841,0.0,841
1532,1532,43.0,1532
689,689,30.514,689
2686,2686,0.0,2686
1800,1800,0.0,1800
2479,2479,46.0,2479
700,700,48.0,700
2054,2054,230.0,2054
1663,1663,108.0,1663
2230,2230,89.0,2230
1895,1895,0.0,1895
638,638,31.99,638
519,519,246.0,519
778,778,246.0,778
694,694,49.0,694
2369,2369,28.201999999999998,2369
2270,2270,56.0,2270
1183,1183,0.0,1183
1056,1056,0.0,1056
2013,2013,0.0,2013
1011,1011,31.633000000000003,1011
1998,1998,87.0,1998
1445,1445,216.0,1445
2204,2204,38.0,2204
2539,2539,36.0,2539
1199,1199,27.585,1199
1241,1241,46.0,1241
1740,1740,80.0,1740
2447,2447,28.491,2447
991,991,37.103,991
1468,1468,37.0,1468
596,596,37.288000000000004,596
1536,1536,46.0,1536
1737,1737,29.447,1737
1694,1694,31.074,1694
703,703,207.0,703
1822,1822,75.0,1822
1774,1774,124.0,1774
1927,1927,213.60299999999998,1927
658,658,195.0,658
526,526,35.758,526
2195,2195,93.0,2195
645,645,31.353,645
1868,1868,31.248,1868
2187,2187,28.923000000000002,2187
570,570,27.869,570
657,657,0.0,657
818,818,0.0,818
1222,1222,33.492,1222
1645,1645,0.0,1645
1833,1833,31.365,1833
825,825,32.032,825
976,976,0.0,976
1538,1538,30.498,1538
536,536,192.0,536
892,892,169.0,892
1755,1755,0.0,1755
564,564,138.0,564
1213,1213,148.0,1213
2137,2137,84.0,2137
891,891,33.746,891
537,537,0.0,537
2642,2642,0.0,2642
752,752,216.0,752
2126,2126,0.0,2126
2226,2226,46.0,2226
2549,2549,37.0,2549
695,695,0.0,695
2364,2364,42.0,2364
1546,1546,0.0,1546
1544,1544,43.0,1544
575,575,40.0,575
2164,2164,36.277,2164
1139,1139,33.283,1139
2693,2693,28.59,2693
2385,2385,36.378,2385
1343,1343,0.0,1343
1552,1552,127.0,1552
1944,1944,241.0,1944
2602,2602,34.0,2602
1597,1597,0.0,1597
1847,1847,43.0,1847
1107,1107,0.0,1107
742,742,0.0,742
653,653,103.0,653
2186,2186,47.0,2186
2050,2050,30.212,2050
1233,1233,31.947,1233
709,709,31.113000000000003,709
1208,1208,46.0,1208
1179,1179,26.839000000000002,1179
1855,1855,26.313000000000002,1855
2625,2625,0.0,2625
1154,1154,0.0,1154
1985,1985,202.233,1985
586,586,42.0,586
2473,2473,155.0,2473
2049,2049,43.0,2049
552,552,48.0,552
1502,1502,142.0,1502
1390,1390,0.0,1390
1071,1071,0.0,1071
2522,2522,40.0,2522
893,893,102.0,893
1277,1277,33.62,1277
1601,1601,0.0,1601
2398,2398,42.0,2398
937,937,245.0,937
1374,1374,31.695999999999998,1374
1892,1892,27.435,1892
2354,2354,109.0,2354
1276,1276,0.0,1276
1639,1639,49.0,1639
1103,1103,28.441,1103
2586,2586,0.0,2586
849,849,28.49,849
2465,2465,193.0,2465
2714,2714,48.0,2714
729,729,0.0,729
1866,1866,171.0,1866
973,973,216.0,973
2307,2307,35.71,2307
550,550,0.0,550
1458,1458,100.0,1458
1341,1341,227.0,1341
1266,1266,48.0,1266
1163,1163,36.0,1163
1194,1194,42.618,1194
1513,1513,39.0,1513
2228,2228,141.0,2228
1193,1193,40.0,1193
736,736,33.72,736
1625,1625,184.0,1625
1346,1346,47.0,1346
549,549,43.0,549
1496,1496,0.0,1496
598,598,34.907,598
682,682,43.0,682
2703,2703,0.0,2703
2493,2493,31.143,2493
1997,1997,0.0,1997
1176,1176,29.954,1176
2181,2181,29.837,2181
1494,1494,37.0,1494
1766,1766,0.0,1766
2611,2611,0.0,2611
916,916,133.0,916
2149,2149,32.26,2149
649,649,100.0,649
879,879,30.055,879
2538,2538,32.006,2538
1129,1129,83.0,1129
1248,1248,0.0,1248
2115,2115,34.0,2115
1397,1397,133.0,1397
1537,1537,44.0,1537
1069,1069,36.0,1069
795,795,47.0,795
1377,1377,43.0,1377
1697,1697,39.87,1697
1439,1439,29.182,1439
2153,2153,0.0,2153
579,579,105.0,579
2491,2491,0.0,2491
1147,1147,42.0,1147
668,668,0.0,668
2344,2344,49.0,2344
554,554,0.0,554
2299,2299,97.0,2299
821,821,34.0,821
2272,2272,36.0,2272
2384,2384,47.0,2384
1032,1032,45.0,1032
2351,2351,26.386999999999997,2351
1976,1976,140.0,1976
1857,1857,0.0,1857
1002,1002,192.0,1002
2436,2436,37.0,2436
2128,2128,221.0,2128
2457,2457,0.0,2457
1220,1220,193.0,1220
723,723,0.0,723
2133,2133,37.678000000000004,2133
1335,1335,44.0,1335
2297,2297,192.0,2297
644,644,0.0,644
1896,1896,48.0,1896
1028,1028,0.0,1028
2317,2317,30.566,2317
796,796,42.0,796
2185,2185,28.6,2185
1166,1166,40.0,1166
559,559,30.144000000000002,559
1675,1675,29.834,1675
2494,2494,27.654,2494
774,774,0.0,774
1483,1483,242.0,1483
1325,1325,57.0,1325
827,827,0.0,827
1709,1709,39.0,1709
2562,2562,0.0,2562
1094,1094,29.349,1094
1320,1320,33.292,1320
2646,2646,28.386999999999997,2646
1046,1046,28.636,1046
1778,1778,0.0,1778
591,591,138.0,591
1273,1273,35.273,1273
2142,2142,0.0,2142
2147,2147,29.003,2147
2645,2645,206.0,2645
1567,1567,0.0,1567
1498,1498,47.0,1498
1701,1701,134.0,1701
1192,1192,73.0,1192
679,679,29.759,679
1894,1894,131.0,1894
1760,1760,48.0,1760
2724,2724,26.688000000000002,2724
2323,2323,0.0,2323
1347,1347,30.015,1347
1393,1393,46.0,1393
1862,1862,27.426,1862
1083,1083,27.124000000000002,1083
2375,2375,28.912,2375
2583,2583,0.0,2583
2350,2350,86.0,2350
2261,2261,0.0,2261
1229,1229,0.0,1229
2409,2409,68.0,2409
1877,1877,40.0,1877
2063,2063,35.0,2063
2000,2000,37.0,2000
751,751,0.0,751
2637,2637,27.89,2637
1198,1198,29.313000000000002,1198
1386,1386,0.0,1386
2558,2558,40.0,2558
1251,1251,228.0,1251
1972,1972,37.0,1972
1195,1195,28.391,1195
1915,1915,113.0,1915
1201,1201,28.521,1201
773,773,41.0,773
1808,1808,28.92,1808
883,883,156.0,883
2579,2579,123.0,2579
1059,1059,222.0,1059
733,733,245.0,733
1787,1787,240.0,1787
1247,1247,65.0,1247
1356,1356,39.0,1356
2238,2238,77.0,2238
2348,2348,26.41,2348
568,568,37.0,568
1823,1823,209.0,1823
975,975,27.533,975
2178,2178,0.0,2178
2708,2708,0.0,2708
789,789,43.0,789
1784,1784,27.525,1784
2280,2280,29.593000000000004,2280
1026,1026,249.0,1026
1773,1773,0.0,1773
1660,1660,30.85,1660
1708,1708,44.0,1708
1739,1739,47.0,1739
1741,1741,35.383,1741
1565,1565,91.0,1565
1884,1884,91.0,1884
2421,2421,48.0,2421
553,553,36.875,553
1031,1031,0.0,1031
1605,1605,30.986,1605
1792,1792,32.129,1792
1460,1460,0.0,1460
2621,2621,0.0,2621
2551,2551,0.0,2551
769,769,42.0,769
1775,1775,43.0,1775
2058,2058,30.954,2058
1120,1120,32.368,1120
1470,1470,28.463,1470
1497,1497,0.0,1497
2034,2034,220.0,2034
1753,1753,0.0,1753
1121,1121,0.0,1121
2717,2717,163.0,2717
731,731,30.381999999999998,731
951,951,0.0,951
753,753,26.561999999999998,753
629,629,0.0,629
652,652,32.066,652
1436,1436,0.0,1436
1971,1971,35.016999999999996,1971
2565,2565,166.0,2565
964,964,27.439,964
1785,1785,41.0,1785
1845,1845,27.653000000000002,1845
1826,1826,34.0,1826
1205,1205,73.926,1205
1598,1598,0.0,1598
1958,1958,0.0,1958
2269,2269,57.0,2269
1365,1365,30.434,1365
2425,2425,27.5,2425
809,809,172.0,809
1530,1530,32.475,1530
2092,2092,0.0,2092
1603,1603,49.0,1603
1507,1507,39.655,1507
2239,2239,130.0,2239
2090,2090,0.0,2090
2478,2478,0.0,2478
2234,2234,43.0,2234
1426,1426,0.0,1426
2643,2643,28.285999999999998,2643
2468,2468,0.0,2468
2352,2352,104.0,2352
1067,1067,137.0,1067
2123,2123,0.0,2123
1662,1662,27.595,1662
605,605,0.0,605
907,907,126.0,907
1856,1856,178.93599999999998,1856
574,574,118.0,574
588,588,0.0,588
800,800,0.0,800
1830,1830,0.0,1830
1215,1215,191.0,1215
1706,1706,0.0,1706
1057,1057,33.294000000000004,1057
1153,1153,34.0,1153
672,672,228.0,672
525,525,132.0,525
1762,1762,26.276999999999997,1762
713,713,46.0,713
2130,2130,0.0,2130
1388,1388,44.0,1388
981,981,0.0,981
2255,2255,47.0,2255
2666,2666,32.857,2666
2450,2450,32.059,2450
2647,2647,26.921999999999997,2647
1867,1867,38.0,1867
2372,2372,28.083000000000002,2372
2610,2610,36.0,2610
968,968,0.0,968
602,602,41.0,602
2571,2571,0.0,2571
1135,1135,105.0,1135
2393,2393,33.175,2393
634,634,0.0,634
899,899,247.0,899
2198,2198,46.0,2198
1017,1017,48.0,1017
1543,1543,217.0,1543
1747,1747,204.0,1747
1524,1524,34.0,1524
2099,2099,212.0,2099
2619,2619,37.0,2619
2658,2658,0.0,2658
978,978,0.0,978
1234,1234,34.451,1234
1060,1060,38.0,1060
2087,2087,212.0,2087
2544,2544,28.754,2544
791,791,0.0,791
1905,1905,32.143,1905
2222,2222,40.0,2222
597,597,63.0,597
1986,1986,97.0,1986
2066,2066,33.009,2066
555,555,34.0,555
2268,2268,0.0,2268
543,543,29.703000000000003,543
2540,2540,27.537,2540
2151,2151,217.0,2151
2381,2381,211.0,2381
2158,2158,32.428000000000004,2158
2072,2072,27.688000000000002,2072
1953,1953,250.0,1953
1446,1446,41.0,1446
518,518,46.0,518
1658,1658,39.066,1658
2546,2546,0.0,2546
1703,1703,213.0,1703
1361,1361,156.0,1361
1781,1781,0.0,1781
1200,1200,37.0,1200
2048,2048,34.0,2048
1981,1981,39.0,1981
780,780,32.751999999999995,780
2379,2379,136.0,2379
1534,1534,0.0,1534
1422,1422,0.0,1422
2333,2333,139.0,2333
1722,1722,29.675,1722
2729,2729,32.844,2729
1686,1686,0.0,1686
1978,1978,0.0,1978
2517,2517,120.0,2517
930,930,205.0,930
2690,2690,28.7,2690
1237,1237,41.0,1237
1562,1562,49.0,1562
1008,1008,0.0,1008
661,661,0.0,661
2654,2654,0.0,2654
1559,1559,75.0,1559
1526,1526,0.0,1526
932,932,32.632,932
1614,1614,35.604,1614
2452,2452,49.0,2452
2492,2492,164.0,2492
1828,1828,84.0,1828
1310,1310,38.0,1310
1776,1776,0.0,1776
1888,1888,38.959,1888
2483,2483,30.475,2483
2311,2311,33.648,2311
1111,1111,59.0,1111
1626,1626,42.0,1626
2219,2219,0.0,2219
2338,2338,35.0,2338
933,933,41.0,933
1117,1117,189.0,1117
601,601,0.0,601
1912,1912,53.0,1912
1609,1609,28.733,1609
1521,1521,34.0,1521
2069,2069,198.0,2069
1664,1664,32.156,1664
2532,2532,37.0,2532
711,711,47.0,711
2506,2506,88.0,2506
2254,2254,0.0,2254
1259,1259,41.0,1259
2346,2346,161.0,2346
2041,2041,27.543000000000003,2041
2116,2116,28.502,2116
2650,2650,100.0,2650
2399,2399,0.0,2399
2720,2720,36.0,2720
1049,1049,191.0,1049
2424,2424,45.0,2424
1433,1433,32.484,1433
1959,1959,32.345,1959
1463,1463,45.0,1463
1443,1443,103.0,1443
2572,2572,191.0,2572
2190,2190,38.0,2190
1042,1042,184.0,1042
582,582,32.098,582
1177,1177,0.0,1177
1207,1207,0.0,1207
2420,2420,36.0,2420
2053,2053,27.593000000000004,2053
1263,1263,28.299,1263
1570,1570,37.744,1570
2241,2241,37.0,2241
2376,2376,41.0,2376
2179,2179,89.0,2179
1634,1634,0.0,1634
806,806,44.0,806
1849,1849,29.833000000000002,1849
1933,1933,75.0,1933
1373,1373,190.0,1373
1992,1992,0.0,1992
1165,1165,45.0,1165
2051,2051,46.0,2051
1061,1061,30.861,1061
1715,1715,0.0,1715
1363,1363,39.0,1363
1984,1984,132.0,1984
1349,1349,45.0,1349
580,580,0.0,580
2535,2535,222.0,2535
516,516,169.0,516
677,677,29.988000000000003,677
2437,2437,91.0,2437
1054,1054,0.0,1054
884,884,83.0,884
1326,1326,35.0,1326
2368,2368,43.0,2368
2031,2031,174.0,2031
1982,1982,35.0,1982
971,971,112.0,971
1115,1115,0.0,1115
1288,1288,35.0,1288
2224,2224,0.0,2224
2294,2294,36.109,2294
1441,1441,0.0,1441
1767,1767,48.0,1767
924,924,168.0,924
2088,2088,0.0,2088
674,674,39.0,674
1084,1084,161.0,1084
2518,2518,0.0,2518
1668,1668,38.0,1668
1435,1435,31.03,1435
1444,1444,41.0,1444
1926,1926,0.0,1926
1227,1227,0.0,1227
1914,1914,144.0,1914
959,959,0.0,959
1314,1314,42.0,1314
1656,1656,0.0,1656
2700,2700,0.0,2700
962,962,0.0,962
965,965,26.686,965
1274,1274,42.0,1274
2282,2282,48.0,2282
2308,2308,0.0,2308
1748,1748,30.948,1748
1710,1710,38.0,1710
523,523,30.680999999999997,523
1065,1065,235.0,1065
1963,1963,92.0,1963
2002,2002,228.0,2002
1357,1357,223.0,1357
2089,2089,40.0,2089
1942,1942,49.0,1942
2032,2032,156.0,2032
1555,1555,0.0,1555
1860,1860,170.0,1860
2536,2536,93.0,2536
2193,2193,227.0,2193
693,693,31.505,693
1727,1727,37.0,1727
2215,2215,28.68,2215
2656,2656,0.0,2656
1522,1522,106.0,1522
2152,2152,72.0,2152
2401,2401,35.0,2401
2252,2252,0.0,2252
1173,1173,151.0,1173
1882,1882,31.496,1882
2592,2592,45.0,2592
2220,2220,177.0,2220
947,947,35.916,947
1340,1340,46.0,1340
1904,1904,112.0,1904
2737,2737,0.0,2737
2553,2553,32.893,2553
584,584,0.0,584
1075,1075,249.0,1075
2082,2082,104.0,2082
1100,1100,0.0,1100
1527,1527,41.0,1527
1221,1221,46.0,1221
1211,1211,59.0,1211
2343,2343,102.0,2343
678,678,45.0,678
1072,1072,0.0,1072
1149,1149,0.0,1149
1257,1257,29.034000000000002,1257
2029,2029,32.806999999999995,2029
1840,1840,0.0,1840
2477,2477,0.0,2477
814,814,121.0,814
1836,1836,118.0,1836
2433,2433,33.194,2433
1387,1387,30.973000000000003,1387
2580,2580,86.0,2580
1457,1457,0.0,1457
1783,1783,38.0,1783
2104,2104,29.78,2104
1474,1474,0.0,1474
2253,2253,44.382,2253
2101,2101,124.0,2101
845,845,28.247,845
904,904,99.0,904
2071,2071,184.0,2071
1159,1159,183.0,1159
1053,1053,228.0,1053
2627,2627,39.0,2627
2218,2218,28.236,2218
1050,1050,31.646,1050
1622,1622,41.0,1622
710,710,0.0,710
1819,1819,46.0,1819
2075,2075,29.533,2075
1432,1432,0.0,1432
2699,2699,31.961,2699
929,929,31.294,929
2313,2313,43.0,2313
1827,1827,238.0,1827
2638,2638,31.698,2638
2560,2560,189.0,2560
1932,1932,43.0,1932
1068,1068,156.0,1068
2445,2445,41.0,2445
1157,1157,27.674,1157
2033,2033,204.0,2033
2303,2303,41.0,2303
2120,2120,136.0,2120
664,664,27.498,664
1431,1431,36.0,1431
2732,2732,28.616999999999997,2732
843,843,156.0,843
1735,1735,0.0,1735
1842,1842,28.962,1842
2085,2085,28.069000000000003,2085
2388,2388,37.119,2388
2405,2405,28.563000000000002,2405
1073,1073,0.0,1073
1284,1284,49.0,1284
2312,2312,42.0,2312
515,515,0.0,515
1599,1599,41.0,1599
2489,2489,45.0,2489
832,832,41.0,832
712,712,44.0,712
865,865,34.0,865
2197,2197,40.0,2197
1816,1816,0.0,1816
939,939,180.0,939
2349,2349,0.0,2349
2006,2006,27.316,2006
546,546,0.0,546
2719,2719,27.309,2719
1654,1654,36.741,1654
1119,1119,29.811,1119
1398,1398,48.0,1398
2718,2718,28.408,2718
1253,1253,60.0,1253
636,636,0.0,636
940,940,97.0,940
650,650,31.541999999999998,650
2356,2356,46.0,2356
2415,2415,94.0,2415
1550,1550,29.289,1550
896,896,34.0,896
2322,2322,210.0,2322
1271,1271,28.559,1271
1666,1666,229.0,1666
925,925,0.0,925
872,872,0.0,872
969,969,242.0,969
2711,2711,188.0,2711
2523,2523,38.0,2523
2667,2667,32.739000000000004,2667
1901,1901,43.0,1901
846,846,31.656,846
854,854,32.283,854
1707,1707,0.0,1707
1074,1074,40.415,1074
1759,1759,0.0,1759
603,603,28.035,603
2630,2630,48.0,2630
1528,1528,34.614000000000004,1528
510,510,49.0,510
1411,1411,41.0,1411
1187,1187,0.0,1187
2274,2274,26.802,2274
2231,2231,27.851,2231
635,635,49.0,635
1889,1889,49.0,1889
2210,2210,130.0,2210
2121,2121,0.0,2121
1542,1542,27.680999999999997,1542
2213,2213,31.488000000000003,2213
1486,1486,45.0,1486
1610,1610,174.0,1610
541,541,28.423000000000002,541
2593,2593,0.0,2593
1608,1608,233.0,1608
1520,1520,226.0,1520
1261,1261,26.978,1261
1125,1125,38.265,1125
697,697,0.0,697
1108,1108,0.0,1108
616,616,0.0,616
2305,2305,27.706,2305
1355,1355,32.269,1355
990,990,0.0,990
1989,1989,34.0,1989
2542,2542,119.0,2542
871,871,110.0,871
2485,2485,231.0,2485
1799,1799,29.660999999999998,1799
1782,1782,135.0,1782
503,503,32.539,503
1245,1245,82.0,1245
1719,1719,113.0,1719
2030,2030,52.0,2030
2326,2326,38.0,2326
1600,1600,69.0,1600
2287,2287,62.0,2287
2086,2086,0.0,2086
746,746,179.0,746
1469,1469,0.0,1469
2404,2404,42.0,2404
2668,2668,34.0,2668
1898,1898,186.0,1898
1682,1682,90.0,1682
530,530,33.172,530
1757,1757,83.0,1757
779,779,35.085,779
2541,2541,30.389,2541
1164,1164,0.0,1164
1818,1818,42.0,1818
1223,1223,30.105999999999998,1223
