,time,rtt,id
1768,1768,34.525,1768
1383,1383,4035.0,1383
4040,4040,30.37,4040
3229,3229,3691.0,3229
2392,2392,36.895,2392
859,859,2630.0,859
2693,2693,832.0,2693
1553,1553,336.0,1553
1018,1018,33.325,1018
566,566,31.277,566
4081,4081,0.0,4081
2964,2964,33.861,2964
2663,2663,0.0,2663
2724,2724,34.413000000000004,2724
2708,2708,35.726,2708
3125,3125,8213.0,3125
2734,2734,33.547,2734
2137,2137,1423.0,2137
578,578,38.092,578
577,577,4677.0,577
3148,3148,36.583,3148
3286,3286,32.95,3286
1664,1664,45.22,1664
820,820,33.777,820
3630,3630,31.265,3630
948,948,34.806999999999995,948
3407,3407,5834.0,3407
3658,3658,30.867,3658
3423,3423,4134.0,3423
1029,1029,7648.0,1029
1041,1041,5197.0,1041
1479,1479,6019.0,1479
2192,2192,36.553,2192
3161,3161,0.0,3161
690,690,29.905,690
4179,4179,948.0,4179
2235,2235,570.0,2235
2165,2165,6631.0,2165
2462,2462,30.705,2462
3465,3465,325.0,3465
1535,1535,4169.0,1535
642,642,30.043000000000006,642
1584,1584,34.643,1584
906,906,30.077,906
2662,2662,34.297,2662
3496,3496,211.861,3496
2430,2430,29.991,2430
3481,3481,0.0,3481
1274,1274,31.267,1274
1676,1676,41.517,1676
3826,3826,31.12,3826
2962,2962,38.81,2962
3647,3647,5224.0,3647
2182,2182,35.48699999999999,2182
1928,1928,33.651,1928
1725,1725,4531.0,1725
1982,1982,32.212,1982
2919,2919,5363.0,2919
3599,3599,8393.0,3599
3216,3216,29.984,3216
964,964,30.585,964
1947,1947,7354.0,1947
2186,2186,39.043,2186
1409,1409,3724.0,1409
692,692,30.372,692
2608,2608,29.96,2608
1691,1691,6277.0,1691
2308,2308,31.877,2308
3900,3900,31.602,3900
1833,1833,1838.0,1833
2812,2812,31.526,2812
890,890,41.331,890
703,703,1434.0,703
500,500,35.98900000000001,500
1677,1677,1055.0,1677
1063,1063,3941.0,1063
2565,2565,8552.0,2565
1197,1197,3560.0,1197
2847,2847,7204.0,2847
2432,2432,30.506,2432
978,978,30.783,978
2515,2515,2357.0,2515
2887,2887,454.0,2887
910,910,34.417,910
905,905,7277.0,905
1658,1658,30.545,1658
2064,2064,29.426,2064
4193,4193,4245.0,4193
4194,4194,37.999,4194
2310,2310,35.845,2310
3634,3634,29.47,3634
3210,3210,184.91,3210
877,877,6694.0,877
3578,3578,29.603,3578
2073,2073,658.0,2073
2711,2711,4295.0,2711
1956,1956,31.754,1956
2466,2466,30.791,2466
3962,3962,37.031,3962
3691,3691,4108.0,3691
2643,2643,1844.0,2643
2290,2290,31.48,2290
1405,1405,6491.0,1405
4006,4006,31.824,4006
1988,1988,33.431,1988
928,928,33.858000000000004,928
4135,4135,4313.0,4135
3233,3233,2533.0,3233
2131,2131,7865.0,2131
2328,2328,32.009,2328
1174,1174,34.462,1174
3082,3082,30.609,3082
748,748,30.127,748
4147,4147,8432.0,4147
501,501,2410.0,501
3127,3127,3716.0,3127
3272,3272,37.629,3272
2535,2535,0.0,2535
3480,3480,29.692,3480
2298,2298,32.264,2298
1906,1906,39.31800000000001,1906
2509,2509,7230.0,2509
4027,4027,2178.0,4027
1900,1900,32.786,1900
533,533,0.0,533
4016,4016,34.583,4016
1419,1419,5575.0,1419
735,735,7393.0,735
1171,1171,7461.0,1171
589,589,2296.0,589
1628,1628,31.177,1628
1007,1007,1617.0,1007
529,529,3458.0,529
718,718,31.483,718
1907,1907,6448.0,1907
2365,2365,2319.0,2365
1657,1657,0.0,1657
1484,1484,30.482,1484
1376,1376,30.793000000000006,1376
1306,1306,31.661,1306
3513,3513,5093.0,3513
2637,2637,5791.0,2637
3551,3551,5393.0,3551
2850,2850,30.818,2850
2886,2886,211.175,2886
1255,1255,7975.0,1255
2710,2710,35.594,2710
1209,1209,5962.0,1209
3717,3717,2383.0,3717
3866,3866,29.883000000000006,3866
1488,1488,31.141,1488
3278,3278,30.646,3278
3583,3583,7349.0,3583
1067,1067,6678.0,1067
1260,1260,43.886,1260
791,791,1853.0,791
1511,1511,5832.0,1511
3055,3055,3712.0,3055
1240,1240,32.831,1240
2783,2783,4795.0,2783
2452,2452,34.024,2452
1696,1696,34.59,1696
3057,3057,419.0,3057
732,732,36.006,732
2395,2395,1059.0,2395
3464,3464,35.021,3464
3798,3798,37.085,3798
1606,1606,35.565,1606
1726,1726,39.976,1726
783,783,6561.0,783
863,863,1367.0,863
3568,3568,29.83,3568
3490,3490,214.414,3490
1837,1837,347.0,1837
3960,3960,38.416,3960
1830,1830,36.006,1830
2917,2917,1429.0,2917
1994,1994,33.654,1994
1352,1352,31.126,1352
3442,3442,33.196,3442
1659,1659,4716.0,1659
3580,3580,30.436,3580
3467,3467,1024.0,3467
2510,2510,32.939,2510
3736,3736,30.463,3736
2439,2439,5227.0,2439
3049,3049,3675.0,3049
547,547,2209.0,547
3532,3532,31.33,3532
3890,3890,32.0,3890
3633,3633,4854.0,3633
2979,2979,1403.0,2979
1446,1446,29.563,1446
3064,3064,34.037,3064
2443,2443,4919.0,2443
3677,3677,7623.0,3677
3262,3262,30.419,3262
2411,2411,6469.0,2411
2892,2892,32.499,2892
2620,2620,31.18,2620
3020,3020,198.769,3020
4162,4162,32.205,4162
3129,3129,1829.0,3129
4022,4022,34.369,4022
3696,3696,40.985,3696
3967,3967,3761.0,3967
1429,1429,7533.0,1429
2562,2562,30.291,2562
3808,3808,36.58,3808
3166,3166,40.674,3166
3404,3404,34.568000000000005,3404
1230,1230,35.346,1230
776,776,33.477,776
1885,1885,5402.0,1885
2993,2993,6479.0,2993
3644,3644,37.231,3644
1896,1896,34.07,1896
3031,3031,1704.0,3031
3304,3304,30.855,3304
3844,3844,29.483,3844
700,700,40.64,700
3600,3600,170.41400000000004,3600
3927,3927,1356.0,3927
822,822,34.651,822
4077,4077,4201.0,4077
3919,3919,0.0,3919
3290,3290,35.209,3290
1045,1045,1271.0,1045
2906,2906,37.974,2906
1182,1182,33.548,1182
2421,2421,5977.0,2421
4041,4041,1547.0,4041
1323,1323,1512.0,1323
3701,3701,4819.0,3701
861,861,5207.0,861
3338,3338,178.597,3338
2550,2550,30.313,2550
2459,2459,5438.0,2459
2626,2626,30.127,2626
868,868,33.672,868
3615,3615,0.0,3615
3928,3928,30.785,3928
2971,2971,4941.0,2971
2976,2976,29.446,2976
3371,3371,6965.0,3371
1933,1933,4090.0,1933
895,895,6629.0,895
2257,2257,4551.0,2257
3236,3236,33.864000000000004,3236
3063,3063,394.0,3063
3999,3999,7626.0,3999
3432,3432,36.564,3432
1786,1786,33.351,1786
2373,2373,6306.0,2373
3846,3846,30.739,3846
1194,1194,33.177,1194
3617,3617,3246.0,3617
3327,3327,5308.0,3327
2413,2413,4573.0,2413
2677,2677,5997.0,2677
3556,3556,30.776,3556
2827,2827,1489.0,2827
3804,3804,39.564,3804
950,950,33.754,950
3096,3096,29.535,3096
2875,2875,3855.0,2875
3642,3642,30.521,3642
3933,3933,0.0,3933
504,504,35.453,504
3225,3225,5457.0,3225
632,632,39.532,632
2230,2230,33.43,2230
2856,2856,29.669,2856
2096,2096,31.524,2096
1509,1509,7316.0,1509
3312,3312,29.652,3312
2507,2507,4563.0,2507
2838,2838,31.565,2838
3433,3433,4445.0,3433
1670,1670,35.48699999999999,1670
4186,4186,38.59,4186
1016,1016,34.177,1016
4090,4090,29.734,4090
2142,2142,29.901,2142
956,956,36.571,956
2816,2816,32.764,2816
4137,4137,7310.0,4137
3380,3380,29.247,3380
1126,1126,30.871,1126
3101,3101,6794.0,3101
1977,1977,4465.0,1977
4148,4148,31.434,4148
2043,2043,1245.0,2043
3429,3429,1006.0,3429
708,708,31.306,708
675,675,8171.0,675
751,751,0.0,751
3951,3951,1898.0,3951
1756,1756,37.179,1756
3249,3249,1007.0,3249
3343,3343,1826.0,3343
3022,3022,31.583,3022
2106,2106,34.642,2106
2187,2187,4404.0,2187
2524,2524,32.317,2524
1301,1301,4295.0,1301
3792,3792,29.559,3792
3671,3671,2598.0,3671
784,784,37.525,784
3122,3122,140.29,3122
520,520,33.235,520
3263,3263,0.0,3263
2263,2263,2928.0,2263
1891,1891,6246.0,1891
1736,1736,32.986999999999995,1736
3420,3420,32.77,3420
2704,2704,32.36,2704
4188,4188,44.834,4188
2366,2366,31.996,2366
3372,3372,34.422,3372
3199,3199,3926.0,3199
941,941,1641.0,941
2769,2769,4945.0,2769
2496,2496,33.397,2496
2595,2595,8219.0,2595
2855,2855,3868.0,2855
3086,3086,29.922,3086
897,897,2469.0,897
2179,2179,2620.0,2179
1583,1583,8486.0,1583
2039,2039,1683.0,2039
1996,1996,39.069,1996
2422,2422,29.888,2422
2276,2276,37.552,2276
1523,1523,7969.0,1523
2872,2872,39.01300000000001,2872
742,742,38.753,742
3138,3138,210.791,3138
1158,1158,30.918000000000006,1158
2572,2572,29.36,2572
1629,1629,3552.0,1629
3612,3612,30.558000000000003,3612
1877,1877,7697.0,1877
2092,2092,31.216,2092
2579,2579,2289.0,2579
2879,2879,956.0,2879
2736,2736,31.625,2736
2758,2758,33.738,2758
1395,1395,8038.0,1395
3238,3238,34.886,3238
3191,3191,5601.0,3191
3820,3820,29.479,3820
3507,3507,4142.0,3507
3303,3303,5787.0,3303
593,593,8376.0,593
2325,2325,4659.0,2325
3743,3743,3208.0,3743
571,571,8480.0,571
562,562,35.616,562
1864,1864,29.975,1864
1037,1037,8457.0,1037
4110,4110,29.48,4110
3834,3834,39.342,3834
2558,2558,32.098,2558
3248,3248,37.484,3248
1462,1462,30.623,1462
1575,1575,6077.0,1575
2062,2062,38.231,2062
1147,1147,4404.0,1147
2134,2134,29.598000000000006,2134
1212,1212,34.105,1212
977,977,519.0,977
2793,2793,0.0,2793
3588,3588,147.94,3588
2545,2545,1983.0,2545
2660,2660,32.871,2660
754,754,30.072,754
934,934,33.567,934
714,714,30.82,714
3953,3953,0.0,3953
3427,3427,4762.0,3427
1155,1155,3582.0,1155
1330,1330,31.146,1330
3790,3790,29.22,3790
1558,1558,32.405,1558
1307,1307,3571.0,1307
2818,2818,207.062,2818
2615,2615,344.0,2615
592,592,31.964,592
2782,2782,213.847,2782
1436,1436,33.753,1436
4044,4044,37.493,4044
1698,1698,37.931,1698
521,521,5370.0,521
1943,1943,8537.0,1943
3749,3749,0.0,3749
3330,3330,36.509,3330
1138,1138,34.283,1138
3978,3978,31.501,3978
2344,2344,29.671,2344
787,787,5603.0,787
3974,3974,31.406,3974
3740,3740,31.344,3740
2001,2001,0.0,2001
3257,3257,5302.0,3257
1082,1082,32.531,1082
3680,3680,34.607,3680
1094,1094,34.001,1094
1004,1004,33.659,1004
3140,3140,29.714,3140
1291,1291,4343.0,1291
3745,3745,4270.0,3745
2111,2111,7934.0,2111
2548,2548,30.077,2548
2688,2688,41.898,2688
641,641,4073.0,641
509,509,699.0,509
3707,3707,6115.0,3707
902,902,31.104,902
3923,3923,2115.0,3923
1619,1619,3146.0,1619
1930,1930,147.873,1930
659,659,0.0,659
2065,2065,8586.0,2065
2764,2764,35.616,2764
953,953,584.0,953
4132,4132,30.493,4132
2113,2113,2051.0,2113
2105,2105,4277.0,2105
3622,3622,30.553,3622
3171,3171,4659.0,3171
1124,1124,40.753,1124
1384,1384,33.104,1384
1648,1648,31.0,1648
3234,3234,30.268,3234
3463,3463,450.0,3463
1552,1552,33.687,1552
741,741,6267.0,741
2640,2640,32.864000000000004,2640
3742,3742,37.37300000000001,3742
1630,1630,36.853,1630
2278,2278,30.936,2278
3952,3952,30.668000000000006,3952
1382,1382,32.095,1382
2163,2163,7103.0,2163
2170,2170,29.256,2170
3543,3543,1631.0,3543
3848,3848,33.2,3848
3954,3954,31.986,3954
3708,3708,35.029,3708
3078,3078,30.186,3078
1987,1987,3205.0,1987
1872,1872,33.05,1872
2969,2969,0.0,2969
582,582,39.025,582
775,775,904.0,775
3718,3718,36.54,3718
604,604,40.66,604
3068,3068,31.009,3068
2723,2723,3248.0,2723
2905,2905,6303.0,2905
1501,1501,3160.0,1501
3460,3460,33.785,3460
2780,2780,29.609,2780
3351,3351,7334.0,3351
1749,1749,7227.0,1749
2044,2044,31.746,2044
1437,1437,689.0,1437
2737,2737,7192.0,2737
1123,1123,0.0,1123
4136,4136,29.607,4136
3814,3814,33.681999999999995,3814
4031,4031,6431.0,4031
974,974,31.482,974
1250,1250,35.392,1250
803,803,3196.0,803
2794,2794,35.934,2794
2564,2564,30.993,2564
4142,4142,36.149,4142
680,680,30.028,680
3378,3378,30.885,3378
2530,2530,44.797,2530
2602,2602,32.549,2602
1633,1633,5180.0,1633
2117,2117,0.0,2117
1341,1341,1459.0,1341
3241,3241,5267.0,3241
1019,1019,0.0,1019
4099,4099,8244.0,4099
2574,2574,34.618,2574
1724,1724,32.067,1724
1036,1036,32.005,1036
2037,2037,1058.0,2037
911,911,4377.0,911
1099,1099,0.0,1099
870,870,33.023,870
1920,1920,80.741,1920
989,989,3459.0,989
2598,2598,32.605,2598
3755,3755,5563.0,3755
3597,3597,4753.0,3597
3170,3170,229.389,3170
1557,1557,2239.0,1557
3368,3368,30.382,3368
3051,3051,2186.0,3051
2533,2533,7216.0,2533
1139,1139,2712.0,1139
1624,1624,32.22,1624
3624,3624,30.471,3624
772,772,37.416,772
2621,2621,3231.0,2621
3560,3560,30.525,3560
2304,2304,32.668,2304
3831,3831,903.0,3831
2056,2056,35.685,2056
1766,1766,37.991,1766
2336,2336,32.782,2336
4128,4128,29.523000000000003,4128
2909,2909,1367.0,2909
1680,1680,30.238000000000003,1680
3783,3783,5744.0,3783
3796,3796,30.1,3796
1427,1427,6033.0,1427
1505,1505,7156.0,1505
3045,3045,7246.0,3045
4032,4032,31.293000000000006,4032
2770,2770,31.836,2770
2656,2656,33.593,2656
4009,4009,4245.0,4009
1573,1573,244.0,1573
1186,1186,35.281,1186
3638,3638,31.138,3638
3899,3899,6727.0,3899
2414,2414,38.13800000000001,2414
3400,3400,40.751,3400
2241,2241,8149.0,2241
3222,3222,30.443,3222
2738,2738,29.986,2738
2045,2045,6889.0,2045
2000,2000,31.496,2000
852,852,36.954,852
983,983,1556.0,983
4119,4119,6357.0,4119
3095,3095,4367.0,3095
3479,3479,2082.0,3479
1660,1660,31.351,1660
931,931,8597.0,931
4180,4180,47.82100000000001,4180
1478,1478,29.224,1478
3350,3350,31.978,3350
630,630,37.149,630
702,702,39.343,702
867,867,1062.0,867
2380,2380,33.537,2380
1097,1097,6486.0,1097
2532,2532,31.887,2532
2281,2281,3480.0,2281
4171,4171,4956.0,4171
3676,3676,41.567,3676
3488,3488,35.13,3488
1641,1641,480.0,1641
3601,3601,8498.0,3601
717,717,3990.0,717
707,707,6980.0,707
2814,2814,31.422,2814
1971,1971,3260.0,1971
2868,2868,35.711,2868
3190,3190,30.485,3190
3466,3466,31.432,3466
1414,1414,38.75,1414
3431,3431,6107.0,3431
2425,2425,4512.0,2425
2516,2516,31.959,2516
1686,1686,31.177,1686
1801,1801,2648.0,1801
3197,3197,4997.0,3197
3641,3641,0.0,3641
3401,3401,1178.0,3401
3616,3616,37.947,3616
4109,4109,5140.0,4109
2428,2428,34.025,2428
506,506,35.001,506
1763,1763,5912.0,1763
2555,2555,386.0,2555
3988,3988,29.527,3988
2921,2921,7898.0,2921
4053,4053,4853.0,4053
3822,3822,33.552,3822
1870,1870,35.909,1870
2246,2246,32.4,2246
2493,2493,8408.0,2493
2236,2236,35.548,2236
558,558,34.406,558
3083,3083,508.0,3083
1957,1957,743.0,1957
3180,3180,29.703000000000007,3180
3981,3981,2547.0,3981
875,875,7296.0,875
2127,2127,0.0,2127
3606,3606,31.536,3606
3516,3516,29.667,3516
3495,3495,1820.0,3495
1102,1102,38.286,1102
1001,1001,619.0,1001
3512,3512,32.441,3512
1244,1244,30.16,1244
1671,1671,4198.0,1671
1148,1148,34.051,1148
619,619,6155.0,619
2199,2199,2626.0,2199
2154,2154,31.636,2154
3581,3581,3766.0,3581
3961,3961,4321.0,3961
876,876,33.647,876
3778,3778,38.596,3778
3300,3300,31.197,3300
2731,2731,3981.0,2731
1974,1974,36.314,1974
1665,1665,8107.0,1665
3359,3359,3578.0,3359
2920,2920,29.436,2920
1408,1408,36.985,1408
4130,4130,33.014,4130
1241,1241,0.0,1241
1293,1293,820.0,1293
3519,3519,4880.0,3519
2261,2261,713.0,2261
2773,2773,7878.0,2773
4010,4010,30.88,4010
568,568,34.581,568
1532,1532,34.376999999999995,1532
2624,2624,33.576,2624
3384,3384,32.372,3384
3398,3398,37.449,3398
3774,3774,33.385,3774
3902,3902,34.175,3902
811,811,0.0,811
819,819,7682.0,819
1711,1711,2300.0,1711
1456,1456,36.835,1456
3435,3435,2630.0,3435
2543,2543,4986.0,2543
2914,2914,36.843,2914
684,684,34.799,684
4191,4191,7117.0,4191
1593,1593,5304.0,1593
3893,3893,2558.0,3893
2209,2209,8003.0,2209
924,924,36.813,924
2148,2148,30.44,2148
1267,1267,87.0,1267
3552,3552,38.066,3552
2651,2651,1879.0,2651
1754,1754,30.924,1754
2449,2449,5692.0,2449
2722,2722,30.575,2722
1524,1524,29.536,1524
844,844,31.115,844
3052,3052,160.27200000000005,3052
1014,1014,32.248000000000005,1014
1362,1362,32.137,1362
2843,2843,3755.0,2843
833,833,6648.0,833
1471,1471,8387.0,1471
2670,2670,37.023,2670
3675,3675,1564.0,3675
1062,1062,30.888,1062
1743,1743,6166.0,1743
3621,3621,2963.0,3621
2661,2661,5234.0,2661
1922,1922,174.428,1922
4123,4123,839.0,4123
1578,1578,29.589,1578
1639,1639,4124.0,1639
2671,2671,173.0,2671
3441,3441,2319.0,3441
1765,1765,801.0,1765
958,958,37.174,958
979,979,6113.0,979
2923,2923,7184.0,2923
3417,3417,6793.0,3417
3185,3185,6259.0,3185
2486,2486,35.835,2486
1585,1585,3854.0,1585
2833,2833,479.0,2833
2568,2568,29.969,2568
1329,1329,6094.0,1329
4097,4097,6044.0,4097
716,716,32.834,716
2123,2123,3180.0,2123
1603,1603,6070.0,1603
1669,1669,3401.0,1669
1334,1334,37.38800000000001,1334
1317,1317,4638.0,1317
3872,3872,40.167,3872
3709,3709,7079.0,3709
1027,1027,0.0,1027
3093,3093,6700.0,3093
4184,4184,47.31100000000001,4184
1714,1714,29.668000000000006,1714
4012,4012,38.83,4012
3493,3493,3948.0,3493
3108,3108,48.51300000000001,3108
1246,1246,35.676,1246
1492,1492,29.31,1492
909,909,2316.0,909
1452,1452,35.18,1452
834,834,33.174,834
1678,1678,30.781,1678
2272,2272,30.19,2272
1090,1090,34.818000000000005,1090
3791,3791,1869.0,3791
1472,1472,36.109,1472
935,935,5171.0,935
3914,3914,31.218000000000004,3914
3574,3574,30.752,3574
3996,3996,31.008000000000006,3996
1525,1525,3735.0,1525
898,898,34.122,898
4154,4154,30.218000000000004,4154
545,545,1658.0,545
3637,3637,3832.0,3637
3881,3881,0.0,3881
2059,2059,3413.0,2059
621,621,1203.0,621
2361,2361,2811.0,2361
4001,4001,1834.0,4001
815,815,0.0,815
3565,3565,4279.0,3565
2297,2297,3110.0,2297
3260,3260,31.188,3260
3155,3155,5940.0,3155
1066,1066,35.869,1066
3021,3021,1669.0,3021
3394,3394,43.38,3394
4149,4149,6813.0,4149
2989,2989,3409.0,2989
2423,2423,3658.0,2423
3182,3182,31.65,3182
3418,3418,42.284,3418
2077,2077,0.0,2077
2012,2012,33.118,2012
3884,3884,34.901,3884
2040,2040,168.88099999999997,2040
3325,3325,4343.0,3325
2935,2935,7999.0,2935
1179,1179,8384.0,1179
3966,3966,34.133,3966
1597,1597,558.0,1597
1054,1054,37.437,1054
1184,1184,32.525,1184
2520,2520,36.37,2520
1909,1909,2537.0,1909
918,918,33.364000000000004,918
1262,1262,44.14100000000001,1262
1568,1568,30.426,1568
1181,1181,0.0,1181
1939,1939,7404.0,1939
1003,1003,8471.0,1003
595,595,6290.0,595
3025,3025,225.0,3025
2206,2206,35.626,2206
810,810,35.115,810
2052,2052,30.467,2052
1514,1514,31.367,1514
1742,1742,34.772,1742
1000,1000,33.364000000000004,1000
1859,1859,7027.0,1859
3570,3570,29.691,3570
1415,1415,6665.0,1415
3970,3970,30.96,3970
2732,2732,29.308000000000003,2732
3217,3217,3263.0,3217
2873,2873,7452.0,2873
2353,2353,8272.0,2353
1247,1247,0.0,1247
2129,2129,2625.0,2129
3666,3666,32.322,3666
1035,1035,6780.0,1035
4196,4196,31.206,4196
3264,3264,30.14,3264
3221,3221,2365.0,3221
4054,4054,37.343,4054
2863,2863,0.0,2863
726,726,32.711,726
3896,3896,30.344,3896
4182,4182,32.415,4182
3803,3803,8499.0,3803
2669,2669,7332.0,2669
2091,2091,1819.0,2091
3805,3805,5975.0,3805
3799,3799,0.0,3799
3393,3393,6411.0,3393
1508,1508,30.309,1508
1412,1412,36.378,1412
2867,2867,1176.0,2867
2609,2609,0.0,2609
1965,1965,7770.0,1965
770,770,37.349,770
4073,4073,391.0,4073
3938,3938,38.232,3938
2934,2934,38.306,2934
1280,1280,36.3,1280
2375,2375,3295.0,2375
617,617,8008.0,617
3018,3018,30.576,3018
3794,3794,30.614,3794
755,755,5839.0,755
4199,4199,7384.0,4199
3157,3157,4534.0,3157
1202,1202,32.864000000000004,1202
1170,1170,34.596,1170
3877,3877,5937.0,3877
766,766,36.794,766
3099,3099,2008.0,3099
1176,1176,40.53,1176
565,565,4383.0,565
1873,1873,0.0,1873
2679,2679,354.0,2679
960,960,33.643,960
4091,4091,6917.0,4091
2480,2480,33.598,2480
2205,2205,5904.0,2205
1695,1695,0.0,1695
2478,2478,34.512,2478
2124,2124,34.382,2124
3315,3315,5377.0,3315
1893,1893,3162.0,1893
3406,3406,95.671,3406
3274,3274,31.971,3274
3323,3323,8291.0,3323
4124,4124,30.255,4124
596,596,43.747,596
1968,1968,30.187,1968
2341,2341,0.0,2341
3813,3813,7450.0,3813
1621,1621,3150.0,1621
1218,1218,31.45,1218
1183,1183,910.0,1183
2586,2586,34.348,2586
3730,3730,35.258,3730
4098,4098,29.875,4098
3559,3559,7657.0,3559
3454,3454,167.825,3454
3667,3667,2573.0,3667
1481,1481,2095.0,1481
3941,3941,2095.0,3941
2132,2132,30.49,2132
2529,2529,0.0,2529
3232,3232,30.908,3232
2836,2836,29.424,2836
1592,1592,37.473,1592
4121,4121,6438.0,4121
1189,1189,5305.0,1189
1513,1513,5723.0,1513
3950,3950,29.912,3950
1165,1165,3734.0,1165
1450,1450,32.332,1450
887,887,7545.0,887
1178,1178,33.984,1178
2762,2762,31.68,2762
2393,2393,7266.0,2393
2673,2673,2228.0,2673
2504,2504,31.792,2504
997,997,8218.0,997
1741,1741,0.0,1741
683,683,8187.0,683
915,915,2933.0,915
637,637,0.0,637
1730,1730,32.593,1730
2938,2938,30.835,2938
828,828,30.996,828
4145,4145,2989.0,4145
3408,3408,31.433000000000003,3408
2288,2288,29.837,2288
2370,2370,34.334,2370
970,970,33.536,970
992,992,29.876,992
2582,2582,33.099000000000004,2582
2076,2076,33.225,2076
2570,2570,31.677,2570
2418,2418,36.743,2418
3428,3428,33.159,3428
821,821,3191.0,821
2980,2980,37.709,2980
3636,3636,34.13,3636
3471,3471,6911.0,3471
1690,1690,40.233,1690
3839,3839,5782.0,3839
4138,4138,29.261,4138
2016,2016,32.635,2016
1226,1226,37.496,1226
1337,1337,0.0,1337
2767,2767,0.0,2767
2666,2666,30.743,2666
2992,2992,32.986,2992
2233,2233,3837.0,2233
2521,2521,4850.0,2521
1890,1890,32.148,1890
3017,3017,1862.0,3017
1358,1358,33.779,1358
3054,3054,31.412,3054
2970,2970,30.525,2970
2025,2025,7529.0,2025
2791,2791,252.0,2791
3530,3530,34.861999999999995,3530
1290,1290,33.331,1290
2957,2957,0.0,2957
557,557,1134.0,557
3865,3865,6005.0,3865
2635,2635,6704.0,2635
3942,3942,34.642,3942
1315,1315,3672.0,1315
2260,2260,29.978,2260
3014,3014,31.194000000000006,3014
2680,2680,29.997,2680
3652,3652,31.115,3652
3439,3439,5184.0,3439
1278,1278,52.26,1278
2874,2874,43.719,2874
752,752,30.418000000000006,752
3337,3337,8193.0,3337
3873,3873,7646.0,3873
1788,1788,40.495,1788
2097,2097,3931.0,2097
2730,2730,31.688,2730
3852,3852,30.102,3852
3005,3005,7492.0,3005
4060,4060,29.927,4060
2757,2757,8451.0,2757
1798,1798,33.208,1798
1858,1858,29.345,1858
842,842,29.355,842
848,848,45.238,848
3912,3912,30.809,3912
3528,3528,29.704,3528
4078,4078,31.712,4078
823,823,5150.0,823
3177,3177,3631.0,3177
747,747,5697.0,747
4070,4070,29.809,4070
736,736,31.737,736
1188,1188,32.347,1188
524,524,33.964,524
1612,1612,103.33,1612
2221,2221,7890.0,2221
2944,2944,175.83599999999996,2944
2819,2819,3966.0,2819
3688,3688,37.244,3688
3983,3983,5040.0,3983
824,824,31.982,824
3259,3259,2278.0,3259
3629,3629,6402.0,3629
1372,1372,40.749,1372
3782,3782,45.062,3782
1224,1224,33.691,1224
4075,4075,6863.0,4075
3214,3214,29.951,3214
3362,3362,38.508,3362
3685,3685,1992.0,3685
1423,1423,4308.0,1423
3450,3450,30.183000000000003,3450
3276,3276,30.365,3276
2826,2826,39.891,2826
3909,3909,1071.0,3909
3575,3575,5056.0,3575
988,988,29.921,988
3369,3369,5226.0,3369
945,945,1360.0,945
3750,3750,33.539,3750
3994,3994,29.594,3994
1232,1232,29.694000000000006,1232
2789,2789,4289.0,2789
1878,1878,34.366,1878
3120,3120,30.98,3120
765,765,7024.0,765
4114,4114,38.222,4114
1810,1810,29.756,1810
1228,1228,32.846,1228
1052,1052,40.06800000000001,1052
1967,1967,6138.0,1967
4093,4093,2463.0,4093
1867,1867,1252.0,1867
3895,3895,1650.0,3895
2966,2966,204.232,2966
2180,2180,36.704,2180
2500,2500,32.43,2500
4181,4181,8361.0,4181
2301,2301,7385.0,2301
3702,3702,36.284,3702
1311,1311,3056.0,1311
3080,3080,31.314,3080
3943,3943,1707.0,3943
3903,3903,292.0,3903
3339,3339,6653.0,3339
3324,3324,35.396,3324
3112,3112,29.727,3112
2242,2242,30.186,2242
2398,2398,43.988,2398
2109,2109,1229.0,2109
761,761,7211.0,761
634,634,32.166,634
1410,1410,34.999,1410
1881,1881,458.0,1881
3514,3514,30.078000000000007,3514
3405,3405,1080.0,3405
2828,2828,29.55,2828
1096,1096,34.184,1096
3036,3036,29.608,3036
1297,1297,2302.0,1297
3958,3958,32.463,3958
2057,2057,4344.0,2057
2896,2896,30.37,2896
3901,3901,6911.0,3901
1213,1213,1520.0,1213
1237,1237,7847.0,1237
2861,2861,7854.0,2861
886,886,36.769,886
1516,1516,31.546,1516
4173,4173,8407.0,4173
3209,3209,5906.0,3209
3087,3087,8352.0,3087
1851,1851,7030.0,1851
1116,1116,34.464,1116
1951,1951,5866.0,1951
2259,2259,152.0,2259
1252,1252,32.003,1252
2243,2243,7865.0,2243
1279,1279,7154.0,1279
3399,3399,4311.0,3399
536,536,33.326,536
3906,3906,33.444,3906
3769,3769,3674.0,3769
3558,3558,33.245,3558
2342,2342,32.162,2342
2499,2499,3608.0,2499
1057,1057,0.0,1057
2345,2345,2176.0,2345
569,569,2091.0,569
758,758,32.395,758
3033,3033,6171.0,3033
3073,3073,6295.0,3073
2160,2160,30.274,2160
1281,1281,4107.0,1281
3446,3446,87.478,3446
1811,1811,2480.0,1811
2359,2359,8424.0,2359
737,737,0.0,737
3067,3067,4236.0,3067
1251,1251,937.0,1251
3905,3905,6347.0,3905
3672,3672,32.866,3672
3738,3738,37.94,3738
2813,2813,4279.0,2813
1487,1487,4382.0,1487
624,624,32.804,624
2544,2544,30.849,2544
588,588,30.172,588
2146,2146,31.126,2146
4050,4050,30.821,4050
3413,3413,0.0,3413
809,809,84.0,809
2687,2687,4317.0,2687
1080,1080,42.07899999999999,1080
1210,1210,35.352,1210
1913,1913,0.0,1913
2805,2805,5428.0,2805
1339,1339,6948.0,1339
2007,2007,752.0,2007
2194,2194,34.181999999999995,2194
3218,3218,29.889,3218
1697,1697,4757.0,1697
1473,1473,815.0,1473
2331,2331,5450.0,2331
2211,2211,6218.0,2211
1196,1196,32.2,1196
1647,1647,2368.0,1647
3767,3767,0.0,3767
1970,1970,34.37,1970
2247,2247,5324.0,2247
1646,1646,34.572,1646
1961,1961,4346.0,1961
2810,2810,32.212,2810
2951,2951,8600.0,2951
3993,3993,3654.0,3993
3077,3077,4136.0,3077
2603,2603,6609.0,2603
1588,1588,36.225,1588
885,885,1722.0,885
3028,3028,30.946,3028
3072,3072,33.913000000000004,3072
1925,1925,4136.0,1925
1295,1295,1322.0,1295
3476,3476,31.116,3476
878,878,31.865,878
3455,3455,2477.0,3455
1733,1733,0.0,1733
1879,1879,6859.0,1879
1835,1835,3646.0,1835
590,590,38.831,590
3382,3382,30.168000000000006,3382
2638,2638,34.448,2638
1391,1391,364.0,1391
1972,1972,34.986,1972
3571,3571,6810.0,3571
3253,3253,0.0,3253
2581,2581,0.0,2581
2167,2167,7974.0,2167
3360,3360,36.229,3360
4166,4166,30.215,4166
1640,1640,37.619,1640
3817,3817,0.0,3817
2020,2020,31.714,2020
1631,1631,329.0,1631
722,722,34.117,722
1918,1918,31.113000000000003,1918
1263,1263,8217.0,1263
677,677,6740.0,677
1590,1590,32.855,1590
995,995,4894.0,995
4160,4160,33.698,4160
2066,2066,33.17,2066
3331,3331,127.0,3331
669,669,8457.0,669
1746,1746,34.425,1746
3136,3136,30.092,3136
912,912,31.031,912
608,608,38.264,608
3661,3661,5920.0,3661
3144,3144,33.951,3144
1020,1020,35.055,1020
883,883,2026.0,883
1717,1717,6841.0,1717
3500,3500,215.815,3500
3678,3678,35.871,3678
4125,4125,4909.0,4125
517,517,0.0,517
1328,1328,34.823,1328
2208,2208,36.891,2208
3965,3965,0.0,3965
2929,2929,7724.0,2929
4015,4015,0.0,4015
2629,2629,1491.0,2629
2296,2296,31.728,2296
4086,4086,30.892,4086
2334,2334,29.539,2334
946,946,30.235,946
2729,2729,8160.0,2729
3034,3034,30.828000000000007,3034
3925,3925,0.0,3925
2772,2772,33.839,2772
2986,2986,139.246,2986
3106,3106,41.412,3106
1861,1861,5940.0,1861
1824,1824,34.434,1824
542,542,35.269,542
540,540,31.866,540
4108,4108,29.536,4108
2017,2017,3630.0,2017
2102,2102,35.076,2102
1812,1812,30.079,1812
2116,2116,34.061,2116
3729,3729,0.0,3729
1803,1803,788.0,1803
3871,3871,3645.0,3871
3816,3816,37.343,3816
2473,2473,2879.0,2473
663,663,3222.0,663
2776,2776,34.811,2776
1059,1059,152.0,1059
3367,3367,4897.0,3367
2110,2110,34.022,2110
986,986,30.926,986
1010,1010,31.242,1010
4056,4056,31.109,4056
1611,1611,4614.0,1611
2364,2364,35.176,2364
1379,1379,1160.0,1379
3258,3258,35.601,3258
2460,2460,30.071,2460
3668,3668,30.755,3668
1615,1615,6588.0,1615
2985,2985,3585.0,2985
1720,1720,32.753,1720
966,966,32.142,966
3854,3854,42.53100000000001,3854
864,864,30.593000000000004,864
2346,2346,32.145,2346
2756,2756,31.28,2756
4143,4143,7090.0,4143
1566,1566,30.569000000000006,1566
1632,1632,30.745,1632
933,933,4048.0,933
1761,1761,0.0,1761
4021,4021,6374.0,4021
1300,1300,33.145,1300
3724,3724,33.705,3724
656,656,29.92,656
1296,1296,34.823,1296
1705,1705,6825.0,1705
2114,2114,33.797,2114
1807,1807,8392.0,1807
1620,1620,31.352,1620
1258,1258,33.145,1258
1572,1572,29.9,1572
2561,2561,928.0,2561
2587,2587,3488.0,2587
3995,3995,2507.0,3995
3861,3861,1191.0,3861
4133,4133,8364.0,4133
3542,3542,29.802,3542
3948,3948,31.141,3948
3949,3949,8386.0,3949
1876,1876,33.43,1876
3254,3254,34.706,3254
3451,3451,4880.0,3451
679,679,7458.0,679
2387,2387,2788.0,2387
3042,3042,135.813,3042
2823,2823,4516.0,2823
2238,2238,41.75,2238
1168,1168,35.783,1168
3956,3956,31.492,3956
1464,1464,49.56800000000001,1464
2781,2781,1239.0,2781
1493,1493,7492.0,1493
2453,2453,7917.0,2453
3266,3266,30.463,3266
628,628,32.999,628
1299,1299,2772.0,1299
2959,2959,7741.0,2959
2444,2444,37.49800000000001,2444
3509,3509,6239.0,3509
606,606,33.683,606
2559,2559,946.0,2559
3592,3592,31.718000000000004,3592
3503,3503,1122.0,3503
3215,3215,4133.0,3215
1051,1051,0.0,1051
2840,2840,29.31,2840
3228,3228,39.899,3228
1400,1400,38.87300000000001,1400
1378,1378,31.258000000000006,1378
4187,4187,6033.0,4187
2265,2265,3945.0,2265
3061,3061,6685.0,3061
738,738,33.366,738
2648,2648,30.286,2648
1351,1351,7659.0,1351
1886,1886,30.932,1886
1953,1953,0.0,1953
873,873,2488.0,873
2987,2987,5976.0,2987
3392,3392,32.975,3392
2409,2409,2049.0,2409
2122,2122,33.83,2122
666,666,33.405,666
1729,1729,478.0,1729
2248,2248,31.749,2248
2494,2494,35.422,2494
1814,1814,30.579,1814
1771,1771,3897.0,1771
1962,1962,31.41,1962
2556,2556,32.698,2556
2796,2796,39.436,2796
1899,1899,4123.0,1899
1863,1863,3492.0,1863
1954,1954,30.227,1954
2955,2955,6556.0,2955
2540,2540,31.242,2540
2864,2864,42.20399999999999,2864
651,651,5464.0,651
3206,3206,180.152,3206
1820,1820,30.776,1820
3485,3485,259.0,3485
1098,1098,37.947,1098
3134,3134,219.094,3134
2471,2471,1716.0,2471
1984,1984,38.574,1984
4030,4030,30.123,4030
572,572,29.65,572
899,899,8498.0,899
1912,1912,34.376999999999995,1912
1185,1185,2167.0,1185
1591,1591,1674.0,1591
1367,1367,1975.0,1367
3561,3561,6992.0,3561
3698,3698,34.853,3698
2492,2492,35.613,2492
2472,2472,34.363,2472
1556,1556,33.965,1556
1862,1862,30.746,1862
1966,1966,32.199,1966
1627,1627,6129.0,1627
1846,1846,38.282,1846
2681,2681,3398.0,2681
3964,3964,35.585,3964
1282,1282,32.791,1282
771,771,579.0,771
2801,2801,2077.0,2801
1381,1381,917.0,1381
1229,1229,4412.0,1229
2740,2740,31.239,2740
2815,2815,3058.0,2815
1013,1013,5131.0,1013
1161,1161,285.0,1161
2804,2804,31.86,2804
1338,1338,32.587,1338
1249,1249,2660.0,1249
2678,2678,33.977,2678
2468,2468,36.023,2468
3153,3153,5862.0,3153
4175,4175,7256.0,4175
1937,1937,4067.0,1937
1531,1531,2663.0,1531
3473,3473,2808.0,3473
2357,2357,0.0,2357
2672,2672,860.3510000000001,2672
1499,1499,1701.0,1499
2321,2321,7405.0,2321
2338,2338,33.732,2338
3133,3133,8076.0,3133
1151,1151,0.0,1151
518,518,33.193000000000005,518
1868,1868,31.675,1868
2953,2953,6779.0,2953
2067,2067,4780.0,2067
2488,2488,34.255,2488
3006,3006,33.795,3006
2435,2435,5964.0,2435
1169,1169,650.0,1169
1945,1945,8126.0,1945
1403,1403,7552.0,1403
1841,1841,4922.0,1841
1015,1015,1266.0,1015
835,835,5217.0,835
3208,3208,70.938,3208
2761,2761,5070.0,2761
3081,3081,86.0,3081
3857,3857,5830.0,3857
1964,1964,30.323,1964
3635,3635,2887.0,3635
2451,2451,8463.0,2451
639,639,531.0,639
3684,3684,31.153,3684
1649,1649,2477.0,1649
2940,2940,166.326,2940
3969,3969,0.0,3969
3294,3294,30.281,3294
2202,2202,38.874,2202
4176,4176,35.149,4176
1993,1993,620.0,1993
3520,3520,211.539,3520
1480,1480,29.262,1480
2853,2853,2734.0,2853
2327,2327,5367.0,2327
1266,1266,31.896,1266
1976,1976,35.175,1976
2232,2232,36.131,2232
3328,3328,35.167,3328
829,829,5012.0,829
1565,1565,2372.0,1565
3011,3011,1325.0,3011
2384,2384,34.363,2384
2689,2689,4265.0,2689
1804,1804,37.95,1804
2895,2895,7134.0,2895
4039,4039,2103.0,4039
2642,2642,30.283,2642
1441,1441,5836.0,1441
1500,1500,36.452,1500
2385,2385,1908.0,2385
2963,2963,6587.0,2963
1529,1529,7492.0,1529
1331,1331,8242.0,1331
3412,3412,41.18899999999999,3412
1504,1504,33.244,1504
3985,3985,3222.0,3985
2775,2775,1167.0,2775
2438,2438,32.685,2438
534,534,32.027,534
3598,3598,33.442,3598
1609,1609,0.0,1609
1375,1375,0.0,1375
1779,1779,7853.0,1779
626,626,36.603,626
1776,1776,32.505,1776
2578,2578,33.554,2578
853,853,7516.0,853
1831,1831,750.0,1831
1407,1407,7775.0,1407
882,882,32.732,882
3498,3498,218.299,3498
2778,2778,41.272,2778
3497,3497,1828.0,3497
1088,1088,33.595,1088
4116,4116,41.19300000000001,4116
3332,3332,32.168,3332
1162,1162,35.992,1162
3414,3414,34.772,3414
2728,2728,30.889,2728
2902,2902,30.55,2902
2217,2217,3324.0,2217
817,817,0.0,817
3768,3768,31.817,3768
610,610,31.439,610
725,725,5874.0,725
1769,1769,5660.0,1769
1825,1825,7940.0,1825
2487,2487,3882.0,2487
1897,1897,7558.0,1897
1137,1137,8373.0,1137
2539,2539,6590.0,2539
994,994,31.719,994
3361,3361,134.0,3361
575,575,7909.0,575
3395,3395,0.0,3395
3201,3201,7840.0,3201
2266,2266,29.805,2266
1747,1747,7464.0,1747
1420,1420,36.299,1420
2877,2877,790.0,2877
3589,3589,5188.0,3589
1243,1243,0.0,1243
594,594,34.489000000000004,594
1231,1231,3203.0,1231
613,613,5685.0,613
3317,3317,0.0,3317
2534,2534,30.14,2534
2228,2228,35.14,2228
2078,2078,34.337,2078
570,570,31.925,570
3313,3313,0.0,3313
3693,3693,162.0,3693
2128,2128,32.845,2128
3576,3576,30.107,3576
2244,2244,30.766,2244
4002,4002,29.876,4002
2690,2690,37.406,2690
2605,2605,376.0,2605
2606,2606,33.361999999999995,2606
1132,1132,31.931,1132
2069,2069,8135.0,2069
3886,3886,29.568,3886
3169,3169,8320.0,3169
730,730,32.62,730
2300,2300,31.634,2300
2434,2434,31.693,2434
2647,2647,1334.0,2647
2715,2715,7067.0,2715
3648,3648,36.137,3648
2371,2371,8271.0,2371
1853,1853,5786.0,1853
938,938,33.135,938
4101,4101,1916.0,4101
2474,2474,29.757,2474
2824,2824,29.768,2824
3531,3531,6576.0,3531
3110,3110,41.335,3110
1673,1673,8571.0,1673
2079,2079,87.0,2079
2003,2003,3403.0,2003
3654,3654,34.153,3654
2201,2201,1242.0,2201
3356,3356,125.448,3356
2583,2583,496.0,2583
3200,3200,186.849,3200
2168,2168,35.59,2168
1302,1302,31.539,1302
2061,2061,1116.0,2061
3728,3728,42.619,3728
1689,1689,0.0,1689
2181,2181,8156.0,2181
3345,3345,849.0,3345
1875,1875,2596.0,1875
1582,1582,33.884,1582
2172,2172,32.123000000000005,2172
3984,3984,35.997,3984
2332,2332,29.371,2332
1519,1519,3429.0,1519
3838,3838,29.758000000000006,3838
744,744,34.465,744
3754,3754,31.109,3754
2604,2604,30.327,2604
3719,3719,8049.0,3719
799,799,7905.0,799
2479,2479,7712.0,2479
1114,1114,31.309,1114
831,831,0.0,831
2084,2084,36.903,2084
2184,2184,36.838,2184
3387,3387,6387.0,3387
1175,1175,2185.0,1175
1815,1815,6297.0,1815
2511,2511,4379.0,2511
3756,3756,33.341,3756
1083,1083,4589.0,1083
535,535,6903.0,535
2726,2726,29.112,2726
1793,1793,0.0,1793
3499,3499,5360.0,3499
993,993,3416.0,993
1078,1078,32.914,1078
3843,3843,3940.0,3843
3477,3477,5779.0,3477
2378,2378,33.193000000000005,2378
3824,3824,30.754,3824
1716,1716,33.448,1716
698,698,40.438,698
793,793,2974.0,793
3683,3683,4891.0,3683
3326,3326,35.855,3326
900,900,31.321,900
3731,3731,8553.0,3731
2055,2055,0.0,2055
2846,2846,33.328,2846
949,949,1780.0,949
2223,2223,1999.0,2223
3172,3172,39.56,3172
3921,3921,0.0,3921
3907,3907,6154.0,3907
3806,3806,41.441,3806
522,522,30.761,522
2355,2355,0.0,2355
699,699,365.0,699
4089,4089,4569.0,4089
884,884,36.24800000000001,884
1180,1180,33.837,1180
1871,1871,7699.0,1871
1617,1617,4697.0,1617
3379,3379,44.0,3379
1661,1661,4334.0,1661
3699,3699,1186.0,3699
796,796,39.739,796
1467,1467,8227.0,1467
2926,2926,31.924,2926
3453,3453,2578.0,3453
903,903,1833.0,903
2659,2659,8144.0,2659
729,729,6620.0,729
647,647,322.0,647
1142,1142,33.999,1142
599,599,7123.0,599
1955,1955,4146.0,1955
2390,2390,34.581,2390
3150,3150,221.723,3150
721,721,6997.0,721
1780,1780,29.266,1780
1416,1416,32.229,1416
2382,2382,34.72,2382
880,880,32.904,880
2552,2552,29.94,2552
1518,1518,29.715,1518
4172,4172,35.615,4172
1321,1321,237.0,1321
913,913,0.0,913
3713,3713,6242.0,3713
3196,3196,30.708,3196
1406,1406,46.591,1406
3159,3159,7222.0,3159
3664,3664,30.194000000000006,3664
1024,1024,35.23900000000001,1024
849,849,4520.0,849
3821,3821,714.0,3821
2765,2765,0.0,2765
1850,1850,30.865,1850
1829,1829,3276.0,1829
3537,3537,5605.0,3537
2139,2139,1913.0,2139
1781,1781,4198.0,1781
1021,1021,66.0,1021
3149,3149,2368.0,3149
3348,3348,33.126999999999995,3348
2267,2267,2825.0,2267
3114,3114,106.877,3114
3066,3066,31.248,3066
3721,3721,6175.0,3721
3044,3044,30.334,3044
2036,2036,31.132,2036
4170,4170,30.199,4170
1353,1353,5823.0,1353
1077,1077,2982.0,1077
3043,3043,1664.0,3043
3366,3366,183.314,3366
620,620,31.243,620
2807,2807,5988.0,2807
2309,2309,86.0,2309
2004,2004,36.889,2004
4047,4047,1889.0,4047
2237,2237,0.0,2237
2295,2295,597.0,2295
2942,2942,136.809,2942
2227,2227,7132.0,2227
1999,1999,7930.0,1999
3830,3830,30.399,3830
2910,2910,105.816,2910
531,531,2029.0,531
3436,3436,32.997,3436
4159,4159,7530.0,4159
2469,2469,7879.0,2469
3430,3430,32.512,3430
2907,2907,3601.0,2907
3270,3270,36.524,3270
3152,3152,40.936,3152
1589,1589,7338.0,1589
1883,1883,8528.0,1883
1852,1852,30.188,1852
3139,3139,495.0,3139
975,975,2997.0,975
2285,2285,6710.0,2285
1752,1752,30.731,1752
1604,1604,44.583,1604
2080,2080,30.648000000000003,2080
1101,1101,2060.0,1101
1723,1723,0.0,1723
3084,3084,30.46,3084
1796,1796,33.637,1796
1775,1775,7889.0,1775
3523,3523,0.0,3523
2904,2904,32.797,2904
2786,2786,31.197,2786
2302,2302,32.077,2302
2554,2554,31.862,2554
2156,2156,30.799,2156
1380,1380,29.876,1380
2943,2943,4082.0,2943
1396,1396,34.819,1396
3533,3533,3168.0,3533
3878,3878,39.44,3878
2695,2695,4854.0,2695
2068,2068,32.719,2068
985,985,2804.0,985
1349,1349,2267.0,1349
4092,4092,35.405,4092
3695,3695,0.0,3695
3279,3279,2674.0,3279
1316,1316,34.911,1316
1470,1470,30.884,1470
4105,4105,0.0,4105
4083,4083,3033.0,4083
2051,2051,2600.0,2051
2588,2588,33.972,2588
3162,3162,30.131,3162
1817,1817,5994.0,1817
1294,1294,30.868,1294
1533,1533,5705.0,1533
1728,1728,33.139,1728
3164,3164,34.94,3164
1434,1434,33.893,1434
1103,1103,4614.0,1103
3788,3788,34.442,3788
4062,4062,29.585,4062
633,633,3890.0,633
3426,3426,36.371,3426
1199,1199,5690.0,1199
2195,2195,8409.0,2195
3443,3443,4939.0,3443
3582,3582,30.866,3582
1596,1596,40.544,1596
1369,1369,1641.0,1369
3775,3775,4348.0,3775
3158,3158,35.028,3158
987,987,0.0,987
2797,2797,3582.0,2797
646,646,30.879,646
3048,3048,30.141,3048
2188,2188,34.958,2188
671,671,0.0,671
750,750,30.292,750
1772,1772,32.056999999999995,1772
1607,1607,2207.0,1607
3293,3293,2992.0,3293
1936,1936,43.837,1936
2834,2834,31.752,2834
1652,1652,30.512,1652
2501,2501,4014.0,2501
2694,2694,40.454,2694
1040,1040,32.55,1040
1440,1440,30.768,1440
3541,3541,1511.0,3541
2270,2270,33.73,2270
1991,1991,723.0,1991
3298,3298,29.393,3298
4018,4018,45.216,4018
1613,1613,126.0,1613
2749,2749,1489.0,2749
4102,4102,31.349,4102
627,627,1474.0,627
1880,1880,31.8,1880
660,660,29.524,660
2436,2436,30.964,2436
3590,3590,33.881,3590
3282,3282,29.504,3282
3109,3109,5480.0,3109
4042,4042,38.556,4042
1272,1272,33.3,1272
1892,1892,32.07,1892
622,622,31.665,622
3100,3100,36.648,3100
2718,2718,34.158,2718
1131,1131,2695.0,1131
3103,3103,2145.0,3103
1595,1595,7573.0,1595
3705,3705,0.0,3705
2416,2416,32.207,2416
1214,1214,39.351,1214
1495,1495,4121.0,1495
794,794,44.44600000000001,794
2928,2928,34.696,2928
1451,1451,0.0,1451
3593,3593,7340.0,3593
4150,4150,31.267,4150
2835,2835,993.0,2835
1503,1503,0.0,1503
2448,2448,32.279,2448
4155,4155,0.0,4155
2339,2339,4944.0,2339
625,625,4584.0,625
1042,1042,36.473,1042
3987,3987,5954.0,3987
2292,2292,30.339,2292
942,942,34.912,942
3198,3198,39.72,3198
3517,3517,2647.0,3517
1821,1821,6968.0,1821
3186,3186,218.503,3186
2852,2852,43.66,2852
2691,2691,6493.0,2691
3245,3245,7269.0,3245
3655,3655,5631.0,3655
1952,1952,29.783,1952
2901,2901,6714.0,2901
715,715,0.0,715
1674,1674,45.074,1674
2394,2394,35.313,2394
2522,2522,29.195,2522
1560,1560,31.734,1560
3760,3760,30.403,3760
785,785,7318.0,785
1025,1025,1507.0,1025
888,888,32.232,888
1448,1448,32.007,1448
2319,2319,4945.0,2319
2408,2408,31.991,2408
1948,1948,29.524,1948
2878,2878,44.199,2878
3823,3823,4647.0,3823
3085,3085,8401.0,3085
2974,2974,29.191,2974
3320,3320,30.517,3320
1288,1288,35.071,1288
790,790,38.007,790
3913,3913,245.0,3913
3723,3723,868.0,3723
1413,1413,8298.0,1413
3459,3459,8473.0,3459
2622,2622,31.221,2622
777,777,528.0,777
1466,1466,30.347,1466
1737,1737,742.0,1737
4169,4169,8337.0,4169
2410,2410,36.62,2410
2150,2150,29.739,2150
3515,3515,3620.0,3515
1421,1421,8395.0,1421
3089,3089,5567.0,3089
2952,2952,163.56,2952
3694,3694,38.39,3694
1120,1120,69.374,1120
3673,3673,3907.0,3673
1979,1979,2260.0,1979
1693,1693,5078.0,1693
3154,3154,154.901,3154
2842,2842,72.056,2842
3579,3579,6199.0,3579
1734,1734,38.547,1734
3594,3594,197.208,3594
2551,2551,6750.0,2551
4126,4126,29.968000000000004,4126
4076,4076,150.536,4076
3223,3223,6687.0,3223
1430,1430,29.975,1430
3310,3310,142.829,3310
1259,1259,7891.0,1259
1745,1745,769.0,1745
2753,2753,4636.0,2753
1653,1653,4144.0,1653
3937,3937,4045.0,3937
1512,1512,29.651,1512
2975,2975,3823.0,2975
2712,2712,35.319,2712
1911,1911,4182.0,1911
3457,3457,6913.0,3457
2676,2676,33.713,2676
3603,3603,0.0,3603
2946,2946,35.395,2946
731,731,3977.0,731
2041,2041,543.0,2041
2400,2400,34.415,2400
3287,3287,1491.0,3287
1204,1204,35.311,1204
894,894,34.588,894
4043,4043,4647.0,4043
1537,1537,6532.0,1537
2755,2755,1985.0,2755
2442,2442,33.605,2442
1995,1995,4086.0,1995
920,920,30.063,920
3639,3639,4624.0,3639
1313,1313,5572.0,1313
1095,1095,3240.0,1095
2098,2098,30.331,2098
2060,2060,35.697,2060
2046,2046,34.439,2046
2994,2994,30.163,2994
1236,1236,36.156,1236
612,612,37.33,612
2019,2019,1450.0,2019
1360,1360,31.65,1360
1985,1985,7709.0,1985
2277,2277,3008.0,2277
3226,3226,30.219,3226
1489,1489,4507.0,1489
3591,3591,0.0,3591
552,552,34.983000000000004,552
3341,3341,6706.0,3341
2018,2018,39.895,2018
3663,3663,421.0,3663
2027,2027,6183.0,2027
1791,1791,1665.0,1791
3643,3643,1861.0,3643
764,764,40.557,764
2038,2038,151.46200000000005,2038
923,923,3824.0,923
3807,3807,5743.0,3807
3416,3416,34.868,3416
837,837,7981.0,837
2865,2865,3246.0,2865
782,782,34.25,782
2279,2279,1931.0,2279
3203,3203,2358.0,3203
3940,3940,33.273,3940
901,901,5367.0,901
2752,2752,30.141,2752
2513,2513,5513.0,2513
3614,3614,30.586,3614
3679,3679,2291.0,3679
600,600,38.661,600
2100,2100,35.731,2100
2652,2652,34.359,2652
3267,3267,8355.0,3267
4055,4055,5507.0,4055
3851,3851,490.0,3851
3396,3396,35.254,3396
2641,2641,8555.0,2641
3212,3212,33.626999999999995,3212
2191,2191,5666.0,2191
3932,3932,32.344,3932
1713,1713,7500.0,1713
580,580,36.82,580
1795,1795,2148.0,1795
2930,2930,31.011,2930
706,706,29.602,706
2845,2845,2118.0,2845
2081,2081,4892.0,2081
3482,3482,30.832,3482
3070,3070,30.871,3070
1333,1333,3636.0,1333
3504,3504,142.036,3504
1150,1150,33.197,1150
1348,1348,31.66,1348
1960,1960,41.287,1960
4127,4127,5411.0,4127
2171,2171,3998.0,2171
965,965,0.0,965
4079,4079,5927.0,4079
1366,1366,31.084,1366
1854,1854,29.919,1854
691,691,7005.0,691
3179,3179,6311.0,3179
1517,1517,6500.0,1517
1668,1668,33.486999999999995,1668
4100,4100,34.447,4100
1133,1133,4682.0,1133
2809,2809,4529.0,2809
3357,3357,3099.0,3357
2107,2107,4227.0,2107
581,581,8044.0,581
1561,1561,0.0,1561
952,952,32.53,952
3016,3016,222.207,3016
4025,4025,5618.0,4025
1140,1140,46.213,1140
2491,2491,3001.0,2491
567,567,3173.0,567
1034,1034,33.517,1034
1005,1005,381.0,1005
1973,1973,1852.0,1973
1105,1105,6912.0,1105
1635,1635,6442.0,1635
538,538,33.317,538
591,591,459.0,591
1832,1832,37.88800000000001,1832
1887,1887,2797.0,1887
1969,1969,1402.0,1969
1030,1030,29.158,1030
3656,3656,31.649,3656
1902,1902,32.901,1902
1983,1983,281.0,1983
1303,1303,2690.0,1303
3847,3847,5075.0,3847
561,561,7909.0,561
2141,2141,1950.0,2141
2754,2754,31.185,2754
1806,1806,29.626,1806
2367,2367,6434.0,2367
3812,3812,38.074,3812
1225,1225,3322.0,1225
2577,2577,255.0,2577
1679,1679,674.0,1679
1023,1023,7169.0,1023
1638,1638,31.136,1638
1587,1587,0.0,1587
3786,3786,39.489,3786
2035,2035,5268.0,2035
1242,1242,29.766,1242
2948,2948,161.654,2948
4085,4085,6646.0,4085
2023,2023,6277.0,2023
1476,1476,30.888,1476
1539,1539,286.0,1539
2403,2403,4718.0,2403
556,556,35.34900000000001,556
3631,3631,352.0,3631
3802,3802,34.901,3802
4164,4164,43.003,4164
4065,4065,178.0,4065
3510,3510,34.546,3510
1950,1950,29.833,1950
2307,2307,2210.0,2307
739,739,2795.0,739
1515,1515,5340.0,1515
4195,4195,3208.0,4195
3346,3346,34.191,3346
2125,2125,0.0,2125
2481,2481,781.0,2481
505,505,4192.0,505
3275,3275,554.0,3275
3301,3301,3564.0,3301
3502,3502,31.608,3502
2070,2070,34.294000000000004,2070
4178,4178,32.771,4178
539,539,775.0,539
3178,3178,32.128,3178
4033,4033,4723.0,4033
602,602,38.352,602
1092,1092,34.211,1092
1264,1264,32.853,1264
2229,2229,6204.0,2229
1917,1917,3687.0,1917
1110,1110,32.638000000000005,1110
2720,2720,32.179,2720
3874,3874,37.746,3874
2973,2973,1210.0,2973
4019,4019,3644.0,4019
2525,2525,7849.0,2525
3316,3316,31.29,3316
1834,1834,32.342,1834
4087,4087,0.0,4087
3381,3381,4520.0,3381
980,980,30.924,980
3534,3534,30.303,3534
3344,3344,33.822,3344
2703,2703,3655.0,2703
1934,1934,35.072,1934
2369,2369,3456.0,2369
2941,2941,0.0,2941
1687,1687,7540.0,1687
3840,3840,30.56,3840
967,967,5826.0,967
2456,2456,33.037,2456
3174,3174,33.777,3174
1554,1554,33.949,1554
972,972,32.873000000000005,972
2719,2719,8460.0,2719
2042,2042,30.337,2042
1038,1038,33.429,1038
804,804,34.845,804
1056,1056,35.927,1056
2022,2022,162.688,2022
3554,3554,29.944000000000006,3554
1402,1402,40.673,1402
1422,1422,35.776,1422
3193,3193,5712.0,3193
2450,2450,34.053000000000004,2450
3306,3306,34.094,3306
1618,1618,31.438,1618
2870,2870,39.312,2870
1156,1156,29.728,1156
841,841,1826.0,841
2402,2402,32.353,2402
2271,2271,6989.0,2271
2503,2503,3648.0,2503
2475,2475,8538.0,2475
1940,1940,33.454,1940
1797,1797,5595.0,1797
2664,2664,34.413000000000004,2664
2280,2280,31.846,2280
4141,4141,2301.0,4141
2831,2831,3163.0,2831
631,631,6880.0,631
2862,2862,35.194,2862
4059,4059,767.0,4059
2549,2549,851.0,2549
3347,3347,6441.0,3347
1370,1370,29.453000000000007,1370
3704,3704,33.115,3704
1417,1417,1174.0,1417
840,840,29.764,840
3747,3747,1977.0,3747
2323,2323,2476.0,2323
4011,4011,5808.0,4011
1033,1033,274.0,1033
3424,3424,32.868,3424
658,658,31.275,658
908,908,33.115,908
1813,1813,5968.0,1813
961,961,5953.0,961
676,676,30.219,676
2949,2949,2376.0,2949
507,507,8324.0,507
3627,3627,5422.0,3627
1569,1569,1537.0,1569
2883,2883,978.0,2883
3610,3610,30.475,3610
3725,3725,2859.0,3725
3669,3669,6505.0,3669
1235,1235,0.0,1235
1465,1465,6337.0,1465
1109,1109,1032.0,1109
1702,1702,40.885,1702
1217,1217,3229.0,1217
1104,1104,47.348,1104
1238,1238,31.136,1238
1106,1106,41.214,1106
2597,2597,5976.0,2597
2747,2747,0.0,2747
3744,3744,34.56,3744
1345,1345,0.0,1345
3308,3308,199.883,3308
1844,1844,32.568000000000005,1844
2557,2557,1464.0,2557
1344,1344,32.615,1344
1447,1447,6669.0,1447
1764,1764,33.878,1764
927,927,1286.0,927
1127,1127,8153.0,1127
1540,1540,37.332,1540
3524,3524,30.306,3524
3797,3797,1022.0,3797
3753,3753,1022.0,3753
3461,3461,8021.0,3461
615,615,632.0,615
4045,4045,5583.0,4045
508,508,44.553,508
4084,4084,30.728,4084
2173,2173,6961.0,2173
4004,4004,30.939,4004
1160,1160,31.69,1160
1865,1865,427.0,1865
4112,4112,31.781,4112
3340,3340,37.525,3340
551,551,2724.0,551
1128,1128,35.234,1128
1397,1397,0.0,1397
2890,2890,30.511,2890
3146,3146,35.688,3146
1312,1312,31.784,1312
548,548,34.799,548
860,860,41.38,860
1085,1085,1548.0,1085
3748,3748,30.227,3748
2958,2958,30.738000000000003,2958
685,685,4995.0,685
1459,1459,5197.0,1459
2293,2293,3689.0,2293
686,686,36.685,686
1009,1009,8035.0,1009
1091,1091,5013.0,1091
1683,1683,8276.0,1683
1283,1283,7104.0,1283
1651,1651,7604.0,1651
3608,3608,32.475,3608
657,657,2061.0,657
3204,3204,36.761,3204
2455,2455,6122.0,2455
2225,2225,4745.0,2225
512,512,43.38800000000001,512
3968,3968,30.186,3968
745,745,3519.0,745
3065,3065,836.0,3065
3440,3440,34.075,3440
797,797,2329.0,797
3145,3145,4253.0,3145
767,767,0.0,767
653,653,3317.0,653
1058,1058,65.617,1058
2136,2136,29.934,2136
3474,3474,33.548,3474
857,857,2460.0,857
998,998,40.43,998
759,759,2036.0,759
839,839,7840.0,839
1548,1548,31.555,1548
609,609,7290.0,609
3175,3175,5529.0,3175
2613,2613,1981.0,2613
3880,3880,36.271,3880
2998,2998,32.159,2998
3842,3842,29.933000000000003,3842
762,762,32.938,762
3800,3800,33.142,3800
1071,1071,7498.0,1071
2299,2299,7809.0,2299
1802,1802,33.675,1802
2431,2431,3335.0,2431
788,788,40.292,788
3536,3536,31.412,3536
3529,3529,0.0,3529
3741,3741,759.0,3741
2596,2596,34.31,2596
2083,2083,1949.0,2083
2787,2787,6515.0,2787
3001,3001,7003.0,3001
3853,3853,7833.0,3853
2601,2601,1113.0,2601
1404,1404,34.474000000000004,1404
2482,2482,32.996,2482
667,667,2746.0,667
2465,2465,5191.0,2465
4120,4120,38.562,4120
3060,3060,33.336,3060
1012,1012,70.43,1012
1949,1949,6881.0,1949
2207,2207,702.0,2207
2502,2502,35.478,2502
3773,3773,7782.0,3773
3437,3437,0.0,3437
1081,1081,8562.0,1081
1292,1292,35.99,1292
3751,3751,6210.0,3751
1475,1475,3809.0,1475
957,957,4854.0,957
1700,1700,38.86,1700
3355,3355,6897.0,3355
1541,1541,1371.0,1541
4134,4134,103.832,4134
3239,3239,3383.0,3239
1794,1794,32.537,1794
3862,3862,35.133,3862
2190,2190,30.248,2190
2967,2967,5690.0,2967
2674,2674,32.552,2674
3785,3785,4042.0,3785
2645,2645,0.0,2645
3370,3370,217.701,3370
1401,1401,1783.0,1401
1975,1975,0.0,1975
2337,2337,7210.0,2337
921,921,7871.0,921
1145,1145,357.0,1145
996,996,34.153,996
2700,2700,37.479,2700
807,807,6548.0,807
1112,1112,33.908,1112
3715,3715,7484.0,3715
687,687,5729.0,687
2649,2649,2727.0,2649
806,806,34.045,806
1681,1681,1868.0,1681
2126,2126,35.149,2126
3827,3827,6450.0,3827
4038,4038,37.789,4038
1477,1477,4067.0,1477
2183,2183,5839.0,2183
2889,2889,3744.0,2889
689,689,3308.0,689
4106,4106,46.703,4106
1800,1800,33.285,1800
694,694,29.308000000000003,694
2748,2748,29.573,2748
2054,2054,35.216,2054
3447,3447,7369.0,3447
1663,1663,2896.0,1663
3931,3931,5611.0,3931
3609,3609,3851.0,3609
1895,1895,6495.0,1895
638,638,29.63,638
2567,2567,7367.0,2567
778,778,34.396,778
2742,2742,33.181,2742
1762,1762,32.372,1762
1386,1386,33.911,1386
3231,3231,7534.0,3231
2216,2216,35.427,2216
3104,3104,192.927,3104
2013,2013,0.0,2013
3059,3059,4151.0,3059
1998,1998,33.301,1998
1445,1445,1802.0,1445
3587,3587,5869.0,3587
4156,4156,33.802,4156
3247,3247,2546.0,3247
2383,2383,2621.0,2383
3289,3289,8341.0,3289
1740,1740,32.827,1740
2189,2189,2018.0,2189
3039,3039,5386.0,3039
1468,1468,35.25,1468
2644,2644,29.628,2644
1536,1536,30.294,1536
2254,2254,32.158,2254
1694,1694,35.411,1694
2751,2751,6012.0,2751
1774,1774,30.764,1774
1927,1927,7059.0,1927
2340,2340,30.212,2340
2706,2706,39.344,2706
526,526,33.925,526
645,645,7105.0,645
2618,2618,32.35,2618
2705,2705,6504.0,2705
2866,2866,33.297,2866
1222,1222,34.277,1222
1645,1645,0.0,1645
2283,2283,1623.0,2283
825,825,5483.0,825
976,976,30.751,976
2538,2538,33.465,2538
1538,1538,35.162,1538
2584,2584,36.902,2584
892,892,33.61,892
1755,1755,5343.0,1755
564,564,29.37,564
4067,4067,4568.0,4067
3526,3526,32.483000000000004,3526
891,891,0.0,891
2585,2585,3529.0,2585
769,769,6568.0,769
2800,2800,35.265,2800
3998,3998,30.832,3998
3605,3605,1591.0,3605
2743,2743,1559.0,2743
1706,1706,31.527,1706
1546,1546,37.496,1546
2623,2623,8601.0,2623
3549,3549,3153.0,3549
3187,3187,1356.0,3187
3050,3050,78.541,3050
2099,2099,6737.0,2099
2406,2406,32.083,2406
1343,1343,5081.0,1343
2143,2143,5056.0,2143
1944,1944,41.334,1944
3957,3957,7914.0,3957
3955,3955,4625.0,3955
1847,1847,2008.0,1847
1107,1107,7869.0,1107
2790,2790,35.381,2790
2701,2701,6183.0,2701
3296,3296,32.889,3296
2050,2050,32.552,2050
1233,1233,0.0,1233
709,709,7366.0,709
1208,1208,32.603,1208
3227,3227,6513.0,3227
1855,1855,7872.0,1855
3116,3116,29.682,3116
1154,1154,31.938,1154
586,586,34.655,586
2049,2049,2906.0,2049
2600,2600,33.494,2600
1502,1502,34.071,1502
3438,3438,227.065,3438
3119,3119,8163.0,3119
3163,3163,3746.0,3163
893,893,7472.0,893
1277,1277,8126.0,1277
3752,3752,29.537,3752
937,937,1356.0,937
1374,1374,30.302,1374
1276,1276,32.765,1276
3151,3151,0.0,3151
2268,2268,30.597,2268
2897,2897,1214.0,2897
2407,2407,8369.0,2407
1069,1069,2346.0,1069
2495,2495,7832.0,2495
2777,2777,7135.0,2777
973,973,1684.0,973
1605,1605,6585.0,1605
550,550,32.684,550
1458,1458,34.258,1458
3389,3389,7766.0,3389
3314,3314,32.334,3314
1163,1163,663.0,1163
3242,3242,30.305,3242
2354,2354,60.55,2354
3321,3321,2630.0,3321
1193,1193,4087.0,1193
4129,4129,8551.0,4129
1625,1625,0.0,1625
1346,1346,31.856,1346
549,549,3696.0,549
1496,1496,33.939,1496
2646,2646,30.135,2646
682,682,37.416,682
4088,4088,30.098000000000006,4088
1997,1997,2983.0,1997
3224,3224,30.148000000000003,3224
2149,2149,1279.0,2149
1494,1494,31.469,1494
2256,2256,32.374,2256
3665,3665,3860.0,3665
916,916,32.07,916
2490,2490,42.051,2490
2697,2697,7217.0,2697
879,879,1782.0,879
1914,1914,30.465,1914
1129,1129,809.0,1129
1248,1248,32.437,1248
2115,2115,3050.0,2115
3445,3445,3035.0,3445
3117,3117,3614.0,3117
795,795,3055.0,795
4066,4066,33.301,4066
1439,1439,2284.0,1439
2153,2153,3148.0,2153
2627,2627,1938.0,2627
2053,2053,6854.0,2053
3195,3195,2081.0,3195
2716,2716,40.264,2716
3555,3555,5729.0,3555
554,554,41.717,554
1708,1708,33.674,1708
2869,2869,4559.0,2869
2286,2286,47.383,2286
3646,3646,36.861,3646
3183,3183,446.0,3183
1032,1032,33.908,1032
4165,4165,1317.0,4165
1857,1857,3950.0,1857
1002,1002,32.909,1002
930,930,33.604,930
2692,2692,36.44300000000001,2692
3268,3268,29.944000000000006,3268
723,723,3126.0,723
2133,2133,7315.0,2133
3383,3383,5634.0,3383
644,644,39.772,644
1028,1028,33.543,1028
3545,3545,0.0,3545
2844,2844,165.535,2844
1166,1166,32.33,1166
2498,2498,37.36,2498
2607,2607,6463.0,2607
4144,4144,30.235,4144
3619,3619,6337.0,3619
774,774,35.299,774
1483,1483,3632.0,1483
1325,1325,4810.0,1325
827,827,8194.0,827
2741,2741,4311.0,2741
3142,3142,30.35,3142
1320,1320,30.676,1320
2880,2880,36.441,2880
4107,4107,68.0,4107
1778,1778,32.078,1778
2639,2639,7177.0,2639
1273,1273,4218.0,1273
2147,2147,852.0,2147
3255,3255,4314.0,3255
1567,1567,4818.0,1567
3546,3546,36.954,3546
1701,1701,7236.0,1701
1192,1192,42.188,1192
2727,2727,4490.0,2727
2999,2999,5536.0,2999
1347,1347,2489.0,1347
1393,1393,0.0,1393
2467,2467,2987.0,2467
2396,2396,29.747,2396
3131,3131,6976.0,3131
3733,3733,211.0,3733
3924,3924,32.313,3924
2563,2563,3162.0,2563
2316,2316,37.833,2316
3277,3277,8013.0,3277
3681,3681,4214.0,3681
2591,2591,7998.0,2591
2063,2063,959.0,2063
2799,2799,0.0,2799
4017,4017,1548.0,4017
3246,3246,31.68,3246
3434,3434,31.27,3434
3882,3882,30.871,3882
3299,3299,7874.0,3299
1195,1195,4640.0,1195
1201,1201,6160.0,1201
2821,2821,879.0,2821
4177,4177,7794.0,4177
2632,2632,30.211,2632
4113,4113,0.0,4113
733,733,6057.0,733
1787,1787,8046.0,1787
3295,3295,6589.0,3295
1356,1356,34.425,1356
2616,2616,30.313,2616
2320,2320,30.855,2320
1823,1823,2379.0,1823
3023,3023,0.0,3023
4000,4000,29.603,4000
2837,2837,5105.0,2837
1784,1784,30.507,1784
3074,3074,29.566,3074
1773,1773,1258.0,1773
1739,1739,2362.0,1739
3613,3613,7307.0,3613
1884,1884,31.557,1884
1361,1361,3149.0,1361
553,553,3163.0,553
3986,3986,29.567,3986
4146,4146,30.236,4146
1792,1792,31.698,1792
3508,3508,65.792,3508
3992,3992,138.935,3992
3113,3113,6822.0,3113
2817,2817,6600.0,2817
3168,3168,35.821,3168
3879,3879,7270.0,3879
1497,1497,1638.0,1497
4157,4157,5192.0,4157
2034,2034,33.433,2034
1753,1753,0.0,1753
1121,1121,3706.0,1121
4161,4161,3641.0,4161
2779,2779,5291.0,2779
951,951,5808.0,951
753,753,0.0,753
629,629,216.0,629
652,652,37.269,652
3484,3484,34.421,3484
3012,3012,222.252,3012
1785,1785,0.0,1785
1845,1845,2969.0,1845
1826,1826,39.223,1826
1205,1205,1519.0,1205
1598,1598,30.015,1598
1958,1958,31.92,1958
2269,2269,2777.0,2269
1365,1365,0.0,1365
2857,2857,7418.0,2857
1530,1530,29.957,1530
3651,3651,2611.0,3651
1507,1507,5929.0,1507
2239,2239,0.0,2239
2090,2090,32.321,2090
4151,4151,5562.0,4151
2234,2234,30.694000000000006,2234
1426,1426,34.094,1426
4026,4026,29.911,4026
3810,3810,37.407,3810
2352,2352,31.096,2352
3115,3115,8572.0,3115
2417,2417,0.0,2417
1662,1662,39.886,1662
605,605,147.0,605
907,907,3058.0,907
1856,1856,30.314,1856
574,574,34.634,574
2636,2636,30.834,2636
800,800,39.312,800
2386,2386,31.372,2386
1215,1215,1488.0,1215
3105,3105,4818.0,3105
1153,1153,5001.0,1153
672,672,31.502,672
2573,2573,4032.0,2573
713,713,0.0,713
2130,2130,33.306,2130
1388,1388,35.062,1388
3029,3029,1054.0,3029
2255,2255,3033.0,2255
4064,4064,30.619,4064
3795,3795,373.0,3795
4035,4035,2061.0,4035
2372,2372,32.749,2372
4051,4051,355.0,4051
968,968,31.524,968
2650,2650,30.052,2650
3910,3910,34.586,3910
1135,1135,718.0,1135
2682,2682,30.202,2682
2947,2947,6582.0,2947
2198,2198,37.407,2198
1017,1017,4392.0,1017
1543,1543,5032.0,1543
3572,3572,30.431,3572
2977,2977,2205.0,2977
4052,4052,30.746,4052
3026,3026,30.25,3026
1234,1234,33.083,1234
1060,1060,33.993,1060
2087,2087,2548.0,2087
3867,3867,0.0,3867
4034,4034,35.918,4034
2222,2222,32.59,2222
597,597,0.0,597
555,555,2364.0,555
543,543,4288.0,543
3864,3864,35.3,3864
2381,2381,0.0,2381
2158,2158,29.358,2158
2072,2072,32.335,2072
3494,3494,226.087,3494
2566,2566,34.232,2566
3706,3706,42.051,3706
3869,3869,3854.0,3869
1703,1703,5394.0,1703
3894,3894,32.181,3894
1200,1200,30.695,1200
2048,2048,30.239,2048
1981,1981,541.0,1981
780,780,35.023,780
1534,1534,29.379,1534
3470,3470,212.946,3470
2333,2333,3453.0,2333
3770,3770,30.857,3770
4185,4185,8279.0,4185
3734,3734,33.783,3734
4192,4192,37.083,4192
1978,1978,30.788,1978
2457,2457,4560.0,2457
3374,3374,32.303000000000004,3374
2978,2978,30.784,2978
3285,3285,0.0,3285
1562,1562,32.54,1562
1008,1008,32.653,1008
661,661,6948.0,661
2594,2594,33.353,2594
3607,3607,8275.0,3607
1526,1526,30.623,1526
932,932,32.294000000000004,932
3662,3662,39.511,3662
3825,3825,50.0,3825
1310,1310,33.962,1310
1888,1888,31.266,1888
3819,3819,8406.0,3819
2311,2311,2386.0,2311
1111,1111,5688.0,1111
3674,3674,32.869,3674
2219,2219,8235.0,2219
3930,3930,35.392,3930
1117,1117,405.0,1117
601,601,6770.0,601
3657,3657,5604.0,3657
4139,4139,6082.0,4139
3712,3712,33.419000000000004,3712
3845,3845,5071.0,3845
2531,2531,4897.0,2531
711,711,3109.0,711
1715,1715,2274.0,1715
3307,3307,2335.0,3307
2399,2399,4284.0,2399
4168,4168,34.406,4168
3097,3097,7957.0,3097
1433,1433,660.0,1433
1959,1959,0.0,1959
1463,1463,5220.0,1463
1443,1443,6384.0,1443
3090,3090,146.108,3090
4103,4103,6686.0,4103
1177,1177,2661.0,1177
1207,1207,3543.0,1207
2420,2420,33.357,2420
3311,3311,4009.0,3311
3618,3618,40.17,3618
2376,2376,33.495,2376
1634,1634,30.912,1634
2854,2854,29.911,2854
1849,1849,0.0,1849
4074,4074,31.078000000000007,4074
3213,3213,0.0,3213
1061,1061,3116.0,1061
3763,3763,5722.0,3763
2526,2526,31.061,2526
1363,1363,3336.0,1363
3397,3397,4149.0,3397
2628,2628,41.899,2628
3860,3860,33.754,3860
516,516,31.653,516
2725,2725,827.0,2725
3102,3102,43.293,3102
2932,2932,30.87,2932
1326,1326,32.15,1326
2368,2368,32.493,2368
2031,2031,4986.0,2031
971,971,176.0,971
1115,1115,4955.0,1115
3336,3336,34.272,3336
2224,2224,41.072,2224
2294,2294,33.631,2294
3489,3489,533.0,3489
1767,1767,1894.0,1767
2972,2972,186.827,2972
2088,2088,32.864000000000004,2088
674,674,33.091,674
1084,1084,30.451,1084
3716,3716,32.281,3716
1435,1435,4896.0,1435
1444,1444,34.835,1444
1926,1926,38.471,1926
1227,1227,2330.0,1227
959,959,0.0,959
1314,1314,31.98,1314
1656,1656,30.716,1656
3010,3010,29.942,3010
3013,3013,0.0,3013
3322,3322,30.718000000000004,3322
2282,2282,32.56,2282
1748,1748,39.617,1748
1710,1710,32.369,1710
523,523,2648.0,523
1065,1065,7108.0,1065
1963,1963,5589.0,1963
2002,2002,30.075,2002
1357,1357,3412.0,1357
2089,2089,0.0,2089
1942,1942,31.986,1942
3518,3518,212.195,3518
3411,3411,0.0,3411
2032,2032,31.626,2032
1555,1555,4869.0,1555
3333,3333,3624.0,3333
1860,1860,29.807,1860
3156,3156,43.583,3156
2536,2536,29.602,2536
3069,3069,5749.0,3069
2193,2193,5639.0,2193
693,693,0.0,693
1727,1727,6507.0,1727
3491,3491,7195.0,3491
3809,3809,0.0,3809
3202,3202,33.464,3202
3409,3409,5202.0,3409
3686,3686,34.154,3686
3240,3240,30.837,3240
2881,2881,0.0,2881
3553,3553,3094.0,3553
2215,2215,8188.0,2215
4049,4049,7620.0,4049
4072,4072,32.747,4072
1522,1522,29.586,1522
2152,2152,30.3,2152
2401,2401,0.0,2401
2252,2252,30.198,2252
3385,3385,1161.0,3385
1173,1173,3152.0,1173
2589,2589,4966.0,2589
3836,3836,30.437,3836
1882,1882,31.618,1882
3939,3939,8549.0,3939
2885,2885,6881.0,2885
2220,2220,30.264,2220
947,947,7585.0,947
1340,1340,35.269,1340
1904,1904,32.762,1904
4198,4198,36.3,4198
2553,2553,4406.0,2553
584,584,35.842,584
1075,1075,4937.0,1075
2082,2082,32.192,2082
1100,1100,30.561,1100
2675,2675,2032.0,2675
1527,1527,4620.0,1527
3563,3563,424.0,3563
3832,3832,31.606,3832
1221,1221,8262.0,1221
1211,1211,806.0,1211
2654,2654,30.026,2654
2981,2981,1422.0,2981
2343,2343,6342.0,2343
678,678,34.376,678
1072,1072,34.131,1072
1149,1149,5493.0,1149
1257,1257,4747.0,1257
2916,2916,29.435,2916
2029,2029,541.0,2029
3143,3143,3603.0,3143
1840,1840,41.614,1840
2477,2477,5788.0,2477
3922,3922,32.064,3922
814,814,40.24,814
3620,3620,81.39,3620
1836,1836,35.073,1836
2433,2433,1488.0,2433
1387,1387,2859.0,1387
2580,2580,33.602,2580
2995,2995,4469.0,2995
1457,1457,3576.0,1457
3235,3235,5571.0,3235
3781,3781,2178.0,3781
1783,1783,7579.0,1783
3422,3422,196.496,3422
3888,3888,30.345,3888
3535,3535,1078.0,3535
2104,2104,30.241,2104
1474,1474,40.014,1474
3855,3855,6053.0,3855
2253,2253,6779.0,2253
2101,2101,1711.0,2101
3292,3292,30.045,3292
2655,2655,0.0,2655
845,845,7975.0,845
3342,3342,196.442,3342
904,904,34.824,904
3486,3486,33.241,3486
2071,2071,3217.0,2071
3487,3487,7038.0,3487
1159,1159,2330.0,1159
3875,3875,8444.0,3875
1053,1053,4421.0,1053
4174,4174,36.7,4174
2218,2218,33.618,2218
3452,3452,37.356,3452
1050,1050,39.783,1050
3659,3659,6150.0,3659
1622,1622,31.8,1622
2713,2713,7872.0,2713
2927,2927,5183.0,2927
710,710,31.399,710
1819,1819,5090.0,1819
2075,2075,849.0,2075
3547,3547,6577.0,3547
1432,1432,43.904,1432
4131,4131,7380.0,4131
3079,3079,6184.0,3079
929,929,5999.0,929
3722,3722,36.042,3722
2313,2313,0.0,2313
3297,3297,3007.0,3297
3403,3403,0.0,3403
1827,1827,2178.0,1827
4023,4023,6790.0,4023
3008,3008,34.728,3008
2560,2560,29.849,2560
1932,1932,29.856,1932
3035,3035,8444.0,3035
1068,1068,29.859,1068
2445,2445,0.0,2445
3670,3670,33.623000000000005,3670
4118,4118,31.06,4118
3858,3858,30.965,3858
1157,1157,6933.0,1157
2033,2033,0.0,2033
3250,3250,32.837,3250
2303,2303,5159.0,2303
3829,3829,8310.0,3829
3088,3088,199.277,3088
3889,3889,0.0,3889
2120,2120,33.297,2120
664,664,30.486,664
1431,1431,4507.0,1431
4189,4189,124.0,4189
843,843,7542.0,843
1735,1735,7751.0,1735
1842,1842,40.544,1842
2085,2085,1581.0,2085
3885,3885,6717.0,3885
2759,2759,7363.0,2759
2388,2388,36.342,2388
2405,2405,73.0,2405
1073,1073,4043.0,1073
4020,4020,34.348,4020
1284,1284,33.082,1284
2312,2312,31.982,2312
515,515,0.0,515
1599,1599,196.0,1599
3041,3041,5824.0,3041
3780,3780,38.283,3780
3689,3689,5193.0,3689
2489,2489,4136.0,2489
832,832,31.026,832
3334,3334,35.494,3334
2839,2839,2452.0,2839
712,712,30.954,712
865,865,4913.0,865
3019,3019,2196.0,3019
3062,3062,215.5,3062
3230,3230,35.574,3230
2925,2925,3961.0,2925
2197,2197,2964.0,2197
1816,1816,30.672,1816
939,939,5896.0,939
2349,2349,4980.0,2349
2006,2006,37.408,2006
546,546,34.794000000000004,546
4167,4167,5412.0,4167
3302,3302,34.344,3302
1654,1654,30.975,1654
1119,1119,5173.0,1119
3972,3972,34.027,3972
1398,1398,36.448,1398
3388,3388,31.145,3388
3075,3075,118.0,3075
4163,4163,0.0,4163
1253,1253,4981.0,1253
636,636,29.574,636
940,940,31.61,940
650,650,33.491,650
2356,2356,32.551,2356
2415,2415,0.0,2415
3640,3640,31.451,3640
3540,3540,33.761,3540
1550,1550,33.887,1550
3335,3335,6178.0,3335
3425,3425,4927.0,3425
3261,3261,1483.0,3261
896,896,33.786,896
2322,2322,31.518,2322
1271,1271,5516.0,1271
1666,1666,48.09,1666
3573,3573,5946.0,3573
925,925,1297.0,925
3421,3421,2908.0,3421
872,872,30.333,872
969,969,1040.0,969
2996,2996,30.393,2996
2984,2984,33.65,2984
2798,2798,38.802,2798
4153,4153,5112.0,4153
2523,2523,330.0,2523
2667,2667,3809.0,2667
2744,2744,30.161,2744
4069,4069,0.0,4069
1901,1901,5272.0,1901
2965,2965,743.0,2965
846,846,30.437,846
4095,4095,2504.0,4095
854,854,38.006,854
3181,3181,2748.0,3181
3828,3828,29.857,3828
2888,2888,40.992,2888
1707,1707,5503.0,1707
1074,1074,38.532,1074
3309,3309,3825.0,3309
2982,2982,244.718,2982
3211,3211,3142.0,3211
2882,2882,226.999,2882
1759,1759,213.0,1759
2859,2859,755.0,2859
2893,2893,3857.0,2893
603,603,0.0,603
2630,2630,31.045,2630
1528,1528,29.282,1528
3856,3856,30.119,3856
510,510,38.673,510
3094,3094,208.035,3094
1411,1411,2036.0,1411
1187,1187,2727.0,1187
2922,2922,37.756,2922
2792,2792,29.512,2792
3562,3562,38.769,3562
3107,3107,8213.0,3107
2274,2274,33.236,2274
2231,2231,0.0,2231
3544,3544,30.156,3544
635,635,4662.0,635
3354,3354,30.186,3354
1889,1889,2234.0,1889
3030,3030,31.344,3030
2210,2210,34.384,2210
2121,2121,8506.0,2121
1542,1542,33.011,1542
2213,2213,1027.0,2213
2851,2851,3636.0,2851
3527,3527,4788.0,3527
1486,1486,31.935,1486
1610,1610,30.788,1610
2784,2784,30.728,2784
2988,2988,29.619,2988
541,541,5743.0,541
3076,3076,31.709,3076
2593,2593,6037.0,2593
1608,1608,30.955,1608
1520,1520,31.413,1520
1261,1261,186.0,1261
3539,3539,6649.0,3539
1125,1125,3896.0,1125
3569,3569,8168.0,3569
697,697,6500.0,697
4158,4158,31.634,4158
1108,1108,31.518,1108
616,616,30.283,616
2305,2305,6532.0,2305
1355,1355,5418.0,1355
3653,3653,64.0,3653
3472,3472,35.293,3472
3167,3167,4297.0,3167
990,990,31.679,990
3003,3003,1517.0,3003
3815,3815,1399.0,3815
3586,3586,35.292,3586
1989,1989,2530.0,1989
2542,2542,30.505,2542
871,871,4619.0,871
3007,3007,6898.0,3007
2485,2485,1268.0,2485
3456,3456,203.853,3456
1799,1799,4682.0,1799
1782,1782,33.077,1782
503,503,6552.0,503
2884,2884,29.664,2884
1245,1245,1201.0,1245
3188,3188,39.564,3188
3711,3711,6324.0,3711
3291,3291,538.0,3291
1719,1719,5759.0,1719
2030,2030,161.231,2030
2326,2326,32.355,2326
2841,2841,1244.0,2841
1600,1600,40.97,1600
2287,2287,4399.0,2287
2086,2086,31.283,2086
4003,4003,0.0,4003
3058,3058,29.49,3058
746,746,31.189,746
2931,2931,6806.0,2931
1469,1469,6110.0,1469
3908,3908,34.673,3908
3897,3897,6441.0,3897
4048,4048,29.972,4048
2404,2404,32.753,2404
2668,2668,30.989,2668
2990,2990,34.206,2990
1898,1898,31.563,1898
1682,1682,29.468000000000004,1682
530,530,29.624,530
3726,3726,34.094,3726
1757,1757,8506.0,1757
779,779,4611.0,779
3237,3237,440.0,3237
2541,2541,4605.0,2541
1164,1164,30.704,1164
3944,3944,37.837,3944
3776,3776,34.363,3776
3625,3625,3144.0,3625
1818,1818,29.464,1818
1223,1223,5067.0,1223
3363,3363,5363.0,3363
