,time,rtt,id
787,787,151.0,787
1016,1016,32.095,1016
1571,1571,1098.0,1571
1384,1384,30.645,1384
1939,1939,2702.0,1939
1082,1082,27.286,1082
2998,2998,105.016,2998
3521,3521,172.0,3521
2444,2444,30.184,2444
2734,2734,29.451,2734
3251,3251,1752.0,3251
1637,1637,2073.0,1637
2504,2504,32.743,2504
1564,1564,172.28599999999997,1564
509,509,1114.0,509
2240,2240,29.325,2240
1045,1045,0.0,1045
2832,2832,153.539,2832
902,902,38.672,902
2878,2878,205.233,2878
648,648,28.559,648
1725,1725,656.0,1725
1928,1928,32.717,1928
3136,3136,30.51,3136
659,659,1075.0,659
1603,1603,1616.0,1603
1890,1890,34.77,1890
2275,2275,65.0,2275
776,776,32.196,776
953,953,0.0,953
2680,2680,33.499,2680
2756,2756,29.216,2756
1563,1563,2468.0,1563
3525,3525,1419.0,3525
2497,2497,558.0,2497
3272,3272,30.533,3272
1124,1124,28.337,1124
2001,2001,519.0,2001
2258,2258,28.991,2258
1861,1861,794.0,1861
528,528,30.176,528
2366,2366,41.113,2366
2077,2077,756.0,2077
1577,1577,548.0,1577
3627,3627,367.0,3627
3178,3178,34.485,3178
1304,1304,28.606,1304
1657,1657,1848.0,1657
964,964,40.32,964
1606,1606,40.781,1606
1371,1371,1616.0,1371
3629,3629,0.0,3629
2424,2424,38.526,2424
1547,1547,1564.0,1547
2681,2681,2172.0,2681
2235,2235,644.0,2235
2920,2920,27.956,2920
3147,3147,1848.0,3147
1559,1559,1178.0,1559
861,861,2538.0,861
2506,2506,28.243,2506
1962,1962,27.151,1962
1446,1446,28.238000000000003,1446
2064,2064,32.813,2064
3536,3536,36.093,3536
2338,2338,39.25,2338
775,775,2616.0,775
2939,2939,451.0,2939
604,604,30.218000000000004,604
2724,2724,29.885,2724
3195,3195,0.0,3195
1575,1575,2125.0,1575
874,874,35.105,874
3246,3246,29.174,3246
1552,1552,30.09,1552
1147,1147,1888.0,1147
1672,1672,30.431,1672
1389,1389,767.0,1389
2794,2794,28.213,2794
1209,1209,2195.0,1209
3526,3526,28.415,3526
704,704,29.663,704
2447,2447,2148.0,2447
1676,1676,84.524,1676
2163,2163,0.0,2163
1436,1436,36.548,1436
2264,2264,32.601,2264
2230,2230,32.155,2230
1460,1460,28.141,1460
3406,3406,32.694,3406
3174,3174,28.506,3174
3582,3582,35.898,3582
680,680,38.615,680
2941,2941,1165.0,2941
532,532,35.452,532
1996,1996,28.842,1996
1809,1809,166.0,1809
1521,1521,1028.0,1521
2781,2781,2049.0,2781
941,941,2186.0,941
1641,1641,312.0,1641
2934,2934,35.978,2934
982,982,32.265,982
2177,2177,0.0,2177
2847,2847,2056.0,2847
1019,1019,1881.0,1019
1274,1274,33.474000000000004,1274
2997,2997,387.0,2997
3301,3301,0.0,3301
1977,1977,1046.0,1977
1664,1664,30.746,1664
3496,3496,30.487,3496
1036,1036,67.84899999999999,1036
1532,1532,30.194000000000006,1532
2161,2161,349.0,2161
1984,1984,37.583,1984
1099,1099,0.0,1099
870,870,32.51,870
1874,1874,28.848000000000006,1874
989,989,123.0,989
1660,1660,30.532,1660
2738,2738,27.818,2738
1988,1988,31.562,1988
2946,2946,34.692,2946
533,533,1994.0,533
2762,2762,36.821,2762
3328,3328,30.767,3328
2045,2045,0.0,2045
1768,1768,28.529,1768
2113,2113,1216.0,2113
3273,3273,2540.0,3273
1256,1256,35.35,1256
1961,1961,1369.0,1961
2321,2321,1937.0,2321
3370,3370,33.638000000000005,3370
1414,1414,38.577,1414
3531,3531,0.0,3531
772,772,30.606,772
1711,1711,1720.0,1711
632,632,30.965,632
1478,1478,26.822,1478
3455,3455,1249.0,3455
1275,1275,1263.0,1275
3204,3204,32.702,3204
3323,3323,1276.0,3323
3055,3055,2323.0,3055
2511,2511,1998.0,2511
3486,3486,34.395,3486
2640,2640,29.678,2640
1935,1935,1904.0,1935
2544,2544,30.077,2544
851,851,2177.0,851
1623,1623,799.0,1623
2694,2694,81.225,2694
1879,1879,1585.0,1879
3480,3480,28.702,3480
2789,2789,1263.0,2789
3369,3369,508.0,3369
3085,3085,1003.0,3085
1186,1186,28.84,1186
3338,3338,28.071,3338
2579,2579,123.0,2579
1712,1712,27.993,1712
1877,1877,1604.0,1877
3303,3303,746.0,3303
2496,2496,30.992,2496
3331,3331,2436.0,3331
2987,2987,2231.0,2987
1118,1118,34.684,1118
3152,3152,29.508000000000006,3152
1614,1614,28.535,1614
1471,1471,0.0,1471
852,852,30.193,852
2040,2040,30.903,2040
934,934,32.515,934
983,983,511.0,983
3149,3149,129.0,3149
1442,1442,31.367,1442
2696,2696,35.059,2696
514,514,28.258000000000006,514
3504,3504,30.128,3504
931,931,109.0,931
3080,3080,28.408,3080
740,740,31.206,740
2638,2638,32.492,2638
630,630,33.045,630
1152,1152,28.583,1152
702,702,34.366,702
867,867,432.0,867
781,781,1734.0,781
3171,3171,1109.0,3171
1097,1097,2538.0,1097
1680,1680,30.651,1680
3516,3516,29.661,3516
1756,1756,175.53400000000005,1756
1139,1139,1236.0,1139
1655,1655,265.0,1655
576,576,29.947,576
3404,3404,32.387,3404
1858,1858,35.136,1858
2603,2603,1985.0,2603
2797,2797,1894.0,2797
3033,3033,0.0,3033
1586,1586,27.935,1586
2961,2961,2352.0,2961
1629,1629,198.0,1629
2007,2007,374.0,2007
3392,3392,28.923,3392
2357,2357,1445.0,2357
889,889,1858.0,889
2635,2635,1941.0,2635
2353,2353,1915.0,2353
2486,2486,36.609,2486
2020,2020,33.001,2020
2242,2242,27.712,2242
1240,1240,39.684,1240
2515,2515,920.0,2515
2012,2012,27.017,2012
948,948,34.458,948
2142,2142,33.779,2142
1920,1920,34.508,1920
1255,1255,247.0,1255
662,662,34.751999999999995,662
3551,3551,235.0,3551
2936,2936,36.382,2936
655,655,2560.0,655
2561,2561,55.0,2561
2116,2116,32.475,2116
3550,3550,32.351,3550
3057,3057,516.0,3057
2437,2437,236.0,2437
1041,1041,2510.0,1041
1285,1285,1990.0,1285
1658,1658,29.394,1658
1953,1953,1209.0,1953
2425,2425,52.0,2425
1667,1667,1871.0,1667
2546,2546,32.818000000000005,2546
1063,1063,0.0,1063
2364,2364,28.01,2364
3314,3314,29.909,3314
2689,2689,1968.0,2689
695,695,2526.0,695
2214,2214,34.919000000000004,2214
2132,2132,27.191,2132
2260,2260,28.32,2260
1994,1994,31.477,1994
501,501,0.0,501
2771,2771,0.0,2771
1524,1524,29.783,1524
2611,2611,998.0,2611
875,875,697.0,875
1905,1905,2016.0,1905
3575,3575,2330.0,3575
2963,2963,1520.0,2963
2986,2986,28.112,2986
1102,1102,30.987,1102
2393,2393,144.0,2393
1001,1001,1448.0,1001
3054,3054,31.322,3054
1094,1094,28.823,1094
1244,1244,34.888000000000005,1244
2774,2774,30.631,2774
2298,2298,38.729,2298
3317,3317,1456.0,3317
1148,1148,40.035,1148
2917,2917,2353.0,2917
619,619,1845.0,619
1699,1699,2125.0,1699
2382,2382,27.424,2382
1678,1678,27.806,1678
2836,2836,207.892,2836
1593,1593,217.0,1593
2868,2868,30.234,2868
2469,2469,2401.0,2469
1453,1453,558.0,1453
2909,2909,2083.0,2909
2250,2250,30.885,2250
2232,2232,33.403,2232
2873,2873,1267.0,2873
641,641,1057.0,641
2702,2702,34.205,2702
3352,3352,28.318,3352
2102,2102,33.016,2102
1972,1972,27.624,1972
1241,1241,1972.0,1241
2488,2488,27.389,2488
3059,3059,1584.0,3059
1743,1743,1883.0,1743
3170,3170,38.801,3170
1553,1553,1856.0,1553
1642,1642,29.554,1642
568,568,32.637,568
1026,1026,31.026,1026
2879,2879,1823.0,2879
3048,3048,27.566,3048
3038,3038,31.817,3038
1583,1583,2565.0,1583
3538,3538,34.263000000000005,3538
811,811,2520.0,811
819,819,1706.0,819
2524,2524,30.814,2524
2015,2015,179.0,2015
3082,3082,28.981,3082
3025,3025,1071.0,3025
684,684,33.722,684
3572,3572,30.19,3572
1754,1754,30.848000000000006,1754
1392,1392,28.573,1392
1136,1136,28.152,1136
1851,1851,526.0,1851
1837,1837,1908.0,1837
1921,1921,1884.0,1921
2791,2791,977.0,2791
924,924,33.312,924
2695,2695,673.0,2695
3508,3508,27.695,3508
3451,3451,1418.0,3451
1267,1267,1713.0,1267
1724,1724,29.43,1724
2249,2249,1230.0,2249
3084,3084,36.99,3084
3359,3359,781.0,3359
2834,2834,204.513,2834
2212,2212,29.92,2212
500,500,33.125,500
844,844,35.074,844
3111,3111,1784.0,3111
1014,1014,31.632,1014
1362,1362,28.171,1362
2463,2463,1563.0,2463
2330,2330,31.112,2330
833,833,110.0,833
3326,3326,29.745,3326
2409,2409,1712.0,2409
1062,1062,27.684,1062
719,719,146.0,719
2329,2329,2288.0,2329
2835,2835,156.0,2835
2574,2574,134.89,2574
2648,2648,29.267,2648
3282,3282,26.582,3282
1506,1506,32.468,1506
2535,2535,1660.0,2535
3381,3381,2345.0,3381
3108,3108,33.12,3108
1718,1718,34.273,1718
2276,2276,29.253,2276
2989,2989,1019.0,2989
3435,3435,1742.0,3435
2110,2110,32.35,2110
2129,2129,1257.0,2129
1822,1822,37.048,1822
979,979,1809.0,979
801,801,1287.0,801
3233,3233,0.0,3233
1894,1894,35.73300000000001,1894
3278,3278,28.686,3278
2745,2745,0.0,2745
3159,3159,1058.0,3159
1929,1929,1222.0,1929
583,583,759.0,583
2952,2952,82.113,2952
1329,1329,308.0,1329
2228,2228,32.754,2228
2155,2155,2108.0,2155
716,716,39.109,716
2479,2479,81.0,2479
579,579,1469.0,579
3015,3015,1809.0,3015
1334,1334,31.558000000000003,1334
1317,1317,1627.0,1317
3581,3581,2289.0,3581
3215,3215,1001.0,3215
1027,1027,0.0,1027
3391,3391,1567.0,3391
2608,2608,29.055,2608
690,690,34.964,690
3464,3464,28.579,3464
3461,3461,1888.0,3461
3259,3259,1728.0,3259
2867,2867,1134.0,2867
1246,1246,33.125,1246
1919,1919,1688.0,1919
2820,2820,27.306,2820
1986,1986,29.062,1986
909,909,2003.0,909
1452,1452,27.817,1452
834,834,30.051,834
654,654,26.833,654
1230,1230,35.771,1230
1749,1749,871.0,1749
1090,1090,29.258000000000006,1090
502,502,33.712,502
1472,1472,28.651,1472
1730,1730,32.634,1730
2468,2468,32.643,2468
3386,3386,27.592,3386
3327,3327,1184.0,3327
1525,1525,632.0,1525
898,898,34.436,898
1630,1630,31.301,1630
545,545,582.0,545
2853,2853,2236.0,2853
3281,3281,1261.0,3281
621,621,159.0,621
3439,3439,2312.0,3439
2921,2921,199.0,2921
815,815,485.0,815
1766,1766,27.584,1766
2346,2346,29.204,2346
1885,1885,411.0,1885
1066,1066,39.304,1066
2633,2633,1262.0,2633
2615,2615,1021.0,2615
2178,2178,31.419,2178
3036,3036,26.132,3036
1788,1788,201.581,1788
2974,2974,32.378,2974
1974,1974,29.022,1974
2562,2562,27.482,2562
2039,2039,0.0,2039
3031,3031,2356.0,3031
1054,1054,32.694,1054
1184,1184,34.605,1184
1922,1922,31.931,1922
918,918,32.915,918
1262,1262,36.766,1262
2391,2391,778.0,2391
1003,1003,1755.0,1003
595,595,1512.0,595
3600,3600,27.794,3600
810,810,32.499,810
3368,3368,37.597,3368
3286,3286,27.108,3286
1000,1000,29.148000000000003,1000
3100,3100,30.397,3100
1415,1415,1557.0,1415
2233,2233,1286.0,2233
2471,2471,1348.0,2471
1247,1247,2176.0,1247
1648,1648,40.141,1648
2122,2122,27.73,2122
2217,2217,2361.0,2217
2843,2843,1081.0,2843
2938,2938,36.65,2938
2679,2679,2454.0,2679
2718,2718,29.392,2718
726,726,28.612,726
2825,2825,0.0,2825
1732,1732,30.811,1732
2199,2199,358.0,2199
3293,3293,2252.0,3293
1508,1508,27.557,1508
1412,1412,38.423,1412
2766,2766,35.093,2766
2358,2358,36.043,2358
770,770,34.221,770
3517,3517,1690.0,3517
1280,1280,30.736,1280
617,617,2015.0,617
3310,3310,31.46,3310
2247,2247,700.0,2247
755,755,1005.0,755
2937,2937,1882.0,2937
2767,2767,1899.0,2767
1202,1202,34.052,1202
3043,3043,2709.0,3043
3001,3001,1254.0,3001
766,766,36.545,766
2096,2096,33.477,2096
1176,1176,29.749,1176
1971,1971,254.0,1971
960,960,28.224,960
1893,1893,1437.0,1893
1704,1704,28.424,1704
1891,1891,0.0,1891
2351,2351,2691.0,2351
2824,2824,29.06,2824
2962,2962,33.118,2962
2850,2850,32.302,2850
3543,3543,562.0,3543
596,596,33.665,596
2957,2957,1847.0,2957
1218,1218,29.935,1218
1183,1183,392.0,1183
3089,3089,2124.0,3089
3236,3236,33.189,3236
2484,2484,28.137,2484
2201,2201,2096.0,2201
2865,2865,1384.0,2865
1481,1481,2600.0,1481
3394,3394,27.313,3394
1650,1650,32.951,1650
2816,2816,27.718000000000004,2816
2389,2389,0.0,2389
2907,2907,1349.0,2907
1709,1709,2409.0,1709
1189,1189,2106.0,1189
1513,1513,1575.0,1513
2328,2328,29.323,2328
1165,1165,2588.0,1165
1450,1450,26.912,1450
887,887,1437.0,887
1178,1178,30.189,1178
2272,2272,29.775,2272
1909,1909,358.0,1909
997,997,0.0,997
683,683,1882.0,683
2278,2278,34.967,2278
637,637,77.0,637
828,828,29.685,828
2651,2651,1178.0,2651
2118,2118,35.23900000000001,2118
970,970,33.177,970
992,992,29.933000000000003,992
1970,1970,29.416,1970
1848,1848,35.704,1848
821,821,2664.0,821
3061,3061,1303.0,3061
2262,2262,31.18,2262
3324,3324,26.826,3324
3578,3578,30.384,3578
2263,2263,1075.0,2263
3462,3462,27.713,3462
2829,2829,0.0,2829
2111,2111,304.0,2111
2780,2780,28.045,2780
1923,1923,1630.0,1923
1358,1358,33.014,1358
2612,2612,234.457,2612
2604,2604,27.722,2604
3067,3067,2598.0,3067
1290,1290,32.391,1290
3415,3415,100.0,3415
2131,2131,1734.0,2131
3347,3347,1774.0,3347
2460,2460,31.988000000000003,2460
3411,3411,900.0,3411
1315,1315,932.0,1315
1742,1742,33.567,1742
1696,1696,32.368,1696
3017,3017,2590.0,3017
2993,2993,879.0,2993
1278,1278,28.748,1278
752,752,28.531,752
2906,2906,36.19,2906
3355,3355,868.0,3355
2187,2187,2639.0,2187
2052,2052,28.251,2052
3423,3423,2028.0,3423
2487,2487,902.0,2487
842,842,30.212,842
2470,2470,28.362,2470
3440,3440,33.975,3440
3065,3065,1311.0,3065
823,823,2311.0,823
3481,3481,1697.0,3481
747,747,484.0,747
3515,3515,0.0,3515
3306,3306,31.866,3306
1188,1188,32.203,1188
524,524,29.459,524
1612,1612,28.335,1612
2359,2359,343.0,2359
3196,3196,29.926,3196
2928,2928,28.329,2928
824,824,28.741,824
2583,2583,1215.0,2583
1372,1372,36.994,1372
1224,1224,28.864,1224
3519,3519,2533.0,3519
2926,2926,28.767,2926
3193,3193,1710.0,3193
1987,1987,1442.0,1987
2874,2874,28.849,2874
2209,2209,1259.0,2209
3350,3350,31.02,3350
2540,2540,164.02700000000004,2540
988,988,30.763,988
2933,2933,1443.0,2933
2301,2301,1397.0,2301
2637,2637,0.0,2637
2622,2622,28.391,2622
1232,1232,32.831,1232
2717,2717,1783.0,2717
765,765,1413.0,765
1750,1750,28.251,1750
1228,1228,31.322,1228
1052,1052,28.867,1052
3535,3535,415.0,3535
2297,2297,1913.0,2297
2877,2877,80.0,2877
3158,3158,29.824,3158
2165,2165,1900.0,2165
1311,1311,2602.0,1311
3573,3573,2504.0,3573
2908,2908,192.437,2908
2894,2894,30.818,2894
2710,2710,33.956,2710
1906,1906,36.168,1906
761,761,154.0,761
634,634,33.357,634
1410,1410,35.564,1410
3056,3056,27.951,3056
2813,2813,680.0,2813
1990,1990,29.415,1990
1096,1096,30.232,1096
2643,2643,0.0,2643
1297,1297,55.0,1297
3552,3552,28.617,3552
1213,1213,1864.0,1213
1237,1237,1798.0,1237
1770,1770,28.937,1770
886,886,32.241,886
1516,1516,27.829,1516
2634,2634,29.891,2634
2688,2688,212.447,2688
1116,1116,34.239000000000004,1116
1252,1252,31.932,1252
1279,1279,2167.0,1279
2958,2958,36.741,2958
536,536,39.491,536
2289,2289,0.0,2289
2565,2565,866.0,2565
2760,2760,29.982,2760
1057,1057,737.0,1057
2429,2429,135.0,2429
569,569,1441.0,569
758,758,33.157,758
2314,2314,37.964,2314
2273,2273,1538.0,2273
2626,2626,209.993,2626
737,737,1937.0,737
2517,2517,2352.0,2517
2021,2021,257.0,2021
3244,3244,31.789,3244
2945,2945,2149.0,2945
624,624,30.848000000000006,624
2826,2826,36.656,2826
588,588,28.217,588
2124,2124,31.218000000000004,2124
2969,2969,1004.0,2969
2428,2428,38.889,2428
1838,1838,33.447,1838
1080,1080,33.058,1080
1210,1210,34.811,1210
1339,1339,2256.0,1339
2803,2803,661.0,2803
1697,1697,2396.0,1697
1473,1473,2405.0,1473
1196,1196,32.38,1196
1647,1647,598.0,1647
1646,1646,29.762,1646
2347,2347,493.0,2347
2575,2575,839.0,2575
3184,3184,30.761,3184
1910,1910,30.78,1910
1588,1588,28.638,1588
3016,3016,208.824,3016
3137,3137,207.0,3137
1295,1295,1412.0,1295
3429,3429,2371.0,3429
878,878,26.92,878
3002,3002,171.74200000000005,3002
1733,1733,1826.0,1733
590,590,30.59,590
3101,3101,1937.0,3101
2074,2074,31.639,2074
1391,1391,717.0,1391
2731,2731,1158.0,2731
3205,3205,2229.0,3205
2924,2924,27.526,2924
2355,2355,1493.0,2355
1640,1640,28.625,1640
1631,1631,853.0,1631
722,722,38.047,722
2315,2315,349.0,2315
677,677,616.0,677
1590,1590,35.82,1590
995,995,2300.0,995
3598,3598,27.562,3598
2901,2901,0.0,2901
669,669,42.0,669
1746,1746,28.482,1746
2730,2730,117.184,2730
912,912,30.81,912
608,608,31.236,608
3173,3173,2521.0,3173
2441,2441,2194.0,2441
883,883,44.0,883
2008,2008,26.183000000000003,2008
1839,1839,1220.0,1839
3313,3313,2172.0,3313
517,517,1821.0,517
3228,3228,34.66,3228
3428,3428,26.706,3428
2556,2556,33.258,2556
2976,2976,205.804,2976
2588,2588,31.399,2588
946,946,27.442,946
2642,2642,29.12,2642
3093,3093,546.0,3093
2605,2605,608.0,2605
2106,2106,31.431,2106
1824,1824,32.539,1824
542,542,27.018,542
2483,2483,196.0,2483
3549,3549,1684.0,3549
1812,1812,30.013,1812
1803,1803,0.0,1803
3353,3353,1155.0,3353
3096,3096,29.873,3096
3559,3559,1346.0,3559
663,663,968.0,663
1059,1059,1107.0,1059
3163,3163,42.0,3163
986,986,30.642,986
1010,1010,30.024,1010
3503,3503,789.0,3503
1611,1611,0.0,1611
1379,1379,1597.0,1379
2838,2838,29.055,2838
1615,1615,664.0,1615
2478,2478,32.911,2478
1720,1720,28.472,1720
966,966,31.266,966
2592,2592,28.982,2592
864,864,42.286,864
2265,2265,526.0,2265
3583,3583,1839.0,3583
1566,1566,28.208,1566
1632,1632,29.042,1632
2773,2773,1002.0,2773
1761,1761,612.0,1761
1300,1300,32.111999999999995,1300
2704,2704,166.42700000000005,2704
656,656,29.302,656
1296,1296,29.334,1296
1705,1705,2454.0,1705
1807,1807,1752.0,1807
1620,1620,32.541,1620
1258,1258,29.919,1258
2964,2964,33.404,2964
3132,3132,27.06,3132
3144,3144,28.107,3144
2017,2017,417.0,2017
3078,3078,28.362,3078
3157,3157,1933.0,3157
3417,3417,0.0,3417
3005,3005,1522.0,3005
2621,2621,323.0,2621
3267,3267,0.0,3267
2973,2973,1786.0,2973
2985,2985,173.0,2985
1168,1168,30.101,1168
1464,1464,32.978,1464
3437,3437,2681.0,3437
1493,1493,117.0,1493
2845,2845,1852.0,2845
628,628,27.79,628
1946,1946,29.428,1946
2582,2582,41.026,2582
606,606,28.666,606
3219,3219,1360.0,3219
2317,2317,1710.0,2317
3379,3379,852.0,3379
2812,2812,27.017,2812
1400,1400,39.1,1400
1378,1378,27.48,1378
2423,2423,371.0,2423
2666,2666,28.394,2666
2434,2434,37.164,2434
2421,2421,702.0,2421
1351,1351,166.0,1351
1886,1886,33.521,1886
873,873,1551.0,873
2818,2818,32.238,2818
2509,2509,2705.0,2509
666,666,30.297,666
1729,1729,1624.0,1729
1814,1814,30.253,1814
1771,1771,1096.0,1771
2324,2324,26.622,2324
1899,1899,134.0,1899
1863,1863,1100.0,1863
2578,2578,29.795,2578
2119,2119,886.0,2119
2464,2464,28.676,2464
651,651,1688.0,651
2740,2740,37.099,2740
1820,1820,30.345,1820
3560,3560,29.014,3560
1098,1098,29.006,1098
2728,2728,182.507,2728
3197,3197,795.0,3197
572,572,31.597,572
899,899,1820.0,899
2446,2446,28.506,2446
1185,1185,2344.0,1185
1591,1591,956.0,1591
1367,1367,289.0,1367
3091,3091,2678.0,3091
1556,1556,32.691,1556
1862,1862,27.892,1862
1627,1627,1586.0,1627
1846,1846,32.863,1846
3119,3119,1976.0,3119
2910,2910,212.748,2910
1282,1282,33.606,1282
771,771,2311.0,771
2334,2334,28.738000000000003,2334
1381,1381,2115.0,1381
1229,1229,2070.0,1229
1013,1013,1894.0,1013
1161,1161,1581.0,1161
3095,3095,1478.0,3095
1338,1338,28.824,1338
1249,1249,2502.0,1249
3418,3418,36.765,3418
2109,2109,107.0,2109
1915,1915,1312.0,1915
2663,2663,1718.0,2663
3408,3408,27.512,3408
3563,3563,2453.0,3563
2310,2310,35.196,2310
2284,2284,31.806,2284
3485,3485,2034.0,3485
3562,3562,29.749,3562
1499,1499,1317.0,1499
3626,3626,29.951,3626
1151,1151,1639.0,1151
518,518,28.797,518
736,736,39.385,736
1089,1089,1913.0,1089
1868,1868,37.59,1868
2419,2419,2205.0,2419
2685,2685,1419.0,2685
1492,1492,27.78,1492
3554,3554,27.328000000000007,3554
3449,3449,1044.0,3449
2886,2886,29.265,2886
2009,2009,113.0,2009
1808,1808,28.849,1808
2492,2492,27.886,2492
2174,2174,28.949,2174
3507,3507,1058.0,3507
1945,1945,669.0,1945
3568,3568,40.242,3568
1403,1403,79.0,1403
1841,1841,586.0,1841
2348,2348,31.553,2348
2903,2903,1848.0,2903
1951,1951,788.0,1951
835,835,994.0,835
2261,2261,656.0,2261
2796,2796,28.896,2796
2823,2823,695.0,2823
911,911,2466.0,911
3340,3340,28.003,3340
1964,1964,27.891,1964
1423,1423,1935.0,1423
3216,3216,36.262,3216
1377,1377,2372.0,1377
3154,3154,29.399,3154
1736,1736,95.916,1736
639,639,350.0,639
1341,1341,695.0,1341
3192,3192,29.243,3192
1649,1649,0.0,1649
818,818,34.986,818
3269,3269,0.0,3269
3430,3430,26.829,3430
1141,1141,0.0,1141
2552,2552,30.321,2552
2870,2870,27.881,2870
2711,2711,2271.0,2711
1688,1688,30.411,1688
2398,2398,29.489,2398
3612,3612,29.994,3612
703,703,1834.0,703
3199,3199,0.0,3199
1717,1717,1180.0,1717
1549,1549,1647.0,1549
1993,1993,0.0,1993
3241,3241,1715.0,3241
3321,3321,1523.0,3321
2335,2335,1058.0,2335
1931,1931,1784.0,1931
1568,1568,28.432,1568
741,741,328.0,741
1480,1480,37.919,1480
2422,2422,31.644,2422
3348,3348,30.477,3348
1966,1966,27.848000000000006,1966
3166,3166,36.394,3166
3422,3422,35.63800000000001,3422
2940,2940,34.868,2940
1691,1691,211.0,1691
2037,2037,2379.0,2037
643,643,2254.0,643
3316,3316,28.623,3316
829,829,710.0,829
1565,1565,1422.0,1565
2625,2625,956.0,2625
1896,1896,29.349,1896
2935,2935,1933.0,2935
2138,2138,44.053,2138
2203,2203,1343.0,2203
2505,2505,1302.0,2505
1441,1441,1665.0,1441
2898,2898,34.1,2898
1500,1500,35.897,1500
1179,1179,1641.0,1179
2586,2586,33.337,2586
1876,1876,28.464,1876
3608,3608,30.423,3608
2332,2332,29.637,2332
1529,1529,2117.0,1529
1331,1331,1591.0,1331
1504,1504,26.798,1504
3442,3442,35.902,3442
2290,2290,30.319000000000006,2290
534,534,39.275,534
1405,1405,2495.0,1405
1947,1947,2360.0,1947
2944,2944,35.48,2944
1609,1609,1969.0,1609
1375,1375,1526.0,1375
1992,1992,30.709,1992
1779,1779,78.0,1779
626,626,28.733,626
3420,3420,33.819,3420
1776,1776,27.553,1776
3620,3620,28.021,3620
2259,2259,2241.0,2259
1831,1831,1296.0,1831
1407,1407,2274.0,1407
882,882,30.77,882
2656,2656,29.464,2656
2112,2112,37.329,2112
2778,2778,30.657,2778
2547,2547,1851.0,2547
1570,1570,29.372,1570
1318,1318,27.405,1318
3022,3022,32.555,3022
2350,2350,200.601,2350
2902,2902,29.414,2902
1162,1162,31.728,1162
3073,3073,2660.0,3073
2970,2970,34.235,2970
2905,2905,1952.0,2905
2520,2520,28.047,2520
817,817,1998.0,817
3610,3610,31.179,3610
3271,3271,792.0,3271
610,610,27.605,610
725,725,0.0,725
3361,3361,1058.0,3361
1769,1769,1220.0,1769
1825,1825,2279.0,1825
1777,1777,240.0,1777
1897,1897,1296.0,1897
2959,2959,0.0,2959
2418,2418,29.551,2418
994,994,32.229,994
3153,3153,331.0,3153
575,575,812.0,575
2955,2955,887.0,2955
802,802,31.556,802
2205,2205,219.0,2205
1747,1747,1236.0,1747
3151,3151,2197.0,3151
2244,2244,36.305,2244
1420,1420,27.907,1420
2842,2842,31.806,2842
3242,3242,34.342,3242
2683,2683,0.0,2683
3112,3112,28.804,3112
1243,1243,291.0,1243
594,594,30.645,594
1231,1231,1975.0,1231
836,836,30.402,836
1299,1299,2671.0,1299
2016,2016,29.495,2016
613,613,1794.0,613
2097,2097,2560.0,2097
1064,1064,33.631,1064
2980,2980,199.596,2980
2208,2208,30.73,2208
2078,2078,32.193000000000005,2078
2518,2518,41.75,2518
3214,3214,26.556,3214
1938,1938,37.285,1938
1337,1337,2235.0,1337
2887,2887,2405.0,2887
1035,1035,2284.0,1035
3200,3200,29.636,3200
3498,3498,31.711,3498
3103,3103,1621.0,3103
3467,3467,1199.0,3467
3222,3222,28.168000000000006,3222
3399,3399,1928.0,3399
2370,2370,28.199,2370
2345,2345,1162.0,2345
557,557,1525.0,557
558,558,29.33,558
1132,1132,30.995,1132
2069,2069,2634.0,2069
2761,2761,2169.0,2761
730,730,28.482,730
3460,3460,28.743,3460
2196,2196,29.288,2196
3161,3161,273.0,3161
2750,2750,29.596,2750
3224,3224,29.164,3224
1853,1853,2052.0,1853
1665,1665,2324.0,1665
938,938,32.051,938
2093,2093,1073.0,2093
2508,2508,29.237,2508
3298,3298,27.353,3298
2647,2647,1286.0,2647
2194,2194,34.36,2194
885,885,2198.0,885
2776,2776,32.334,2776
944,944,27.654,944
1169,1169,2632.0,1169
3068,3068,31.924,3068
2708,2708,35.19300000000001,2708
675,675,649.0,675
1644,1644,29.801,1644
679,679,2000.0,679
3329,3329,0.0,3329
855,855,214.0,855
3276,3276,27.667,3276
1804,1804,27.549,1804
1123,1123,0.0,1123
1673,1673,832.0,1673
2543,2543,1640.0,2543
2079,2079,1696.0,2079
2300,2300,30.474,2300
2900,2900,32.68,2900
1438,1438,36.038,1438
1055,1055,446.0,1055
2026,2026,29.364,2026
3587,3587,873.0,3587
2606,2606,32.611999999999995,2606
565,565,1602.0,565
3376,3376,31.877,3376
1833,1833,0.0,1833
2476,2476,27.598000000000006,2476
3588,3588,34.08,3588
2440,2440,37.759,2440
3488,3488,29.076,3488
2168,2168,31.69,2168
1302,1302,28.358,1302
3412,3412,36.701,3412
974,974,31.319000000000006,974
2061,2061,2176.0,2061
2243,2243,356.0,2243
1689,1689,0.0,1689
2758,2758,27.007,2758
2181,2181,682.0,2181
1137,1137,1037.0,1137
3305,3305,2544.0,3305
2912,2912,28.822,2912
1594,1594,27.357,1594
3190,3190,29.449,3190
1875,1875,2203.0,1875
1582,1582,32.725,1582
2172,2172,35.096,2172
3441,3441,1123.0,3441
2659,2659,2327.0,2659
3034,3034,32.452,3034
3424,3424,28.774,3424
3395,3395,1142.0,3395
2162,2162,32.036,2162
2830,2830,35.241,2830
2968,2968,32.768,2968
744,744,32.479,744
1487,1487,2289.0,1487
2943,2943,2140.0,2943
2852,2852,30.136,2852
1031,1031,1597.0,1031
1293,1293,428.0,1293
2763,2763,2335.0,2763
2678,2678,29.46,2678
3500,3500,35.035,3500
3225,3225,352.0,3225
799,799,1230.0,799
2361,2361,990.0,2361
3117,3117,1876.0,3117
3534,3534,35.94300000000001,3534
2430,2430,33.38,2430
1114,1114,34.153,1114
2200,2200,31.214,2200
2472,2472,183.121,2472
2768,2768,29.715,2768
831,831,1718.0,831
3186,3186,32.172,3186
2374,2374,33.42,2374
2246,2246,35.041,2246
1592,1592,32.177,1592
2184,2184,28.082,2184
1811,1811,0.0,1811
2948,2948,84.225,2948
1175,1175,218.0,1175
1815,1815,66.0,1815
3512,3512,30.545,3512
1018,1018,31.595,1018
1626,1626,33.569,1626
1083,1083,0.0,1083
535,535,1090.0,535
2698,2698,254.602,2698
1954,1954,31.77,1954
1793,1793,819.0,1793
3234,3234,34.537,3234
3042,3042,28.539,3042
993,993,2115.0,993
2569,2569,716.0,2569
2895,2895,1065.0,2895
2559,2559,414.0,2559
3172,3172,29.965,3172
1619,1619,697.0,1619
1716,1716,192.082,1716
698,698,28.996,698
1266,1266,37.014,1266
1810,1810,32.366,1810
793,793,2463.0,793
2458,2458,29.241,2458
1514,1514,30.609,1514
2896,2896,51.114,2896
853,853,529.0,853
2377,2377,1239.0,2377
1049,1049,2576.0,1049
2055,2055,1674.0,2055
1226,1226,27.833,1226
2617,2617,2640.0,2617
949,949,1168.0,949
2223,2223,1773.0,2223
2764,2764,56.986,2764
2530,2530,26.511,2530
3393,3393,1352.0,3393
3380,3380,29.717,3380
3099,3099,2062.0,3099
522,522,27.664,522
1281,1281,2467.0,1281
2576,2576,31.626,2576
699,699,2319.0,699
2117,2117,0.0,2117
3532,3532,28.622,3532
915,915,2600.0,915
884,884,30.146,884
1180,1180,33.384,1180
1871,1871,1132.0,1871
1197,1197,352.0,1197
1617,1617,0.0,1617
2331,2331,1544.0,2331
1661,1661,1466.0,1661
3206,3206,28.491,3206
796,796,32.554,796
1467,1467,1182.0,1467
3529,3529,467.0,3529
3390,3390,28.844,3390
903,903,1958.0,903
3146,3146,31.926,3146
1078,1078,67.83800000000001,1078
2059,2059,2517.0,2059
978,978,46.201,978
611,611,117.0,611
729,729,459.0,729
2805,2805,95.0,2805
1142,1142,32.681999999999995,1142
2003,2003,2046.0,2003
945,945,878.0,945
1219,1219,236.0,1219
599,599,1944.0,599
822,822,34.754,822
1955,1955,870.0,1955
1354,1354,28.538,1354
859,859,601.0,859
3566,3566,37.932,3566
721,721,233.0,721
1780,1780,178.843,1780
1519,1519,0.0,1519
3452,3452,29.29,3452
1416,1416,32.444,1416
2677,2677,0.0,2677
1263,1263,213.0,1263
880,880,31.601,880
1051,1051,1841.0,1051
504,504,27.596,504
1518,1518,27.989,1518
3609,3609,1409.0,3609
1321,1321,2117.0,1321
3009,3009,2626.0,3009
913,913,165.0,913
3169,3169,316.0,3169
2786,2786,29.036,2786
1406,1406,30.692,1406
1698,1698,31.111,1698
2752,2752,165.118,2752
1182,1182,35.799,1182
2971,2971,750.0,2971
1531,1531,224.0,1531
1039,1039,1856.0,1039
933,933,237.0,933
1024,1024,30.592,1024
849,849,1350.0,849
1722,1722,26.655,1722
1572,1572,28.834,1572
582,582,27.215,582
830,830,34.825,830
717,717,318.0,717
1916,1916,32.087,1916
1850,1850,27.313,1850
809,809,0.0,809
2427,2427,1394.0,2427
2139,2139,1395.0,2139
1781,1781,888.0,1781
1021,1021,164.0,1021
1015,1015,2397.0,1015
3037,3037,221.0,3037
3294,3294,28.959,3294
2915,2915,0.0,2915
2453,2453,90.0,2453
2712,2712,38.721,2712
2380,2380,29.384,2380
2241,2241,71.0,2241
3227,3227,747.0,3227
707,707,1958.0,707
2036,2036,32.475,2036
3378,3378,27.202,3378
1353,1353,2020.0,1353
3142,3142,29.655,3142
1077,1077,167.0,1077
3622,3622,27.836,3622
2949,2949,1421.0,2949
3245,3245,0.0,3245
2454,2454,32.365,2454
2930,2930,141.566,2930
620,620,33.264,620
2918,2918,28.818,2918
958,958,30.137,958
2309,2309,0.0,2309
2004,2004,28.006,2004
3477,3477,416.0,3477
1867,1867,0.0,1867
1597,1597,1017.0,1597
3495,3495,561.0,3495
900,900,30.091,900
2237,2237,2300.0,2237
1870,1870,28.517,1870
2670,2670,207.681,2670
2295,2295,2176.0,2295
2992,2992,53.553,2992
2227,2227,834.0,2227
1999,1999,1555.0,1999
1260,1260,36.551,1260
1328,1328,31.39,1328
3318,3318,32.917,3318
2532,2532,29.476,2532
531,531,1680.0,531
3617,3617,2063.0,3617
1181,1181,0.0,1181
1535,1535,1161.0,1535
3597,3597,0.0,3597
2257,2257,1692.0,2257
1741,1741,948.0,1741
3208,3208,29.526,3208
3320,3320,30.07,3320
1408,1408,32.098,1408
700,700,30.701,700
3182,3182,30.033,3182
2527,2527,1656.0,2527
2057,2057,1478.0,2057
2848,2848,31.358,2848
3433,3433,466.0,3433
2746,2746,28.527,2746
1170,1170,29.251,1170
1589,1589,1190.0,1589
1883,1883,1596.0,1883
803,803,356.0,803
1852,1852,26.982,1852
2157,2157,723.0,2157
2602,2602,26.954,2602
2733,2733,1285.0,2733
975,975,1304.0,975
2285,2285,1906.0,2285
2084,2084,37.613,2084
1752,1752,173.81400000000005,1752
943,943,1302.0,943
2590,2590,146.921,2590
1604,1604,46.33,1604
2080,2080,28.18,2080
1101,1101,155.0,1101
2658,2658,34.401,2658
1723,1723,1169.0,1723
2266,2266,27.479,2266
1429,1429,1383.0,1429
1829,1829,0.0,1829
3570,3570,42.499,3570
1796,1796,37.202,1796
1775,1775,1091.0,1775
2288,2288,34.247,2288
519,519,1366.0,519
2595,2595,1190.0,2595
738,738,32.636,738
2302,2302,27.205,2302
1624,1624,28.558000000000003,1624
506,506,27.201,506
2156,2156,31.642,2156
1380,1380,28.83,1380
2568,2568,26.654,2568
1020,1020,30.69,1020
3585,3585,2060.0,3585
1396,1396,30.884,1396
1004,1004,29.176,1004
3367,3367,2156.0,3367
1912,1912,33.61,1912
2179,2179,2429.0,2179
2510,2510,32.105,2510
3360,3360,30.955,3360
2534,2534,27.528,2534
1943,1943,136.0,1943
2135,2135,0.0,2135
2267,2267,2173.0,2267
2452,2452,32.971,2452
2140,2140,33.146,2140
647,647,147.0,647
2373,2373,742.0,2373
3191,3191,847.0,3191
1751,1751,486.0,1751
2068,2068,31.436,2068
985,985,213.0,985
2327,2327,819.0,2327
3098,3098,39.199,3098
2439,2439,1959.0,2439
1584,1584,37.667,1584
1349,1349,739.0,1349
1454,1454,35.401,1454
935,935,1362.0,935
876,876,32.262,876
848,848,30.843000000000004,848
3124,3124,28.78,3124
3371,3371,0.0,3371
2855,2855,307.0,2855
1316,1316,28.68,1316
3296,3296,31.594,3296
1557,1557,2294.0,1557
1470,1470,37.148,1470
3339,3339,274.0,3339
2411,2411,115.0,2411
696,696,28.615,696
2051,2051,453.0,2051
1976,1976,28.316,1976
540,540,27.725,540
2755,2755,2119.0,2755
3253,3253,1621.0,3253
2365,2365,0.0,2365
1817,1817,80.0,1817
2211,2211,2637.0,2211
1212,1212,27.276,1212
2665,2665,0.0,2665
1937,1937,1745.0,1937
3104,3104,180.633,3104
1385,1385,1001.0,1385
1294,1294,27.782,1294
1533,1533,412.0,1533
1728,1728,188.685,1728
2757,2757,2418.0,2757
1434,1434,38.306,1434
2412,2412,28.551,2412
2769,2769,913.0,2769
1103,1103,1871.0,1103
2076,2076,30.34,2076
3285,3285,446.0,3285
3474,3474,28.547,3474
2814,2814,32.504,2814
3365,3365,563.0,3365
633,633,752.0,633
3295,3295,2026.0,3295
2953,2953,139.0,2953
1199,1199,2291.0,1199
2195,2195,735.0,2195
2954,2954,30.133000000000006,2954
2815,2815,88.0,2815
598,598,28.075,598
1596,1596,32.215,1596
1369,1369,178.0,1369
1251,1251,443.0,1251
570,570,28.865,570
529,529,307.0,529
987,987,2083.0,987
749,749,893.0,749
3279,3279,522.0,3279
3264,3264,28.883000000000006,3264
1869,1869,2224.0,1869
2801,2801,618.0,2801
2188,2188,27.076,2188
671,671,908.0,671
2726,2726,31.172,2726
750,750,27.252,750
1772,1772,26.851,1772
2539,2539,829.0,2539
1607,1607,209.0,1607
3110,3110,31.551,3110
1936,1936,33.075,1936
3126,3126,28.402,3126
786,786,31.025,786
1652,1652,27.954,1652
1307,1307,713.0,1307
2362,2362,37.314,2362
2501,2501,780.0,2501
646,646,27.903,646
1040,1040,32.381,1040
3209,3209,1711.0,3209
1440,1440,27.549,1440
3077,3077,2121.0,3077
1551,1551,1862.0,1551
1088,1088,52.71,1088
2270,2270,29.384,2270
1991,1991,2516.0,1991
3165,3165,1585.0,3165
2749,2749,1543.0,2749
1613,1613,2701.0,1613
3556,3556,27.272,3556
627,627,996.0,627
1880,1880,27.58,1880
660,660,34.882,660
2436,2436,39.176,2436
3185,3185,1630.0,3185
2858,2858,35.329,2858
2707,2707,313.0,2707
3490,3490,27.859,3490
1272,1272,36.554,1272
1892,1892,37.421,1892
622,622,33.091,622
3052,3052,186.462,3052
1131,1131,714.0,1131
1595,1595,1921.0,1595
3577,3577,2277.0,3577
2416,2416,27.576,2416
1214,1214,33.982,1214
1495,1495,2611.0,1495
794,794,34.643,794
1451,1451,1234.0,1451
3116,3116,31.327,3116
2619,2619,1538.0,2619
1503,1503,1437.0,1503
2448,2448,29.309,2448
3593,3593,2226.0,3593
2339,2339,1697.0,2339
625,625,2605.0,625
1042,1042,28.489,1042
3444,3444,35.857,3444
2292,2292,32.424,2292
942,942,28.03,942
2788,2788,27.79,2788
3436,3436,36.176,3436
1821,1821,1103.0,1821
3176,3176,28.378,3176
2827,2827,1823.0,2827
2871,2871,0.0,2871
1952,1952,31.549,1952
715,715,360.0,715
1674,1674,32.065,1674
2394,2394,27.102,2394
2522,2522,29.001,2522
1560,1560,38.14,1560
3265,3265,1972.0,3265
785,785,2332.0,785
1025,1025,0.0,1025
888,888,30.953000000000007,888
1448,1448,29.813,1448
2319,2319,2375.0,2319
2408,2408,30.024,2408
1948,1948,31.38,1948
3312,3312,28.656,3312
2686,2686,30.314,2686
2892,2892,42.276,2892
1288,1288,29.071,1288
790,790,31.654,790
3385,3385,2214.0,3385
3229,3229,0.0,3229
1413,1413,0.0,1413
777,777,1551.0,777
1466,1466,31.246,1466
1737,1737,1722.0,1737
3606,3606,28.249,3606
2410,2410,27.208,2410
2150,2150,27.334,2150
2811,2811,1085.0,2811
1421,1421,1943.0,1421
3201,3201,1794.0,3201
1120,1120,28.674,1120
3183,3183,2689.0,3183
1979,1979,118.0,1979
1693,1693,1175.0,1693
2862,2862,28.254,2862
3106,3106,29.876,3106
1734,1734,31.92,1734
2551,2551,219.0,2551
3064,3064,36.682,3064
3520,3520,26.885,3520
2807,2807,2299.0,2807
1430,1430,29.205,1430
3384,3384,28.184,3384
1259,1259,1322.0,1259
1745,1745,2299.0,1745
1653,1653,1103.0,1653
3407,3407,0.0,3407
1512,1512,29.963,1512
1911,1911,2203.0,1911
3087,3087,282.0,3087
3123,3123,2598.0,3123
731,731,441.0,731
2041,2041,0.0,2041
2400,2400,141.762,2400
2863,2863,0.0,2863
1204,1204,30.746,1204
894,894,31.785,894
3491,3491,2592.0,3491
1537,1537,2484.0,1537
2442,2442,41.649,2442
1995,1995,1868.0,1995
920,920,30.967,920
3155,3155,555.0,3155
1313,1313,0.0,1313
1095,1095,1259.0,1095
2098,2098,36.729,2098
2060,2060,29.349,2060
2046,2046,38.203,2046
1236,1236,33.191,1236
612,612,26.796,612
2019,2019,2068.0,2019
1360,1360,32.833,1360
1985,1985,1228.0,1985
2277,2277,0.0,2277
2810,2810,39.43,2810
1489,1489,0.0,1489
3114,3114,30.687,3114
552,552,29.181,552
2018,2018,31.891,2018
3175,3175,2152.0,3175
2027,2027,622.0,2027
1791,1791,363.0,1791
2828,2828,111.848,2828
764,764,29.189,764
2038,2038,31.045,2038
923,923,2377.0,923
3218,3218,38.019,3218
3337,3337,399.0,3337
837,837,0.0,837
782,782,31.23,782
2279,2279,290.0,2279
3410,3410,30.746,3410
901,901,518.0,901
2513,2513,2359.0,2513
3133,3133,1786.0,3133
3611,3611,2250.0,3611
600,600,29.986,600
2100,2100,29.156,2100
2652,2652,29.409,2652
2846,2846,28.596,2846
3502,3502,27.868,3502
3510,3510,31.801,3510
2956,2956,31.472,2956
2641,2641,1304.0,2641
3523,3523,0.0,3523
2191,2191,789.0,2191
3402,3402,26.604,3402
1713,1713,2253.0,1713
580,580,27.806,580
1795,1795,175.0,1795
706,706,32.518,706
2081,2081,1379.0,2081
3028,3028,30.935,3028
1333,1333,1961.0,1333
3047,3047,2456.0,3047
1150,1150,39.548,1150
1348,1348,37.96,1348
1960,1960,28.678,1960
3567,3567,0.0,3567
2171,2171,2398.0,2171
965,965,612.0,965
1366,1366,31.593000000000004,1366
1854,1854,27.342,1854
691,691,2187.0,691
2770,2770,27.417,2770
1517,1517,180.0,1517
1668,1668,32.012,1668
1133,1133,1510.0,1133
2923,2923,1627.0,2923
2107,2107,958.0,2107
581,581,322.0,581
1561,1561,1695.0,1561
952,952,36.812,952
3475,3475,0.0,3475
1140,1140,31.702,1140
2491,2491,1914.0,2491
567,567,2403.0,567
1034,1034,32.359,1034
1005,1005,0.0,1005
1973,1973,2268.0,1973
1105,1105,2015.0,1105
1635,1635,1255.0,1635
538,538,35.959,538
591,591,1770.0,591
1832,1832,33.17,1832
1887,1887,613.0,1887
1969,1969,1131.0,1969
1030,1030,35.572,1030
3187,3187,1540.0,3187
1902,1902,34.015,1902
1983,1983,1732.0,1983
1303,1303,1926.0,1303
3332,3332,28.018,3332
561,561,1983.0,561
2141,2141,2096.0,2141
1806,1806,33.404,1806
2367,2367,200.0,2367
3540,3540,36.493,3540
1225,1225,612.0,1225
2577,2577,608.0,2577
1679,1679,1202.0,1679
1023,1023,185.0,1023
1638,1638,32.905,1638
1587,1587,1487.0,1587
3283,3283,2162.0,3283
2035,2035,643.0,2035
1242,1242,30.593000000000004,1242
3528,3528,33.043,3528
2023,2023,485.0,2023
1476,1476,29.234,1476
1539,1539,2135.0,1539
2403,2403,109.0,2403
556,556,27.784,556
3148,3148,29.772,3148
3194,3194,27.374,3194
2904,2904,30.36,2904
2872,2872,27.213,2872
1950,1950,30.05,1950
2307,2307,721.0,2307
739,739,1394.0,739
1515,1515,2325.0,1515
3277,3277,2565.0,3277
2913,2913,1086.0,2913
2125,2125,2556.0,2125
2481,2481,405.0,2481
505,505,1645.0,505
3565,3565,1208.0,3565
2876,2876,28.895,2876
3045,3045,1329.0,3045
2070,2070,32.422,2070
3614,3614,27.375,3614
539,539,1583.0,539
2793,2793,0.0,2793
602,602,40.281,602
1092,1092,31.572,1092
1264,1264,37.975,1264
2229,2229,2552.0,2229
1917,1917,301.0,1917
1110,1110,30.601,1110
2720,2720,148.99,2720
3356,3356,27.601,3356
3470,3470,35.611,3470
2525,2525,151.0,2525
1834,1834,30.922,1834
3530,3530,29.028,3530
980,980,29.337,980
2911,2911,905.0,2911
2703,2703,1031.0,2703
1934,1934,30.407,1934
2369,2369,1116.0,2369
1687,1687,169.0,1687
3325,3325,1675.0,3325
967,967,2442.0,967
2456,2456,52.647,2456
1554,1554,32.739000000000004,1554
972,972,29.054,972
2719,2719,2154.0,2719
2042,2042,30.363000000000003,2042
1038,1038,56.438,1038
804,804,28.525,804
1056,1056,45.225,1056
2022,2022,31.865,2022
3086,3086,27.705,3086
1402,1402,37.432,1402
1422,1422,28.402,1422
2450,2450,33.702,2450
3373,3373,1400.0,3373
1618,1618,27.841,1618
1156,1156,28.979,1156
841,841,2527.0,841
2402,2402,29.483,2402
2271,2271,88.0,2271
2503,2503,1251.0,2503
2475,2475,810.0,2475
1940,1940,38.055,1940
1797,1797,594.0,1797
2664,2664,28.013,2664
2280,2280,34.035,2280
3589,3589,2479.0,3589
631,631,2693.0,631
3506,3506,26.695,3506
2549,2549,1265.0,2549
2914,2914,81.321,2914
1370,1370,32.816,1370
3210,3210,27.54,3210
1417,1417,881.0,1417
840,840,31.626,840
2323,2323,337.0,2323
3463,3463,0.0,3463
1033,1033,2038.0,1033
2979,2979,1021.0,2979
658,658,36.804,658
908,908,38.534,908
1813,1813,1922.0,1813
961,961,1132.0,961
676,676,39.42,676
507,507,2413.0,507
1569,1569,1828.0,1569
3130,3130,31.102,3130
3231,3231,600.0,3231
3180,3180,30.146,3180
1235,1235,1111.0,1235
1465,1465,2429.0,1465
1109,1109,1405.0,1109
1702,1702,41.099,1702
1217,1217,2124.0,1217
1104,1104,30.961,1104
1238,1238,34.588,1238
1106,1106,29.597,1106
2597,2597,1945.0,2597
2747,2747,2517.0,2747
3459,3459,0.0,3459
1345,1345,472.0,1345
2883,2883,1052.0,2883
1844,1844,28.517,1844
2557,2557,1390.0,2557
1344,1344,29.734,1344
1447,1447,2140.0,1447
1764,1764,132.939,1764
927,927,1361.0,927
1127,1127,1467.0,1127
1540,1540,28.818,1540
3603,3603,2035.0,3603
3258,3258,28.722,3258
3594,3594,37.148,3594
615,615,2270.0,615
3493,3493,2503.0,3493
508,508,29.139,508
3514,3514,31.434,3514
2173,2173,1454.0,2173
3458,3458,31.611,3458
1160,1160,30.893,1160
1865,1865,0.0,1865
3092,3092,206.218,3092
551,551,2088.0,551
1128,1128,33.24,1128
1397,1397,1486.0,1397
1312,1312,28.747,1312
548,548,26.344,548
860,860,29.848000000000006,860
1085,1085,2260.0,1085
685,685,1892.0,685
1459,1459,1610.0,1459
2293,2293,2483.0,2293
686,686,32.496,686
1009,1009,0.0,1009
1091,1091,1092.0,1091
1683,1683,849.0,1683
1283,1283,454.0,1283
1651,1651,246.0,1651
3128,3128,29.434,3128
657,657,1948.0,657
2455,2455,2409.0,2455
2225,2225,555.0,2225
512,512,27.83,512
3032,3032,35.161,3032
745,745,0.0,745
2994,2994,30.632,2994
797,797,2525.0,797
767,767,299.0,767
653,653,2014.0,653
1058,1058,30.071,1058
2136,2136,32.554,2136
3020,3020,28.257,3020
857,857,931.0,857
998,998,35.245,998
759,759,2628.0,759
839,839,1386.0,839
1548,1548,34.355,1548
609,609,1135.0,609
2613,2613,732.0,2613
2967,2967,1682.0,2967
762,762,31.197,762
3051,3051,2252.0,3051
1071,1071,385.0,1071
2299,2299,453.0,2299
1802,1802,30.968000000000004,1802
2431,2431,2598.0,2431
788,788,29.475,788
3072,3072,33.882,3072
3066,3066,30.523000000000003,3066
3247,3247,469.0,3247
2596,2596,35.157,2596
2083,2083,1614.0,2083
2787,2787,508.0,2787
3336,3336,30.789,3336
2601,2601,1135.0,2601
1404,1404,26.999,1404
2482,2482,27.477,2482
667,667,728.0,667
2465,2465,2310.0,2465
1012,1012,33.114000000000004,1012
1949,1949,2593.0,1949
2207,2207,1975.0,2207
2502,2502,28.8,2502
3275,3275,1232.0,3275
2991,2991,1227.0,2991
1081,1081,2437.0,1081
1292,1292,32.458,1292
3256,3256,31.353,3256
1475,1475,2312.0,1475
957,957,1936.0,957
1700,1700,33.518,1700
1541,1541,1867.0,1541
3574,3574,26.357,3574
1794,1794,33.626,1794
3344,3344,27.194000000000006,3344
2190,2190,28.563,2190
2674,2674,81.335,2674
2645,2645,276.0,2645
1401,1401,1692.0,1401
1975,1975,551.0,1975
2337,2337,377.0,2337
921,921,786.0,921
1145,1145,2624.0,1145
996,996,29.693,996
2700,2700,37.277,2700
807,807,1381.0,807
1112,1112,71.723,1112
3221,3221,1114.0,3221
687,687,1303.0,687
2649,2649,2108.0,2649
806,806,31.017,806
1681,1681,1490.0,1681
2126,2126,32.168,2126
3315,3315,2421.0,3315
1477,1477,1319.0,1477
2183,2183,2218.0,2183
2889,2889,1715.0,2889
689,689,1719.0,689
3547,3547,1453.0,3547
1800,1800,27.065,1800
694,694,36.38,694
2748,2748,28.135,2748
2054,2054,32.649,2054
1663,1663,1406.0,1663
3401,3401,1629.0,3401
3129,3129,843.0,3129
1895,1895,1930.0,1895
638,638,37.149,638
2567,2567,1080.0,2567
778,778,31.8,778
2742,2742,152.982,2742
1762,1762,140.02,1762
1386,1386,29.263,1386
2216,2216,36.362,2216
2013,2013,0.0,2013
1998,1998,28.515,1998
1445,1445,932.0,1445
2383,2383,860.0,2383
1740,1740,37.128,1740
2189,2189,166.0,2189
1468,1468,35.282,1468
2644,2644,30.83,2644
1536,1536,31.809,1536
2254,2254,27.857,2254
1694,1694,28.016,1694
2751,2751,0.0,2751
1774,1774,29.835,1774
1927,1927,0.0,1927
2340,2340,31.333,2340
2706,2706,36.51,2706
526,526,36.613,526
645,645,0.0,645
2618,2618,28.592,2618
2705,2705,2255.0,2705
2866,2866,27.648000000000003,2866
1222,1222,27.276,1222
1645,1645,1814.0,1645
2283,2283,1703.0,2283
825,825,1615.0,825
976,976,39.625,976
2538,2538,30.04,2538
1538,1538,30.026,1538
2584,2584,30.302,2584
892,892,32.803000000000004,892
1755,1755,2280.0,1755
564,564,32.881,564
3063,3063,320.0,3063
891,891,750.0,891
2585,2585,791.0,2585
769,769,1334.0,769
2800,2800,28.728,2800
3454,3454,28.616,3454
3125,3125,639.0,3125
2743,2743,2211.0,2743
1706,1706,31.755,1706
1546,1546,28.736,1546
2623,2623,59.0,2623
3081,3081,2474.0,3081
2099,2099,1598.0,2099
2406,2406,29.463,2406
1343,1343,1377.0,1343
2143,2143,2349.0,2143
1944,1944,42.367,1944
3518,3518,28.811,3518
3071,3071,1839.0,3071
1847,1847,80.0,1847
1107,1107,2690.0,1107
2790,2790,28.625,2790
2701,2701,0.0,2701
2050,2050,32.725,2050
1233,1233,853.0,1233
709,709,1017.0,709
1208,1208,34.306,1208
1855,1855,775.0,1855
1154,1154,38.33,1154
586,586,29.126,586
2049,2049,1365.0,2049
2600,2600,28.657,2600
1502,1502,31.845,1502
893,893,1141.0,893
1277,1277,2165.0,1277
3257,3257,329.0,3257
937,937,0.0,937
1374,1374,27.149,1374
1276,1276,28.447,1276
2268,2268,28.04,2268
2897,2897,0.0,2897
2407,2407,1251.0,2407
1069,1069,309.0,1069
2495,2495,2508.0,2495
2777,2777,2045.0,2777
973,973,398.0,973
1605,1605,0.0,1605
550,550,26.608,550
1458,1458,31.411,1458
1163,1163,586.0,1163
2354,2354,211.409,2354
1193,1193,1063.0,1193
3579,3579,2132.0,3579
1625,1625,0.0,1625
1346,1346,26.816,1346
549,549,1211.0,549
1496,1496,35.337,1496
2646,2646,29.196,2646
682,682,32.524,682
1997,1997,1158.0,1997
2149,2149,1933.0,2149
1494,1494,33.596,1494
2256,2256,27.716,2256
3177,3177,2324.0,3177
916,916,32.1,916
2490,2490,27.913,2490
2697,2697,2521.0,2697
879,879,0.0,879
1914,1914,38.726,1914
1129,1129,68.0,1129
1248,1248,31.498,1248
2115,2115,2707.0,2115
795,795,1127.0,795
1439,1439,1344.0,1439
2153,2153,441.0,2153
2627,2627,2420.0,2627
2053,2053,396.0,2053
2716,2716,32.189,2716
554,554,27.139,554
1708,1708,107.262,1708
2869,2869,2701.0,2869
2286,2286,30.61,2286
1032,1032,30.285,1032
3217,3217,2514.0,3217
1857,1857,0.0,1857
1002,1002,28.193,1002
930,930,51.173,930
2692,2692,27.212,2692
723,723,0.0,723
2133,2133,1548.0,2133
644,644,30.891,644
1028,1028,32.566,1028
2844,2844,33.061,2844
1166,1166,33.847,1166
2498,2498,28.542,2498
2607,2607,841.0,2607
3584,3584,35.55300000000001,3584
3138,3138,28.731,3138
774,774,38.37,774
1483,1483,920.0,1483
1325,1325,1818.0,1325
827,827,1973.0,827
2741,2741,504.0,2741
1320,1320,35.047,1320
2880,2880,29.864,2880
3548,3548,26.805,3548
1778,1778,28.871,1778
2639,2639,1290.0,2639
1273,1273,2131.0,1273
2147,2147,1891.0,2147
1567,1567,2433.0,1567
1701,1701,0.0,1701
1192,1192,36.544,1192
2727,2727,1243.0,2727
2999,2999,0.0,2999
1347,1347,1273.0,1347
1393,1393,2488.0,1393
2467,2467,2425.0,2467
2396,2396,28.656,2396
3131,3131,2259.0,3131
3239,3239,726.0,3239
3396,3396,27.383000000000006,3396
2563,2563,246.0,2563
2316,2316,45.931,2316
3189,3189,435.0,3189
2591,2591,1347.0,2591
2063,2063,2449.0,2063
2799,2799,268.0,2799
3469,3469,2097.0,3469
3362,3362,29.413,3362
1195,1195,0.0,1195
1201,1201,663.0,1201
2821,2821,0.0,2821
3613,3613,1729.0,3613
2632,2632,29.018,2632
3553,3553,2054.0,3553
733,733,1922.0,733
1787,1787,1148.0,1787
1356,1356,26.904,1356
2616,2616,30.471,2616
2320,2320,30.002,2320
1823,1823,0.0,1823
3023,3023,1058.0,3023
3533,3533,1731.0,3533
2837,2837,2693.0,2837
1784,1784,28.494,1784
3074,3074,28.236,3074
1773,1773,2658.0,1773
1739,1739,2308.0,1739
1884,1884,37.663,1884
1361,1361,1090.0,1361
553,553,1934.0,553
3443,3443,1574.0,3443
1792,1792,33.276,1792
3448,3448,27.022,3448
3113,3113,184.0,3113
2817,2817,1229.0,2817
3168,3168,30.466,3168
1497,1497,115.0,1497
3595,3595,881.0,3595
2034,2034,30.304,2034
1753,1753,502.0,1753
1121,1121,1078.0,1121
3599,3599,689.0,3599
2779,2779,2583.0,2779
951,951,2067.0,951
753,753,492.0,753
629,629,2158.0,629
652,652,36.864,652
3012,3012,31.557,3012
1785,1785,729.0,1785
1845,1845,856.0,1845
1826,1826,32.903,1826
1205,1205,647.0,1205
1598,1598,38.755,1598
1958,1958,32.333,1958
2269,2269,1607.0,2269
1365,1365,51.0,1365
2857,2857,2590.0,2857
1530,1530,31.142,1530
1507,1507,2603.0,1507
2239,2239,751.0,2239
2090,2090,34.304,2090
3304,3304,34.449,3304
2234,2234,32.84,2234
1426,1426,28.91,1426
3476,3476,28.314,3476
3300,3300,28.651,3300
2352,2352,32.038000000000004,2352
3115,3115,2373.0,3115
2417,2417,2629.0,2417
1662,1662,33.403,1662
605,605,1431.0,605
907,907,2135.0,907
1856,1856,30.295,1856
574,574,27.957,574
2636,2636,31.59,2636
800,800,32.214,800
2386,2386,28.741,2386
1215,1215,0.0,1215
3105,3105,255.0,3105
1153,1153,2580.0,1153
672,672,29.334,672
2573,2573,2226.0,2573
713,713,1999.0,713
2130,2130,32.367,2130
1388,1388,26.525,1388
3029,3029,1290.0,3029
2255,2255,953.0,2255
3509,3509,552.0,3509
3289,3289,1486.0,3289
3483,3483,1197.0,3483
2372,2372,28.506,2372
3432,3432,34.631,3432
968,968,71.718,968
2650,2650,31.271,2650
3382,3382,27.969,3382
1135,1135,0.0,1135
2682,2682,31.384,2682
2947,2947,1601.0,2947
2198,2198,26.974,2198
1017,1017,1488.0,1017
1543,1543,796.0,1543
2977,2977,1808.0,2977
3499,3499,2673.0,3499
3026,3026,30.94,3026
1234,1234,32.419000000000004,1234
1060,1060,29.517,1060
2087,2087,1064.0,2087
3349,3349,1244.0,3349
3482,3482,33.244,3482
2222,2222,32.749,2222
597,597,284.0,597
555,555,1055.0,555
543,543,425.0,543
3346,3346,29.446,3346
2381,2381,882.0,2381
2158,2158,30.796,2158
2072,2072,31.759,2072
2566,2566,26.668000000000006,2566
3351,3351,458.0,3351
1703,1703,1696.0,1703
1200,1200,31.534,1200
2048,2048,29.695,2048
1981,1981,1546.0,1981
780,780,30.904,780
1534,1534,27.85,1534
2333,2333,1227.0,2333
3618,3618,34.577,3618
3624,3624,30.828000000000007,3624
1978,1978,31.986,1978
2457,2457,535.0,2457
2978,2978,200.055,2978
1562,1562,33.114000000000004,1562
1008,1008,30.939,1008
661,661,555.0,661
2594,2594,27.882,2594
1526,1526,30.41,1526
932,932,64.969,932
1310,1310,28.28,1310
1888,1888,33.4,1888
3308,3308,31.644,3308
2311,2311,999.0,2311
1111,1111,613.0,1111
2219,2219,2056.0,2219
3400,3400,27.273000000000003,3400
1117,1117,2122.0,1117
601,601,1472.0,601
3330,3330,30.448,3330
2531,2531,2676.0,2531
711,711,0.0,711
1715,1715,791.0,1715
2399,2399,469.0,2399
3605,3605,990.0,3605
3097,3097,1286.0,3097
1433,1433,1227.0,1433
1959,1959,1947.0,1959
1463,1463,877.0,1463
1443,1443,965.0,1443
3090,3090,28.23,3090
3545,3545,189.0,3545
1177,1177,514.0,1177
1207,1207,2321.0,1207
2420,2420,30.242,2420
3311,3311,1044.0,3311
2376,2376,198.654,2376
1634,1634,29.412,1634
2854,2854,30.419,2854
1849,1849,2561.0,1849
3213,3213,1809.0,3213
1061,1061,1703.0,1061
2526,2526,29.71,2526
1363,1363,1980.0,1363
2628,2628,212.856,2628
3427,3427,841.0,3427
516,516,27.73,516
2725,2725,636.0,2725
3102,3102,32.452,3102
2932,2932,34.9,2932
1326,1326,29.558000000000003,1326
2368,2368,35.242,2368
2031,2031,558.0,2031
971,971,1377.0,971
1115,1115,272.0,1115
2224,2224,40.036,2224
2294,2294,31.204,2294
1767,1767,0.0,1767
2972,2972,33.467,2972
2088,2088,38.116,2088
674,674,38.36,674
1084,1084,32.196,1084
1435,1435,552.0,1435
1444,1444,28.773000000000003,1444
1926,1926,31.246,1926
1227,1227,1863.0,1227
959,959,0.0,959
1314,1314,27.556,1314
1656,1656,27.513,1656
3010,3010,33.387,3010
3013,3013,1950.0,3013
3322,3322,29.67,3322
2282,2282,32.475,2282
1748,1748,29.432,1748
1710,1710,28.45,1710
523,523,1546.0,523
1065,1065,2100.0,1065
1963,1963,2597.0,1963
2002,2002,29.389,2002
1357,1357,170.0,1357
2089,2089,310.0,2089
1942,1942,28.533,1942
2032,2032,30.807,2032
1555,1555,2388.0,1555
3333,3333,1977.0,3333
1860,1860,31.078000000000007,1860
3156,3156,27.787,3156
2536,2536,27.154,2536
3069,3069,1198.0,3069
2193,2193,2677.0,2193
693,693,1158.0,693
1727,1727,2384.0,1727
3202,3202,30.951,3202
3240,3240,27.678,3240
2881,2881,0.0,2881
2215,2215,2081.0,2215
3497,3497,49.0,3497
1522,1522,31.575,1522
2152,2152,30.746,2152
2401,2401,2621.0,2401
2252,2252,27.809,2252
1173,1173,222.0,1173
2589,2589,2541.0,2589
1882,1882,31.238000000000003,1882
3409,3409,1997.0,3409
2885,2885,0.0,2885
2220,2220,37.655,2220
947,947,0.0,947
1340,1340,27.5,1340
1904,1904,37.0,1904
3628,3628,30.349,3628
2553,2553,1755.0,2553
584,584,26.673,584
1075,1075,145.0,1075
2082,2082,32.04,2082
1100,1100,32.272,1100
2675,2675,1889.0,2675
1527,1527,2155.0,1527
1221,1221,356.0,1221
1211,1211,729.0,1211
2654,2654,29.72,2654
2981,2981,0.0,2981
2343,2343,1485.0,2343
678,678,36.666,678
1072,1072,30.762,1072
1149,1149,150.0,1149
1257,1257,2167.0,1257
2916,2916,38.228,2916
2029,2029,1838.0,2029
3143,3143,1295.0,3143
1840,1840,32.312,1840
2477,2477,953.0,2477
814,814,30.822,814
1836,1836,28.374,1836
2433,2433,2135.0,2433
1387,1387,1104.0,1387
2580,2580,234.312,2580
2995,2995,1014.0,2995
1457,1457,1791.0,1457
3235,3235,1853.0,3235
1783,1783,2327.0,1783
2104,2104,35.852,2104
1474,1474,29.183000000000003,1474
2253,2253,2471.0,2253
2101,2101,940.0,2101
3292,3292,27.904,3292
2655,2655,1818.0,2655
845,845,141.0,845
3342,3342,35.89,3342
904,904,33.086,904
2071,2071,1593.0,2071
1159,1159,2670.0,1159
1053,1053,2542.0,1053
3457,3457,579.0,3457
2218,2218,35.61199999999999,2218
1050,1050,30.002,1050
1622,1622,29.443,1622
2713,2713,0.0,2713
2927,2927,647.0,2927
710,710,31.503,710
1819,1819,886.0,1819
2075,2075,0.0,2075
1432,1432,27.513,1432
3571,3571,1279.0,3571
3079,3079,1700.0,3079
929,929,2665.0,929
2313,2313,0.0,2313
3297,3297,1077.0,3297
3403,3403,1357.0,3403
1827,1827,2148.0,1827
3471,3471,792.0,3471
3008,3008,35.447,3008
2560,2560,28.198,2560
1932,1932,38.148,1932
3035,3035,1163.0,3035
1068,1068,33.766,1068
2445,2445,81.0,2445
3558,3558,29.629,3558
1157,1157,1858.0,1157
2033,2033,795.0,2033
3250,3250,29.743,3250
2303,2303,162.0,2303
3088,3088,31.739,3088
2120,2120,32.606,2120
664,664,38.227,664
1431,1431,2522.0,1431
3621,3621,2422.0,3621
843,843,845.0,843
1735,1735,48.0,1735
1842,1842,30.367,1842
2085,2085,2144.0,2085
2759,2759,149.0,2759
2388,2388,37.708,2388
2405,2405,420.0,2405
1073,1073,0.0,1073
1284,1284,31.555,1284
2312,2312,33.829,2312
515,515,1290.0,515
1599,1599,0.0,1599
3041,3041,1749.0,3041
2489,2489,2438.0,2489
832,832,28.272,832
3334,3334,31.564,3334
2839,2839,1367.0,2839
712,712,30.569000000000006,712
865,865,2496.0,865
3019,3019,263.0,3019
3062,3062,28.483,3062
3230,3230,32.223,3230
2925,2925,599.0,2925
2197,2197,430.0,2197
1816,1816,29.277,1816
939,939,1951.0,939
2349,2349,2369.0,2349
2006,2006,28.77,2006
546,546,28.745,546
3604,3604,26.902,3604
3302,3302,28.347,3302
1654,1654,27.034,1654
1119,1119,1476.0,1119
1398,1398,34.437,1398
3388,3388,28.35,3388
3075,3075,1795.0,3075
3601,3601,1405.0,3601
1253,1253,928.0,1253
636,636,27.805,636
940,940,31.152,940
650,650,27.171,650
2356,2356,28.5,2356
2415,2415,2025.0,2415
1550,1550,30.838,1550
3335,3335,923.0,3335
3425,3425,781.0,3425
3261,3261,0.0,3261
896,896,38.832,896
2322,2322,30.91,2322
1271,1271,1194.0,1271
1666,1666,32.491,1666
925,925,0.0,925
3421,3421,0.0,3421
872,872,42.39,872
969,969,228.0,969
2996,2996,31.479,2996
2984,2984,27.818,2984
2798,2798,31.977,2798
3591,3591,1599.0,3591
2523,2523,2009.0,2523
2667,2667,681.0,2667
2744,2744,32.351,2744
1901,1901,2150.0,1901
2965,2965,1114.0,2965
846,846,30.867,846
3537,3537,145.0,3537
854,854,28.854,854
3181,3181,473.0,3181
2888,2888,32.958,2888
1707,1707,1382.0,1707
1074,1074,30.404,1074
3309,3309,0.0,3309
2982,2982,93.513,2982
3211,3211,468.0,3211
2882,2882,27.642,2882
1759,1759,148.0,1759
2859,2859,72.0,2859
2893,2893,520.0,2893
603,603,1893.0,603
2630,2630,37.179,2630
1528,1528,27.647,1528
510,510,28.282,510
3094,3094,29.384,3094
1411,1411,1548.0,1411
1187,1187,0.0,1187
2922,2922,31.581,2922
2792,2792,29.902,2792
3107,3107,2411.0,3107
2274,2274,28.815,2274
2231,2231,2423.0,2231
3544,3544,27.284,3544
635,635,1740.0,635
3354,3354,27.719,3354
1889,1889,1559.0,1889
3030,3030,29.322,3030
2210,2210,33.072,2210
2121,2121,2158.0,2121
1542,1542,28.389,1542
2213,2213,1489.0,2213
2851,2851,1080.0,2851
3527,3527,841.0,3527
1486,1486,37.787,1486
1610,1610,33.835,1610
2784,2784,27.224,2784
2988,2988,29.839,2988
541,541,2133.0,541
3076,3076,28.576,3076
2593,2593,1584.0,2593
1608,1608,40.11,1608
1520,1520,30.868,1520
1261,1261,2377.0,1261
3539,3539,2467.0,3539
1125,1125,2590.0,1125
3569,3569,821.0,3569
697,697,2249.0,697
3596,3596,30.615,3596
1108,1108,28.052,1108
616,616,27.088,616
2305,2305,0.0,2305
1355,1355,1589.0,1355
3472,3472,27.993,3472
3167,3167,0.0,3167
990,990,34.44,990
3003,3003,1328.0,3003
3586,3586,26.393,3586
1989,1989,2258.0,1989
2542,2542,32.149,2542
871,871,419.0,871
3007,3007,1034.0,3007
2485,2485,948.0,2485
3456,3456,34.276,3456
1799,1799,2036.0,1799
1782,1782,27.414,1782
503,503,2436.0,503
2884,2884,28.241,2884
1245,1245,1892.0,1245
3188,3188,30.572,3188
3291,3291,334.0,3291
1719,1719,0.0,1719
2030,2030,29.287,2030
2326,2326,30.793000000000006,2326
2841,2841,463.0,2841
1600,1600,36.957,1600
2287,2287,920.0,2287
2086,2086,27.388,2086
3058,3058,168.96200000000005,3058
746,746,32.078,746
2931,2931,1018.0,2931
1469,1469,2638.0,1469
2404,2404,32.192,2404
2668,2668,26.804,2668
2990,2990,31.518,2990
1898,1898,34.759,1898
1682,1682,28.622,1682
530,530,36.51,530
1757,1757,2000.0,1757
779,779,1198.0,779
3237,3237,2360.0,3237
2541,2541,1324.0,2541
1164,1164,29.857,1164
3625,3625,1712.0,3625
1818,1818,30.522,1818
1223,1223,1347.0,1223
3363,3363,2023.0,3363
