,time,rtt,id
3335,3335,3940.0,3335
2906,2906,29.502,2906
2826,2826,34.61,2826
1136,1136,32.158,1136
2494,2494,27.956,2494
3048,3048,38.434,3048
3713,3713,7698.0,3713
2938,2938,28.675,2938
1425,1425,0.0,1425
4018,4018,28.965,4018
3664,3664,32.038000000000004,3664
3078,3078,33.822,3078
881,881,0.0,881
4036,4036,199.09,4036
4265,4265,0.0,4265
3788,3788,36.736,3788
1642,1642,33.506,1642
2819,2819,1668.0,2819
2199,2199,4605.0,2199
1455,1455,0.0,1455
3220,3220,32.743,3220
726,726,35.009,726
2297,2297,4066.0,2297
4742,4742,29.056,4742
4271,4271,1108.0,4271
2891,2891,0.0,2891
3501,3501,3897.0,3501
1392,1392,32.447,1392
3496,3496,29.399,3496
656,656,35.562,656
4209,4209,3345.0,4209
2611,2611,9279.0,2611
2096,2096,36.705,2096
3595,3595,404.0,3595
2586,2586,35.082,2586
1298,1298,29.452,1298
1725,1725,7878.0,1725
4769,4769,1797.0,4769
2317,2317,6765.0,2317
756,756,31.214,756
4592,4592,29.085,4592
1295,1295,7605.0,1295
696,696,37.525,696
4303,4303,6109.0,4303
4564,4564,28.876,4564
3805,3805,0.0,3805
1216,1216,34.823,1216
3152,3152,35.357,3152
3177,3177,7283.0,3177
1664,1664,28.94,1664
3943,3943,3348.0,3943
1409,1409,7143.0,1409
4362,4362,32.003,4362
547,547,8633.0,547
4426,4426,31.386,4426
4157,4157,2988.0,4157
1828,1828,29.278,1828
611,611,1774.0,611
2233,2233,5167.0,2233
4852,4852,30.023000000000003,4852
4065,4065,0.0,4065
909,909,2593.0,909
1516,1516,31.834,1516
1809,1809,7359.0,1809
2877,2877,4577.0,2877
3474,3474,30.853,3474
2043,2043,6596.0,2043
4368,4368,29.061,4368
2404,2404,32.054,2404
1229,1229,8895.0,1229
3280,3280,33.64,3280
2015,2015,2483.0,2015
1933,1933,765.0,1933
3133,3133,0.0,3133
1391,1391,6855.0,1391
697,697,0.0,697
3616,3616,32.616,3616
3085,3085,0.0,3085
3431,3431,7422.0,3431
1189,1189,5959.0,1189
1431,1431,8725.0,1431
2684,2684,32.551,2684
4694,4694,32.838,4694
2658,2658,33.141,2658
789,789,0.0,789
4281,4281,0.0,4281
3598,3598,33.171,3598
4526,4526,30.908,4526
943,943,0.0,943
3575,3575,2954.0,3575
3964,3964,50.015,3964
1579,1579,7413.0,1579
982,982,28.975,982
4656,4656,35.86199999999999,4656
1254,1254,31.389,1254
4181,4181,2392.0,4181
1926,1926,31.785,1926
2671,2671,0.0,2671
4732,4732,39.682,4732
3929,3929,8750.0,3929
2047,2047,1739.0,2047
3467,3467,9215.0,3467
3727,3727,4448.0,3727
3605,3605,8150.0,3605
2693,2693,3425.0,2693
3853,3853,658.0,3853
2120,2120,33.883,2120
2643,2643,0.0,2643
1966,1966,31.268,1966
1657,1657,4388.0,1657
3993,3993,2132.0,3993
3840,3840,32.837,3840
2762,2762,33.301,2762
514,514,37.507,514
4791,4791,3830.0,4791
3404,3404,33.294000000000004,3404
954,954,52.908,954
3179,3179,515.0,3179
2218,2218,30.63,2218
668,668,32.506,668
3500,3500,33.315,3500
4797,4797,8987.0,4797
1006,1006,32.981,1006
4812,4812,33.437,4812
4330,4330,32.956,4330
688,688,30.038,688
511,511,4009.0,511
4669,4669,2651.0,4669
1803,1803,0.0,1803
1113,1113,2559.0,1113
4692,4692,31.027,4692
2950,2950,33.07,2950
2395,2395,2635.0,2395
1943,1943,7892.0,1943
1600,1600,28.736,1600
2711,2711,3693.0,2711
1877,1877,4255.0,1877
1623,1623,7516.0,1623
1903,1903,0.0,1903
922,922,32.63,922
3603,3603,7791.0,3603
4342,4342,34.484,4342
963,963,6979.0,963
2123,2123,9031.0,2123
820,820,30.424,820
2980,2980,35.61400000000001,2980
2964,2964,32.577,2964
3587,3587,2057.0,3587
1564,1564,33.927,1564
3072,3072,32.507,3072
3967,3967,7584.0,3967
1704,1704,29.231,1704
1992,1992,34.441,1992
1655,1655,3848.0,1655
2988,2988,29.01,2988
3328,3328,37.177,3328
1545,1545,5559.0,1545
2609,2609,5728.0,2609
2680,2680,32.787,2680
3926,3926,29.522,3926
2135,2135,1502.0,2135
1241,1241,1161.0,1241
1551,1551,4229.0,1551
2796,2796,31.311,2796
2334,2334,29.482,2334
1695,1695,4113.0,1695
635,635,1875.0,635
2899,2899,0.0,2899
1230,1230,47.735,1230
4778,4778,50.909,4778
4254,4254,29.855,4254
910,910,38.533,910
3238,3238,29.968000000000004,3238
3020,3020,33.064,3020
1061,1061,3479.0,1061
3667,3667,7476.0,3667
2044,2044,29.303,2044
1203,1203,5967.0,1203
3361,3361,5200.0,3361
1916,1916,33.43,1916
2572,2572,30.581,2572
1305,1305,9267.0,1305
3014,3014,38.897,3014
3868,3868,29.039,3868
4354,4354,35.425,4354
1641,1641,3836.0,1641
1559,1559,5985.0,1559
798,798,29.665,798
4414,4414,31.537,4414
3968,3968,32.177,3968
1989,1989,0.0,1989
2953,2953,3950.0,2953
4107,4107,8330.0,4107
1576,1576,37.541,1576
1957,1957,530.0,1957
3658,3658,174.565,3658
3206,3206,28.57,3206
2962,2962,37.806,2962
3737,3737,5644.0,3737
2360,2360,36.136,2360
3812,3812,114.424,3812
3329,3329,8429.0,3329
999,999,0.0,999
2756,2756,32.714,2756
4397,4397,0.0,4397
1102,1102,30.219,1102
4716,4716,30.218000000000004,4716
3843,3843,8858.0,3843
717,717,953.0,717
2562,2562,30.706,2562
3307,3307,4042.0,3307
1777,1777,7517.0,1777
2103,2103,2329.0,2103
3288,3288,36.9,3288
2304,2304,33.165,2304
1688,1688,28.9,1688
2113,2113,7123.0,2113
3191,3191,3393.0,3191
3132,3132,28.386,3132
4253,4253,6743.0,4253
3034,3034,43.21100000000001,3034
2745,2745,7823.0,2745
4076,4076,28.715,4076
1644,1644,49.771,1644
1438,1438,30.878,1438
1039,1039,4894.0,1039
3994,3994,61.378,3994
2062,2062,31.032,2062
2259,2259,8385.0,2259
838,838,36.401,838
1907,1907,2196.0,1907
532,532,28.283,532
4298,4298,36.311,4298
1511,1511,2683.0,1511
3027,3027,4873.0,3027
2766,2766,29.562,2766
559,559,2653.0,559
2670,2670,29.158,2670
3718,3718,32.681999999999995,3718
3503,3503,6838.0,3503
4082,4082,33.944,4082
3407,3407,7262.0,3407
2315,2315,668.0,2315
3067,3067,5499.0,3067
3541,3541,1871.0,3541
3965,3965,59.0,3965
3934,3934,29.623,3934
4581,4581,4878.0,4581
2926,2926,28.494,2926
2904,2904,34.83,2904
3318,3318,37.736,3318
4291,4291,775.0,4291
3249,3249,473.0,3249
749,749,7944.0,749
2814,2814,31.809,2814
2920,2920,63.928,2920
808,808,29.228,808
4367,4367,5071.0,4367
537,537,5458.0,537
2162,2162,30.005,2162
3644,3644,37.439,3644
4819,4819,7543.0,4819
4868,4868,29.055,4868
3443,3443,0.0,3443
1202,1202,28.688,1202
1285,1285,483.0,1285
4023,4023,554.0,4023
4760,4760,33.187,4760
2480,2480,31.304,2480
1007,1007,4086.0,1007
3037,3037,866.0,3037
2257,2257,8725.0,2257
4444,4444,35.50199999999999,4444
4519,4519,0.0,4519
2001,2001,2598.0,2001
3883,3883,6615.0,3883
2587,2587,705.0,2587
2441,2441,4314.0,2441
2915,2915,6226.0,2915
1209,1209,4103.0,1209
3634,3634,39.3,3634
2131,2131,4122.0,2131
2913,2913,7810.0,2913
519,519,0.0,519
500,500,31.328000000000007,500
3394,3394,29.789,3394
914,914,28.509,914
2678,2678,30.958,2678
3294,3294,30.743,3294
3680,3680,90.023,3680
728,728,34.1,728
1046,1046,33.437,1046
3139,3139,4877.0,3139
1179,1179,7513.0,1179
2540,2540,29.974,2540
3162,3162,31.548,3162
734,734,36.515,734
3173,3173,1633.0,3173
3962,3962,34.345,3962
2882,2882,34.482,2882
2380,2380,29.541,2380
2648,2648,39.016,2648
4482,4482,27.503,4482
2543,2543,6228.0,2543
1824,1824,45.532,1824
4012,4012,31.928,4012
1167,1167,3624.0,1167
2412,2412,36.19300000000001,2412
2635,2635,0.0,2635
1482,1482,29.456,1482
3278,3278,30.746,3278
3549,3549,4824.0,3549
2690,2690,32.176,2690
4628,4628,36.301,4628
3036,3036,28.672,3036
4422,4422,30.951,4422
4100,4100,31.789,4100
3725,3725,8246.0,3725
2548,2548,29.578000000000007,2548
3620,3620,35.83,3620
3347,3347,3913.0,3347
4570,4570,28.685,4570
2032,2032,29.149,2032
2989,2989,7233.0,2989
3348,3348,32.88,3348
4555,4555,7276.0,4555
1412,1412,42.125,1412
2433,2433,0.0,2433
822,822,28.71,822
4064,4064,35.075,4064
2221,2221,8805.0,2221
2496,2496,29.378,2496
2241,2241,0.0,2241
2782,2782,34.257,2782
4871,4871,746.0,4871
3396,3396,29.032,3396
621,621,236.0,621
4725,4725,6203.0,4725
2246,2246,164.726,2246
2284,2284,28.361,2284
2242,2242,31.384,2242
4598,4598,29.311,4598
3813,3813,2128.0,3813
3847,3847,1470.0,3847
1697,1697,7525.0,1697
2637,2637,7189.0,2637
1072,1072,39.797,1072
2526,2526,29.726,2526
558,558,27.968000000000004,558
2528,2528,37.094,2528
3970,3970,33.078,3970
2853,2853,3513.0,2853
3088,3088,29.989,3088
2177,2177,1005.0,2177
1790,1790,37.956,1790
1535,1535,3580.0,1535
4756,4756,32.037,4756
2263,2263,5856.0,2263
513,513,5587.0,513
3028,3028,930.803,3028
3804,3804,199.187,3804
623,623,1561.0,623
2861,2861,0.0,2861
3907,3907,5094.0,3907
727,727,752.0,727
1335,1335,1361.0,1335
4155,4155,8621.0,4155
2832,2832,29.562,2832
3891,3891,6858.0,3891
1742,1742,33.442,1742
3401,3401,413.0,3401
855,855,0.0,855
4401,4401,0.0,4401
3966,3966,32.901,3966
3641,3641,7349.0,3641
2373,2373,2253.0,2373
3091,3091,8893.0,3091
2788,2788,37.983,2788
1373,1373,3379.0,1373
3479,3479,5506.0,3479
4710,4710,27.941,4710
4869,4869,1601.0,4869
3505,3505,3657.0,3505
4606,4606,30.09,4606
2871,2871,6243.0,2871
3446,3446,29.207,3446
2325,2325,5761.0,2325
2058,2058,35.741,2058
2187,2187,8126.0,2187
3375,3375,8777.0,3375
2091,2091,5590.0,2091
1920,1920,35.705,1920
3324,3324,28.47,3324
2470,2470,34.294000000000004,2470
3440,3440,30.998,3440
2472,2472,34.401,2472
763,763,1502.0,763
905,905,3889.0,905
1141,1141,0.0,1141
2805,2805,0.0,2805
695,695,2853.0,695
3691,3691,0.0,3691
4081,4081,0.0,4081
4320,4320,29.943,4320
3341,3341,4903.0,3341
3427,3427,7308.0,3427
1275,1275,3855.0,1275
1244,1244,41.883,1244
4163,4163,1382.0,4163
3281,3281,8238.0,3281
1206,1206,34.593,1206
4061,4061,8357.0,4061
978,978,28.217,978
1996,1996,37.15,1996
2909,2909,8857.0,2909
3502,3502,208.05900000000003,3502
4430,4430,36.445,4430
4310,4310,29.492,4310
1191,1191,7457.0,1191
1419,1419,0.0,1419
1174,1174,52.521,1174
2589,2589,7110.0,2589
812,812,28.18,812
1450,1450,31.721,1450
4090,4090,27.85,4090
3514,3514,32.34,3514
2911,2911,6778.0,2911
1252,1252,34.087,1252
2939,2939,1834.0,2939
2447,2447,0.0,2447
1732,1732,34.968,1732
1043,1043,7071.0,1043
2240,2240,33.336,2240
1886,1886,34.267,1886
2696,2696,30.934,2696
4016,4016,260.42,4016
4127,4127,806.0,4127
3564,3564,27.859,3564
3661,3661,1499.0,3661
1297,1297,3355.0,1297
3739,3739,6006.0,3739
4225,4225,4887.0,4225
1808,1808,29.02,1808
4675,4675,5774.0,4675
4617,4617,702.0,4617
773,773,8413.0,773
2117,2117,5137.0,2117
1874,1874,30.074,1874
720,720,35.815,720
1323,1323,1824.0,1323
1921,1921,8646.0,1921
2681,2681,3729.0,2681
752,752,29.252,752
3918,3918,31.878,3918
770,770,30.036,770
4097,4097,6946.0,4097
1709,1709,3768.0,1709
2769,2769,0.0,2769
1364,1364,33.243,1364
3128,3128,36.309,3128
2874,2874,30.083,2874
4636,4636,39.441,4636
3509,3509,3934.0,3509
2212,2212,28.812,2212
740,740,30.638,740
3995,3995,661.0,3995
4774,4774,35.641,4774
1866,1866,31.217,1866
2313,2313,2180.0,2313
1712,1712,33.027,1712
1900,1900,29.969,1900
4706,4706,29.28,4706
2353,2353,4289.0,2353
4387,4387,4485.0,4387
1584,1584,38.051,1584
1658,1658,28.691,1658
1256,1256,32.531,1256
3122,3122,32.309,3122
2582,2582,32.989000000000004,2582
1738,1738,31.115,1738
4474,4474,28.919,4474
3042,3042,38.902,3042
955,955,4920.0,955
4660,4660,40.58,4660
1239,1239,7800.0,1239
2728,2728,37.109,2728
1741,1741,4907.0,1741
1289,1289,6546.0,1289
1377,1377,0.0,1377
4067,4067,7576.0,4067
3197,3197,2617.0,3197
4337,4337,0.0,4337
2509,2509,4979.0,2509
4738,4738,29.105,4738
2546,2546,33.637,2546
3666,3666,29.481,3666
598,598,35.052,598
3622,3622,31.785,3622
2569,2569,0.0,2569
1789,1789,787.0,1789
2095,2095,4992.0,2095
1717,1717,959.0,1717
4480,4480,29.14,4480
3984,3984,35.543,3984
1711,1711,589.0,1711
2936,2936,28.434,2936
2106,2106,48.349,2106
1018,1018,36.767,1018
566,566,28.613000000000003,566
3018,3018,32.664,3018
2565,2565,0.0,2565
3248,3248,30.171,3248
3882,3882,31.317,3882
651,651,845.0,651
1602,1602,28.33,1602
1601,1601,3288.0,1601
2324,2324,33.783,2324
3419,3419,5898.0,3419
4771,4771,4560.0,4771
2673,2673,2943.0,2673
3958,3958,147.45,3958
3390,3390,274.938,3390
1029,1029,203.0,1029
1522,1522,42.107,1522
2074,2074,30.563,2074
3381,3381,7879.0,3381
3426,3426,186.379,3426
2296,2296,33.406,2296
3720,3720,38.849,3720
690,690,35.98300000000001,690
1974,1974,34.465,1974
1761,1761,6376.0,1761
3632,3632,194.72,3632
2579,2579,1134.0,2579
1699,1699,1955.0,1699
4783,4783,3562.0,4783
906,906,30.415,906
4230,4230,28.811,4230
4212,4212,31.666,4212
1274,1274,32.71,1274
4376,4376,30.965,4376
1691,1691,5792.0,1691
1188,1188,32.651,1188
4179,4179,8950.0,4179
3571,3571,383.0,3571
1574,1574,36.785,1574
4358,4358,31.232,4358
2608,2608,47.346,2608
2440,2440,36.93,2440
2640,2640,30.995,2640
783,783,6479.0,783
3275,3275,5882.0,3275
2556,2556,31.628,2556
1915,1915,6910.0,1915
2592,2592,30.16,2592
4646,4646,29.451,4646
2258,2258,33.069,2258
4321,4321,6072.0,4321
4111,4111,2531.0,4111
2758,2758,33.68,2758
1524,1524,40.027,1524
2361,2361,4519.0,2361
1063,1063,1012.0,1063
2094,2094,31.882,2094
933,933,7033.0,933
4396,4396,32.946,4396
3874,3874,221.395,3874
1929,1929,1493.0,1929
2331,2331,2699.0,2331
1051,1051,6420.0,1051
3071,3071,9196.0,3071
4631,4631,6336.0,4631
4790,4790,34.372,4790
3844,3844,177.274,3844
877,877,7889.0,877
4863,4863,5280.0,4863
3219,3219,0.0,3219
3150,3150,36.189,3150
4460,4460,38.554,4460
4757,4757,6794.0,4757
3941,3941,2432.0,3941
3061,3061,5649.0,3061
4242,4242,30.849,4242
1848,1848,31.553,1848
3606,3606,186.925,3606
2824,2824,44.268,2824
4759,4759,5820.0,4759
4831,4831,468.0,4831
885,885,2675.0,885
3351,3351,2161.0,3351
748,748,29.138,748
2875,2875,0.0,2875
1525,1525,7618.0,1525
4633,4633,3972.0,4633
2192,2192,31.839,2192
3192,3192,29.491,3192
4445,4445,4164.0,4445
1290,1290,29.635,1290
1062,1062,33.123000000000005,1062
1994,1994,34.319,1994
2236,2236,34.066,2236
1362,1362,32.183,1362
2466,2466,28.699,2466
2856,2856,28.379,2856
1759,1759,3625.0,1759
1171,1171,5933.0,1171
589,589,3340.0,589
3334,3334,30.999,3334
3986,3986,31.404,3986
1553,1553,1896.0,1553
4183,4183,134.0,4183
4326,4326,48.614,4326
718,718,31.505,718
1961,1961,744.0,1961
2916,2916,30.201,2916
2328,2328,35.087,2328
1376,1376,32.096,1376
1306,1306,31.433000000000003,1306
4251,4251,1113.0,4251
4411,4411,8625.0,4411
2483,2483,5200.0,2483
1255,1255,4501.0,1255
3597,3597,7199.0,3597
4463,4463,6497.0,4463
4510,4510,28.055,4510
1830,1830,36.26,1830
3290,3290,32.822,3290
3719,3719,7197.0,3719
2521,2521,4911.0,2521
1067,1067,8286.0,1067
1260,1260,29.937,1260
3259,3259,1682.0,3259
1311,1311,5382.0,1311
3668,3668,34.602,3668
4135,4135,8553.0,4135
2822,2822,29.5,2822
4133,4133,3103.0,4133
4389,4389,2830.0,4389
1756,1756,37.814,1756
1566,1566,35.056,1566
2514,2514,27.818,2514
2398,2398,28.593000000000004,2398
2960,2960,32.056999999999995,2960
1807,1807,3194.0,1807
2677,2677,3823.0,2677
1594,1594,37.084,1594
3004,3004,28.797,3004
4726,4726,55.299,4726
1442,1442,31.277,1442
3497,3497,3894.0,3497
2683,2683,0.0,2683
1352,1352,30.539,1352
4166,4166,30.268,4166
4232,4232,29.102,4232
2275,2275,1066.0,2275
3848,3848,47.219,3848
3009,3009,4522.0,3009
4785,4785,0.0,4785
1571,1571,1154.0,1571
3790,3790,33.208,3790
1544,1544,29.732,1544
1429,1429,1729.0,1429
3682,3682,30.045,3682
4116,4116,29.337,4116
4391,4391,0.0,4391
2544,2544,32.983000000000004,2544
3468,3468,31.053,3468
3121,3121,8100.0,3121
3627,3627,7965.0,3627
3459,3459,8857.0,3459
3765,3765,8400.0,3765
4486,4486,33.113,4486
4129,4129,1025.0,4129
2918,2918,28.547,2918
2077,2077,0.0,2077
3148,3148,45.771,3148
776,776,33.53,776
2024,2024,28.872,2024
3590,3590,28.692,3590
1980,1980,33.515,1980
2140,2140,30.612,2140
1532,1532,33.346,1532
1510,1510,38.24,1510
1326,1326,32.826,1326
700,700,33.874,700
2052,2052,31.993,2052
1846,1846,39.161,1846
2251,2251,5458.0,2251
4691,4691,2377.0,4691
4594,4594,28.782,4594
4475,4475,5472.0,4475
1182,1182,40.66,1182
523,523,9003.0,523
2515,2515,1476.0,2515
861,861,761.0,861
4437,4437,1442.0,4437
3493,3493,6076.0,3493
1812,1812,28.827,1812
2137,2137,7441.0,2137
3521,3521,2377.0,3521
3524,3524,39.449,3524
4698,4698,31.457,4698
2633,2633,8655.0,2633
3971,3971,0.0,3971
1919,1919,5852.0,1919
1910,1910,30.493,1910
3110,3110,34.969,3110
4707,4707,353.0,4707
3483,3483,8627.0,3483
2970,2970,29.47,2970
3903,3903,2248.0,3903
3322,3322,30.721,3322
2366,2366,34.061,2366
2520,2520,29.671,2520
4022,4022,28.94,4022
4469,4469,8063.0,4469
4231,4231,3513.0,4231
4306,4306,40.349,4306
4301,4301,0.0,4301
950,950,30.078000000000007,950
1580,1580,32.187,1580
504,504,35.744,504
1280,1280,28.514,1280
3831,3831,8610.0,3831
1947,1947,7601.0,1947
1509,1509,8648.0,1509
4004,4004,28.985,4004
1971,1971,9070.0,1971
4219,4219,627.0,4219
4193,4193,1344.0,4193
1731,1731,1628.0,1731
4641,4641,0.0,4641
1016,1016,38.738,1016
3827,3827,681.0,3827
956,956,33.103,956
3366,3366,191.959,3366
1864,1864,30.022,1864
1843,1843,0.0,1843
4287,4287,2483.0,4287
2804,2804,29.145,2804
1126,1126,32.92,1126
4418,4418,32.32,4418
4070,4070,32.234,4070
1749,1749,8533.0,1749
2011,2011,6964.0,2011
3378,3378,33.96,3378
2625,2625,0.0,2625
1685,1685,0.0,1685
3408,3408,40.226,3408
4449,4449,2147.0,4449
1822,1822,29.617,1822
1941,1941,9158.0,1941
4153,4153,1639.0,4153
4813,4813,0.0,4813
708,708,36.093,708
675,675,4389.0,675
751,751,0.0,751
4207,4207,5596.0,4207
2454,2454,31.654,2454
4188,4188,29.05,4188
3153,3153,0.0,3153
2226,2226,30.392,2226
3475,3475,2641.0,3475
3783,3783,4471.0,3783
2944,2944,32.99,2944
3793,3793,8177.0,3793
2803,2803,5487.0,2803
2621,2621,9120.0,2621
3386,3386,29.151,3386
3417,3417,0.0,3417
1577,1577,7501.0,1577
4096,4096,41.976000000000006,4096
4228,4228,32.124,4228
2057,2057,4945.0,2057
1301,1301,6206.0,1301
4602,4602,32.505,4602
2858,2858,29.711,2858
784,784,34.904,784
1765,1765,0.0,1765
4532,4532,33.859,4532
3424,3424,198.117,3424
520,520,37.717,520
2802,2802,34.382,2802
2849,2849,5855.0,2849
2669,2669,5225.0,2669
2710,2710,31.483,2710
2619,2619,0.0,2619
4557,4557,5923.0,4557
1869,1869,2443.0,1869
2768,2768,29.993,2768
3114,3114,39.819,3114
4521,4521,7903.0,4521
2154,2154,201.349,2154
912,912,32.266,912
3282,3282,41.337,3282
2148,2148,32.948,2148
3428,3428,28.517,3428
2375,2375,7311.0,2375
2898,2898,29.456,2898
1876,1876,32.187,1876
941,941,5852.0,941
2370,2370,33.904,2370
2497,2497,5210.0,2497
2968,2968,31.594,2968
3846,3846,174.597,3846
1670,1670,32.186,1670
2653,2653,1479.0,2653
666,666,36.527,666
3780,3780,31.653,3780
4681,4681,4569.0,4681
2564,2564,30.387,2564
3711,3711,2398.0,3711
897,897,93.0,897
1750,1750,44.703,1750
4851,4851,7760.0,4851
2818,2818,33.42,2818
1616,1616,34.529,1616
3086,3086,33.486,3086
2713,2713,3507.0,2713
1637,1637,8291.0,1637
1181,1181,650.0,1181
2954,2954,31.558000000000003,2954
1057,1057,7327.0,1057
1523,1523,8272.0,1523
3992,3992,186.784,3992
4315,4315,4349.0,4315
742,742,31.181,742
3775,3775,2224.0,3775
1158,1158,47.674,1158
3253,3253,7181.0,3253
3412,3412,31.101,3412
1913,1913,143.0,1913
3269,3269,6196.0,3269
819,819,2352.0,819
4670,4670,33.114000000000004,4670
3069,3069,0.0,3069
3272,3272,29.83,3272
3263,3263,4710.0,3263
1862,1862,32.122,1862
4632,4632,31.797,4632
1395,1395,0.0,1395
4574,4574,29.259,4574
3911,3911,6874.0,3911
4830,4830,33.593,4830
3841,3841,2194.0,3841
3715,3715,3864.0,3715
2942,2942,34.496,2942
2427,2427,6923.0,2427
4245,4245,2479.0,4245
1000,1000,38.586,1000
593,593,4889.0,593
3120,3120,32.507,3120
3610,3610,191.598,3610
4835,4835,1769.0,4835
2157,2157,7144.0,2157
3368,3368,34.055,3368
4718,4718,33.32,4718
571,571,771.0,571
3108,3108,36.02,3108
1696,1696,28.677,1696
562,562,29.021,562
2594,2594,31.972,2594
1037,1037,5811.0,1037
1339,1339,3557.0,1339
2732,2732,33.261,2732
1768,1768,39.196,1768
2580,2580,30.184,2580
4758,4758,43.837,4758
2908,2908,29.515,2908
1462,1462,36.33,1462
1575,1575,7056.0,1575
3464,3464,29.153,3464
1147,1147,0.0,1147
4077,4077,8119.0,4077
2056,2056,30.41,2056
2940,2940,45.127,2940
3172,3172,31.797,3172
1212,1212,29.045,1212
4685,4685,4589.0,4685
977,977,5855.0,977
3621,3621,1503.0,3621
4511,4511,352.0,4511
737,737,8887.0,737
4141,4141,6585.0,4141
4579,4579,9044.0,4579
1161,1161,8479.0,1161
3449,3449,3061.0,3449
754,754,33.175,754
1890,1890,31.747,1890
934,934,30.567,934
714,714,28.99,714
3678,3678,157.636,3678
4167,4167,2559.0,4167
4766,4766,35.749,4766
4151,4151,7239.0,4151
1155,1155,3103.0,1155
3640,3640,155.537,3640
2925,2925,6010.0,2925
1330,1330,33.124,1330
4369,4369,1751.0,4369
1558,1558,36.285,1558
3300,3300,30.633000000000006,3300
2555,2555,7858.0,2555
1307,1307,4011.0,1307
1946,1946,31.484,1946
3398,3398,32.081,3398
2738,2738,30.965,2738
4768,4768,31.205,4768
592,592,29.775,592
4025,4025,6122.0,4025
3320,3320,37.984,3320
1436,1436,30.95,1436
2389,2389,0.0,2389
2561,2561,4179.0,2561
3040,3040,35.387,3040
4680,4680,60.764,4680
2825,2825,0.0,2825
2276,2276,36.358,2276
521,521,0.0,521
2987,2987,0.0,2987
4677,4677,596.0,4677
4550,4550,28.183000000000003,4550
1669,1669,2432.0,1669
4138,4138,37.773,4138
1138,1138,31.699,1138
2413,2413,7574.0,2413
2288,2288,31.146,2288
3234,3234,29.222,3234
4175,4175,9213.0,4175
2914,2914,32.351,2914
2196,2196,35.21,2196
787,787,1809.0,787
2040,2040,28.51,2040
2174,2174,37.55,2174
2838,2838,29.007,2838
2350,2350,33.0,2350
2778,2778,41.346,2778
2688,2688,32.519,2688
3935,3935,1265.0,3935
4244,4244,30.556,4244
1082,1082,49.651,1082
4467,4467,7279.0,4467
1873,1873,9063.0,1873
1094,1094,29.269,1094
1004,1004,33.587,1004
3777,3777,59.0,3777
1291,1291,9036.0,1291
4544,4544,28.957,4544
2757,2757,3263.0,2757
3031,3031,5545.0,3031
2507,2507,7144.0,2507
641,641,2435.0,641
509,509,7238.0,509
3724,3724,28.49,3724
3902,3902,31.217,3902
2829,2829,8704.0,2829
902,902,35.91,902
4673,4673,1632.0,4673
2209,2209,6920.0,2209
3233,3233,8805.0,3233
1672,1672,32.337,1672
1619,1619,4165.0,1619
3199,3199,5592.0,3199
2830,2830,34.516,2830
659,659,0.0,659
3397,3397,3294.0,3397
2026,2026,28.911,2026
4432,4432,37.891,4432
4152,4152,29.347,4152
953,953,1533.0,953
3697,3697,8889.0,3697
3338,3338,40.418,3338
2462,2462,32.582,2462
1820,1820,34.417,1820
4386,4386,29.091,4386
3939,3939,7670.0,3939
4211,4211,4806.0,4211
4115,4115,5562.0,4115
3762,3762,38.277,3762
1124,1124,32.501999999999995,1124
1384,1384,33.353,1384
1648,1648,32.3,1648
4290,4290,35.828,4290
3279,3279,5817.0,3279
2524,2524,30.652,2524
1552,1552,32.884,1552
741,741,9080.0,741
3143,3143,0.0,3143
4339,4339,8205.0,4339
4643,4643,4480.0,4643
2272,2272,37.21,2272
1630,1630,32.626999999999995,1630
569,569,2471.0,569
2529,2529,6548.0,2529
2314,2314,42.841,2314
2206,2206,28.798,2206
3198,3198,29.82,3198
1382,1382,30.155,1382
1988,1988,29.432,1988
4821,4821,827.0,4821
2550,2550,31.292,2550
1924,1924,30.175,1924
4101,4101,4457.0,4101
4645,4645,6657.0,4645
1372,1372,31.945,1372
4038,4038,188.763,4038
2203,2203,0.0,2203
4528,4528,33.945,4528
3699,3699,8893.0,3699
3557,3557,117.0,3557
4217,4217,4336.0,4217
4800,4800,28.084,4800
4261,4261,81.0,4261
1885,1885,3043.0,1885
3435,3435,70.0,3435
1730,1730,29.451,1730
4810,4810,30.5,4810
2000,2000,49.473,2000
1906,1906,29.532,1906
3663,3663,1950.0,3663
582,582,28.688,582
775,775,1583.0,775
2937,2937,5811.0,2937
604,604,35.697,604
3095,3095,659.0,3095
4123,4123,8515.0,4123
1117,1117,6397.0,1117
3331,3331,5765.0,3331
4589,4589,1778.0,4589
3938,3938,33.239000000000004,3938
4540,4540,34.001,4540
3747,3747,7408.0,3747
1501,1501,2249.0,1501
4185,4185,5282.0,4185
3316,3316,28.58,3316
4052,4052,213.254,4052
2527,2527,1555.0,2527
4336,4336,33.058,4336
3461,3461,3238.0,3461
1437,1437,6616.0,1437
3264,3264,34.506,3264
4784,4784,30.731,4784
1123,1123,4456.0,1123
4829,4829,1560.0,4829
2708,2708,31.182,2708
2614,2614,33.368,2614
1990,1990,39.823,1990
974,974,36.464,974
1250,1250,35.574,1250
2318,2318,27.994,2318
803,803,0.0,803
3337,3337,7295.0,3337
4442,4442,40.198,4442
3056,3056,37.541,3056
1108,1108,30.279,1108
680,680,28.496,680
4084,4084,34.691,4084
1556,1556,35.777,1556
1842,1842,38.27,1842
3101,3101,4799.0,3101
2660,2660,32.773,2660
1633,1633,5485.0,1633
1965,1965,6809.0,1965
2956,2956,30.366,2956
1341,1341,395.0,1341
1858,1858,28.635,1858
3991,3991,8821.0,3991
2012,2012,32.416,2012
4105,4105,8097.0,4105
1019,1019,4161.0,1019
3228,3228,37.736,3228
4438,4438,37.164,4438
3084,3084,28.142,3084
4142,4142,32.584,4142
1838,1838,39.705,1838
1724,1724,60.959,1724
1036,1036,30.064,1036
2976,2976,28.961,2976
1839,1839,4380.0,1839
911,911,7334.0,911
1099,1099,6443.0,1099
870,870,28.74,870
572,572,29.501,572
989,989,8983.0,989
2841,2841,1127.0,2841
1299,1299,7923.0,1299
3583,3583,1636.0,3583
4843,4843,290.0,4843
3884,3884,28.196,3884
2737,2737,0.0,2737
3049,3049,479.0,3049
1557,1557,8988.0,1557
4222,4222,33.022,4222
4074,4074,214.965,4074
887,887,0.0,887
2816,2816,33.357,2816
2088,2088,31.271,2088
4439,4439,454.0,4439
2783,2783,0.0,2783
4576,4576,29.156,4576
1139,1139,8146.0,1139
2734,2734,33.528,2734
1624,1624,28.822,1624
4406,4406,28.267,4406
772,772,30.663,772
4125,4125,1420.0,4125
4825,4825,6757.0,4825
4381,4381,6445.0,4381
1210,1210,31.536,1210
2923,2923,6917.0,2923
2722,2722,31.856,2722
2377,2377,859.0,2377
3836,3836,28.217,3836
2504,2504,41.703,2504
1733,1733,0.0,1733
1610,1610,28.987,1610
2512,2512,28.251,2512
1680,1680,31.438,1680
2505,2505,5474.0,2505
4436,4436,45.534,4436
1427,1427,8752.0,1427
2341,2341,7105.0,2341
3235,3235,0.0,3235
3807,3807,6314.0,3807
2144,2144,108.213,2144
1505,1505,0.0,1505
1620,1620,29.036,1620
3857,3857,4229.0,3857
4761,4761,1801.0,4761
1493,1493,7372.0,1493
4361,4361,4892.0,4361
693,693,8837.0,693
1573,1573,0.0,1573
1186,1186,32.578,1186
2429,2429,5981.0,2429
3677,3677,6702.0,3677
3617,3617,5090.0,3617
765,765,2049.0,765
4773,4773,8868.0,4773
2806,2806,30.996,2806
2979,2979,7189.0,2979
3887,3887,0.0,3887
2112,2112,39.963,2112
2142,2142,41.096,2142
3276,3276,33.943000000000005,3276
4272,4272,30.551,4272
1578,1578,32.48,1578
852,852,37.649,852
3221,3221,4880.0,3221
3021,3021,1439.0,3021
983,983,8665.0,983
1851,1851,1430.0,1851
3251,3251,2931.0,3251
3354,3354,32.257,3354
4735,4735,5288.0,4735
4210,4210,28.67,4210
1660,1660,28.199,1660
931,931,1686.0,931
3937,3937,7003.0,3937
4696,4696,39.634,4696
1478,1478,29.23,1478
4051,4051,4401.0,4051
630,630,28.215,630
2176,2176,32.628,2176
702,702,29.704,702
867,867,418.0,867
1805,1805,2663.0,1805
4729,4729,2057.0,4729
1097,1097,4753.0,1097
2665,2665,718.0,2665
4035,4035,7588.0,4035
3694,3694,31.354,3694
2163,2163,9005.0,2163
3380,3380,208.761,3380
4093,4093,2107.0,4093
1665,1665,4827.0,1665
707,707,3646.0,707
4206,4206,31.238000000000003,4206
3364,3364,176.333,3364
1414,1414,31.199,1414
2739,2739,2204.0,2739
3855,3855,4942.0,3855
3700,3700,68.465,3700
1686,1686,28.513,1686
1801,1801,1467.0,1801
3851,3851,3378.0,3851
3343,3343,8851.0,3343
3144,3144,37.911,3144
4807,4807,3305.0,4807
3287,3287,985.0,3287
506,506,33.59,506
1763,1763,6637.0,1763
4584,4584,30.641,4584
3987,3987,6928.0,3987
3746,3746,37.243,3746
3826,3826,31.962,3826
4730,4730,36.902,4730
4148,4148,32.321,4148
875,875,5253.0,875
1690,1690,29.677,1690
1639,1639,8596.0,1639
2152,2152,33.025,2152
1001,1001,4656.0,1001
4250,4250,31.757,4250
2118,2118,35.814,2118
2631,2631,7882.0,2631
1148,1148,37.907,1148
4568,4568,32.53,4568
619,619,6369.0,619
3623,3623,6621.0,3623
2794,2794,33.794000000000004,2794
2689,2689,1668.0,2689
3974,3974,32.333,3974
1634,1634,30.854,1634
3665,3665,8344.0,3665
3257,3257,6298.0,3257
2843,2843,4831.0,2843
3732,3732,30.123,3732
4629,4629,7283.0,4629
1293,1293,4585.0,1293
4258,4258,31.113000000000003,4258
3306,3306,31.668000000000006,3306
568,568,28.649,568
4249,4249,7794.0,4249
3125,3125,2819.0,3125
4461,4461,0.0,4461
4112,4112,30.423,4112
4780,4780,34.316,4780
811,811,4472.0,811
1456,1456,34.084,1456
4159,4159,441.0,4159
4247,4247,0.0,4247
4498,4498,29.339,4498
684,684,32.318000000000005,684
2484,2484,33.764,2484
4122,4122,33.872,4122
1593,1593,1522.0,1593
4809,4809,1975.0,4809
2860,2860,30.362,2860
3212,3212,32.501999999999995,3212
3629,3629,322.0,3629
924,924,29.08,924
557,557,3145.0,557
1267,1267,7481.0,1267
4615,4615,4995.0,4615
3154,3154,28.315,3154
1754,1754,35.853,1754
4417,4417,1885.0,4417
844,844,45.502,844
1014,1014,34.008,1014
2776,2776,34.816,2776
833,833,0.0,833
2736,2736,30.651,2736
4459,4459,5050.0,4459
1743,1743,2708.0,1743
2516,2516,29.451,2516
4721,4721,7035.0,4721
3166,3166,29.489,3166
1982,1982,43.767,1982
3904,3904,104.407,3904
1542,1542,37.499,1542
3478,3478,30.237,3478
4165,4165,5344.0,4165
958,958,33.28,958
1928,1928,30.29,1928
3917,3917,4121.0,3917
3209,3209,752.0,3209
738,738,31.239,738
1585,1585,5401.0,1585
2686,2686,33.755,2686
3053,3053,6228.0,3053
716,716,34.501999999999995,716
1603,1603,3850.0,1603
1317,1317,7388.0,1317
2571,2571,955.0,2571
1027,1027,8941.0,1027
1714,1714,35.177,1714
3741,3741,0.0,3741
2213,2213,7081.0,2213
1246,1246,33.181999999999995,1246
2122,2122,30.806,2122
1452,1452,36.885,1452
834,834,36.368,834
3820,3820,32.733000000000004,3820
1090,1090,31.051,1090
2729,2729,1080.0,2729
935,935,7684.0,935
1178,1178,30.268,1178
545,545,3020.0,545
3106,3106,37.884,3106
4055,4055,4928.0,4055
815,815,5892.0,815
2997,2997,1708.0,2997
4340,4340,34.277,4340
2392,2392,30.894,2392
2917,2917,3010.0,2917
1066,1066,31.351,1066
4011,4011,2511.0,4011
4840,4840,36.756,4840
4844,4844,29.25,4844
1720,1720,34.861999999999995,1720
4137,4137,7660.0,4137
4709,4709,6200.0,4709
1597,1597,6163.0,1597
1184,1184,34.101,1184
3015,3015,9020.0,3015
1909,1909,8475.0,1909
918,918,28.306,918
1262,1262,72.824,1262
1568,1568,35.465,1568
1003,1003,8904.0,1003
595,595,2288.0,595
3686,3686,37.757,3686
988,988,37.485,988
2499,2499,7699.0,2499
4747,4747,7489.0,4747
3550,3550,126.388,3550
1859,1859,8030.0,1859
4323,4323,0.0,4323
1415,1415,5806.0,1415
4664,4664,33.017,4664
3880,3880,33.514,3880
4325,4325,6047.0,4325
1247,1247,9257.0,1247
4832,4832,31.059,4832
2214,2214,34.764,2214
1035,1035,8393.0,1035
4088,4088,28.066,4088
3696,3696,29.47,3696
3899,3899,4349.0,3899
4255,4255,2015.0,4255
1710,1710,34.633,1710
1592,1592,41.288,1592
4383,4383,1591.0,4383
1111,1111,1823.0,1111
4136,4136,208.824,4136
2895,2895,2618.0,2895
4017,4017,7074.0,4017
925,925,185.0,925
2957,2957,7112.0,2957
3519,3519,3640.0,3519
617,617,2113.0,617
4770,4770,30.435,4770
1170,1170,31.606,1170
3900,3900,30.814,3900
3726,3726,28.852,3726
1176,1176,33.513000000000005,1176
565,565,7966.0,565
960,960,32.578,960
2344,2344,49.674,2344
4405,4405,3197.0,4405
2767,2767,2036.0,2767
3673,3673,6640.0,3673
1893,1893,9147.0,1893
3096,3096,30.881,3096
1878,1878,31.259,1878
2349,2349,9120.0,2349
596,596,33.352,596
2900,2900,34.884,2900
4575,4575,8329.0,4575
1218,1218,41.725,1218
1183,1183,0.0,1183
2329,2329,1834.0,2329
3077,3077,2092.0,3077
2264,2264,30.488000000000003,2264
2235,2235,0.0,2235
3455,3455,2645.0,3455
3250,3250,186.263,3250
1481,1481,2739.0,1481
2772,2772,32.289,2772
3393,3393,719.0,3393
2815,2815,8441.0,2815
1513,1513,3284.0,1513
848,848,36.212,848
1165,1165,7323.0,1165
3357,3357,4625.0,3357
3293,3293,6556.0,3293
3182,3182,32.045,3182
997,997,0.0,997
683,683,4498.0,683
915,915,3736.0,915
637,637,615.0,637
828,828,30.472,828
4837,4837,4590.0,4837
1879,1879,4691.0,1879
4792,4792,35.571,4792
2460,2460,29.363000000000003,2460
970,970,30.481,970
992,992,36.041,992
3701,3701,5342.0,3701
2076,2076,34.206,2076
821,821,4284.0,821
3576,3576,39.935,3576
3073,3073,8858.0,3073
1444,1444,30.346,1444
2016,2016,30.362,2016
3492,3492,38.453,3492
1337,1337,6065.0,1337
2661,2661,7011.0,2661
4425,4425,5023.0,4425
3766,3766,32.082,3766
3591,3591,2639.0,3591
3563,3563,2704.0,3563
2025,2025,4234.0,2025
3547,3547,5234.0,3547
3190,3190,28.022,3190
4654,4654,30.217,4654
3626,3626,180.993,3626
3923,3923,5196.0,3923
4705,4705,0.0,4705
1315,1315,3114.0,1315
2411,2411,8560.0,2411
1278,1278,31.651,1278
4740,4740,39.2,4740
1788,1788,32.889,1788
1612,1612,32.063,1612
3315,3315,5118.0,3315
3531,3531,1353.0,3531
1798,1798,39.059,1798
842,842,35.80699999999999,842
2493,2493,2795.0,2493
4269,4269,2854.0,4269
4149,4149,8553.0,4149
3822,3822,29.312,3822
747,747,2579.0,747
1271,1271,4009.0,1271
736,736,32.353,736
524,524,31.086,524
3369,3369,4186.0,3369
2801,2801,0.0,2801
2770,2770,30.384,2770
824,824,32.79,824
4640,4640,35.468,4640
872,872,35.898,872
4662,4662,36.159,4662
1423,1423,7280.0,1423
2194,2194,35.34,2194
4634,4634,37.811,4634
4075,4075,0.0,4075
3543,3543,6732.0,3543
3608,3608,37.082,3608
2929,2929,2436.0,2929
2813,2813,4373.0,2813
2301,2301,8468.0,2301
1810,1810,46.678,1810
1052,1052,33.779,1052
1967,1967,345.0,1967
4795,4795,4984.0,4795
1867,1867,3156.0,1867
4285,4285,4215.0,4285
2180,2180,38.518,2180
1814,1814,29.3,1814
2663,2663,4450.0,2663
2872,2872,29.471,2872
4308,4308,36.606,4308
4384,4384,48.719,4384
2793,2793,3082.0,2793
4666,4666,28.38,4666
2109,2109,4525.0,2109
3599,3599,5682.0,3599
761,761,8676.0,761
634,634,30.309,634
1881,1881,7206.0,1881
4252,4252,39.265,4252
4379,4379,1236.0,4379
3382,3382,28.765,3382
4473,4473,1414.0,4473
3751,3751,8941.0,3751
1213,1213,2025.0,1213
886,886,33.919000000000004,886
2535,2535,4537.0,2535
2086,2086,30.782,2086
3032,3032,30.126,3032
3712,3712,30.889,3712
1116,1116,33.542,1116
1951,1951,5462.0,1951
2243,2243,4707.0,2243
2943,2943,9108.0,2943
4113,4113,8147.0,4113
536,536,30.649,536
3002,3002,31.232,3002
4404,4404,30.718000000000004,4404
2617,2617,8676.0,2617
758,758,30.156,758
3186,3186,140.578,3186
2160,2160,40.86,2160
2785,2785,1080.0,2785
4515,4515,6893.0,4515
4275,4275,3378.0,4275
1251,1251,0.0,1251
2252,2252,31.804,2252
3093,3093,3489.0,3093
1487,1487,0.0,1487
2672,2672,32.427,2672
588,588,28.248,588
2146,2146,28.045,2146
4130,4130,29.615,4130
809,809,4132.0,809
2310,2310,28.667,2310
2336,2336,28.588,2336
2007,2007,7830.0,2007
4205,4205,0.0,4205
1473,1473,1154.0,1473
2894,2894,33.738,2894
2211,2211,3009.0,2211
4679,4679,7310.0,4679
1647,1647,0.0,1647
2533,2533,8277.0,2533
4593,4593,2824.0,4593
2247,2247,4426.0,2247
1646,1646,35.813,1646
3359,3359,8256.0,3359
4779,4779,0.0,4779
3643,3643,8623.0,3643
3931,3931,6606.0,3931
3579,3579,7929.0,3579
3730,3730,30.442,3730
1588,1588,33.943000000000005,1588
3693,3693,198.0,3693
1925,1925,3798.0,1925
3138,3138,32.243,3138
878,878,29.532,878
1835,1835,2688.0,1835
2638,2638,31.146,2638
4091,4091,0.0,4091
3141,3141,8399.0,3141
1972,1972,28.986,1972
4855,4855,1555.0,4855
3046,3046,29.727,3046
2810,2810,34.178000000000004,2810
2473,2473,6032.0,2473
1640,1640,39.69300000000001,1640
2020,2020,32.467,2020
722,722,34.519,722
1918,1918,36.253,1918
677,677,6232.0,677
1590,1590,44.941,1590
2458,2458,32.671,2458
4848,4848,30.537,4848
2066,2066,33.501,2066
669,669,5951.0,669
3773,3773,9134.0,3773
2656,2656,32.269,2656
4441,4441,0.0,4441
1020,1020,37.741,1020
883,883,4222.0,883
2945,2945,5765.0,2945
3879,3879,5192.0,3879
517,517,118.0,517
1328,1328,32.479,1328
2208,2208,29.37,2208
4720,4720,32.077,4720
3513,3513,8741.0,3513
1735,1735,8267.0,1735
4841,4841,1861.0,4841
2553,2553,7191.0,2553
946,946,32.217,946
3731,3731,5009.0,3731
3305,3305,2177.0,3305
2506,2506,35.427,2506
3582,3582,30.383000000000006,3582
3169,3169,1823.0,3169
2590,2590,32.402,2590
3721,3721,1047.0,3721
2102,2102,31.891,2102
2449,2449,3574.0,2449
2116,2116,36.166,2116
4655,4655,7477.0,4655
4083,4083,8491.0,4083
1433,1433,5075.0,1433
606,606,32.895,606
663,663,4045.0,663
1059,1059,0.0,1059
986,986,38.737,986
1379,1379,6647.0,1379
4794,4794,33.283,4794
4452,4452,30.944000000000006,4452
3055,3055,1618.0,3055
1615,1615,5475.0,1615
3451,3451,4480.0,3451
966,966,31.665,966
2763,2763,5017.0,2763
2912,2912,29.211,2912
2346,2346,40.76300000000001,2346
3690,3690,44.665,3690
2405,2405,0.0,2405
1300,1300,31.025,1300
2704,2704,30.632,2704
1296,1296,31.171,1296
1705,1705,0.0,1705
2114,2114,37.352,2114
2530,2530,35.949,2530
1258,1258,40.283,1258
3495,3495,2305.0,3495
1572,1572,28.35,1572
873,873,4638.0,873
3043,3043,0.0,3043
4623,4623,1910.0,4623
3147,3147,121.0,3147
4708,4708,37.256,4708
3932,3932,161.33,3932
3213,3213,0.0,3213
2387,2387,3474.0,2387
3652,3652,30.047,3652
2836,2836,30.088,2836
1464,1464,36.881,1464
3317,3317,8151.0,3317
2453,2453,5014.0,2453
628,628,32.848,628
3551,3551,6100.0,3551
2444,2444,32.073,2444
3405,3405,7472.0,3405
4801,4801,1663.0,4801
4349,4349,2416.0,4349
4239,4239,9191.0,4239
4047,4047,5659.0,4047
2746,2746,32.331,2746
1400,1400,31.6,1400
1378,1378,96.13,1378
4866,4866,30.814,4866
2265,2265,0.0,2265
3532,3532,72.99600000000002,3532
1953,1953,3430.0,1953
2921,2921,4812.0,2921
3584,3584,194.223,3584
2714,2714,32.548,2714
2248,2248,28.702,2248
1962,1962,32.343,1962
4182,4182,33.46,4182
1899,1899,1027.0,1899
1863,1863,7508.0,1863
1954,1954,28.741,1954
2919,2919,6653.0,2919
1381,1381,422.0,1381
3429,3429,2352.0,3429
2699,2699,5169.0,2699
4216,4216,56.67,4216
1098,1098,35.146,1098
3771,3771,0.0,3771
4476,4476,42.715,4476
2620,2620,37.044,2620
899,899,2843.0,899
1912,1912,30.375,1912
1185,1185,0.0,1185
1591,1591,602.0,1591
1367,1367,1757.0,1367
4488,4488,28.587,4488
2492,2492,28.372,2492
1627,1627,5717.0,1627
4042,4042,32.173,4042
771,771,2051.0,771
4353,4353,3382.0,4353
3365,3365,1890.0,3365
1013,1013,0.0,1013
2902,2902,35.69,2902
1338,1338,78.07600000000002,1338
1249,1249,8391.0,1249
3189,3189,6554.0,3189
2468,2468,36.361,2468
3284,3284,36.83,3284
3671,3671,1028.0,3671
1937,1937,2738.0,1937
1531,1531,4902.0,1531
4203,4203,2258.0,4203
2357,2357,7907.0,2357
3180,3180,75.37899999999998,3180
1499,1499,1722.0,1499
2321,2321,1647.0,2321
2338,2338,29.704,2338
4588,4588,40.56,4588
1151,1151,0.0,1151
518,518,33.178000000000004,518
4300,4300,31.092,4300
1868,1868,37.198,1868
3415,3415,5993.0,3415
3542,3542,31.139,3542
2067,2067,8647.0,2067
2488,2488,28.622,2488
3392,3392,35.552,3392
2599,2599,90.0,2599
2435,2435,1718.0,2435
1169,1169,4593.0,1169
3222,3222,29.08,3222
2848,2848,29.499,2848
1945,1945,0.0,1945
1403,1403,0.0,1403
1841,1841,4644.0,1841
1015,1015,3212.0,1015
4201,4201,8481.0,4201
835,835,1295.0,835
3866,3866,34.27,3866
3292,3292,49.19600000000001,3292
2959,2959,5429.0,2959
4481,4481,3785.0,4481
1084,1084,32.89,1084
1964,1964,30.846,1964
4403,4403,6178.0,4403
2451,2451,8188.0,2451
639,639,295.0,639
4471,4471,7523.0,4471
1649,1649,0.0,1649
4202,4202,31.663,4202
3896,3896,34.165,3896
1159,1159,4230.0,1159
3976,3976,33.348,3976
3098,3098,29.306,3098
2202,2202,28.962,2202
4858,4858,31.48,4858
4833,4833,8646.0,4833
3352,3352,30.031,3352
1993,1993,9280.0,1993
2760,2760,31.516,2760
3871,3871,9144.0,3871
4260,4260,28.41,4260
2789,2789,4361.0,2789
1480,1480,28.511,1480
3418,3418,28.645,3418
2327,2327,1332.0,2327
2781,2781,2914.0,2781
1266,1266,32.527,1266
1976,1976,29.169,1976
2232,2232,29.851,2232
4347,4347,3707.0,4347
3560,3560,28.744,3560
829,829,2056.0,829
1565,1565,5266.0,1565
3877,3877,3238.0,3877
2384,2384,29.713,2384
2773,2773,3414.0,2773
3200,3200,40.632,3200
1804,1804,28.612,1804
3472,3472,180.772,3472
4862,4862,38.091,4862
4043,4043,9095.0,4043
1441,1441,2875.0,1441
1500,1500,34.191,1500
2385,2385,8059.0,2385
3556,3556,31.812,3556
3345,3345,6616.0,3345
1529,1529,1712.0,1529
1331,1331,2166.0,1331
3217,3217,8873.0,3217
1504,1504,30.005,1504
541,541,6453.0,541
4307,4307,6148.0,4307
2438,2438,42.609,2438
534,534,29.665,534
4092,4092,30.97,4092
1609,1609,2989.0,1609
1375,1375,7770.0,1375
1779,1779,0.0,1779
626,626,29.453000000000007,626
3080,3080,32.062,3080
1776,1776,31.304,1776
2578,2578,30.263,2578
853,853,976.0,853
1831,1831,8654.0,1831
1407,1407,8217.0,1407
882,882,28.647,882
3662,3662,33.985,3662
3164,3164,29.689,3164
3837,3837,2305.0,3837
1088,1088,30.868,1088
2873,2873,7568.0,2873
4006,4006,36.128,4006
4717,4717,6043.0,4717
1162,1162,31.705,1162
4131,4131,6946.0,4131
3254,3254,223.034,3254
3869,3869,8167.0,3869
2217,2217,6474.0,2217
817,817,0.0,817
4577,4577,5746.0,4577
610,610,36.422,610
725,725,3764.0,725
1769,1769,3516.0,1769
1825,1825,3749.0,1825
2487,2487,5265.0,2487
1897,1897,7039.0,1897
1137,1137,8959.0,1137
2539,2539,0.0,2539
3985,3985,3848.0,3985
994,994,34.251999999999995,994
3930,3930,31.713,3930
575,575,3645.0,575
4108,4108,35.766,4108
2850,2850,32.663000000000004,2850
4009,4009,5289.0,4009
2266,2266,31.115,2266
1747,1747,2189.0,1747
1420,1420,40.083,1420
3450,3450,68.51899999999999,3450
4345,4345,2457.0,4345
1243,1243,5968.0,1243
594,594,32.297,594
1231,1231,55.0,1231
4850,4850,29.857,4850
613,613,7275.0,613
3112,3112,175.94099999999997,3112
4010,4010,28.796,4010
3244,3244,28.933000000000003,3244
2534,2534,32.965,2534
2228,2228,28.557,2228
2078,2078,30.767,2078
570,570,32.556,570
4005,4005,6448.0,4005
3083,3083,8208.0,3083
4483,4483,7254.0,4483
3167,3167,360.0,3167
2128,2128,30.566,2128
4331,4331,2373.0,4331
2244,2244,35.702,2244
4509,4509,2850.0,4509
3379,3379,2259.0,3379
3201,3201,7121.0,3201
2605,2605,4488.0,2605
2606,2606,30.11,2606
1132,1132,35.295,1132
2069,2069,0.0,2069
4671,4671,996.0,4671
4314,4314,28.449,4314
730,730,31.026,730
2300,2300,34.236999999999995,2300
2434,2434,31.78,2434
2647,2647,2628.0,2647
3236,3236,35.518,3236
4424,4424,35.98900000000001,4424
2371,2371,4871.0,2371
1853,1853,8988.0,1853
938,938,32.634,938
3469,3469,4882.0,3469
2474,2474,31.041,2474
3834,3834,33.418,3834
2933,2933,8147.0,2933
2992,2992,29.629,2992
4292,4292,31.853,4292
3743,3743,0.0,3743
2723,2723,7082.0,2723
4390,4390,32.329,4390
2903,2903,818.0,2903
3171,3171,6077.0,3171
1673,1673,6785.0,1673
2079,2079,3051.0,2079
2003,2003,2047.0,2003
3103,3103,6641.0,3103
4431,4431,5496.0,4431
2201,2201,5378.0,2201
4059,4059,4318.0,4059
3038,3038,30.48,3038
2583,2583,6824.0,2583
3854,3854,34.037,3854
2168,2168,29.156,2168
1302,1302,30.905,1302
3022,3022,29.719,3022
2061,2061,8879.0,2061
4823,4823,3867.0,4823
1689,1689,2413.0,1689
2181,2181,1220.0,2181
3185,3185,7339.0,3185
4045,4045,7431.0,4045
1875,1875,3492.0,1875
1582,1582,29.267,1582
2172,2172,36.283,2172
1432,1432,30.158,1432
2332,2332,29.213,2332
1519,1519,8756.0,1519
2812,2812,32.171,2812
4635,4635,5583.0,4635
744,744,31.588,744
3867,3867,7460.0,3867
4455,4455,1797.0,4455
3432,3432,28.061,3432
2604,2604,38.574,2604
4512,4512,28.715,4512
799,799,642.0,799
3371,3371,5362.0,3371
2479,2479,8130.0,2479
1114,1114,31.356,1114
4056,4056,34.828,4056
831,831,3555.0,831
2084,2084,30.68,2084
2184,2184,30.853,2184
4099,4099,4242.0,4099
1175,1175,9109.0,1175
1815,1815,5742.0,1815
2511,2511,3338.0,2511
4558,4558,29.575,4558
3674,3674,31.413,3674
1083,1083,8683.0,1083
535,535,6524.0,535
2726,2726,32.014,2726
1793,1793,0.0,1793
2761,2761,6551.0,2761
4363,4363,1483.0,4363
993,993,2171.0,993
1078,1078,31.642,1078
3517,3517,0.0,3517
4208,4208,196.029,4208
2378,2378,28.875,2378
4625,4625,7135.0,4625
1716,1716,35.656,1716
698,698,36.396,698
793,793,2219.0,793
4470,4470,29.434,4470
4021,4021,7460.0,4021
3767,3767,4484.0,3767
900,900,29.663,900
3570,3570,29.131,3570
4499,4499,1255.0,4499
2055,2055,6905.0,2055
3274,3274,31.803,3274
4604,4604,31.775,4604
949,949,2868.0,949
2223,2223,1252.0,2223
3817,3817,2566.0,3817
2082,2082,32.936,2082
4682,4682,29.021,4682
4322,4322,36.87,4322
522,522,29.392,522
2355,2355,0.0,2355
699,699,5088.0,699
854,854,36.654,854
2963,2963,0.0,2963
884,884,30.294,884
1180,1180,41.555,1180
1871,1871,7810.0,1871
3245,3245,1340.0,3245
1617,1617,6387.0,1617
4678,4678,28.528,4678
1661,1661,1762.0,1661
4562,4562,33.205,4562
796,796,35.618,796
1467,1467,284.0,1467
2969,2969,4982.0,2969
3515,3515,830.0,3515
4177,4177,2888.0,4177
903,903,9306.0,903
3126,3126,32.467,3126
3779,3779,2926.0,3779
2659,2659,6364.0,2659
729,729,1520.0,729
647,647,3774.0,647
1142,1142,46.56800000000001,1142
2993,2993,3720.0,2993
3267,3267,7311.0,3267
599,599,7299.0,599
3909,3909,8685.0,3909
1955,1955,382.0,1955
2390,2390,32.671,2390
2907,2907,7982.0,2907
4450,4450,39.242,4450
721,721,8529.0,721
1780,1780,29.368,1780
1416,1416,38.262,1416
2971,2971,7921.0,2971
4603,4603,2988.0,4603
2382,2382,29.668000000000006,2382
880,880,28.722,880
3099,3099,2314.0,3099
2552,2552,31.976,2552
1518,1518,39.961,1518
2287,2287,2715.0,2287
1321,1321,7947.0,1321
3989,3989,423.0,3989
913,913,6214.0,913
4719,4719,7359.0,4719
3849,3849,1931.0,3849
1406,1406,32.894,1406
3800,3800,99.473,3800
4765,4765,2284.0,4765
3087,3087,5611.0,3087
3862,3862,36.469,3862
3695,3695,3893.0,3695
1024,1024,31.109,1024
849,849,6577.0,849
4624,4624,37.87300000000001,4624
3799,3799,2500.0,3799
2765,2765,1080.0,2765
1850,1850,33.268,1850
4772,4772,34.744,4772
1829,1829,3336.0,1829
4283,4283,2653.0,4283
2139,2139,1606.0,2139
1781,1781,3391.0,1781
1021,1021,0.0,1021
3063,3063,2976.0,3063
3787,3787,6849.0,3787
4049,4049,230.0,4049
2267,2267,3547.0,2267
3748,3748,39.139,3748
3685,3685,6169.0,3685
4839,4839,5926.0,4839
3655,3655,3429.0,3655
2036,2036,32.375,2036
3402,3402,29.216,3402
1353,1353,0.0,1353
3906,3906,174.359,3906
1077,1077,7319.0,1077
2827,2827,4174.0,2827
3129,3129,1246.0,3129
4456,4456,29.109,4456
4071,4071,2889.0,4071
620,620,29.789,620
2807,2807,4023.0,2807
4026,4026,46.178,4026
2309,2309,2595.0,2309
2004,2004,38.03,2004
1719,1719,939.0,1719
3978,3978,38.039,3978
2237,2237,6135.0,2237
2295,2295,1543.0,2295
3528,3528,173.136,3528
2227,2227,0.0,2227
1999,1999,5324.0,1999
3308,3308,29.642,3308
3376,3376,43.18600000000001,3376
4630,4630,32.661,4630
4648,4648,28.617,4648
531,531,7903.0,531
4160,4160,30.748,4160
3229,3229,4634.0,3229
4847,4847,0.0,4847
3265,3265,9091.0,3265
3109,3109,1327.0,3109
2469,2469,3060.0,2469
4154,4154,31.677,4154
3615,3615,5865.0,3615
3485,3485,0.0,3485
3950,3950,29.808000000000003,3950
3997,3997,8217.0,3997
3218,3218,34.21,3218
1589,1589,5418.0,1589
1883,1883,1480.0,1883
4820,4820,29.495,4820
1852,1852,31.043000000000006,1852
3961,3961,8671.0,3961
975,975,5061.0,975
2285,2285,3839.0,2285
1752,1752,40.333,1752
2991,2991,8074.0,2991
3637,3637,7111.0,3637
1604,1604,29.279,1604
2080,2080,29.471,2080
1101,1101,2326.0,1101
1723,1723,6129.0,1723
3707,3707,2330.0,3707
1796,1796,50.31,1796
1775,1775,7327.0,1775
4162,4162,28.626,4162
3482,3482,33.041,3482
2786,2786,33.935,2786
2302,2302,32.149,2302
2554,2554,33.587,2554
2156,2156,30.279,2156
1380,1380,29.875,1380
3530,3530,39.705,3530
3068,3068,37.095,3068
3403,3403,5931.0,3403
1396,1396,74.525,1396
3052,3052,37.712,3052
4277,4277,1904.0,4277
4351,4351,2478.0,4351
4665,4665,3388.0,4665
2695,2695,3462.0,2695
2068,2068,29.917,2068
985,985,3250.0,985
1349,1349,0.0,1349
2983,2983,1364.0,2983
2924,2924,33.001,2924
2896,2896,35.16,2896
3463,3463,8531.0,3463
4638,4638,36.191,4638
3959,3959,2191.0,3959
1316,1316,32.119,1316
3165,3165,0.0,3165
1470,1470,35.12,1470
4650,4650,32.165,4650
2744,2744,40.882,2744
2051,2051,2408.0,2051
2588,2588,37.555,2588
3806,3806,30.91,3806
1817,1817,165.0,1817
3833,3833,237.0,3833
3433,3433,3513.0,3433
1294,1294,28.325,1294
1533,1533,4830.0,1533
1728,1728,191.83900000000003,1728
3809,3809,3182.0,3809
1434,1434,28.441,1434
1103,1103,4235.0,1103
4599,4599,0.0,4599
3332,3332,35.94,3332
4412,4412,32.712,4412
633,633,9078.0,633
4150,4150,30.719,4150
3005,3005,7162.0,3005
1199,1199,356.0,1199
2195,2195,8564.0,2195
3898,3898,31.543000000000006,3898
4305,4305,3261.0,4305
1596,1596,29.174,1596
1369,1369,2338.0,1369
4174,4174,28.697,4174
4200,4200,34.13,4200
3798,3798,28.857,3798
987,987,8750.0,987
2797,2797,3391.0,2797
646,646,47.5,646
4727,4727,0.0,4727
2188,2188,28.803,2188
671,671,1355.0,671
3548,3548,29.045,3548
750,750,28.536,750
1772,1772,29.174,1772
1607,1607,0.0,1607
3975,3975,3233.0,3975
1936,1936,30.527,1936
2834,2834,29.029,2834
1652,1652,29.443,1652
4145,4145,6994.0,4145
2501,2501,5920.0,2501
2694,2694,36.386,2694
1040,1040,29.662,1040
1440,1440,32.034,1440
4289,4289,1627.0,4289
3136,3136,33.78,3136
2270,2270,29.087,2270
1991,1991,3823.0,1991
4451,4451,0.0,4451
3753,3753,6075.0,3753
4462,4462,29.802,4462
1613,1613,1079.0,1613
2749,2749,3377.0,2749
603,603,8257.0,603
3298,3298,32.251999999999995,3298
627,627,3397.0,627
3890,3890,31.293000000000006,3890
1880,1880,34.563,1880
660,660,35.465,660
2436,2436,36.4,2436
4458,4458,31.646,4458
4346,4346,35.988,4346
4423,4423,3263.0,4423
3742,3742,32.713,3742
4767,4767,4343.0,4767
1272,1272,34.385,1272
1892,1892,33.56,1892
622,622,29.64,622
3728,3728,32.17,3728
2718,2718,29.608,2718
4385,4385,3841.0,4385
1131,1131,2618.0,1131
3733,3733,6027.0,3733
1595,1595,9073.0,1595
4551,4551,2377.0,4551
4497,4497,2809.0,4497
2416,2416,34.37,2416
4329,4329,4234.0,4329
1214,1214,30.518,1214
1495,1495,7916.0,1495
794,794,41.152,794
2928,2928,30.534,2928
1451,1451,7924.0,1451
4350,4350,30.459,4350
4293,4293,1039.0,4293
3601,3601,3438.0,3601
2835,2835,7347.0,2835
1503,1503,7307.0,1503
2448,2448,28.606,2448
871,871,5463.0,871
3160,3160,29.342,3160
2339,2339,3751.0,2339
625,625,9071.0,625
3614,3614,29.324,3614
1042,1042,42.883,1042
3111,3111,1700.0,3111
4734,4734,34.822,4734
2292,2292,31.552,2292
942,942,31.025,942
4693,4693,8681.0,4693
3852,3852,34.719,3852
3750,3750,30.242,3750
1821,1821,0.0,1821
3835,3835,6979.0,3835
2852,2852,37.277,2852
2691,2691,6651.0,2691
3920,3920,28.043000000000006,3920
3977,3977,408.0,3977
1952,1952,28.792,1952
3439,3439,5510.0,3439
2901,2901,781.0,2901
715,715,298.0,715
3006,3006,30.449,3006
1674,1674,29.282,1674
2394,2394,35.148,2394
2522,2522,28.621,2522
1560,1560,28.983,1560
4567,4567,3084.0,4567
4722,4722,36.861,4722
785,785,8536.0,785
1025,1025,2122.0,1025
888,888,30.212,888
1448,1448,34.675,1448
2319,2319,6410.0,2319
2408,2408,42.232,2408
1948,1948,30.949,1948
2878,2878,28.072,2878
1207,1207,0.0,1207
3477,3477,1181.0,3477
3710,3710,31.245,3710
2974,2974,42.82899999999999,2974
4015,4015,3735.0,4015
1288,1288,49.07899999999999,1288
790,790,32.174,790
4686,4686,31.82,4686
4517,4517,7232.0,4517
1413,1413,3819.0,1413
3589,3589,5585.0,3589
4184,4184,34.36,4184
2622,2622,31.882,2622
777,777,3231.0,777
1466,1466,42.166,1466
1737,1737,6895.0,1737
2326,2326,32.486,2326
2410,2410,36.957,2410
2150,2150,186.692,2150
3893,3893,3485.0,3893
1421,1421,0.0,1421
3057,3057,559.0,3057
3157,3157,4266.0,3157
3714,3714,31.864,3714
2952,2952,55.709,2952
4484,4484,28.272,4484
1120,1120,37.278,1120
4457,4457,4792.0,4457
1979,1979,9099.0,1979
1693,1693,7616.0,1693
3794,3794,34.591,3794
3333,3333,7204.0,3333
3188,3188,32.608000000000004,3188
4798,4798,29.619,4798
3983,3983,6572.0,3983
2842,2842,31.104,2842
3568,3568,32.176,3568
4334,4334,35.097,4334
3223,3223,7308.0,3223
1734,1734,37.099,1734
4352,4352,29.204,4352
2551,2551,5062.0,2551
4267,4267,3243.0,4267
969,969,1466.0,969
3137,3137,4364.0,3137
4622,4622,32.257,4622
1430,1430,32.297,1430
4002,4002,218.759,4002
1259,1259,7454.0,1259
1745,1745,3313.0,1745
2753,2753,4748.0,2753
1653,1653,4978.0,1653
2029,2029,2510.0,2029
3452,3452,218.431,3452
1512,1512,33.139,1512
2975,2975,4803.0,2975
3196,3196,28.42,3196
2712,2712,29.073,2712
1911,1911,1279.0,1911
3648,3648,33.492,3648
2676,2676,32.878,2676
4364,4364,31.571,4364
2946,2946,31.285,2946
731,731,6959.0,731
2041,2041,834.0,2041
2400,2400,35.642,2400
3969,3969,3922.0,3969
1204,1204,34.372,1204
894,894,28.205,894
4295,4295,6307.0,4295
939,939,208.0,939
1537,1537,3062.0,1537
3611,3611,439.0,3611
2755,2755,6160.0,2755
2442,2442,30.889,2442
1995,1995,3129.0,1995
920,920,29.246,920
4409,4409,0.0,4409
4399,4399,8756.0,4399
1313,1313,3238.0,1313
1095,1095,3067.0,1095
2098,2098,32.264,2098
2060,2060,31.952,2060
3635,3635,6270.0,3635
2046,2046,32.081,2046
2994,2994,29.986,2994
1236,1236,41.657,1236
612,612,39.471,612
2019,2019,0.0,2019
1360,1360,64.051,1360
1985,1985,4614.0,1985
3465,3465,7989.0,3465
3066,3066,29.679,3066
3448,3448,28.584,3448
2277,2277,2614.0,2277
3892,3892,28.654,3892
1489,1489,8934.0,1489
3252,3252,29.626,3252
4348,4348,30.955,4348
4335,4335,7603.0,4335
552,552,31.873,552
3457,3457,798.0,3457
4041,4041,8559.0,4041
2018,2018,29.314,2018
3399,3399,461.0,3399
4443,4443,3997.0,4443
2027,2027,3835.0,2027
1791,1791,4692.0,1791
3921,3921,4136.0,3921
764,764,28.491,764
3630,3630,239.318,3630
2038,2038,31.279,2038
923,923,6720.0,923
4504,4504,31.285,4504
4393,4393,1695.0,4393
837,837,3710.0,837
2865,2865,2222.0,2865
782,782,30.43,782
2279,2279,2318.0,2279
3858,3858,212.973,3858
4703,4703,0.0,4703
4062,4062,35.383,4062
901,901,0.0,901
4590,4590,40.965,4590
2752,2752,31.396,2752
2513,2513,3962.0,2513
4327,4327,0.0,4327
3565,3565,0.0,3565
4816,4816,28.872,4816
4256,4256,29.348000000000006,4256
600,600,37.677,600
2100,2100,47.51600000000001,2100
2652,2652,32.236999999999995,2652
3947,3947,7244.0,3947
1245,1245,3269.0,1245
2294,2294,34.929,2294
3215,3215,2121.0,3215
4110,4110,36.022,4110
2641,2641,4972.0,2641
3996,3996,201.121,3996
3872,3872,31.505,3872
2191,2191,682.0,2191
4701,4701,8154.0,4701
1713,1713,0.0,1713
580,580,29.585,580
4248,4248,30.939,4248
1795,1795,262.0,1795
4704,4704,29.323,4704
2930,2930,34.836,2930
3525,3525,0.0,3525
706,706,33.677,706
2845,2845,8831.0,2845
3330,3330,29.654,3330
2081,2081,6913.0,2081
4213,4213,9140.0,4213
3574,3574,31.958,3574
3070,3070,29.067,3070
3612,3612,29.801,3612
1333,1333,6547.0,1333
4240,4240,29.319000000000006,4240
1150,1150,39.105,1150
1348,1348,29.712,1348
1960,1960,35.642,1960
3353,3353,1682.0,3353
4822,4822,34.294000000000004,4822
2171,2171,7068.0,2171
965,965,8582.0,965
4787,4787,1453.0,4787
1366,1366,31.697,1366
1854,1854,30.046,1854
691,691,5244.0,691
3825,3825,0.0,3825
3861,3861,1075.0,3861
1517,1517,5112.0,1517
1668,1668,28.074,1668
4799,4799,9018.0,4799
1133,1133,1615.0,1133
2809,2809,9183.0,2809
4060,4060,33.846,4060
2107,2107,903.0,2107
3437,3437,2058.0,3437
581,581,5746.0,581
1561,1561,7834.0,1561
952,952,35.994,952
3016,3016,28.952,3016
3709,3709,855.0,3709
4755,4755,366.0,4755
1140,1140,31.764,1140
2491,2491,5466.0,2491
567,567,5239.0,567
1034,1034,29.872,1034
1005,1005,8598.0,1005
1973,1973,600.0,1973
1105,1105,215.0,1105
1635,1635,5575.0,1635
538,538,28.678,538
591,591,5409.0,591
3529,3529,612.0,3529
1832,1832,33.633,1832
1887,1887,5361.0,1887
1969,1969,5628.0,1969
1030,1030,35.914,1030
4433,4433,3882.0,4433
1902,1902,29.484,1902
1983,1983,970.0,1983
1303,1303,3414.0,1303
3273,3273,690.0,3273
4644,4644,28.099,4644
561,561,5609.0,561
2141,2141,4870.0,2141
3460,3460,34.764,3460
2754,2754,33.436,2754
1806,1806,36.49,1806
2367,2367,527.0,2367
3999,3999,3575.0,3999
1225,1225,2038.0,1225
2577,2577,3526.0,2577
3581,3581,6285.0,3581
1679,1679,5804.0,1679
3636,3636,39.256,3636
1023,1023,199.0,1023
1638,1638,31.976,1638
4573,4573,1617.0,4573
3373,3373,9141.0,3373
1587,1587,9075.0,1587
3323,3323,7685.0,3323
1562,1562,36.099,1562
2035,2035,603.0,2035
1242,1242,31.781,1242
2948,2948,28.36,2948
1901,1901,2532.0,1901
2023,2023,8640.0,2023
1476,1476,33.181,1476
1539,1539,5613.0,1539
2403,2403,4328.0,2403
556,556,29.304,556
4398,4398,38.538,4398
4609,4609,229.0,4609
3838,3838,35.956,3838
4560,4560,31.719,4560
3979,3979,8280.0,3979
3796,3796,29.105,3796
1950,1950,30.968000000000004,1950
2307,2307,6336.0,2307
739,739,1840.0,739
1515,1515,6236.0,1515
4587,4587,3374.0,4587
4046,4046,35.703,4046
2125,2125,2908.0,2125
2481,2481,1672.0,2481
3729,3729,658.0,3729
3660,3660,30.241,3660
4073,4073,6124.0,4073
505,505,1453.0,505
3736,3736,30.555,3736
4661,4661,8535.0,4661
3988,3988,34.418,3988
4237,4237,703.0,4237
2070,2070,30.363000000000003,2070
4860,4860,28.985,4860
539,539,2316.0,539
3178,3178,33.125,3178
4374,4374,27.813,4374
3327,3327,1033.0,3327
3676,3676,159.644,3676
4057,4057,2181.0,4057
602,602,33.461,602
1092,1092,32.056,1092
4392,4392,30.871,4392
1264,1264,41.479,1264
2229,2229,189.0,2229
1917,1917,4335.0,1917
1110,1110,31.562,1110
2720,2720,30.089,2720
3420,3420,28.836,3420
1963,1963,4139.0,1963
2973,2973,7198.0,2973
4752,4752,32.412,4752
2525,2525,0.0,2525
4008,4008,33.592,4008
3819,3819,3892.0,3819
3312,3312,28.826,3312
4546,4546,29.139,4546
1834,1834,38.847,1834
846,846,48.135,846
4094,4094,33.097,4094
980,980,28.322,980
3480,3480,28.936,3480
4447,4447,7936.0,4447
4596,4596,39.404,4596
4044,4044,29.071,4044
2703,2703,3069.0,2703
1934,1934,32.056999999999995,1934
2369,2369,7813.0,2369
2941,2941,6531.0,2941
3654,3654,197.163,3654
3391,3391,8994.0,3391
3416,3416,38.933,3416
1687,1687,4484.0,1687
516,516,33.968,516
3816,3816,29.061,3816
967,967,5486.0,967
2456,2456,40.682,2456
3174,3174,32.775,3174
3453,3453,1782.0,3453
1554,1554,34.49,1554
972,972,34.215,972
2719,2719,8925.0,2719
3510,3510,31.583,3510
2042,2042,28.654,2042
1038,1038,31.227,1038
804,804,30.639,804
1056,1056,38.896,1056
2022,2022,29.016,2022
3526,3526,29.024,3526
4304,4304,30.607,4304
1402,1402,31.135,1402
4616,4616,30.629,4616
1422,1422,46.956,1422
3367,3367,3269.0,3367
3193,3193,6921.0,3193
3520,3520,32.604,3520
2450,2450,32.532,2450
3998,3998,40.715,3998
4674,4674,28.709,4674
3865,3865,8212.0,3865
1618,1618,29.22,1618
2870,2870,32.12,2870
3260,3260,32.111999999999995,3260
1156,1156,38.911,1156
841,841,7189.0,841
2402,2402,32.447,2402
3304,3304,28.602,3304
2271,2271,3480.0,2271
2503,2503,1806.0,2503
2475,2475,3734.0,2475
1940,1940,28.906,1940
3566,3566,29.498,3566
1797,1797,2675.0,1797
2664,2664,31.725,2664
3301,3301,7984.0,3301
2280,2280,37.359,2280
4180,4180,32.882,4180
2831,2831,8266.0,2831
631,631,6940.0,631
2862,2862,32.722,2862
4776,4776,29.887,4776
2549,2549,2271.0,2549
3466,3466,32.211,3466
3430,3430,32.056,3430
4413,4413,4441.0,4413
1370,1370,32.59,1370
4496,4496,30.488000000000003,4496
1417,1417,1502.0,1417
840,840,29.042,840
3830,3830,33.184,3830
4169,4169,3253.0,4169
2323,2323,125.0,2323
3624,3624,39.596,3624
4748,4748,29.653,4748
1033,1033,300.0,1033
4539,4539,8189.0,4539
658,658,36.788,658
908,908,32.657,908
1813,1813,590.0,1813
961,961,5684.0,961
676,676,32.842,676
2949,2949,1842.0,2949
507,507,6221.0,507
4394,4394,34.493,4394
1569,1569,7505.0,1569
2883,2883,4315.0,2883
4372,4372,32.13,4372
4520,4520,29.303,4520
4453,4453,8370.0,4453
1235,1235,2659.0,1235
1465,1465,7513.0,1465
1109,1109,5232.0,1109
1702,1702,31.691,1702
4870,4870,28.758000000000006,4870
1217,1217,6814.0,1217
1104,1104,32.744,1104
1238,1238,32.739000000000004,1238
1106,1106,38.787,1106
2597,2597,250.0,2597
2747,2747,288.0,2747
3698,3698,29.121,3698
4543,4543,9026.0,4543
1345,1345,7538.0,1345
4000,4000,28.207,4000
1844,1844,36.086,1844
2557,2557,5338.0,2557
1344,1344,40.944,1344
1447,1447,5889.0,1447
1764,1764,28.931,1764
927,927,3048.0,927
4109,4109,166.0,4109
1127,1127,4000.0,1127
3951,3951,4602.0,3951
1540,1540,36.104,1540
3647,3647,2371.0,3647
4264,4264,35.101,4264
3786,3786,28.654,3786
3414,3414,36.572,3414
4621,4621,8812.0,4621
4554,4554,29.982,4554
4440,4440,27.847,4440
3436,3436,251.17,3436
615,615,5428.0,615
2006,2006,38.51,2006
3441,3441,2850.0,3441
508,508,37.647,508
4782,4782,29.047,4782
3639,3639,5085.0,3639
3454,3454,34.794000000000004,3454
3791,3791,44.0,3791
2173,2173,1334.0,2173
2033,2033,6491.0,2033
1160,1160,28.849,1160
1865,1865,1572.0,1865
4313,4313,8496.0,4313
4039,4039,4718.0,4039
551,551,1681.0,551
1128,1128,41.4,1128
1397,1397,4759.0,1397
2890,2890,31.958,2890
3146,3146,29.224,3146
4278,4278,31.788,4278
1312,1312,32.687,1312
3628,3628,174.415,3628
548,548,30.97,548
860,860,32.592,860
3388,3388,32.1,3388
1085,1085,6365.0,1085
4549,4549,8694.0,4549
2958,2958,30.985,2958
685,685,3981.0,685
1459,1459,247.0,1459
2293,2293,4204.0,2293
686,686,34.203,686
1009,1009,6616.0,1009
4259,4259,6660.0,4259
1091,1091,4108.0,1091
1683,1683,7513.0,1683
3567,3567,5451.0,3567
1283,1283,1789.0,1283
1651,1651,2845.0,1651
4410,4410,31.279,4410
3954,3954,37.956,3954
657,657,6887.0,657
3204,3204,30.264,3204
3537,3537,0.0,3537
2455,2455,1090.0,2455
2225,2225,3251.0,2225
512,512,35.389,512
4218,4218,29.654,4218
745,745,7499.0,745
3065,3065,2460.0,3065
3554,3554,192.482,3554
4164,4164,29.9,4164
797,797,8593.0,797
3145,3145,5997.0,3145
767,767,7023.0,767
653,653,5212.0,653
1058,1058,32.327,1058
4723,4723,2787.0,4723
2136,2136,98.367,2136
4204,4204,30.875,4204
857,857,2064.0,857
998,998,37.308,998
759,759,461.0,759
839,839,1079.0,839
1548,1548,29.407,1548
609,609,9033.0,609
3175,3175,6237.0,3175
3859,3859,522.0,3859
3749,3749,7114.0,3749
2613,2613,5597.0,2613
4128,4128,29.563,4128
2998,2998,28.359,2998
4639,4639,610.0,4639
3818,3818,29.46,3818
762,762,51.133,762
4246,4246,29.61,4246
1071,1071,0.0,1071
2299,2299,1548.0,2299
1802,1802,34.464,1802
3824,3824,31.566,3824
2431,2431,3068.0,2431
788,788,36.762,788
4435,4435,0.0,4435
3377,3377,5832.0,3377
4270,4270,32.141,4270
4538,4538,29.205,4538
2596,2596,29.092,2596
2083,2083,8543.0,2083
2787,2787,5359.0,2787
3001,3001,7597.0,3001
4649,4649,6413.0,4649
2601,2601,0.0,2601
1404,1404,31.887,1404
2482,2482,33.715,2482
667,667,3251.0,667
2465,2465,7492.0,2465
4817,4817,8426.0,4817
3060,3060,34.042,3060
4359,4359,8653.0,4359
3703,3703,5822.0,3703
4814,4814,230.153,4814
1012,1012,37.267,1012
1949,1949,4508.0,1949
3905,3905,1006.0,3905
4087,4087,466.0,4087
2207,2207,8869.0,2207
2502,2502,31.919,2502
4583,4583,4786.0,4583
4126,4126,29.208,4126
4161,4161,1015.0,4161
1081,1081,5176.0,1081
1292,1292,30.118,1292
4552,4552,30.454,4552
1475,1475,6777.0,1475
957,957,4158.0,957
1700,1700,31.526,1700
3355,3355,7048.0,3355
3395,3395,1950.0,3395
1541,1541,1006.0,1541
3811,3811,8664.0,3811
4827,4827,6651.0,4827
3239,3239,9182.0,3239
1794,1794,32.16,1794
1227,1227,7716.0,1227
4037,4037,6853.0,4037
2190,2190,32.16,2190
2967,2967,0.0,2967
2674,2674,28.161,2674
3886,3886,32.482,3886
4597,4597,1655.0,4597
2645,2645,7844.0,2645
3370,3370,28.135,3370
1401,1401,8674.0,1401
1975,1975,8242.0,1975
2337,2337,3068.0,2337
921,921,7595.0,921
3735,3735,0.0,3735
1145,1145,7583.0,1145
996,996,34.881,996
2700,2700,33.01,2700
807,807,5142.0,807
1112,1112,29.659,1112
3980,3980,36.911,3980
4508,4508,28.583,4508
687,687,0.0,687
2649,2649,1233.0,2649
3927,3927,5651.0,3927
806,806,29.652,806
4027,4027,9257.0,4027
1681,1681,1411.0,1681
2126,2126,39.619,2126
4627,4627,3837.0,4627
3062,3062,29.62,3062
1477,1477,0.0,1477
3792,3792,28.21,3792
4464,4464,38.326,4464
3619,3619,2517.0,3619
2183,2183,1801.0,2183
2889,2889,3780.0,2889
3580,3580,29.126,3580
689,689,3755.0,689
4804,4804,32.575,4804
1800,1800,37.872,1800
694,694,39.76,694
2748,2748,33.431999999999995,2748
2054,2054,29.978,2054
4273,4273,5362.0,4273
1663,1663,3935.0,1663
2343,2343,3097.0,2343
4371,4371,3396.0,4371
1895,1895,7888.0,1895
638,638,32.593,638
2567,2567,7462.0,2567
778,778,28.757,778
2742,2742,35.129,2742
1762,1762,31.434,1762
1386,1386,32.758,1386
3231,3231,8070.0,3231
2216,2216,32.783,2216
3104,3104,28.768,3104
2013,2013,5338.0,2013
3059,3059,5687.0,3059
1998,1998,35.706,1998
1445,1445,0.0,1445
4343,4343,852.0,4343
3007,3007,4085.0,3007
3247,3247,406.0,3247
2383,2383,6978.0,2383
3289,3289,943.0,3289
1740,1740,28.83,1740
2189,2189,6970.0,2189
3936,3936,31.058000000000003,3936
3039,3039,5612.0,3039
1468,1468,41.846,1468
2644,2644,35.802,2644
1536,1536,35.58,1536
2254,2254,30.248,2254
3785,3785,882.0,3785
1694,1694,33.509,1694
2751,2751,6987.0,2751
3870,3870,29.828000000000007,3870
1774,1774,29.475,1774
1927,1927,7039.0,1927
2340,2340,32.722,2340
2706,2706,38.001,2706
526,526,29.877,526
4434,4434,35.536,4434
645,645,7736.0,645
3916,3916,37.222,3916
3895,3895,1644.0,3895
2618,2618,31.598000000000006,2618
2705,2705,4007.0,2705
2866,2866,49.192,2866
1222,1222,37.771,1222
1645,1645,0.0,1645
3881,3881,8000.0,3881
2283,2283,969.0,2283
825,825,8815.0,825
976,976,45.83600000000001,976
2538,2538,30.986,2538
1538,1538,35.73300000000001,1538
2584,2584,31.637,2584
892,892,31.612,892
1755,1755,0.0,1755
564,564,28.332,564
3261,3261,2808.0,3261
4266,4266,33.15,4266
891,891,8536.0,891
2585,2585,2432.0,2585
769,769,401.0,769
2800,2800,51.262,2800
4743,4743,4954.0,4743
4366,4366,33.074,4366
3758,3758,33.634,3758
2743,2743,7364.0,2743
1706,1706,29.251,1706
4186,4186,32.537,4186
1546,1546,28.793000000000006,1546
3592,3592,31.509,3592
2623,2623,1492.0,2623
4299,4299,0.0,4299
3187,3187,7248.0,3187
3050,3050,35.736,3050
2099,2099,6101.0,2099
2406,2406,34.733000000000004,2406
1343,1343,1105.0,1343
3600,3600,34.329,3600
2143,2143,2721.0,2143
4845,4845,3000.0,4845
1944,1944,28.004,1944
4714,4714,43.552,4714
3645,3645,0.0,3645
4280,4280,29.473000000000006,4280
1847,1847,7108.0,1847
4168,4168,30.88,4168
1107,1107,4730.0,1107
2790,2790,34.488,2790
2701,2701,8273.0,2701
3296,3296,30.803,3296
2050,2050,31.253,2050
1233,1233,0.0,1233
709,709,2065.0,709
1208,1208,33.125,1208
3227,3227,3653.0,3227
1855,1855,7514.0,1855
3116,3116,29.572,3116
1154,1154,36.904,1154
4033,4033,1839.0,4033
586,586,30.806,586
4089,4089,9171.0,4089
2049,2049,6556.0,2049
2600,2600,33.001,2600
1502,1502,33.414,1502
3438,3438,33.121,3438
3119,3119,788.0,3119
3163,3163,1308.0,3163
893,893,4753.0,893
1277,1277,6114.0,1277
3649,3649,5455.0,3649
4553,4553,1529.0,4553
937,937,6114.0,937
1374,1374,31.585,1374
3940,3940,31.967,3940
4507,4507,5244.0,4507
1276,1276,31.87,1276
3687,3687,5375.0,3687
3151,3151,5914.0,3151
2268,2268,35.481,2268
4495,4495,5339.0,4495
2897,2897,75.0,2897
2407,2407,7657.0,2407
4117,4117,1552.0,4117
1069,1069,1816.0,1069
2495,2495,0.0,2495
4223,4223,5979.0,4223
2777,2777,3582.0,2777
3914,3914,31.142,3914
973,973,1493.0,973
1605,1605,6624.0,1605
550,550,28.26,550
1458,1458,43.688,1458
3389,3389,2382.0,3389
4274,4274,29.875,4274
3314,3314,28.573,3314
1163,1163,2813.0,1163
3242,3242,28.694000000000006,3242
2354,2354,31.201,2354
3561,3561,2678.0,3561
3321,3321,5792.0,3321
1193,1193,2508.0,1193
2784,2784,33.55,2784
1625,1625,7424.0,1625
1346,1346,30.041,1346
549,549,368.0,549
1496,1496,31.93,1496
2646,2646,28.546,2646
682,682,30.181,682
3309,3309,3384.0,3309
4626,4626,30.774,4626
1997,1997,590.0,1997
3224,3224,85.04299999999998,3224
2149,2149,8244.0,2149
1494,1494,32.243,1494
2256,2256,33.185,2256
3814,3814,203.789,3814
4446,4446,44.377,4446
916,916,33.794000000000004,916
2490,2490,28.292,2490
4197,4197,7158.0,4197
2697,2697,0.0,2697
879,879,8450.0,879
1914,1914,29.89,1914
1129,1129,4474.0,1129
1248,1248,33.005,1248
2115,2115,5448.0,2115
3445,3445,8742.0,3445
3585,3585,875.0,3585
3117,3117,1637.0,3117
795,795,427.0,795
3425,3425,3887.0,3425
3745,3745,7213.0,3745
1439,1439,4198.0,1439
2153,2153,5504.0,2153
2627,2627,2826.0,2627
2053,2053,8289.0,2053
3195,3195,6115.0,3195
2716,2716,29.878,2716
3555,3555,8468.0,3555
554,554,29.735,554
1708,1708,34.13,1708
2869,2869,247.0,2869
4319,4319,1130.0,4319
2286,2286,30.941,2286
4420,4420,28.298,4420
3183,3183,2231.0,3183
1032,1032,30.213,1032
4503,4503,5954.0,4503
4024,4024,145.023,4024
1857,1857,5604.0,1857
1002,1002,30.992,1002
930,930,33.255,930
4176,4176,32.781,4176
2692,2692,38.768,2692
3268,3268,36.306,3268
723,723,6007.0,723
2133,2133,5816.0,2133
3383,3383,9200.0,3383
3821,3821,669.0,3821
644,644,34.653,644
3944,3944,41.679,3944
1028,1028,30.325,1028
3545,3545,5823.0,3545
2844,2844,30.678,2844
4233,4233,4928.0,4233
1166,1166,35.076,1166
2498,2498,29.186,2498
2607,2607,6938.0,2607
4836,4836,29.271,4836
3723,3723,6337.0,3723
4382,4382,29.438,4382
774,774,31.456,774
1483,1483,0.0,1483
1325,1325,5661.0,1325
827,827,4567.0,827
3757,3757,3397.0,3757
2741,2741,506.0,2741
3142,3142,33.015,3142
1320,1320,29.166,1320
2880,2880,27.711,2880
4805,4805,102.0,4805
1778,1778,29.492,1778
2639,2639,0.0,2639
1273,1273,9054.0,1273
4190,4190,28.029,4190
2147,2147,6393.0,2147
3255,3255,2898.0,3255
1567,1567,5835.0,1567
3546,3546,28.7,3546
1701,1701,4946.0,1701
1192,1192,40.619,1192
2727,2727,525.0,2727
3942,3942,204.624,3942
3808,3808,124.915,3808
4134,4134,29.673,4134
2999,2999,0.0,2999
1347,1347,486.0,1347
1393,1393,1861.0,1393
2467,2467,1645.0,2467
2396,2396,36.863,2396
3910,3910,30.49,3910
3131,3131,9185.0,3131
4529,4529,482.0,4529
1527,1527,289.0,1527
2563,2563,8932.0,2563
4309,4309,4978.0,4309
2316,2316,32.486999999999995,2316
4388,4388,35.275,4388
3277,3277,3650.0,3277
4468,4468,29.41,4468
2591,2591,0.0,2591
4370,4370,30.157,4370
3925,3925,2304.0,3925
2063,2063,5488.0,2063
4048,4048,34.097,4048
4317,4317,8359.0,4317
2799,2799,5205.0,2799
4751,4751,7892.0,4751
3246,3246,210.851,3246
3434,3434,46.682,3434
4668,4668,176.83,4668
3299,3299,338.0,3299
4754,4754,30.627,4754
1195,1195,7958.0,1195
3963,3963,805.0,3963
1201,1201,2523.0,1201
2821,2821,7933.0,2821
4803,4803,7472.0,4803
4859,4859,1524.0,4859
2632,2632,31.689,2632
4811,4811,3200.0,4811
733,733,4142.0,733
1787,1787,2913.0,1787
3295,3295,3101.0,3295
1356,1356,34.275,1356
4286,4286,31.347,4286
4282,4282,31.345,4282
2616,2616,28.071,2616
2320,2320,32.665,2320
1823,1823,0.0,1823
3023,3023,5920.0,3023
4226,4226,30.111,4226
4789,4789,1286.0,4789
2837,2837,2384.0,2837
1784,1784,31.109,1784
4328,4328,32.05,4328
3074,3074,28.274,3074
1773,1773,9150.0,1773
3708,3708,28.727,3708
3756,3756,31.631,3756
1739,1739,4791.0,1739
3789,3789,476.0,3789
3613,3613,6415.0,3613
1884,1884,31.73,1884
1361,1361,6018.0,1361
553,553,9068.0,553
4733,4733,6952.0,4733
4838,4838,36.989,4838
1792,1792,37.394,1792
3508,3508,186.971,3508
1827,1827,8290.0,1827
3113,3113,3249.0,3113
2817,2817,0.0,2817
3823,3823,8195.0,3823
4429,4429,340.0,4429
4106,4106,33.838,4106
3168,3168,29.63,3168
3518,3518,37.907,3518
1497,1497,4218.0,1497
2485,2485,8460.0,2485
2034,2034,48.161,2034
1753,1753,9298.0,1753
1121,1121,1906.0,1121
4849,4849,9302.0,4849
2779,2779,4107.0,2779
951,951,6742.0,951
753,753,6685.0,753
629,629,8663.0,629
652,652,31.597,652
3484,3484,31.717,3484
4019,4019,6334.0,4019
4407,4407,5454.0,4407
3702,3702,36.345,3702
3012,3012,29.525,3012
1785,1785,1588.0,1785
1845,1845,6816.0,1845
1826,1826,45.33,1826
1205,1205,8282.0,1205
1598,1598,31.249,1598
1958,1958,31.655,1958
2269,2269,0.0,2269
1365,1365,7278.0,1365
4029,4029,4281.0,4029
2857,2857,3565.0,2857
1530,1530,31.808000000000003,1530
4140,4140,31.606,4140
3651,3651,8171.0,3651
1507,1507,5305.0,1507
2239,2239,3162.0,2239
2090,2090,31.098000000000006,2090
3097,3097,7393.0,3097
2234,2234,36.947,2234
1426,1426,39.988,1426
515,515,4068.0,515
4614,4614,28.448,4614
2352,2352,30.515,2352
3115,3115,7364.0,3115
2417,2417,4702.0,2417
4171,4171,0.0,4171
1662,1662,28.831,1662
605,605,947.0,605
907,907,8159.0,907
1856,1856,31.51,1856
574,574,28.974,574
2636,2636,30.468000000000004,2636
800,800,29.489,800
2386,2386,28.764,2386
3878,3878,27.729,3878
1215,1215,5465.0,1215
3754,3754,29.6,3754
3105,3105,0.0,3105
1153,1153,3376.0,1153
672,672,32.823,672
2573,2573,5299.0,2573
3810,3810,29.596,3810
713,713,2079.0,713
2130,2130,31.868,2130
1388,1388,32.476,1388
3029,3029,5484.0,3029
2255,2255,8197.0,2255
1550,1550,30.918000000000006,1550
4605,4605,7460.0,4605
4762,4762,45.04600000000001,4762
3915,3915,8157.0,3915
2372,2372,42.898,2372
4745,4745,7994.0,4745
968,968,32.692,968
2650,2650,32.262,2650
1882,1882,31.847,1882
1135,1135,0.0,1135
4548,4548,30.321,4548
2682,2682,31.566,2682
2947,2947,7224.0,2947
4494,4494,31.024,4494
2198,2198,28.981,2198
1017,1017,149.0,1017
1543,1543,2799.0,1543
3795,3795,4776.0,3795
3572,3572,31.011,3572
4147,4147,3518.0,4147
2977,2977,7675.0,2977
1398,1398,31.851,1398
3026,3026,32.993,3026
1234,1234,32.316,1234
1060,1060,31.108,1060
2087,2087,4245.0,2087
4657,4657,5615.0,4657
2839,2839,0.0,2839
3953,3953,8475.0,3953
2222,2222,37.933,2222
597,597,6616.0,597
4034,4034,205.676,4034
4114,4114,34.137,4114
4489,4489,4391.0,4489
555,555,6674.0,555
4316,4316,32.84,4316
4545,4545,2427.0,4545
543,543,6023.0,543
4653,4653,7190.0,4653
4199,4199,1401.0,4199
2381,2381,8101.0,2381
2158,2158,30.817,2158
2072,2072,32.636,2072
4001,4001,1452.0,4001
3494,3494,221.042,3494
2566,2566,30.996,2566
3706,3706,31.929,3706
4658,4658,46.797,4658
1703,1703,2837.0,1703
3409,3409,6758.0,3409
4746,4746,29.838,4746
1200,1200,32.157,1200
2048,2048,32.495,2048
1981,1981,0.0,1981
780,780,29.768,780
4427,4427,3490.0,4427
1534,1534,33.345,1534
3470,3470,35.466,3470
2333,2333,1126.0,2333
3770,3770,28.349,3770
1898,1898,31.296,1898
3734,3734,37.583,3734
2541,2541,9027.0,2541
1978,1978,29.852,1978
2457,2457,5135.0,2457
3374,3374,32.075,3374
2978,2978,53.224,2978
4279,4279,2247.0,4279
3285,3285,4903.0,3285
1008,1008,31.162,1008
661,661,3331.0,661
3607,3607,6059.0,3607
1526,1526,41.257,1526
932,932,32.008,932
3311,3311,3377.0,3311
4578,4578,29.134,4578
1310,1310,28.606,1310
1888,1888,33.96,1888
2311,2311,8847.0,2311
2219,2219,4880.0,2219
4700,4700,28.579,4700
601,601,4982.0,601
3960,3960,37.48,3960
3657,3657,0.0,3657
2531,2531,2131.0,2531
711,711,5525.0,711
4302,4302,32.689,4302
3864,3864,28.581,3864
2399,2399,2308.0,2399
4853,4853,3147.0,4853
4472,4472,29.386,4472
1959,1959,5713.0,1959
1443,1443,5202.0,1443
4711,4711,5575.0,4711
3090,3090,28.654,3090
4802,4802,29.396,4802
2420,2420,41.595,2420
3618,3618,29.992,3618
2376,2376,30.849,2376
4227,4227,6630.0,4227
2854,2854,29.059,2854
1849,1849,5633.0,1849
3981,3981,954.0,3981
4040,4040,126.623,4040
3763,3763,9209.0,3763
1363,1363,2750.0,1363
2628,2628,32.476,2628
4612,4612,29.07,4612
2725,2725,8754.0,2725
4485,4485,4479.0,4485
3102,3102,30.359,3102
2932,2932,31.563,2932
2368,2368,37.594,2368
2031,2031,8541.0,2031
4030,4030,191.238,4030
971,971,6218.0,971
1115,1115,0.0,1115
3336,3336,30.71,3336
2224,2224,29.279,2224
3489,3489,4720.0,3489
1767,1767,4317.0,1767
674,674,33.115,674
3716,3716,29.936,3716
959,959,8286.0,959
1314,1314,36.26300000000001,1314
1656,1656,33.854,1656
4750,4750,28.981,4750
3010,3010,32.555,3010
3013,3013,140.0,3013
2282,2282,42.96,2282
4356,4356,28.577,4356
1748,1748,32.09,1748
3955,3955,2223.0,3955
4619,4619,4262.0,4619
1065,1065,2157.0,1065
2002,2002,37.347,2002
1942,1942,29.867,1942
4479,4479,4505.0,4479
3411,3411,4591.0,3411
1555,1555,6422.0,1555
4518,4518,31.507,4518
3156,3156,28.837,3156
2536,2536,30.77,2536
2193,2193,2055.0,2193
1727,1727,8026.0,1727
3240,3240,41.855,3240
2881,2881,9010.0,2881
3553,3553,5541.0,3553
2215,2215,1145.0,2215
4085,4085,1446.0,4085
4357,4357,5840.0,4357
2401,2401,6518.0,2401
3385,3385,4117.0,3385
1173,1173,3437.0,1173
4311,4311,5507.0,4311
2885,2885,6011.0,2885
4098,4098,35.122,4098
2220,2220,47.12600000000001,2220
947,947,7853.0,947
4156,4156,33.452,4156
1904,1904,29.785,1904
4872,4872,29.678,4872
584,584,28.566,584
4856,4856,28.906,4856
4178,4178,31.796,4178
1100,1100,30.621,1100
2675,2675,0.0,2675
3832,3832,32.739000000000004,3832
1221,1221,865.0,1221
1211,1211,8926.0,1211
2654,2654,34.887,2654
2981,2981,1504.0,2981
678,678,33.823,678
1840,1840,37.06800000000001,1840
2477,2477,1141.0,2477
3922,3922,30.487,3922
814,814,28.78,814
1387,1387,7775.0,1387
2995,2995,0.0,2995
1457,1457,1987.0,1457
3781,3781,8815.0,3781
1783,1783,5419.0,1783
3888,3888,32.381,3888
3535,3535,7702.0,3535
2104,2104,33.05,2104
1474,1474,34.331,1474
2253,2253,4745.0,2253
2101,2101,4679.0,2101
4491,4491,1363.0,4491
2655,2655,2310.0,2655
3342,3342,29.441,3342
904,904,39.062,904
3486,3486,28.306,3486
3487,3487,9025.0,3487
3875,3875,4774.0,3875
1053,1053,9017.0,1053
1050,1050,31.744,1050
4582,4582,33.322,4582
3659,3659,1392.0,3659
1622,1622,28.841,1622
2927,2927,8833.0,2927
1819,1819,8145.0,1819
2075,2075,0.0,2075
4824,4824,28.808000000000003,4824
3079,3079,6591.0,3079
929,929,6588.0,929
3722,3722,29.523000000000003,3722
3297,3297,0.0,3297
4365,4365,6021.0,4365
4753,4753,3122.0,4753
3008,3008,28.889,3008
2560,2560,33.205,2560
1932,1932,30.564,1932
3035,3035,2732.0,3035
1068,1068,32.715,1068
2445,2445,5827.0,2445
1157,1157,210.0,1157
3829,3829,0.0,3829
3889,3889,9001.0,3889
664,664,31.613000000000003,664
4867,4867,1551.0,4867
4525,4525,2185.0,4525
2085,2085,3775.0,2085
2759,2759,1437.0,2759
2388,2388,34.064,2388
4020,4020,36.826,4020
2312,2312,30.511,2312
4611,4611,3063.0,4611
1599,1599,3370.0,1599
3041,3041,4268.0,3041
3689,3689,4597.0,3689
2489,2489,8722.0,2489
832,832,32.815,832
712,712,32.81,712
865,865,7027.0,865
3019,3019,2309.0,3019
3230,3230,34.402,3230
2197,2197,2100.0,2197
1816,1816,34.155,1816
4642,4642,32.438,4642
3302,3302,173.43900000000005,3302
1119,1119,5352.0,1119
3972,3972,32.608000000000004,3972
4492,4492,28.077,4492
1253,1253,5724.0,1253
636,636,37.134,636
940,940,34.396,940
650,650,33.78,650
2356,2356,32.129,2356
2415,2415,6434.0,2415
3540,3540,34.273,3540
4585,4585,1968.0,4585
896,896,34.854,896
2322,2322,32.32,2322
1666,1666,29.507,1666
3421,3421,3429.0,3421
2996,2996,30.169,2996
2984,2984,46.668,2984
2798,2798,32.981,2798
2523,2523,3674.0,2523
4454,4454,43.35,4454
2965,2965,7957.0,2965
3181,3181,7145.0,3181
3828,3828,30.349,3828
4189,4189,1620.0,4189
2888,2888,33.915,2888
1707,1707,1809.0,1707
1074,1074,31.916,1074
2982,2982,29.362,2982
3211,3211,3573.0,3211
2859,2859,1518.0,2859
2893,2893,5045.0,2893
4699,4699,109.0,4699
2630,2630,65.99600000000001,2630
3856,3856,31.762,3856
510,510,34.474000000000004,510
3094,3094,31.959,3094
1411,1411,3709.0,1411
1187,1187,3325.0,1187
2922,2922,28.352,2922
2792,2792,31.183000000000003,2792
3562,3562,31.901,3562
3107,3107,6032.0,3107
2274,2274,32.948,2274
2231,2231,4702.0,2231
3544,3544,28.499,3544
4731,4731,8965.0,4731
4377,4377,5700.0,4377
3030,3030,29.11,3030
2210,2210,29.313,2210
2121,2121,0.0,2121
2851,2851,6380.0,2851
3527,3527,6332.0,3527
1486,1486,27.877,1486
4524,4524,30.741,4524
4637,4637,5080.0,4637
3076,3076,28.863000000000003,3076
2593,2593,6695.0,2593
1608,1608,29.084,1608
4173,4173,8970.0,4173
1261,1261,4395.0,1261
4243,4243,4580.0,4243
3539,3539,4627.0,3539
1125,1125,0.0,1125
4793,4793,3023.0,4793
4846,4846,42.26300000000001,4846
4712,4712,35.15,4712
2305,2305,1639.0,2305
1355,1355,0.0,1355
3653,3653,0.0,3653
4514,4514,31.784,4514
990,990,34.73,990
4400,4400,29.094,4400
3003,3003,1772.0,3003
3815,3815,4639.0,3815
3586,3586,33.747,3586
4191,4191,1186.0,4191
3456,3456,211.225,3456
1799,1799,3181.0,1799
1782,1782,28.682,1782
503,503,1421.0,503
2884,2884,29.82,2884
4415,4415,5253.0,4415
3291,3291,4115.0,3291
2030,2030,31.026,2030
4506,4506,29.886,4506
4324,4324,36.286,4324
4003,4003,0.0,4003
3058,3058,30.36,3058
746,746,30.124,746
2931,2931,1300.0,2931
1469,1469,0.0,1469
3908,3908,29.93,3908
3897,3897,1405.0,3897
2668,2668,41.786,2668
2990,2990,32.743,2990
1682,1682,30.068,1682
530,530,30.839,530
1757,1757,0.0,1757
779,779,5346.0,779
1164,1164,72.94,1164
3776,3776,29.702,3776
1818,1818,36.401,1818
1223,1223,3371.0,1223
3363,3363,2364.0,3363
