1	29.415 29.415
2	107.0 107.0
3	36.46 36.46
4	155.0 155.0
5	37.276 37.276
6	289.0 289.0
7	32.135 32.135
8	83.0 83.0
9	32.809 32.809
10	205.0 205.0
11	27.685 27.685
12	170.0 170.0
13	27.18 27.18
14	53.0 53.0
15	28.842 28.842
16	118.0 118.0
17	28.061 28.061
18	67.0 67.0
19	27.327 27.327
20	115.0 115.0
21	27.978 27.978
22	269.0 269.0
23	26.993 26.993
24	106.0 106.0
25	28.035 28.035
26	184.0 184.0
27	27.069 27.069
28	47.0 47.0
29	28.531 28.531
30	80.0 80.0
31	31.618 31.618
32	293.0 293.0
33	29.042 29.042
34	114.0 114.0
35	30.095 30.095
36	100.0 100.0
37	28.331 28.331
38	279.0 279.0
39	34.376 34.376
40	73.0 73.0
41	30.193 30.193
42	68.0 68.0
43	31.998 31.998
44	79.0 79.0
45	31.824 31.824
46	80.0 80.0
47	31.484 31.484
48	162.0 162.0
49	30.086 30.086
50	247.0 247.0
51	32.609 32.609
52	198.0 198.0
53	30.582 30.582
54	120.0 120.0
55	31.71 31.71
56	293.0 293.0
57	29.77 29.77
58	210.0 210.0
59	30.447 30.447
60	75.0 75.0
61	30.722 30.722
62	296.0 296.0
63	33.12 33.12
64	277.0 277.0
65	26.899 26.899
66	146.0 146.0
67	28.598 28.598
68	201.0 201.0
69	32.717 32.717
70	76.0 76.0
71	35.811 35.811
72	249.0 249.0
73	29.18 29.18
74	215.0 215.0
75	33.934 33.934
76	275.0 275.0
77	30.116 30.116
78	93.0 93.0
79	34.995 34.995
80	63.0 63.0
81	39.102 39.102
82	290.0 290.0
83	26.051 26.051
84	152.0 152.0
85	27.647 27.647
86	281.0 281.0
87	29.981 29.981
88	197.0 197.0
89	26.302 26.302
90	271.0 271.0
91	30.184 30.184
92	243.0 243.0
93	27.991 27.991
94	59.0 59.0
95	29.107 29.107
96	104.0 104.0
97	31.253 31.253
98	71.0 71.0
99	29.911 29.911
100	280.0 280.0
101	28.226 28.226
102	80.0 80.0
103	32.704 32.704
104	48.0 48.0
105	26.986 26.986
106	124.0 124.0
107	29.88 29.88
108	202.0 202.0
109	30.653 30.653
110	165.0 165.0
111	28.208 28.208
112	92.0 92.0
113	29.605 29.605
114	228.0 228.0
115	31.186 31.186
116	259.0 259.0
117	28.126 28.126
118	186.0 186.0
119	28.308 28.308
120	84.0 84.0
121	71.03 71.03
122	49.0 49.0
123	98.012 98.012
124	227.0 227.0
125	244.65 244.65
126	218.0 218.0
127	299.183 299.183
128	261.0 261.0
129	271.766 271.766
130	107.0 107.0
131	292.034 292.034
132	221.0 221.0
133	35.23 35.23
134	107.0 107.0
135	31.115 31.115
136	146.0 146.0
137	31.48 31.48
138	289.0 289.0
139	37.725 37.725
140	86.0 86.0
141	30.676 30.676
142	107.0 107.0
143	37.781 37.781
144	292.0 292.0
145	32.477 32.477
146	195.0 195.0
147	29.24 29.24
148	287.0 287.0
149	39.142 39.142
150	259.0 259.0
151	35.567 35.567
152	50.0 50.0
153	38.758 38.758
154	150.0 150.0
155	45.98 45.98
156	125.0 125.0
157	36.442 36.442
158	164.0 164.0
159	27.946 27.946
160	269.0 269.0
161	32.759 32.759
162	129.0 129.0
163	34.826 34.826
164	122.0 122.0
165	31.518 31.518
166	256.0 256.0
167	26.577 26.577
168	122.0 122.0
169	26.97 26.97
170	156.0 156.0
171	33.763 33.763
172	262.0 262.0
173	27.466 27.466
174	129.0 129.0
175	26.404 26.404
176	159.0 159.0
177	26.606 26.606
178	211.0 211.0
179	27.809 27.809
180	279.0 279.0
181	27.811 27.811
182	47.0 47.0
183	27.507 27.507
184	103.0 103.0
185	27.602 27.602
186	289.0 289.0
187	32.201 32.201
188	65.0 65.0
189	27.452 27.452
190	55.0 55.0
191	27.106 27.106
192	151.0 151.0
193	27.737 27.737
194	99.0 99.0
195	27.292 27.292
196	81.0 81.0
197	28.746 28.746
198	72.0 72.0
199	28.706 28.706
200	234.0 234.0
201	27.021 27.021
202	104.0 104.0
203	28.342 28.342
204	193.0 193.0
205	26.529 26.529
206	75.0 75.0
207	33.174 33.174
208	168.0 168.0
209	33.577 33.577
210	139.0 139.0
211	29.852 29.852
212	295.0 295.0
213	36.409 36.409
214	212.0 212.0
215	28.409 28.409
216	189.0 189.0
217	29.044 29.044
218	285.0 285.0
219	27.518 27.518
220	249.0 249.0
221	27.273 27.273
222	290.0 290.0
223	27.055 27.055
224	151.0 151.0
225	27.478 27.478
226	219.0 219.0
227	28.647 28.647
228	261.0 261.0
229	43.159 43.159
230	53.0 53.0
231	30.309 30.309
232	86.0 86.0
233	32.91 32.91
234	124.0 124.0
235	33.347 33.347
236	154.0 154.0
237	32.434 32.434
238	69.0 69.0
239	30.273 30.273
240	93.0 93.0
241	48.183 48.183
242	201.0 201.0
243	32.483 32.483
244	163.0 163.0
245	28.248 28.248
246	135.0 135.0
247	28.294 28.294
248	240.0 240.0
249	31.987 31.987
250	158.0 158.0
251	28.51 28.51
252	135.0 135.0
253	32.918 32.918
254	95.0 95.0
255	31.997 31.997
256	120.0 120.0
257	27.398 27.398
258	247.0 247.0
259	28.429 28.429
260	87.0 87.0
261	28.236 28.236
262	142.0 142.0
263	31.351 31.351
264	172.0 172.0
265	34.699 34.699
266	146.0 146.0
267	27.108 27.108
268	255.0 255.0
269	26.771 26.771
270	108.0 108.0
271	28.094 28.094
272	138.0 138.0
273	27.232 27.232
274	149.0 149.0
275	27.441 27.441
276	173.0 173.0
277	28.767 28.767
278	107.0 107.0
279	28.389 28.389
280	212.0 212.0
281	27.619 27.619
282	265.0 265.0
283	31.711 31.711
284	112.0 112.0
285	30.308 30.308
286	246.0 246.0
287	31.969 31.969
288	219.0 219.0
289	33.376 33.376
290	217.0 217.0
291	34.734 34.734
292	225.0 225.0
293	27.617 27.617
294	40.0 40.0
295	30.643 30.643
296	98.0 98.0
297	32.355 32.355
298	209.0 209.0
299	27.389 27.389
300	248.0 248.0
301	32.107 32.107
302	180.0 180.0
303	36.351 36.351
304	149.0 149.0
305	33.98 33.98
306	118.0 118.0
307	32.648 32.648
308	89.0 89.0
309	31.956 31.956
310	202.0 202.0
311	32.714 32.714
312	62.0 62.0
313	28.122 28.122
314	118.0 118.0
315	35.369 35.369
316	182.0 182.0
317	37.486 37.486
318	67.0 67.0
319	31.945 31.945
320	256.0 256.0
321	32.433 32.433
322	165.0 165.0
323	37.598 37.598
324	96.0 96.0
325	36.42 36.42
326	271.0 271.0
327	44.969 44.969
328	75.0 75.0
329	30.405 30.405
330	154.0 154.0
331	33.321 33.321
332	145.0 145.0
333	34.284 34.284
334	154.0 154.0
335	32.388 32.388
336	157.0 157.0
337	35.044 35.044
338	90.0 90.0
339	35.645 35.645
340	80.0 80.0
341	31.688 31.688
342	279.0 279.0
343	45.379 45.379
344	117.0 117.0
345	31.211 31.211
346	118.0 118.0
347	35.247 35.247
348	227.0 227.0
349	34.947 34.947
350	198.0 198.0
351	38.283 38.283
352	42.0 42.0
353	29.054 29.054
354	207.0 207.0
355	31.152 31.152
356	63.0 63.0
357	27.165 27.165
358	67.0 67.0
359	30.201 30.201
360	219.0 219.0
361	27.643 27.643
362	126.0 126.0
363	29.152 29.152
364	112.0 112.0
365	27.088 27.088
366	204.0 204.0
367	34.017 34.017
368	245.0 245.0
369	32.711 32.711
370	273.0 273.0
371	26.492 26.492
372	51.0 51.0
373	31.696 31.696
374	127.0 127.0
375	32.302 32.302
376	125.0 125.0
377	30.544 30.544
378	271.0 271.0
379	34.857 34.857
380	259.0 259.0
381	32.131 32.131
382	202.0 202.0
383	32.301 32.301
384	66.0 66.0
385	33.116 33.116
386	237.0 237.0
387	32.795 32.795
388	101.0 101.0
389	31.933 31.933
390	225.0 225.0
391	32.776 32.776
392	266.0 266.0
393	34.237 34.237
394	213.0 213.0
395	29.228 29.228
396	128.0 128.0
397	31.581 31.581
398	167.0 167.0
399	29.552 29.552
400	173.0 173.0
401	31.372 31.372
402	121.0 121.0
403	35.486 35.486
404	204.0 204.0
405	28.124 28.124
406	247.0 247.0
407	29.568 29.568
408	121.0 121.0
409	31.081 31.081
410	84.0 84.0
411	29.631 29.631
412	290.0 290.0
413	29.123 29.123
414	116.0 116.0
415	30.17 30.17
416	82.0 82.0
417	31.234 31.234
418	212.0 212.0
419	30.135 30.135
420	94.0 94.0
421	30.695 30.695
422	237.0 237.0
423	30.666 30.666
424	134.0 134.0
425	28.075 28.075
426	73.0 73.0
427	39.154 39.154
428	98.0 98.0
429	27.092 27.092
430	293.0 293.0
431	35.442 35.442
432	275.0 275.0
433	31.207 31.207
434	250.0 250.0
435	34.266 34.266
436	223.0 223.0
437	28.832 28.832
438	94.0 94.0
439	27.204 27.204
440	119.0 119.0
441	29.374 29.374
442	251.0 251.0
443	32.373 32.373
444	245.0 245.0
445	31.526 31.526
446	218.0 218.0
447	28.074 28.074
448	235.0 235.0
449	27.826 27.826
450	183.0 183.0
451	30.648 30.648
452	191.0 191.0
453	27.943 27.943
454	244.0 244.0
455	29.795 29.795
456	81.0 81.0
457	26.665 26.665
458	121.0 121.0
459	28.744 28.744
460	135.0 135.0
461	27.947 27.947
462	276.0 276.0
463	27.053 27.053
464	205.0 205.0
465	26.941 26.941
466	169.0 169.0
467	27.254 27.254
468	169.0 169.0
469	26.996 26.996
470	52.0 52.0
471	36.429 36.429
472	49.0 49.0
473	27.015 27.015
474	107.0 107.0
475	28.773 28.773
476	204.0 204.0
477	28.708 28.708
478	134.0 134.0
479	28.147 28.147
480	142.0 142.0
481	28.427 28.427
482	113.0 113.0
483	28.483 28.483
484	230.0 230.0
485	28.432 28.432
486	40.0 40.0
487	31.853 31.853
488	156.0 156.0
489	28.095 28.095
490	270.0 270.0
491	29.492 29.492
492	42.0 42.0
493	28.606 28.606
494	51.0 51.0
495	27.856 27.856
496	229.0 229.0
497	27.712 27.712
498	65.0 65.0
499	28.024 28.024
500	131.0 131.0
501	27.672 27.672
502	292.0 292.0
503	33.711 33.711
504	137.0 137.0
505	34.392 34.392
506	189.0 189.0
507	32.219 32.219
508	76.0 76.0
509	28.596 28.596
510	92.0 92.0
511	38.306 38.306
512	234.0 234.0
513	32.671 32.671
514	287.0 287.0
515	36.336 36.336
516	256.0 256.0
517	35.519 35.519
518	289.0 289.0
519	35.757 35.757
520	76.0 76.0
521	30.47 30.47
522	214.0 214.0
523	30.303 30.303
524	180.0 180.0
525	31.893 31.893
526	73.0 73.0
527	28.367 28.367
528	64.0 64.0
529	27.336 27.336
530	57.0 57.0
531	32.971 32.971
532	76.0 76.0
533	29.744 29.744
534	66.0 66.0
535	35.2 35.2
536	58.0 58.0
537	28.773 28.773
538	77.0 77.0
539	28.848 28.848
540	218.0 218.0
541	35.902 35.902
542	218.0 218.0
543	36.632 36.632
544	289.0 289.0
545	45.415 45.415
546	108.0 108.0
547	33.086 33.086
548	278.0 278.0
549	33.832 33.832
550	238.0 238.0
551	28.939 28.939
552	142.0 142.0
553	32.6 32.6
554	287.0 287.0
555	33.84 33.84
556	55.0 55.0
557	31.296 31.296
558	60.0 60.0
559	35.293 35.293
560	83.0 83.0
561	35.114 35.114
562	249.0 249.0
563	26.856 26.856
564	141.0 141.0
565	27.95 27.95
566	268.0 268.0
567	40.118 40.118
568	65.0 65.0
569	33.564 33.564
570	216.0 216.0
571	27.575 27.575
572	211.0 211.0
573	28.701 28.701
574	271.0 271.0
575	32.24 32.24
576	209.0 209.0
577	29.109 29.109
578	228.0 228.0
579	28.003 28.003
580	296.0 296.0
581	32.532 32.532
582	67.0 67.0
583	32.142 32.142
584	88.0 88.0
585	29.263 29.263
586	103.0 103.0
587	38.529 38.529
588	296.0 296.0
589	34.549 34.549
590	75.0 75.0
591	32.72 32.72
592	62.0 62.0
593	29.376 29.376
594	223.0 223.0
595	30.088 30.088
596	272.0 272.0
597	32.671 32.671
598	111.0 111.0
599	36.312 36.312
600	227.0 227.0
601	33.72 33.72
602	231.0 231.0
603	39.421 39.421
604	150.0 150.0
605	29.282 29.282
606	90.0 90.0
607	43.608 43.608
608	46.0 46.0
609	35.204 35.204
610	285.0 285.0
611	33.096 33.096
612	113.0 113.0
613	35.476 35.476
614	184.0 184.0
615	32.22 32.22
616	40.0 40.0
617	32.63 32.63
618	166.0 166.0
619	32.608 32.608
620	132.0 132.0
621	31.924 31.924
622	207.0 207.0
623	28.158 28.158
624	117.0 117.0
625	28.197 28.197
626	191.0 191.0
627	27.698 27.698
628	249.0 249.0
629	32.864 32.864
630	219.0 219.0
631	48.544 48.544
632	116.0 116.0
633	33.188 33.188
634	220.0 220.0
635	30.681 30.681
636	179.0 179.0
637	28.313 28.313
638	271.0 271.0
639	27.9 27.9
640	71.0 71.0
641	28.274 28.274
642	92.0 92.0
643	32.397 32.397
644	272.0 272.0
645	31.961 31.961
646	137.0 137.0
647	30.276 30.276
648	261.0 261.0
649	32.573 32.573
650	176.0 176.0
651	27.842 27.842
652	237.0 237.0
653	28.364 28.364
654	86.0 86.0
655	29.732 29.732
656	286.0 286.0
657	29.462 29.462
658	171.0 171.0
659	29.736 29.736
660	146.0 146.0
661	27.881 27.881
662	118.0 118.0
663	38.028 38.028
664	158.0 158.0
665	33.241 33.241
666	70.0 70.0
667	28.22 28.22
668	101.0 101.0
669	30.688 30.688
670	75.0 75.0
671	30.254 30.254
672	113.0 113.0
673	29.693 29.693
674	133.0 133.0
675	27.038 27.038
676	182.0 182.0
677	32.566 32.566
678	296.0 296.0
679	27.329 27.329
680	220.0 220.0
681	30.827 30.827
682	283.0 283.0
683	27.111 27.111
684	155.0 155.0
685	27.485 27.485
686	108.0 108.0
687	27.804 27.804
688	63.0 63.0
689	27.964 27.964
690	198.0 198.0
691	28.144 28.144
692	58.0 58.0
693	28.943 28.943
694	268.0 268.0
695	28.714 28.714
696	51.0 51.0
697	34.435 34.435
698	121.0 121.0
699	31.798 31.798
700	60.0 60.0
701	37.303 37.303
702	161.0 161.0
703	36.118 36.118
704	58.0 58.0
705	28.395 28.395
706	56.0 56.0
707	35.184 35.184
708	112.0 112.0
709	44.305 44.305
710	93.0 93.0
711	26.385 26.385
712	229.0 229.0
713	34.512 34.512
714	173.0 173.0
715	34.336 34.336
716	185.0 185.0
717	29.828 29.828
718	163.0 163.0
719	27.673 27.673
720	125.0 125.0
721	29.567 29.567
722	222.0 222.0
723	32.128 32.128
724	232.0 232.0
725	28.296 28.296
726	197.0 197.0
727	27.765 27.765
728	189.0 189.0
729	28.114 28.114
730	132.0 132.0
731	26.608 26.608
732	271.0 271.0
733	27.45 27.45
734	259.0 259.0
735	31.565 31.565
736	253.0 253.0
737	27.194 27.194
738	174.0 174.0
739	28.757 28.757
740	135.0 135.0
741	26.997 26.997
742	71.0 71.0
743	27.59 27.59
744	111.0 111.0
745	27.854 27.854
746	284.0 284.0
747	28.898 28.898
748	204.0 204.0
749	33.615 33.615
750	295.0 295.0
751	32.824 32.824
752	61.0 61.0
753	29.533 29.533
754	115.0 115.0
755	27.988 27.988
756	93.0 93.0
757	26.445 26.445
758	209.0 209.0
759	31.931 31.931
760	213.0 213.0
761	28.25 28.25
762	288.0 288.0
763	33.466 33.466
764	129.0 129.0
765	29.94 29.94
766	291.0 291.0
767	26.748 26.748
768	88.0 88.0
769	27.89 27.89
770	206.0 206.0
771	29.237 29.237
772	131.0 131.0
773	29.836 29.836
774	155.0 155.0
775	33.144 33.144
776	263.0 263.0
777	32.651 32.651
778	265.0 265.0
779	29.332 29.332
780	95.0 95.0
781	26.83 26.83
782	263.0 263.0
783	33.204 33.204
784	288.0 288.0
785	29.917 29.917
786	191.0 191.0
787	28.116 28.116
788	69.0 69.0
789	29.149 29.149
790	194.0 194.0
791	28.776 28.776
792	197.0 197.0
793	30.831 30.831
794	148.0 148.0
795	31.933 31.933
796	173.0 173.0
797	30.362 30.362
798	46.0 46.0
799	30.313 30.313
800	297.0 297.0
801	29.065 29.065
802	234.0 234.0
803	39.837 39.837
804	279.0 279.0
805	31.295 31.295
806	182.0 182.0
807	33.652 33.652
808	74.0 74.0
809	30.72 30.72
810	252.0 252.0
811	32.37 32.37
812	182.0 182.0
813	27.006 27.006
814	51.0 51.0
815	29.525 29.525
816	200.0 200.0
817	26.485 26.485
818	237.0 237.0
819	34.731 34.731
820	209.0 209.0
821	29.358 29.358
822	200.0 200.0
823	33.042 33.042
824	52.0 52.0
825	30.55 30.55
826	233.0 233.0
827	32.907 32.907
828	57.0 57.0
829	94.114 94.114
830	153.0 153.0
831	27.685 27.685
832	248.0 248.0
833	31.758 31.758
834	246.0 246.0
835	34.542 34.542
836	134.0 134.0
837	29.44 29.44
838	69.0 69.0
839	28.908 28.908
840	193.0 193.0
841	32.378 32.378
842	187.0 187.0
843	30.909 30.909
844	63.0 63.0
845	29.408 29.408
846	99.0 99.0
847	35.704 35.704
848	55.0 55.0
849	30.19 30.19
850	97.0 97.0
851	35.563 35.563
852	107.0 107.0
853	31.739 31.739
854	106.0 106.0
855	34.287 34.287
856	164.0 164.0
857	43.066 43.066
858	234.0 234.0
859	31.286 31.286
860	250.0 250.0
861	31.093 31.093
862	266.0 266.0
863	27.502 27.502
864	281.0 281.0
865	28.137 28.137
866	236.0 236.0
867	28.875 28.875
868	82.0 82.0
869	29.0 29.0
870	177.0 177.0
871	27.22 27.22
872	268.0 268.0
873	27.683 27.683
874	266.0 266.0
875	28.759 28.759
876	216.0 216.0
877	28.91 28.91
878	290.0 290.0
879	27.204 27.204
880	166.0 166.0
881	27.777 27.777
882	262.0 262.0
883	31.186 31.186
884	250.0 250.0
885	32.153 32.153
886	190.0 190.0
887	34.847 34.847
888	81.0 81.0
889	32.754 32.754
890	50.0 50.0
891	34.192 34.192
892	84.0 84.0
893	35.778 35.778
894	246.0 246.0
895	34.756 34.756
896	122.0 122.0
897	37.542 37.542
898	224.0 224.0
899	34.073 34.073
900	238.0 238.0
901	31.818 31.818
902	285.0 285.0
903	27.69 27.69
904	199.0 199.0
905	34.921 34.921
906	223.0 223.0
907	35.379 35.379
908	296.0 296.0
909	36.783 36.783
910	100.0 100.0
911	37.989 37.989
912	264.0 264.0
913	40.988 40.988
914	179.0 179.0
915	33.327 33.327
916	163.0 163.0
917	35.549 35.549
918	109.0 109.0
919	37.597 37.597
920	134.0 134.0
921	37.857 37.857
922	288.0 288.0
923	34.971 34.971
924	251.0 251.0
925	29.542 29.542
926	119.0 119.0
927	36.656 36.656
928	178.0 178.0
929	28.84 28.84
930	268.0 268.0
931	38.174 38.174
932	268.0 268.0
933	27.561 27.561
934	131.0 131.0
935	37.088 37.088
936	230.0 230.0
937	40.367 40.367
938	45.0 45.0
939	29.172 29.172
940	76.0 76.0
941	27.85 27.85
942	141.0 141.0
943	26.48 26.48
944	132.0 132.0
945	27.702 27.702
946	232.0 232.0
947	29.398 29.398
948	279.0 279.0
949	31.427 31.427
950	194.0 194.0
951	28.537 28.537
952	44.0 44.0
953	28.13 28.13
954	149.0 149.0
955	28.438 28.438
956	104.0 104.0
957	29.277 29.277
958	150.0 150.0
959	28.659 28.659
960	80.0 80.0
961	28.471 28.471
962	134.0 134.0
963	28.502 28.502
964	142.0 142.0
965	29.354 29.354
966	292.0 292.0
967	28.029 28.029
968	276.0 276.0
969	33.943 33.943
970	167.0 167.0
971	36.855 36.855
972	228.0 228.0
973	27.992 27.992
974	80.0 80.0
975	31.187 31.187
976	99.0 99.0
977	35.91 35.91
978	103.0 103.0
979	29.007 29.007
980	196.0 196.0
981	29.002 29.002
982	148.0 148.0
983	36.447 36.447
984	234.0 234.0
985	28.835 28.835
986	41.0 41.0
987	32.458 32.458
988	48.0 48.0
989	34.099 34.099
990	228.0 228.0
991	29.524 29.524
992	270.0 270.0
993	33.47 33.47
994	87.0 87.0
995	29.445 29.445
996	251.0 251.0
997	30.565 30.565
998	53.0 53.0
999	32.754 32.754
1000	125.0 125.0
1001	33.528 33.528
1002	246.0 246.0
1003	27.148 27.148
1004	266.0 266.0
1005	32.168 32.168
1006	71.0 71.0
1007	32.539 32.539
1008	162.0 162.0
1009	31.388 31.388
1010	137.0 137.0
1011	28.337 28.337
1012	283.0 283.0
1013	31.636 31.636
1014	283.0 283.0
1015	30.32 30.32
1016	147.0 147.0
1017	31.414 31.414
1018	40.0 40.0
1019	30.147 30.147
1020	293.0 293.0
1021	31.087 31.087
1022	166.0 166.0
1023	30.754 30.754
1024	267.0 267.0
1025	29.9 29.9
1026	97.0 97.0
1027	37.38 37.38
1028	248.0 248.0
1029	29.399 29.399
1030	292.0 292.0
1031	37.98 37.98
1032	293.0 293.0
1033	29.344 29.344
1034	182.0 182.0
1035	30.538 30.538
1036	130.0 130.0
1037	27.953 27.953
1038	295.0 295.0
1039	29.096 29.096
1040	160.0 160.0
1041	30.57 30.57
1042	278.0 278.0
1043	26.386 26.386
1044	248.0 248.0
1045	31.981 31.981
1046	169.0 169.0
1047	30.681 30.681
1048	128.0 128.0
1049	31.133 31.133
1050	195.0 195.0
1051	27.838 27.838
1052	161.0 161.0
1053	35.758 35.758
1054	225.0 225.0
1055	35.384 35.384
1056	289.0 289.0
1057	30.638 30.638
1058	119.0 119.0
1059	32.542 32.542
1060	248.0 248.0
1061	33.172 33.172
1062	153.0 153.0
1063	36.197 36.197
1064	91.0 91.0
1065	36.392 36.392
1066	104.0 104.0
1067	33.426 33.426
1068	125.0 125.0
1069	34.602 34.602
1070	235.0 235.0
1071	31.544 31.544
1072	227.0 227.0
1073	30.875 30.875
1074	66.0 66.0
1075	34.797 34.797
1076	141.0 141.0
1077	29.203 29.203
1078	188.0 188.0
1079	30.603 30.603
1080	114.0 114.0
1081	29.256 29.256
1082	70.0 70.0
1083	28.423 28.423
1084	83.0 83.0
1085	30.68 30.68
1086	63.0 63.0
1087	29.703 29.703
1088	76.0 76.0
1089	28.145 28.145
1090	229.0 229.0
1091	34.802 34.802
1092	92.0 92.0
1093	33.914 33.914
1094	49.0 49.0
1095	29.482 29.482
1096	139.0 139.0
1097	31.455 31.455
1098	182.0 182.0
1099	31.314 31.314
1100	110.0 110.0
1101	38.476 38.476
1102	71.0 71.0
1103	29.121 29.121
1104	79.0 79.0
1105	29.778 29.778
1106	173.0 173.0
1107	36.875 36.875
1108	133.0 133.0
1109	30.527 30.527
1110	275.0 275.0
1111	31.005 31.005
1112	229.0 229.0
1113	29.969 29.969
1114	137.0 137.0
1115	27.131 27.131
1116	215.0 215.0
1117	30.534 30.534
1118	66.0 66.0
1119	30.144 30.144
1120	163.0 163.0
1121	29.44 29.44
1122	107.0 107.0
1123	28.631 28.631
1124	182.0 182.0
1125	191.978 191.978
1126	247.0 247.0
1127	31.629 31.629
1128	246.0 246.0
1129	27.033 27.033
1130	124.0 124.0
1131	29.421 29.421
1132	126.0 126.0
1133	30.467 30.467
1134	64.0 64.0
1135	30.842 30.842
1136	48.0 48.0
1137	26.329 26.329
1138	71.0 71.0
1139	28.353 28.353
1140	155.0 155.0
1141	27.869 27.869
1142	102.0 102.0
1143	27.651 27.651
1144	103.0 103.0
1145	28.321 28.321
1146	296.0 296.0
1147	32.415 32.415
1148	238.0 238.0
1149	33.413 33.413
1150	109.0 109.0
1151	30.71 30.71
1152	291.0 291.0
1153	32.499 32.499
1154	53.0 53.0
1155	40.241 40.241
1156	45.0 45.0
1157	31.042 31.042
1158	226.0 226.0
1159	33.246 33.246
1160	48.0 48.0
1161	30.809 30.809
1162	286.0 286.0
1163	32.563 32.563
1164	239.0 239.0
1165	32.098 32.098
1166	144.0 144.0
1167	29.262 29.262
1168	239.0 239.0
1169	29.476 29.476
1170	152.0 152.0
1171	31.335 31.335
1172	166.0 166.0
1173	31.068 31.068
1174	116.0 116.0
1175	27.03 27.03
1176	239.0 239.0
1177	29.171 29.171
1178	266.0 266.0
1179	28.69 28.69
1180	293.0 293.0
1181	31.006 31.006
1182	241.0 241.0
1183	32.975 32.975
1184	162.0 162.0
1185	31.436 31.436
1186	44.0 44.0
1187	27.254 27.254
1188	251.0 251.0
1189	33.95 33.95
1190	66.0 66.0
1191	33.898 33.898
1192	102.0 102.0
1193	37.288 37.288
1194	118.0 118.0
1195	28.086 28.086
1196	222.0 222.0
1197	34.907 34.907
1198	294.0 294.0
1199	34.585 34.585
1200	98.0 98.0
1201	30.75 30.75
1202	83.0 83.0
1203	40.196 40.196
1204	267.0 267.0
1205	37.547 37.547
1206	222.0 222.0
1207	28.035 28.035
1208	275.0 275.0
1209	32.489 32.489
1210	81.0 81.0
1211	32.772 32.772
1212	297.0 297.0
1213	27.174 27.174
1214	121.0 121.0
1215	34.086 34.086
1216	80.0 80.0
1217	38.029 38.029
1218	129.0 129.0
1219	29.615 29.615
1220	83.0 83.0
1221	31.323 31.323
1222	129.0 129.0
1223	34.013 34.013
1224	226.0 226.0
1225	31.007 31.007
1226	96.0 96.0
1227	29.109 29.109
1228	79.0 79.0
1229	31.358 31.358
1230	99.0 99.0
1231	41.427 41.427
1232	182.0 182.0
1233	72.312 72.312
1234	133.0 133.0
1235	49.857 49.857
1236	99.0 99.0
1237	35.379 35.379
1238	156.0 156.0
1239	31.829 31.829
1240	105.0 105.0
1241	32.214 32.214
1242	157.0 157.0
1243	32.403 32.403
1244	257.0 257.0
1245	51.595 51.595
1246	86.0 86.0
1247	30.987 30.987
1248	135.0 135.0
1249	40.577 40.577
1250	142.0 142.0
1251	31.689 31.689
1252	118.0 118.0
1253	32.718 32.718
1254	288.0 288.0
1255	33.62 33.62
1256	189.0 189.0
1257	32.355 32.355
1258	113.0 113.0
1259	30.9 30.9
1260	133.0 133.0
1261	34.331 34.331
1262	296.0 296.0
1263	29.883 29.883
1264	130.0 130.0
1265	30.506 30.506
1266	164.0 164.0
1267	34.872 34.872
1268	218.0 218.0
1269	29.413 29.413
1270	237.0 237.0
1271	36.629 36.629
1272	249.0 249.0
1273	37.526 37.526
1274	159.0 159.0
1275	38.299 38.299
1276	209.0 209.0
1277	31.99 31.99
1278	42.0 42.0
1279	28.952 28.952
1280	248.0 248.0
1281	61.992 61.992
1282	150.0 150.0
1283	29.513 29.513
1284	231.0 231.0
1285	31.51 31.51
1286	81.0 81.0
1287	34.227 34.227
1288	182.0 182.0
1289	31.64 31.64
1290	55.0 55.0
1291	31.353 31.353
1292	141.0 141.0
1293	88.582 88.582
1294	83.0 83.0
1295	30.464 30.464
1296	143.0 143.0
1297	32.207 32.207
1298	157.0 157.0
1299	39.085 39.085
1300	42.0 42.0
1301	31.542 31.542
1302	281.0 281.0
1303	31.441 31.441
1304	197.0 197.0
1305	32.066 32.066
1306	243.0 243.0
1307	34.261 34.261
1308	234.0 234.0
1309	33.619 33.619
1310	194.0 194.0
1311	31.898 31.898
1312	57.0 57.0
1313	29.56 29.56
1314	123.0 123.0
1315	66.969 66.969
1316	110.0 110.0
1317	26.763 26.763
1318	119.0 119.0
1319	28.66 28.66
1320	94.0 94.0
1321	28.483 28.483
1322	67.0 67.0
1323	29.106 29.106
1324	75.0 75.0
1325	38.783 38.783
1326	208.0 208.0
1327	48.324 48.324
1328	174.0 174.0
1329	27.498 27.498
1330	102.0 102.0
1331	62.445 62.445
1332	73.0 73.0
1333	30.749 30.749
1334	286.0 286.0
1335	30.679 30.679
1336	211.0 211.0
1337	29.184 29.184
1338	182.0 182.0
1339	29.592 29.592
1340	248.0 248.0
1341	30.594 30.594
1342	63.0 63.0
1343	30.521 30.521
1344	81.0 81.0
1345	32.048 32.048
1346	188.0 188.0
1347	29.203 29.203
1348	192.0 192.0
1349	41.507 41.507
1350	151.0 151.0
1351	41.521 41.521
1352	298.0 298.0
1353	32.365 32.365
1354	60.0 60.0
1355	29.988 29.988
1356	296.0 296.0
1357	31.301 31.301
1358	160.0 160.0
1359	29.759 29.759
1360	217.0 217.0
1361	30.821 30.821
1362	46.0 46.0
1363	31.288 31.288
1364	199.0 199.0
1365	31.094 31.094
1366	82.0 82.0
1367	35.996 35.996
1368	287.0 287.0
1369	31.923 31.923
1370	139.0 139.0
1371	32.273 32.273
1372	234.0 234.0
1373	35.556 35.556
1374	227.0 227.0
1375	30.652 30.652
1376	232.0 232.0
1377	31.152 31.152
1378	51.0 51.0
1379	30.514 30.514
1380	100.0 100.0
1381	30.672 30.672
1382	88.0 88.0
1383	29.806 29.806
1384	189.0 189.0
1385	33.239 33.239
1386	71.0 71.0
1387	31.505 31.505
1388	104.0 104.0
1389	29.621 29.621
1390	267.0 267.0
1391	41.746 41.746
1392	186.0 186.0
1393	34.265 34.265
1394	68.0 68.0
1395	31.924 31.924
1396	150.0 150.0
1397	29.98 29.98
1398	154.0 154.0
1399	32.317 32.317
1400	262.0 262.0
1401	30.808 30.808
1402	198.0 198.0
1403	33.712 33.712
1404	53.0 53.0
1405	29.818 29.818
1406	190.0 190.0
1407	27.426 27.426
1408	262.0 262.0
1409	30.035 30.035
1410	247.0 247.0
1411	55.424 55.424
1412	175.0 175.0
1413	30.043 30.043
1414	227.0 227.0
1415	30.86 30.86
1416	167.0 167.0
1417	27.914 27.914
1418	207.0 207.0
1419	31.113 31.113
1420	53.0 53.0
1421	30.662 30.662
1422	259.0 259.0
1423	31.587 31.587
1424	232.0 232.0
1425	27.05 27.05
1426	116.0 116.0
1427	39.939 39.939
1428	111.0 111.0
1429	30.562 30.562
1430	289.0 289.0
1431	33.149 33.149
1432	218.0 218.0
1433	32.528 32.528
1434	174.0 174.0
1435	30.824 30.824
1436	170.0 170.0
1437	30.596 30.596
1438	130.0 130.0
1439	31.455 31.455
1440	281.0 281.0
1441	32.383 32.383
1442	231.0 231.0
1443	27.414 27.414
1444	104.0 104.0
1445	30.871 30.871
1446	171.0 171.0
1447	31.316 31.316
1448	161.0 161.0
1449	30.598 30.598
1450	144.0 144.0
1451	27.691 27.691
1452	292.0 292.0
1453	30.031 30.031
1454	41.0 41.0
1455	30.509 30.509
1456	244.0 244.0
1457	35.641 35.641
1458	136.0 136.0
1459	46.075 46.075
1460	149.0 149.0
1461	34.41 34.41
1462	214.0 214.0
1463	30.382 30.382
1464	147.0 147.0
1465	29.83 29.83
1466	179.0 179.0
1467	30.547 30.547
1468	141.0 141.0
1469	29.497 29.497
1470	228.0 228.0
1471	32.108 32.108
1472	211.0 211.0
1473	33.72 33.72
1474	202.0 202.0
1475	32.345 32.345
1476	71.0 71.0
1477	33.166 33.166
1478	105.0 105.0
1479	32.824 32.824
1480	102.0 102.0
1481	34.045 34.045
1482	211.0 211.0
1483	32.951 32.951
1484	110.0 110.0
1485	34.097 34.097
1486	162.0 162.0
1487	33.269 33.269
1488	216.0 216.0
1489	35.438 35.438
1490	271.0 271.0
1491	32.852 32.852
1492	159.0 159.0
1493	32.927 32.927
1494	74.0 74.0
1495	28.52 28.52
1496	237.0 237.0
1497	31.002 31.002
1498	45.0 45.0
1499	34.781 34.781
1500	265.0 265.0
1501	30.163 30.163
1502	171.0 171.0
1503	38.768 38.768
1504	73.0 73.0
1505	62.426 62.426
1506	74.0 74.0
1507	26.562 26.562
1508	238.0 238.0
1509	37.208 37.208
1510	276.0 276.0
1511	31.761 31.761
1512	46.0 46.0
1513	31.078 31.078
1514	68.0 68.0
1515	31.063 31.063
1516	290.0 290.0
1517	29.092 29.092
1518	218.0 218.0
1519	29.351 29.351
1520	159.0 159.0
1521	29.345 29.345
1522	57.0 57.0
1523	30.243 30.243
1524	251.0 251.0
1525	29.237 29.237
1526	253.0 253.0
1527	35.521 35.521
1528	61.0 61.0
1529	37.045 37.045
1530	208.0 208.0
1531	30.501 30.501
1532	52.0 52.0
1533	36.746 36.746
1534	251.0 251.0
1535	29.944 29.944
1536	57.0 57.0
1537	31.096 31.096
1538	169.0 169.0
1539	33.174 33.174
1540	51.0 51.0
1541	30.205 30.205
1542	43.0 43.0
1543	30.256 30.256
1544	241.0 241.0
1545	32.965 32.965
1546	200.0 200.0
1547	32.697 32.697
1548	98.0 98.0
1549	29.524 29.524
1550	278.0 278.0
1551	26.392 26.392
1552	294.0 294.0
1553	30.862 30.862
1554	254.0 254.0
1555	28.863 28.863
1556	67.0 67.0
1557	29.721 29.721
1558	291.0 291.0
1559	35.085 35.085
1560	136.0 136.0
1561	32.752 32.752
1562	215.0 215.0
1563	29.81 29.81
1564	52.0 52.0
1565	32.798 32.798
1566	225.0 225.0
1567	26.981 26.981
1568	41.0 41.0
1569	32.894 32.894
1570	214.0 214.0
1571	31.504 31.504
1572	239.0 239.0
1573	31.002 31.002
1574	290.0 290.0
1575	34.542 34.542
1576	214.0 214.0
1577	36.177 36.177
1578	114.0 114.0
1579	28.218 28.218
1580	135.0 135.0
1581	34.302 34.302
1582	230.0 230.0
1583	40.811 40.811
1584	90.0 90.0
1585	29.707 29.707
1586	124.0 124.0
1587	33.012 33.012
1588	241.0 241.0
1589	31.731 31.731
1590	298.0 298.0
1591	36.848 36.848
1592	144.0 144.0
1593	30.498 30.498
1594	213.0 213.0
1595	32.836 32.836
1596	280.0 280.0
1597	35.54 35.54
1598	134.0 134.0
1599	32.832 32.832
1600	205.0 205.0
1601	27.547 27.547
1602	142.0 142.0
1603	27.163 27.163
1604	168.0 168.0
1605	33.41 33.41
1606	124.0 124.0
1607	28.091 28.091
1608	275.0 275.0
1609	29.243 29.243
1610	77.0 77.0
1611	27.991 27.991
1612	164.0 164.0
1613	32.681 32.681
1614	283.0 283.0
1615	32.097 32.097
1616	133.0 133.0
1617	28.91 28.91
1618	252.0 252.0
1619	27.338 27.338
1620	76.0 76.0
1621	27.331 27.331
1622	125.0 125.0
1623	31.119 31.119
1624	227.0 227.0
1625	28.302 28.302
1626	198.0 198.0
1627	36.374 36.374
1628	170.0 170.0
1629	30.729 30.729
1630	284.0 284.0
1631	28.856 28.856
1632	121.0 121.0
1633	34.021 34.021
1634	135.0 135.0
1635	35.018 35.018
1636	289.0 289.0
1637	32.537 32.537
1638	187.0 187.0
1639	31.634 31.634
1640	55.0 55.0
1641	29.494 29.494
1642	139.0 139.0
1643	29.221 29.221
1644	95.0 95.0
1645	31.57 31.57
1646	296.0 296.0
1647	28.984 28.984
1648	127.0 127.0
1649	34.931 34.931
1650	177.0 177.0
1651	32.032 32.032
1652	270.0 270.0
1653	36.637 36.637
1654	291.0 291.0
1655	35.075 35.075
1656	259.0 259.0
1657	32.554 32.554
1658	106.0 106.0
1659	33.489 33.489
1660	280.0 280.0
1661	37.358 37.358
1662	62.0 62.0
1663	30.659 30.659
1664	194.0 194.0
1665	34.659 34.659
1666	81.0 81.0
1667	33.517 33.517
1668	63.0 63.0
1669	36.183 36.183
1670	47.0 47.0
1671	36.413 36.413
1672	72.0 72.0
1673	33.125 33.125
1674	49.0 49.0
1675	29.096 29.096
1676	268.0 268.0
1677	38.434 38.434
1678	178.0 178.0
1679	38.985 38.985
1680	90.0 90.0
1681	32.783 32.783
1682	153.0 153.0
1683	29.177 29.177
1684	196.0 196.0
1685	32.349 32.349
1686	123.0 123.0
1687	28.084 28.084
1688	157.0 157.0
1689	28.321 28.321
1690	175.0 175.0
1691	28.247 28.247
1692	296.0 296.0
1693	31.656 31.656
1694	246.0 246.0
1695	27.679 27.679
1696	216.0 216.0
1697	27.552 27.552
1698	261.0 261.0
1699	28.49 28.49
1700	86.0 86.0
1701	28.616 28.616
1702	61.0 61.0
1703	29.011 29.011
1704	234.0 234.0
1705	31.509 31.509
1706	165.0 165.0
1707	28.309 28.309
1708	281.0 281.0
1709	32.283 32.283
1710	116.0 116.0
1711	32.942 32.942
1712	118.0 118.0
1713	30.205 30.205
1714	61.0 61.0
1715	33.173 33.173
1716	243.0 243.0
1717	29.594 29.594
1718	151.0 151.0
1719	39.052 39.052
1720	120.0 120.0
1721	38.129 38.129
1722	208.0 208.0
1723	38.798 38.798
1724	89.0 89.0
1725	32.658 32.658
1726	276.0 276.0
1727	28.729 28.729
1728	210.0 210.0
1729	30.598 30.598
1730	208.0 208.0
1731	36.791 36.791
1732	146.0 146.0
1733	30.058 30.058
1734	281.0 281.0
1735	32.28 32.28
1736	130.0 130.0
1737	28.16 28.16
1738	47.0 47.0
1739	30.566 30.566
1740	57.0 57.0
1741	28.261 28.261
1742	226.0 226.0
1743	30.45 30.45
1744	192.0 192.0
1745	30.172 30.172
1746	90.0 90.0
1747	26.953 26.953
1748	168.0 168.0
1749	27.493 27.493
1750	249.0 249.0
1751	34.884 34.884
1752	216.0 216.0
1753	29.307 29.307
1754	180.0 180.0
1755	28.882 28.882
1756	47.0 47.0
1757	29.345 29.345
1758	186.0 186.0
1759	30.055 30.055
1760	101.0 101.0
1761	28.424 28.424
1762	152.0 152.0
1763	31.983 31.983
1764	42.0 42.0
1765	27.823 27.823
1766	68.0 68.0
1767	29.796 29.796
1768	119.0 119.0
1769	29.103 29.103
1770	101.0 101.0
1771	33.679 33.679
1772	124.0 124.0
1773	27.262 27.262
1774	277.0 277.0
1775	26.586 26.586
1776	210.0 210.0
1777	26.403 26.403
1778	261.0 261.0
1779	33.006 33.006
1780	287.0 287.0
1781	33.347 33.347
1782	101.0 101.0
1783	33.746 33.746
1784	101.0 101.0
1785	31.937 31.937
1786	53.0 53.0
1787	31.605 31.605
1788	135.0 135.0
1789	32.152 32.152
1790	101.0 101.0
1791	36.609 36.609
1792	65.0 65.0
1793	37.447 37.447
1794	292.0 292.0
1795	34.385 34.385
1796	44.0 44.0
1797	29.33 29.33
1798	243.0 243.0
1799	29.914 29.914
1800	68.0 68.0
1801	29.344 29.344
1802	192.0 192.0
1803	28.311 28.311
1804	119.0 119.0
1805	29.204 29.204
1806	114.0 114.0
1807	27.552 27.552
1808	95.0 95.0
1809	29.431 29.431
1810	71.0 71.0
1811	30.005 30.005
1812	279.0 279.0
1813	27.488 27.488
1814	175.0 175.0
1815	28.63 28.63
1816	239.0 239.0
1817	28.588 28.588
1818	148.0 148.0
1819	27.485 27.485
1820	226.0 226.0
1821	27.694 27.694
1822	187.0 187.0
1823	29.366 29.366
1824	179.0 179.0
1825	29.458 29.458
1826	42.0 42.0
1827	32.676 32.676
1828	156.0 156.0
1829	27.997 27.997
1830	108.0 108.0
1831	27.124 27.124
1832	92.0 92.0
1833	28.215 28.215
1834	206.0 206.0
1835	26.982 26.982
1836	46.0 46.0
1837	30.26 30.26
1838	161.0 161.0
1839	34.493 34.493
1840	245.0 245.0
1841	28.09 28.09
1842	73.0 73.0
1843	30.324 30.324
1844	165.0 165.0
1845	27.601 27.601
1846	153.0 153.0
1847	28.408 28.408
1848	130.0 130.0
1849	28.338 28.338
1850	164.0 164.0
1851	29.092 29.092
1852	57.0 57.0
1853	29.032 29.032
1854	127.0 127.0
1855	28.48 28.48
1856	263.0 263.0
1857	28.92 28.92
1858	201.0 201.0
1859	31.294 31.294
1860	67.0 67.0
1861	29.253 29.253
1862	274.0 274.0
1863	28.696 28.696
1864	201.0 201.0
1865	32.632 32.632
1866	94.0 94.0
1867	29.929 29.929
1868	126.0 126.0
1869	38.483 38.483
1870	92.0 92.0
1871	28.56 28.56
1872	162.0 162.0
1873	28.542 28.542
1874	80.0 80.0
1875	33.845 33.845
1876	255.0 255.0
1877	34.623 34.623
1878	112.0 112.0
1879	32.545 32.545
1880	274.0 274.0
1881	38.235 38.235
1882	110.0 110.0
1883	46.208 46.208
1884	268.0 268.0
1885	34.554 34.554
1886	235.0 235.0
1887	30.153 30.153
1888	235.0 235.0
1889	33.821 33.821
1890	259.0 259.0
1891	38.12 38.12
1892	222.0 222.0
1893	38.092 38.092
1894	216.0 216.0
1895	35.916 35.916
1896	173.0 173.0
1897	51.838 51.838
1898	274.0 274.0
1899	31.078 31.078
1900	179.0 179.0
1901	30.754 30.754
1902	296.0 296.0
1903	32.334 32.334
1904	129.0 129.0
1905	28.343 28.343
1906	90.0 90.0
1907	35.424 35.424
1908	225.0 225.0
1909	29.436 29.436
1910	161.0 161.0
1911	34.649 34.649
1912	218.0 218.0
1913	31.441 31.441
1914	171.0 171.0
1915	33.608 33.608
1916	127.0 127.0
1917	37.522 37.522
1918	257.0 257.0
1919	28.054 28.054
1920	239.0 239.0
1921	31.199 31.199
1922	134.0 134.0
1923	29.596 29.596
1924	121.0 121.0
1925	27.287 27.287
1926	201.0 201.0
1927	29.49 29.49
1928	112.0 112.0
1929	27.439 27.439
1930	213.0 213.0
1931	26.686 26.686
1932	41.0 41.0
1933	28.639 28.639
1934	146.0 146.0
1935	27.596 27.596
1936	206.0 206.0
1937	31.387 31.387
1938	60.0 60.0
1939	28.87 28.87
1940	81.0 81.0
1941	29.804 29.804
1942	154.0 154.0
1943	27.942 27.942
1944	56.0 56.0
1945	30.268 30.268
1946	81.0 81.0
1947	32.985 32.985
1948	268.0 268.0
1949	35.322 35.322
1950	171.0 171.0
1951	27.533 27.533
1952	145.0 145.0
1953	30.84 30.84
1954	178.0 178.0
1955	26.876 26.876
1956	188.0 188.0
1957	29.875 29.875
1958	278.0 278.0
1959	38.508 38.508
1960	274.0 274.0
1961	36.845 36.845
1962	294.0 294.0
1963	36.751 36.751
1964	143.0 143.0
1965	36.938 36.938
1966	88.0 88.0
1967	46.206 46.206
1968	78.0 78.0
1969	35.52 35.52
1970	273.0 273.0
1971	29.71 29.71
1972	212.0 212.0
1973	27.745 27.745
1974	62.0 62.0
1975	28.466 28.466
1976	42.0 42.0
1977	27.673 27.673
1978	286.0 286.0
1979	28.12 28.12
1980	43.0 43.0
1981	43.518 43.518
1982	258.0 258.0
1983	37.103 37.103
1984	75.0 75.0
1985	54.564 54.564
1986	279.0 279.0
1987	33.312 33.312
1988	151.0 151.0
1989	38.758 38.758
1990	117.0 117.0
1991	36.078 36.078
1992	152.0 152.0
1993	36.227 36.227
1994	269.0 269.0
1995	37.087 37.087
1996	234.0 234.0
1997	36.494 36.494
1998	276.0 276.0
1999	27.386 27.386
2000	264.0 264.0
2001	29.77 29.77
2002	185.0 185.0
2003	36.319 36.319
2004	113.0 113.0
2005	35.778 35.778
2006	143.0 143.0
2007	26.292 26.292
2008	181.0 181.0
2009	29.424 29.424
2010	214.0 214.0
2011	29.544 29.544
2012	230.0 230.0
2013	32.174 32.174
2014	178.0 178.0
2015	30.521 30.521
2016	198.0 198.0
2017	33.218 33.218
2018	224.0 224.0
2019	31.98 31.98
2020	167.0 167.0
2021	31.684 31.684
2022	193.0 193.0
2023	31.633 31.633
2024	227.0 227.0
2025	27.914 27.914
2026	89.0 89.0
2027	31.385 31.385
2028	293.0 293.0
2029	30.635 30.635
2030	48.0 48.0
2031	29.397 29.397
2032	268.0 268.0
2033	28.407 28.407
2034	131.0 131.0
2035	29.296 29.296
2036	250.0 250.0
2037	28.359 28.359
2038	68.0 68.0
2039	30.735 30.735
2040	90.0 90.0
2041	30.96 30.96
2042	207.0 207.0
2043	30.594 30.594
2044	218.0 218.0
2045	29.416 29.416
2046	135.0 135.0
2047	29.895 29.895
2048	267.0 267.0
2049	30.315 30.315
2050	291.0 291.0
2051	30.206 30.206
2052	77.0 77.0
2053	32.074 32.074
2054	221.0 221.0
2055	32.95 32.95
2056	173.0 173.0
2057	29.555 29.555
2058	150.0 150.0
2059	28.932 28.932
2060	74.0 74.0
2061	31.249 31.249
2062	266.0 266.0
2063	30.381 30.381
2064	215.0 215.0
2065	28.14 28.14
2066	189.0 189.0
2067	31.989 31.989
2068	271.0 271.0
2069	32.202 32.202
2070	81.0 81.0
2071	30.199 30.199
2072	274.0 274.0
2073	30.529 30.529
2074	182.0 182.0
2075	34.673 34.673
2076	210.0 210.0
2077	27.155 27.155
2078	59.0 59.0
2079	35.882 35.882
2080	224.0 224.0
2081	32.208 32.208
2082	67.0 67.0
2083	31.607 31.607
2084	238.0 238.0
2085	31.791 31.791
2086	292.0 292.0
2087	35.31 35.31
2088	291.0 291.0
2089	35.725 35.725
2090	289.0 289.0
2091	29.388 29.388
2092	237.0 237.0
2093	28.636 28.636
2094	228.0 228.0
2095	35.583 35.583
2096	193.0 193.0
2097	33.645 33.645
2098	154.0 154.0
2099	32.76 32.76
2100	208.0 208.0
2101	31.646 31.646
2102	235.0 235.0
2103	31.763 31.763
2104	259.0 259.0
2105	43.926 43.926
2106	137.0 137.0
2107	29.3 29.3
2108	213.0 213.0
2109	28.008 28.008
2110	249.0 249.0
2111	27.384 27.384
2112	191.0 191.0
2113	30.593 30.593
2114	153.0 153.0
2115	33.294 33.294
2116	177.0 177.0
2117	31.072 31.072
2118	260.0 260.0
2119	32.259 32.259
2120	104.0 104.0
2121	30.951 30.951
2122	226.0 226.0
2123	30.861 30.861
2124	286.0 286.0
2125	30.531 30.531
2126	123.0 123.0
2127	31.801 31.801
2128	61.0 61.0
2129	30.795 30.795
2130	159.0 159.0
2131	27.376 27.376
2132	127.0 127.0
2133	28.981 28.981
2134	169.0 169.0
2135	34.671 34.671
2136	76.0 76.0
2137	26.687 26.687
2138	188.0 188.0
2139	38.822 38.822
2140	182.0 182.0
2141	26.419 26.419
2142	86.0 86.0
2143	27.594 27.594
2144	125.0 125.0
2145	29.299 29.299
2146	165.0 165.0
2147	28.263 28.263
2148	187.0 187.0
2149	40.415 40.415
2150	215.0 215.0
2151	32.453 32.453
2152	288.0 288.0
2153	31.165 31.165
2154	40.0 40.0
2155	39.733 39.733
2156	63.0 63.0
2157	41.582 41.582
2158	231.0 231.0
2159	33.358 33.358
2160	297.0 297.0
2161	29.131 29.131
2162	64.0 64.0
2163	29.612 29.612
2164	142.0 142.0
2165	27.547 27.547
2166	40.0 40.0
2167	27.124 27.124
2168	134.0 134.0
2169	26.951 26.951
2170	97.0 97.0
2171	28.05 28.05
2172	107.0 107.0
2173	27.735 27.735
2174	298.0 298.0
2175	28.197 28.197
2176	242.0 242.0
2177	27.168 27.168
2178	240.0 240.0
2179	35.786 35.786
2180	209.0 209.0
2181	37.561 37.561
2182	59.0 59.0
2183	30.287 30.287
2184	267.0 267.0
2185	28.061 28.061
2186	81.0 81.0
2187	28.739 28.739
2188	263.0 263.0
2189	29.349 29.349
2190	107.0 107.0
2191	32.723 32.723
2192	50.0 50.0
2193	28.519 28.519
2194	81.0 81.0
2195	29.247 29.247
2196	269.0 269.0
2197	27.889 27.889
2198	187.0 187.0
2199	30.174 30.174
2200	225.0 225.0
2201	32.58 32.58
2202	268.0 268.0
2203	28.719 28.719
2204	180.0 180.0
2205	29.563 29.563
2206	103.0 103.0
2207	28.441 28.441
2208	145.0 145.0
2209	28.732 28.732
2210	285.0 285.0
2211	31.479 31.479
2212	159.0 159.0
2213	27.67 27.67
2214	43.0 43.0
2215	30.263 30.263
2216	228.0 228.0
2217	35.074 35.074
2218	279.0 279.0
2219	29.228 29.228
2220	126.0 126.0
2221	35.678 35.678
2222	296.0 296.0
2223	31.312 31.312
2224	43.0 43.0
2225	30.828 30.828
2226	71.0 71.0
2227	31.716 31.716
2228	45.0 45.0
2229	28.219 28.219
2230	90.0 90.0
2231	30.209 30.209
2232	54.0 54.0
2233	30.993 30.993
2234	294.0 294.0
2235	28.642 28.642
2236	67.0 67.0
2237	28.202 28.202
2238	119.0 119.0
2239	29.811 29.811
2240	60.0 60.0
2241	32.368 32.368
2242	125.0 125.0
2243	34.135 34.135
2244	136.0 136.0
2245	28.334 28.334
2246	156.0 156.0
2247	30.841 30.841
2248	207.0 207.0
2249	30.314 30.314
2250	186.0 186.0
2251	38.265 38.265
2252	133.0 133.0
2253	30.688 30.688
2254	139.0 139.0
2255	32.437 32.437
2256	84.0 84.0
2257	26.724 26.724
2258	194.0 194.0
2259	28.636 28.636
2260	253.0 253.0
2261	26.604 26.604
2262	47.0 47.0
2263	89.144 89.144
2264	104.0 104.0
2265	36.497 36.497
2266	105.0 105.0
2267	32.412 32.412
2268	75.0 75.0
2269	26.587 26.587
2270	151.0 151.0
2271	33.94 33.94
2272	67.0 67.0
2273	33.7 33.7
2274	156.0 156.0
2275	27.303 27.303
2276	203.0 203.0
2277	27.801 27.801
2278	159.0 159.0
2279	33.283 33.283
2280	292.0 292.0
2281	184.781 184.781
2282	264.0 264.0
2283	27.139 27.139
2284	256.0 256.0
2285	30.919 30.919
2286	243.0 243.0
2287	132.047 132.047
2288	247.0 247.0
2289	122.263 122.263
2290	289.0 289.0
2291	34.761 34.761
2292	225.0 225.0
2293	32.062 32.062
2294	136.0 136.0
2295	77.51 77.51
2296	87.0 87.0
2297	27.987 27.987
2298	80.0 80.0
2299	27.746 27.746
2300	203.0 203.0
2301	39.687 39.687
2302	97.0 97.0
2303	27.151 27.151
2304	265.0 265.0
2305	27.923 27.923
2306	183.0 183.0
2307	177.162 177.162
2308	155.0 155.0
2309	92.402 92.402
2310	158.0 158.0
2311	185.638 185.638
2312	255.0 255.0
2313	185.029 185.029
2314	62.0 62.0
2315	27.674 27.674
2316	235.0 235.0
2317	28.165 28.165
2318	125.0 125.0
2319	29.361 29.361
2320	66.0 66.0
2321	187.933 187.933
2322	197.0 197.0
2323	203.046 203.046
2324	103.0 103.0
2325	27.741 27.741
2326	189.0 189.0
2327	36.453 36.453
2328	237.0 237.0
2329	32.953 32.953
2330	102.0 102.0
2331	31.394 31.394
2332	217.0 217.0
2333	47.344 47.344
2334	264.0 264.0
2335	33.163 33.163
2336	125.0 125.0
2337	34.113 34.113
2338	199.0 199.0
2339	33.181 33.181
2340	248.0 248.0
2341	186.243 186.243
2342	189.0 189.0
2343	33.489 33.489
2344	76.0 76.0
2345	32.719 32.719
2346	203.0 203.0
2347	29.103 29.103
2348	213.0 213.0
2349	162.133 162.133
2350	177.0 177.0
2351	178.572 178.572
2352	242.0 242.0
2353	29.954 29.954
2354	100.0 100.0
2355	31.361 31.361
2356	179.0 179.0
2357	29.085 29.085
2358	59.0 59.0
2359	26.839 26.839
2360	193.0 193.0
2361	28.852 28.852
2362	145.0 145.0
2363	26.996 26.996
2364	175.0 175.0
2365	29.525 29.525
2366	279.0 279.0
2367	29.164 29.164
2368	86.0 86.0
2369	29.187 29.187
2370	243.0 243.0
2371	27.578 27.578
2372	47.0 47.0
2373	160.559 160.559
2374	120.0 120.0
2375	31.424 31.424
2376	171.0 171.0
2377	32.409 32.409
2378	232.0 232.0
2379	176.616 176.616
2380	219.0 219.0
2381	28.886 28.886
2382	140.0 140.0
2383	28.007 28.007
2384	166.0 166.0
2385	28.815 28.815
2386	161.0 161.0
2387	27.992 27.992
2388	192.0 192.0
2389	42.618 42.618
2390	230.0 230.0
2391	28.391 28.391
2392	195.0 195.0
2393	194.424 194.424
2394	92.0 92.0
2395	29.368 29.368
2396	106.0 106.0
2397	29.313 29.313
2398	280.0 280.0
2399	27.585 27.585
2400	278.0 278.0
2401	202.962 202.962
2402	277.0 277.0
2403	28.521 28.521
2404	291.0 291.0
2405	27.417 27.417
2406	161.0 161.0
2407	27.074 27.074
2408	134.0 134.0
2409	28.421 28.421
2410	101.0 101.0
2411	73.926 73.926
2412	133.0 133.0
2413	34.686 34.686
2414	269.0 269.0
2415	29.232 29.232
2416	187.0 187.0
2417	203.838 203.838
2418	113.0 113.0
2419	27.887 27.887
2420	195.0 195.0
2421	27.27 27.27
2422	169.0 169.0
2423	30.586 30.586
2424	84.0 84.0
2425	26.861 26.861
2426	130.0 130.0
2427	29.803 29.803
2428	84.0 84.0
2429	29.608 29.608
2430	199.0 199.0
2431	35.516 35.516
2432	294.0 294.0
2433	30.51 30.51
2434	184.0 184.0
2435	29.645 29.645
2436	143.0 143.0
2437	31.42 31.42
2438	200.0 200.0
2439	31.124 31.124
2440	94.0 94.0
2441	31.609 31.609
2442	290.0 290.0
2443	33.181 33.181
2444	119.0 119.0
2445	33.492 33.492
2446	42.0 42.0
2447	30.106 30.106
2448	126.0 126.0
2449	32.66 32.66
2450	185.0 185.0
2451	29.258 29.258
2452	49.0 49.0
2453	30.598 30.598
2454	71.0 71.0
2455	31.753 31.753
2456	275.0 275.0
2457	35.017 35.017
2458	278.0 278.0
2459	32.405 32.405
2460	48.0 48.0
2461	34.633 34.633
2462	45.0 45.0
2463	36.124 36.124
2464	97.0 97.0
2465	31.138 31.138
2466	145.0 145.0
2467	31.947 31.947
2468	175.0 175.0
2469	34.451 34.451
2470	225.0 225.0
2471	34.905 34.905
2472	240.0 240.0
2473	32.235 32.235
2474	290.0 290.0
2475	30.494 30.494
2476	171.0 171.0
2477	31.17 31.17
2478	47.0 47.0
2479	31.375 31.375
2480	95.0 95.0
2481	31.136 31.136
2482	188.0 188.0
2483	39.752 39.752
2484	65.0 65.0
2485	32.397 32.397
2486	89.0 89.0
2487	31.28 31.28
2488	172.0 172.0
2489	30.663 30.663
2490	230.0 230.0
2491	30.992 30.992
2492	158.0 158.0
2493	30.859 30.859
2494	60.0 60.0
2495	31.535 31.535
2496	92.0 92.0
2497	26.666 26.666
2498	220.0 220.0
2499	33.179 33.179
2500	247.0 247.0
2501	27.812 27.812
2502	72.0 72.0
2503	28.421 28.421
2504	143.0 143.0
2505	29.925 29.925
2506	259.0 259.0
2507	27.741 27.741
2508	213.0 213.0
2509	28.946 28.946
2510	94.0 94.0
2511	30.54 30.54
2512	89.0 89.0
2513	30.051 30.051
2514	82.0 82.0
2515	29.034 29.034
2516	187.0 187.0
2517	29.137 29.137
2518	189.0 189.0
2519	29.49 29.49
2520	288.0 288.0
2521	28.166 28.166
2522	220.0 220.0
2523	26.978 26.978
2524	250.0 250.0
2525	28.28 28.28
2526	43.0 43.0
2527	28.299 28.299
2528	182.0 182.0
2529	35.936 35.936
2530	292.0 292.0
2531	27.968 27.968
2532	136.0 136.0
2533	27.469 27.469
2534	268.0 268.0
2535	29.34 29.34
2536	283.0 283.0
2537	27.501 27.501
2538	135.0 135.0
2539	30.867 30.867
2540	116.0 116.0
2541	31.709 31.709
2542	120.0 120.0
2543	28.559 28.559
2544	108.0 108.0
2545	35.891 35.891
2546	212.0 212.0
2547	35.273 35.273
2548	111.0 111.0
2549	38.017 38.017
2550	129.0 129.0
2551	37.754 37.754
2552	78.0 78.0
2553	35.241 35.241
2554	162.0 162.0
2555	33.62 33.62
2556	89.0 89.0
2557	30.227 30.227
2558	74.0 74.0
2559	33.069 33.069
2560	212.0 212.0
2561	28.923 28.923
2562	141.0 141.0
2563	35.456 35.456
2564	273.0 273.0
2565	31.773 31.773
2566	135.0 135.0
2567	29.764 29.764
2568	251.0 251.0
2569	33.166 33.166
2570	116.0 116.0
2571	37.734 37.734
2572	129.0 129.0
2573	33.567 33.567
2574	120.0 120.0
2575	35.8 35.8
2576	133.0 133.0
2577	32.077 32.077
2578	175.0 175.0
2579	29.342 29.342
2580	112.0 112.0
2581	34.279 34.279
2582	125.0 125.0
2583	33.783 33.783
2584	58.0 58.0
2585	32.11 32.11
2586	231.0 231.0
2587	37.479 37.479
2588	171.0 171.0
2589	30.182 30.182
2590	231.0 231.0
2591	42.837 42.837
2592	163.0 163.0
2593	32.305 32.305
2594	238.0 238.0
2595	36.101 36.101
2596	298.0 298.0
2597	32.118 32.118
2598	239.0 239.0
2599	32.705 32.705
2600	155.0 155.0
2601	32.475 32.475
2602	60.0 60.0
2603	31.368 31.368
2604	252.0 252.0
2605	31.069 31.069
2606	223.0 223.0
2607	27.846 27.846
2608	135.0 135.0
2609	29.486 29.486
2610	125.0 125.0
2611	32.14 32.14
2612	146.0 146.0
2613	31.72 31.72
2614	233.0 233.0
2615	31.186 31.186
2616	112.0 112.0
2617	30.389 30.389
2618	246.0 246.0
2619	28.784 28.784
2620	179.0 179.0
2621	32.822 32.822
2622	81.0 81.0
2623	31.898 31.898
2624	155.0 155.0
2625	35.11 35.11
2626	69.0 69.0
2627	32.583 32.583
2628	194.0 194.0
2629	29.263 29.263
2630	116.0 116.0
2631	28.131 28.131
2632	222.0 222.0
2633	44.69 44.69
2634	190.0 190.0
2635	33.061 33.061
2636	253.0 253.0
2637	32.163 32.163
2638	287.0 287.0
2639	32.173 32.173
2640	220.0 220.0
2641	33.292 33.292
2642	208.0 208.0
2643	29.601 29.601
2644	134.0 134.0
2645	27.657 27.657
2646	145.0 145.0
2647	30.369 30.369
2648	207.0 207.0
2649	27.488 27.488
2650	281.0 281.0
2651	27.421 27.421
2652	55.0 55.0
2653	36.065 36.065
2654	228.0 228.0
2655	28.746 28.746
2656	245.0 245.0
2657	28.01 28.01
2658	242.0 242.0
2659	31.03 31.03
2660	80.0 80.0
2661	28.42 28.42
2662	43.0 43.0
2663	30.67 30.67
2664	77.0 77.0
2665	28.554 28.554
2666	163.0 163.0
2667	32.56 32.56
2668	63.0 63.0
2669	29.121 29.121
2670	141.0 141.0
2671	27.582 27.582
2672	88.0 88.0
2673	31.743 31.743
2674	135.0 135.0
2675	30.706 30.706
2676	215.0 215.0
2677	32.264 32.264
2678	142.0 142.0
2679	33.004 33.004
2680	139.0 139.0
2681	29.197 29.197
2682	214.0 214.0
2683	30.17 30.17
2684	60.0 60.0
2685	31.602 31.602
2686	247.0 247.0
2687	34.07 34.07
2688	161.0 161.0
2689	30.109 30.109
2690	176.0 176.0
2691	29.435 29.435
2692	134.0 134.0
2693	29.689 29.689
2694	269.0 269.0
2695	30.015 30.015
2696	77.0 77.0
2697	28.341 28.341
2698	200.0 200.0
2699	28.738 28.738
2700	231.0 231.0
2701	29.346 29.346
2702	130.0 130.0
2703	26.938 26.938
2704	175.0 175.0
2705	27.995 27.995
2706	298.0 298.0
2707	28.487 28.487
2708	43.0 43.0
2709	32.235 32.235
2710	187.0 187.0
2711	32.269 32.269
2712	171.0 171.0
2713	35.534 35.534
2714	60.0 60.0
2715	34.234 34.234
2716	90.0 90.0
2717	40.399 40.399
2718	122.0 122.0
2719	32.776 32.776
2720	71.0 71.0
2721	32.356 32.356
2722	68.0 68.0
2723	31.703 31.703
2724	217.0 217.0
2725	29.161 29.161
2726	241.0 241.0
2727	30.734 30.734
2728	208.0 208.0
2729	28.898 28.898
2730	49.0 49.0
2731	30.434 30.434
2732	267.0 267.0
2733	28.059 28.059
2734	190.0 190.0
2735	30.341 30.341
2736	43.0 43.0
2737	32.364 32.364
2738	225.0 225.0
2739	31.418 31.418
2740	223.0 223.0
2741	38.697 38.697
2742	166.0 166.0
2743	32.089 32.089
2744	147.0 147.0
2745	29.808 29.808
2746	85.0 85.0
2747	32.231 32.231
2748	176.0 176.0
2749	31.696 31.696
2750	124.0 124.0
2751	28.932 28.932
2752	172.0 172.0
2753	32.094 32.094
2754	187.0 187.0
2755	30.923 30.923
2756	208.0 208.0
2757	30.942 30.942
2758	256.0 256.0
2759	27.378 27.378
2760	83.0 83.0
2761	31.493 31.493
2762	292.0 292.0
2763	30.308 30.308
2764	193.0 193.0
2765	30.573 30.573
2766	245.0 245.0
2767	29.869 29.869
2768	119.0 119.0
2769	29.513 29.513
2770	44.0 44.0
2771	33.218 33.218
2772	154.0 154.0
2773	33.328 33.328
2774	145.0 145.0
2775	30.973 30.973
2776	256.0 256.0
2777	30.744 30.744
2778	67.0 67.0
2779	29.323 29.323
2780	184.0 184.0
2781	31.204 31.204
2782	85.0 85.0
2783	31.48 31.48
2784	213.0 213.0
2785	27.966 27.966
2786	97.0 97.0
2787	31.341 31.341
2788	181.0 181.0
2789	36.944 36.944
2790	283.0 283.0
2791	30.218 30.218
2792	162.0 162.0
2793	31.683 31.683
2794	248.0 248.0
2795	33.736 33.736
2796	290.0 290.0
2797	32.173 32.173
2798	143.0 143.0
2799	32.62 32.62
2800	169.0 169.0
2801	34.053 34.053
2802	102.0 102.0
2803	32.4 32.4
2804	144.0 144.0
2805	33.032 33.032
2806	84.0 84.0
2807	29.292 29.292
2808	170.0 170.0
2809	31.118 31.118
2810	78.0 78.0
2811	31.252 31.252
2812	242.0 242.0
2813	33.398 33.398
2814	279.0 279.0
2815	33.872 33.872
2816	54.0 54.0
2817	27.358 27.358
2818	143.0 143.0
2819	33.3 33.3
2820	84.0 84.0
2821	36.249 36.249
2822	153.0 153.0
2823	50.85 50.85
2824	246.0 246.0
2825	37.047 37.047
2826	172.0 172.0
2827	33.143 33.143
2828	170.0 170.0
2829	35.82 35.82
2830	122.0 122.0
2831	30.51 30.51
2832	100.0 100.0
2833	29.097 29.097
2834	141.0 141.0
2835	30.124 30.124
2836	250.0 250.0
2837	32.709 32.709
2838	111.0 111.0
2839	31.902 31.902
2840	239.0 239.0
2841	34.285 34.285
2842	290.0 290.0
2843	32.57 32.57
2844	203.0 203.0
2845	35.0 35.0
2846	293.0 293.0
2847	32.386 32.386
2848	223.0 223.0
2849	30.77 30.77
2850	122.0 122.0
2851	30.389 30.389
2852	45.0 45.0
2853	34.672 34.672
2854	100.0 100.0
2855	34.778 34.778
2856	172.0 172.0
2857	35.266 35.266
2858	196.0 196.0
2859	34.793 34.793
2860	107.0 107.0
2861	41.991 41.991
2862	225.0 225.0
2863	29.094 29.094
2864	149.0 149.0
2865	32.33 32.33
2866	219.0 219.0
2867	32.484 32.484
2868	186.0 186.0
2869	36.683 36.683
2870	57.0 57.0
2871	31.03 31.03
2872	40.0 40.0
2873	31.722 31.722
2874	45.0 45.0
2875	31.483 31.483
2876	76.0 76.0
2877	30.954 30.954
2878	297.0 297.0
2879	29.182 29.182
2880	97.0 97.0
2881	33.54 33.54
2882	274.0 274.0
2883	30.354 30.354
2884	76.0 76.0
2885	31.243 31.243
2886	159.0 159.0
2887	37.108 37.108
2888	134.0 134.0
2889	27.171 27.171
2890	197.0 197.0
2891	33.875 33.875
2892	127.0 127.0
2893	33.014 33.014
2894	104.0 104.0
2895	35.583 35.583
2896	182.0 182.0
2897	31.221 31.221
2898	156.0 156.0
2899	34.119 34.119
2900	50.0 50.0
2901	35.615 35.615
2902	151.0 151.0
2903	26.7 26.7
2904	89.0 89.0
2905	27.365 27.365
2906	69.0 69.0
2907	26.74 26.74
2908	57.0 57.0
2909	26.589 26.589
2910	150.0 150.0
2911	28.615 28.615
2912	200.0 200.0
2913	29.646 29.646
2914	170.0 170.0
2915	28.095 28.095
2916	223.0 223.0
2917	28.724 28.724
2918	104.0 104.0
2919	29.758 29.758
2920	91.0 91.0
2921	30.148 30.148
2922	150.0 150.0
2923	31.288 31.288
2924	202.0 202.0
2925	33.708 33.708
2926	220.0 220.0
2927	33.738 33.738
2928	251.0 251.0
2929	34.157 34.157
2930	264.0 264.0
2931	36.858 36.858
2932	238.0 238.0
2933	43.398 43.398
2934	222.0 222.0
2935	37.342 37.342
2936	190.0 190.0
2937	31.17 31.17
2938	168.0 168.0
2939	28.148 28.148
2940	287.0 287.0
2941	28.463 28.463
2942	272.0 272.0
2943	28.61 28.61
2944	136.0 136.0
2945	28.194 28.194
2946	290.0 290.0
2947	28.56 28.56
2948	164.0 164.0
2949	27.008 27.008
2950	90.0 90.0
2951	27.904 27.904
2952	191.0 191.0
2953	27.436 27.436
2954	89.0 89.0
2955	28.821 28.821
2956	245.0 245.0
2957	30.376 30.376
2958	114.0 114.0
2959	30.162 30.162
2960	65.0 65.0
2961	27.831 27.831
2962	265.0 265.0
2963	28.616 28.616
2964	160.0 160.0
2965	28.847 28.847
2966	140.0 140.0
2967	26.852 26.852
2968	272.0 272.0
2969	27.705 27.705
2970	119.0 119.0
2971	30.411 30.411
2972	86.0 86.0
2973	27.941 27.941
2974	169.0 169.0
2975	31.232 31.232
2976	121.0 121.0
2977	36.027 36.027
2978	183.0 183.0
2979	28.265 28.265
2980	230.0 230.0
2981	26.51 26.51
2982	298.0 298.0
2983	30.273 30.273
2984	47.0 47.0
2985	27.756 27.756
2986	142.0 142.0
2987	28.505 28.505
2988	76.0 76.0
2989	28.814 28.814
2990	122.0 122.0
2991	26.498 26.498
2992	286.0 286.0
2993	27.446 27.446
2994	76.0 76.0
2995	29.016 29.016
2996	298.0 298.0
2997	30.125 30.125
2998	137.0 137.0
2999	30.941 30.941
3000	137.0 137.0
3001	43.59 43.59
3002	147.0 147.0
3003	31.876 31.876
3004	275.0 275.0
3005	33.799 33.799
3006	162.0 162.0
3007	31.874 31.874
3008	200.0 200.0
3009	32.635 32.635
3010	253.0 253.0
3011	35.647 35.647
3012	278.0 278.0
3013	29.844 29.844
3014	288.0 288.0
3015	39.655 39.655
3016	103.0 103.0
3017	38.73 38.73
3018	99.0 99.0
3019	38.712 38.712
3020	186.0 186.0
3021	28.882 28.882
3022	54.0 54.0
3023	29.38 29.38
3024	247.0 247.0
3025	28.149 28.149
3026	142.0 142.0
3027	28.543 28.543
3028	197.0 197.0
3029	28.575 28.575
3030	85.0 85.0
3031	34.421 34.421
3032	105.0 105.0
3033	31.246 31.246
3034	40.0 40.0
3035	32.43 32.43
3036	94.0 94.0
3037	35.469 35.469
3038	152.0 152.0
3039	29.705 29.705
3040	214.0 214.0
3041	29.03 29.03
3042	190.0 190.0
3043	28.142 28.142
3044	205.0 205.0
3045	33.603 33.603
3046	53.0 53.0
3047	35.415 35.415
3048	289.0 289.0
3049	32.731 32.731
3050	193.0 193.0
3051	33.994 33.994
3052	286.0 286.0
3053	32.303 32.303
3054	236.0 236.0
3055	36.085 36.085
3056	192.0 192.0
3057	34.614 34.614
3058	121.0 121.0
3059	34.345 34.345
3060	197.0 197.0
3061	32.475 32.475
3062	99.0 99.0
3063	32.129 32.129
3064	138.0 138.0
3065	30.466 30.466
3066	123.0 123.0
3067	26.847 26.847
3068	130.0 130.0
3069	31.159 31.159
3070	100.0 100.0
3071	27.254 27.254
3072	184.0 184.0
3073	30.728 30.728
3074	218.0 218.0
3075	30.504 30.504
3076	182.0 182.0
3077	30.498 30.498
3078	293.0 293.0
3079	30.538 30.538
3080	179.0 179.0
3081	32.876 32.876
3082	50.0 50.0
3083	27.723 27.723
3084	111.0 111.0
3085	27.681 27.681
3086	106.0 106.0
3087	28.751 28.751
3088	264.0 264.0
3089	28.596 28.596
3090	155.0 155.0
3091	29.122 29.122
3092	64.0 64.0
3093	28.316 28.316
3094	135.0 135.0
3095	28.501 28.501
3096	216.0 216.0
3097	32.5 32.5
3098	61.0 61.0
3099	30.825 30.825
3100	274.0 274.0
3101	29.289 29.289
3102	234.0 234.0
3103	32.285 32.285
3104	251.0 251.0
3105	223.229 223.229
3106	182.0 182.0
3107	30.026 30.026
3108	80.0 80.0
3109	32.159 32.159
3110	233.0 233.0
3111	32.032 32.032
3112	165.0 165.0
3113	31.664 31.664
3114	136.0 136.0
3115	29.677 29.677
3116	117.0 117.0
3117	29.94 29.94
3118	175.0 175.0
3119	27.404 27.404
3120	121.0 121.0
3121	36.719 36.719
3122	278.0 278.0
3123	38.95 38.95
3124	224.0 224.0
3125	36.626 36.626
3126	66.0 66.0
3127	31.153 31.153
3128	141.0 141.0
3129	33.315 33.315
3130	207.0 207.0
3131	35.003 35.003
3132	241.0 241.0
3133	31.156 31.156
3134	250.0 250.0
3135	37.72 37.72
3136	256.0 256.0
3137	42.143 42.143
3138	198.0 198.0
3139	36.158 36.158
3140	112.0 112.0
3141	37.744 37.744
3142	111.0 111.0
3143	34.264 34.264
3144	180.0 180.0
3145	35.814 35.814
3146	110.0 110.0
3147	38.637 38.637
3148	235.0 235.0
3149	40.171 40.171
3150	184.0 184.0
3151	37.486 37.486
3152	92.0 92.0
3153	35.74 35.74
3154	41.0 41.0
3155	37.862 37.862
3156	200.0 200.0
3157	35.645 35.645
3158	276.0 276.0
3159	28.029 28.029
3160	294.0 294.0
3161	33.624 33.624
3162	168.0 168.0
3163	27.306 27.306
3164	156.0 156.0
3165	27.817 27.817
3166	133.0 133.0
3167	27.955 27.955
3168	71.0 71.0
3169	33.77 33.77
3170	101.0 101.0
3171	27.266 27.266
3172	203.0 203.0
3173	32.529 32.529
3174	182.0 182.0
3175	28.969 28.969
3176	153.0 153.0
3177	28.006 28.006
3178	117.0 117.0
3179	29.54 29.54
3180	57.0 57.0
3181	38.562 38.562
3182	178.0 178.0
3183	28.747 28.747
3184	182.0 182.0
3185	34.578 34.578
3186	242.0 242.0
3187	31.404 31.404
3188	288.0 288.0
3189	27.665 27.665
3190	102.0 102.0
3191	29.217 29.217
3192	224.0 224.0
3193	29.695 29.695
3194	193.0 193.0
3195	37.43 37.43
3196	143.0 143.0
3197	35.569 35.569
3198	124.0 124.0
3199	182.836 182.836
3200	178.0 178.0
3201	28.646 28.646
3202	225.0 225.0
3203	216.467 216.467
3204	164.0 164.0
3205	28.133 28.133
3206	156.0 156.0
3207	31.841 31.841
3208	182.0 182.0
3209	27.822 27.822
3210	283.0 283.0
3211	30.986 30.986
3212	293.0 293.0
3213	35.648 35.648
3214	90.0 90.0
3215	30.752 30.752
3216	166.0 166.0
3217	29.44 29.44
3218	269.0 269.0
3219	28.733 28.733
3220	217.0 217.0
3221	211.388 211.388
3222	186.0 186.0
3223	171.239 171.239
3224	114.0 114.0
3225	28.42 28.42
3226	126.0 126.0
3227	28.856 28.856
3228	40.0 40.0
3229	35.604 35.604
3230	78.0 78.0
3231	138.342 138.342
3232	60.0 60.0
3233	34.55 34.55
3234	191.0 191.0
3235	37.265 37.265
3236	179.0 179.0
3237	34.718 34.718
3238	227.0 227.0
3239	45.625 45.625
3240	106.0 106.0
3241	36.61 36.61
3242	200.0 200.0
3243	41.941 41.941
3244	116.0 116.0
3245	44.087 44.087
3246	284.0 284.0
3247	131.242 131.242
3248	183.0 183.0
3249	187.153 187.153
3250	123.0 123.0
3251	27.887 27.887
3252	263.0 263.0
3253	32.346 32.346
3254	254.0 254.0
3255	31.691 31.691
3256	229.0 229.0
3257	28.808 28.808
3258	230.0 230.0
3259	27.751 27.751
3260	111.0 111.0
3261	30.209 30.209
3262	43.0 43.0
3263	26.658 26.658
3264	190.0 190.0
3265	28.297 28.297
3266	73.0 73.0
3267	81.928 81.928
3268	43.0 43.0
3269	30.166 30.166
3270	85.0 85.0
3271	28.918 28.918
3272	76.0 76.0
3273	27.941 27.941
3274	232.0 232.0
3275	31.401 31.401
3276	229.0 229.0
3277	28.297 28.297
3278	106.0 106.0
3279	32.763 32.763
3280	130.0 130.0
3281	28.058 28.058
3282	119.0 119.0
3283	28.014 28.014
3284	94.0 94.0
3285	25.826 25.826
3286	62.0 62.0
3287	28.422 28.422
3288	71.0 71.0
3289	30.69 30.69
3290	245.0 245.0
3291	165.573 165.573
3292	162.0 162.0
3293	27.316 27.316
3294	78.0 78.0
3295	29.719 29.719
3296	170.0 170.0
3297	35.935 35.935
3298	182.0 182.0
3299	36.721 36.721
3300	47.0 47.0
3301	184.322 184.322
3302	292.0 292.0
3303	34.649 34.649
3304	129.0 129.0
3305	35.086 35.086
3306	89.0 89.0
3307	28.592 28.592
3308	105.0 105.0
3309	36.741 36.741
3310	216.0 216.0
3311	37.964 37.964
3312	58.0 58.0
3313	43.312 43.312
3314	270.0 270.0
3315	30.541 30.541
3316	50.0 50.0
3317	39.066 39.066
3318	99.0 99.0
3319	32.62 32.62
3320	60.0 60.0
3321	30.85 30.85
3322	190.0 190.0
3323	27.312 27.312
3324	118.0 118.0
3325	27.595 27.595
3326	125.0 125.0
3327	30.081 30.081
3328	52.0 52.0
3329	32.156 32.156
3330	213.0 213.0
3331	32.899 32.899
3332	224.0 224.0
3333	35.015 35.015
3334	222.0 222.0
3335	38.197 38.197
3336	50.0 50.0
3337	34.219 34.219
3338	120.0 120.0
3339	35.272 35.272
3340	182.0 182.0
3341	34.688 34.688
3342	207.0 207.0
3343	33.099 33.099
3344	137.0 137.0
3345	28.65 28.65
3346	182.0 182.0
3347	188.249 188.249
3348	278.0 278.0
3349	213.305 213.305
3350	204.0 204.0
3351	29.834 29.834
3352	284.0 284.0
3353	29.185 29.185
3354	87.0 87.0
3355	28.673 28.673
3356	81.0 81.0
3357	31.297 31.297
3358	287.0 287.0
3359	37.548 37.548
3360	49.0 49.0
3361	27.424 27.424
3362	143.0 143.0
3363	31.205 31.205
3364	121.0 121.0
3365	28.919 28.919
3366	139.0 139.0
3367	29.906 29.906
3368	287.0 287.0
3369	29.337 29.337
3370	285.0 285.0
3371	27.566 27.566
3372	138.0 138.0
3373	29.145 29.145
3374	229.0 229.0
3375	29.788 29.788
3376	128.0 128.0
3377	28.089 28.089
3378	131.0 131.0
3379	176.171 176.171
3380	158.0 158.0
3381	32.859 32.859
3382	289.0 289.0
3383	37.432 37.432
3384	210.0 210.0
3385	29.058 29.058
3386	184.0 184.0
3387	29.861 29.861
3388	125.0 125.0
3389	31.074 31.074
3390	283.0 283.0
3391	28.484 28.484
3392	229.0 229.0
3393	30.372 30.372
3394	153.0 153.0
3395	39.87 39.87
3396	242.0 242.0
3397	31.898 31.898
3398	175.0 175.0
3399	30.127 30.127
3400	287.0 287.0
3401	28.738 28.738
3402	91.0 91.0
3403	31.252 31.252
3404	162.0 162.0
3405	27.909 27.909
3406	142.0 142.0
3407	202.5 202.5
3408	137.0 137.0
3409	40.775 40.775
3410	49.0 49.0
3411	31.453 31.453
3412	119.0 119.0
3413	31.482 31.482
3414	294.0 294.0
3415	196.697 196.697
3416	225.0 225.0
3417	95.803 95.803
3418	109.0 109.0
3419	166.72 166.72
3420	269.0 269.0
3421	33.325 33.325
3422	175.0 175.0
3423	27.501 27.501
3424	61.0 61.0
3425	27.552 27.552
3426	76.0 76.0
3427	205.185 205.185
3428	230.0 230.0
3429	28.078 28.078
3430	147.0 147.0
3431	73.648 73.648
3432	212.0 212.0
3433	27.835 27.835
3434	129.0 129.0
3435	26.913 26.913
3436	202.0 202.0
3437	33.264 33.264
3438	292.0 292.0
3439	31.977 31.977
3440	77.0 77.0
3441	27.77 27.77
3442	163.0 163.0
3443	252.101 252.101
3444	80.0 80.0
3445	29.675 29.675
3446	275.0 275.0
3447	27.234 27.234
3448	55.0 55.0
3449	27.917 27.917
3450	86.0 86.0
3451	27.326 27.326
3452	228.0 228.0
3453	29.392 29.392
3454	238.0 238.0
3455	28.033 28.033
3456	213.0 213.0
3457	32.175 32.175
3458	243.0 243.0
3459	33.763 33.763
3460	283.0 283.0
3461	39.182 39.182
3462	163.0 163.0
3463	30.767 30.767
3464	292.0 292.0
3465	29.532 29.532
3466	230.0 230.0
3467	213.411 213.411
3468	143.0 143.0
3469	211.968 211.968
3470	72.0 72.0
3471	33.741 33.741
3472	161.0 161.0
3473	31.209 31.209
3474	51.0 51.0
3475	29.447 29.447
3476	218.0 218.0
3477	168.012 168.012
3478	272.0 272.0
3479	52.001 52.001
3480	123.0 123.0
3481	31.984 31.984
3482	298.0 298.0
3483	35.383 35.383
3484	100.0 100.0
3485	42.682 42.682
3486	82.0 82.0
3487	30.722 30.722
3488	297.0 297.0
3489	34.42 34.42
3490	111.0 111.0
3491	32.596 32.596
3492	86.0 86.0
3493	30.747 30.747
3494	291.0 291.0
3495	190.561 190.561
3496	58.0 58.0
3497	30.948 30.948
3498	40.0 40.0
3499	28.933 28.933
3500	94.0 94.0
3501	30.006 30.006
3502	208.0 208.0
3503	29.277 29.277
3504	265.0 265.0
3505	30.418 30.418
3506	141.0 141.0
3507	31.287 31.287
3508	230.0 230.0
3509	30.776 30.776
3510	257.0 257.0
3511	31.718 31.718
3512	59.0 59.0
3513	28.838 28.838
3514	156.0 156.0
3515	32.552 32.552
3516	291.0 291.0
3517	29.383 29.383
3518	44.0 44.0
3519	32.475 32.475
3520	110.0 110.0
3521	208.917 208.917
3522	90.0 90.0
3523	31.077 31.077
3524	236.0 236.0
3525	26.277 26.277
3526	278.0 278.0
3527	70.907 70.907
3528	279.0 279.0
3529	30.943 30.943
3530	80.0 80.0
3531	129.898 129.898
3532	254.0 254.0
3533	31.111 31.111
3534	126.0 126.0
3535	27.415 27.415
3536	290.0 290.0
3537	30.832 30.832
3538	68.0 68.0
3539	219.15 219.15
3540	161.0 161.0
3541	28.409 28.409
3542	171.0 171.0
3543	159.462 159.462
3544	236.0 236.0
3545	41.204 41.204
3546	241.0 241.0
3547	30.349 30.349
3548	181.0 181.0
3549	139.851 139.851
3550	223.0 223.0
3551	26.376 26.376
3552	43.0 43.0
3553	27.07 27.07
3554	254.0 254.0
3555	170.333 170.333
3556	249.0 249.0
3557	34.198 34.198
3558	296.0 296.0
3559	27.347 27.347
3560	295.0 295.0
3561	31.305 31.305
3562	288.0 288.0
3563	30.278 30.278
3564	230.0 230.0
3565	71.403 71.403
3566	126.0 126.0
3567	26.6 26.6
3568	262.0 262.0
3569	27.525 27.525
3570	181.0 181.0
3571	28.276 28.276
3572	110.0 110.0
3573	28.968 28.968
3574	88.0 88.0
3575	28.11 28.11
3576	215.0 215.0
3577	28.286 28.286
3578	190.0 190.0
3579	26.83 26.83
3580	244.0 244.0
3581	30.884 30.884
3582	224.0 224.0
3583	27.589 27.589
3584	189.0 189.0
3585	32.129 32.129
3586	162.0 162.0
3587	29.269 29.269
3588	185.0 185.0
3589	230.17 230.17
3590	162.0 162.0
3591	79.657 79.657
3592	114.0 114.0
3593	27.528 27.528
3594	46.0 46.0
3595	30.022 30.022
3596	79.0 79.0
3597	29.209 29.209
3598	275.0 275.0
3599	29.661 29.661
3600	149.0 149.0
3601	31.029 31.029
3602	104.0 104.0
3603	31.308 31.308
3604	206.0 206.0
3605	31.349 31.349
3606	101.0 101.0
3607	29.603 29.603
3608	73.0 73.0
3609	27.737 27.737
3610	164.0 164.0
3611	35.219 35.219
3612	165.0 165.0
3613	26.175 26.175
3614	99.0 99.0
3615	28.669 28.669
3616	289.0 289.0
3617	28.92 28.92
3618	109.0 109.0
3619	27.612 27.612
3620	66.0 66.0
3621	30.592 30.592
3622	107.0 107.0
3623	29.907 29.907
3624	288.0 288.0
3625	27.979 27.979
3626	145.0 145.0
3627	32.221 32.221
3628	217.0 217.0
3629	33.354 33.354
3630	67.0 67.0
3631	32.697 32.697
3632	106.0 106.0
3633	28.401 28.401
3634	227.0 227.0
3635	31.969 31.969
3636	134.0 134.0
3637	30.075 30.075
3638	229.0 229.0
3639	27.492 27.492
3640	128.0 128.0
3641	32.478 32.478
3642	86.0 86.0
3643	176.886 176.886
3644	265.0 265.0
3645	30.535 30.535
3646	248.0 248.0
3647	74.835 74.835
3648	245.0 245.0
3649	29.528 29.528
3650	276.0 276.0
3651	29.724 29.724
3652	78.0 78.0
3653	34.696 34.696
3654	247.0 247.0
3655	209.183 209.183
3656	190.0 190.0
3657	28.455 28.455
3658	55.0 55.0
3659	74.282 74.282
3660	90.0 90.0
3661	37.963 37.963
3662	89.0 89.0
3663	30.19 30.19
3664	105.0 105.0
3665	237.857 237.857
3666	137.0 137.0
3667	31.365 31.365
3668	74.0 74.0
3669	224.776 224.776
3670	163.0 163.0
3671	40.123 40.123
3672	164.0 164.0
3673	30.033 30.033
3674	66.0 66.0
3675	208.32 208.32
3676	151.0 151.0
3677	36.807 36.807
3678	203.0 203.0
3679	28.899 28.899
3680	197.0 197.0
3681	32.808 32.808
3682	221.0 221.0
3683	38.062 38.062
3684	100.0 100.0
3685	28.962 28.962
3686	232.0 232.0
3687	211.669 211.669
3688	136.0 136.0
3689	28.978 28.978
3690	51.0 51.0
3691	27.653 27.653
3692	170.0 170.0
3693	38.524 38.524
3694	174.0 174.0
3695	28.557 28.557
3696	46.0 46.0
3697	38.057 38.057
3698	227.0 227.0
3699	29.833 29.833
3700	152.0 152.0
3701	212.079 212.079
3702	55.0 55.0
3703	32.621 32.621
3704	100.0 100.0
3705	218.822 218.822
3706	226.0 226.0
3707	38.387 38.387
3708	278.0 278.0
3709	178.88 178.88
3710	195.0 195.0
3711	26.313 26.313
3712	234.0 234.0
3713	178.936 178.936
3714	163.0 163.0
3715	29.369 29.369
3716	87.0 87.0
3717	28.684 28.684
3718	280.0 280.0
3719	27.397 27.397
3720	284.0 284.0
3721	28.735 28.735
3722	279.0 279.0
3723	57.055 57.055
3724	229.0 229.0
3725	27.426 27.426
3726	189.0 189.0
3727	28.989 28.989
3728	115.0 115.0
3729	27.981 27.981
3730	182.0 182.0
3731	27.506 27.506
3732	54.0 54.0
3733	28.985 28.985
3734	105.0 105.0
3735	47.124 47.124
3736	101.0 101.0
3737	31.248 31.248
3738	83.0 83.0
3739	29.466 29.466
3740	248.0 248.0
3741	28.644 28.644
3742	64.0 64.0
3743	28.987 28.987
3744	82.0 82.0
3745	28.985 28.985
3746	109.0 109.0
3747	28.895 28.895
3748	229.0 229.0
3749	32.729 32.729
3750	192.0 192.0
3751	26.692 26.692
3752	290.0 290.0
3753	28.8 28.8
3754	275.0 275.0
3755	28.477 28.477
3756	175.0 175.0
3757	27.25 27.25
3758	67.0 67.0
3759	28.582 28.582
3760	146.0 146.0
3761	29.616 29.616
3762	262.0 262.0
3763	28.345 28.345
3764	197.0 197.0
3765	31.496 31.496
3766	292.0 292.0
3767	31.712 31.712
3768	212.0 212.0
3769	27.88 27.88
3770	108.0 108.0
3771	32.333 32.333
3772	138.0 138.0
3773	30.153 30.153
3774	223.0 223.0
3775	31.459 31.459
3776	171.0 171.0
3777	38.959 38.959
3778	64.0 64.0
3779	31.115 31.115
3780	157.0 157.0
3781	31.71 31.71
3782	208.0 208.0
3783	27.166 27.166
3784	44.0 44.0
3785	27.435 27.435
3786	206.0 206.0
3787	31.716 31.716
3788	163.0 163.0
3789	30.986 30.986
3790	66.0 66.0
3791	28.179 28.179
3792	147.0 147.0
3793	33.357 33.357
3794	266.0 266.0
3795	26.569 26.569
3796	207.0 207.0
3797	31.43 31.43
3798	182.0 182.0
3799	36.687 36.687
3800	111.0 111.0
3801	30.449 30.449
3802	198.0 198.0
3803	28.125 28.125
3804	147.0 147.0
3805	45.338 45.338
3806	261.0 261.0
3807	29.972 29.972
3808	205.0 205.0
3809	31.654 31.654
3810	41.0 41.0
3811	32.143 32.143
3812	71.0 71.0
3813	33.127 33.127
3814	289.0 289.0
3815	30.049 30.049
3816	136.0 136.0
3817	28.752 28.752
3818	126.0 126.0
3819	28.742 28.742
3820	132.0 132.0
3821	27.783 27.783
3822	213.0 213.0
3823	34.837 34.837
3824	88.0 88.0
3825	107.777 107.777
3826	151.0 151.0
3827	62.746 62.746
3828	260.0 260.0
3829	28.83 28.83
3830	158.0 158.0
3831	28.923 28.923
3832	285.0 285.0
3833	27.782 27.782
3834	77.0 77.0
3835	34.737 34.737
3836	238.0 238.0
3837	31.5 31.5
3838	101.0 101.0
3839	31.64 31.64
3840	175.0 175.0
3841	42.724 42.724
3842	229.0 229.0
3843	31.436 31.436
3844	221.0 221.0
3845	33.999 33.999
3846	54.0 54.0
3847	35.979 35.979
3848	231.0 231.0
3849	32.142 32.142
3850	106.0 106.0
3851	28.611 28.611
3852	242.0 242.0
3853	29.848 29.848
3854	127.0 127.0
3855	213.603 213.603
3856	60.0 60.0
3857	141.567 141.567
3858	251.0 251.0
3859	74.042 74.042
3860	141.0 141.0
3861	27.596 27.596
3862	147.0 147.0
3863	27.859 27.859
3864	289.0 289.0
3865	28.253 28.253
3866	174.0 174.0
3867	29.59 29.59
3868	284.0 284.0
3869	26.778 26.778
3870	103.0 103.0
3871	27.795 27.795
3872	64.0 64.0
3873	31.126 31.126
3874	260.0 260.0
3875	27.727 27.727
3876	238.0 238.0
3877	29.004 29.004
3878	226.0 226.0
3879	29.941 29.941
3880	187.0 187.0
3881	131.14 131.14
3882	204.0 204.0
3883	31.086 31.086
3884	273.0 273.0
3885	28.809 28.809
3886	77.0 77.0
3887	31.347 31.347
3888	293.0 293.0
3889	29.721 29.721
3890	139.0 139.0
3891	31.71 31.71
3892	141.0 141.0
3893	31.495 31.495
3894	103.0 103.0
3895	30.061 30.061
3896	123.0 123.0
3897	34.352 34.352
3898	86.0 86.0
3899	173.36 173.36
3900	133.0 133.0
3901	30.165 30.165
3902	249.0 249.0
3903	31.081 31.081
3904	166.0 166.0
3905	175.076 175.076
3906	41.0 41.0
3907	28.88 28.88
3908	88.0 88.0
3909	28.305 28.305
3910	61.0 61.0
3911	31.056 31.056
3912	93.0 93.0
3913	26.547 26.547
3914	219.0 219.0
3915	29.283 29.283
3916	81.0 81.0
3917	28.095 28.095
3918	217.0 217.0
3919	32.345 32.345
3920	236.0 236.0
3921	35.991 35.991
3922	150.0 150.0
3923	28.007 28.007
3924	78.0 78.0
3925	123.608 123.608
3926	166.0 166.0
3927	34.868 34.868
3928	96.0 96.0
3929	33.65 33.65
3930	81.0 81.0
3931	34.725 34.725
3932	89.0 89.0
3933	28.736 28.736
3934	129.0 129.0
3935	35.525 35.525
3936	119.0 119.0
3937	33.375 33.375
3938	205.0 205.0
3939	31.972 31.972
3940	82.0 82.0
3941	28.413 28.413
3942	217.0 217.0
3943	35.017 35.017
3944	159.0 159.0
3945	34.745 34.745
3946	77.0 77.0
3947	29.876 29.876
3948	176.0 176.0
3949	35.192 35.192
3950	120.0 120.0
3951	88.758 88.758
3952	135.0 135.0
3953	29.37 29.37
3954	171.0 171.0
3955	30.899 30.899
3956	222.0 222.0
3957	27.913 27.913
3958	179.0 179.0
3959	56.663 56.663
3960	294.0 294.0
3961	34.502 34.502
3962	292.0 292.0
3963	177.454 177.454
3964	295.0 295.0
3965	181.064 181.064
3966	156.0 156.0
3967	41.56 41.56
3968	214.0 214.0
3969	172.875 172.875
3970	42.0 42.0
3971	202.233 202.233
3972	179.0 179.0
3973	32.302 32.302
3974	295.0 295.0
3975	38.3 38.3
3976	178.0 178.0
3977	34.026 34.026
3978	243.0 243.0
3979	32.334 32.334
3980	65.0 65.0
3981	36.245 36.245
3982	224.0 224.0
3983	32.984 32.984
3984	122.0 122.0
3985	90.54 90.54
3986	119.0 119.0
3987	28.659 28.659
3988	99.0 99.0
3989	29.633 29.633
3990	231.0 231.0
3991	27.121 27.121
3992	204.0 204.0
3993	30.471 30.471
3994	284.0 284.0
3995	41.029 41.029
3996	176.0 176.0
3997	161.128 161.128
3998	198.0 198.0
3999	28.903 28.903
4000	292.0 292.0
4001	33.417 33.417
4002	292.0 292.0
4003	30.172 30.172
4004	209.0 209.0
4005	29.073 29.073
4006	119.0 119.0
4007	31.306 31.306
4008	116.0 116.0
4009	26.521 26.521
4010	230.0 230.0
4011	26.445 26.445
4012	188.0 188.0
4013	27.316 27.316
4014	59.0 59.0
4015	137.32 137.32
4016	183.0 183.0
4017	163.984 163.984
4018	254.0 254.0
4019	28.743 28.743
4020	50.0 50.0
4021	206.159 206.159
4022	278.0 278.0
4023	36.016 36.016
4024	185.0 185.0
4025	33.707 33.707
4026	258.0 258.0
4027	33.769 33.769
4028	288.0 288.0
4029	28.512 28.512
4030	194.0 194.0
4031	137.557 137.557
4032	193.0 193.0
4033	29.053 29.053
4034	147.0 147.0
4035	28.791 28.791
4036	97.0 97.0
4037	26.973 26.973
4038	140.0 140.0
4039	27.984 27.984
4040	122.0 122.0
4041	28.009 28.009
4042	47.0 47.0
4043	26.429 26.429
4044	63.0 63.0
4045	27.761 27.761
4046	252.0 252.0
4047	27.559 27.559
4048	84.0 84.0
4049	80.925 80.925
4050	227.0 227.0
4051	156.861 156.861
4052	49.0 49.0
4053	30.666 30.666
4054	166.0 166.0
4055	32.496 32.496
4056	143.0 143.0
4057	33.219 33.219
4058	228.0 228.0
4059	32.807 32.807
4060	263.0 263.0
4061	34.726 34.726
4062	94.0 94.0
4063	30.196 30.196
4064	156.0 156.0
4065	33.722 33.722
4066	178.0 178.0
4067	31.182 31.182
4068	225.0 225.0
4069	41.307 41.307
4070	292.0 292.0
4071	35.127 35.127
4072	134.0 134.0
4073	30.288 30.288
4074	197.0 197.0
4075	30.327 30.327
4076	52.0 52.0
4077	31.833 31.833
4078	159.0 159.0
4079	151.467 151.467
4080	138.0 138.0
4081	27.039 27.039
4082	221.0 221.0
4083	27.543 27.543
4084	286.0 286.0
4085	27.821 27.821
4086	185.0 185.0
4087	27.019 27.019
4088	291.0 291.0
4089	30.368 30.368
4090	217.0 217.0
4091	27.811 27.811
4092	250.0 250.0
4093	30.788 30.788
4094	171.0 171.0
4095	26.973 26.973
4096	295.0 295.0
4097	153.808 153.808
4098	187.0 187.0
4099	165.934 165.934
4100	58.0 58.0
4101	30.212 30.212
4102	206.0 206.0
4103	37.236 37.236
4104	46.0 46.0
4105	30.2 30.2
4106	155.0 155.0
4107	27.593 27.593
4108	116.0 116.0
4109	27.908 27.908
4110	136.0 136.0
4111	28.435 28.435
4112	164.0 164.0
4113	28.635 28.635
4114	293.0 293.0
4115	28.176 28.176
4116	265.0 265.0
4117	30.954 30.954
4118	139.0 139.0
4119	33.208 33.208
4120	63.0 63.0
4121	30.014 30.014
4122	103.0 103.0
4123	28.992 28.992
4124	290.0 290.0
4125	31.019 31.019
4126	136.0 136.0
4127	31.736 31.736
4128	192.0 192.0
4129	29.818 29.818
4130	178.0 178.0
4131	33.018 33.018
4132	183.0 183.0
4133	33.009 33.009
4134	264.0 264.0
4135	31.658 31.658
4136	60.0 60.0
4137	31.018 31.018
4138	209.0 209.0
4139	198.159 198.159
4140	42.0 42.0
4141	203.713 203.713
4142	202.0 202.0
4143	206.83 206.83
4144	185.0 185.0
4145	27.688 27.688
4146	260.0 260.0
4147	32.245 32.245
4148	150.0 150.0
4149	28.621 28.621
4150	253.0 253.0
4151	29.533 29.533
4152	56.0 56.0
4153	32.378 32.378
4154	129.0 129.0
4155	32.263 32.263
4156	277.0 277.0
4157	28.788 28.788
4158	158.0 158.0
4159	27.669 27.669
4160	234.0 234.0
4161	32.978 32.978
4162	205.0 205.0
4163	34.551 34.551
4164	90.0 90.0
4165	27.981 27.981
4166	251.0 251.0
4167	30.773 30.773
4168	98.0 98.0
4169	29.935 29.935
4170	246.0 246.0
4171	28.069 28.069
4172	49.0 49.0
4173	29.971 29.971
4174	254.0 254.0
4175	30.747 30.747
4176	198.0 198.0
4177	36.426 36.426
4178	65.0 65.0
4179	30.79 30.79
4180	260.0 260.0
4181	27.208 27.208
4182	254.0 254.0
4183	29.537 29.537
4184	75.0 75.0
4185	39.318 39.318
4186	84.0 84.0
4187	29.785 29.785
4188	64.0 64.0
4189	31.733 31.733
4190	258.0 258.0
4191	31.323 31.323
4192	132.0 132.0
4193	33.029 33.029
4194	229.0 229.0
4195	26.317 26.317
4196	56.0 56.0
4197	32.516 32.516
4198	142.0 142.0
4199	27.958 27.958
4200	64.0 64.0
4201	30.456 30.456
4202	136.0 136.0
4203	28.45 28.45
4204	208.0 208.0
4205	28.866 28.866
4206	181.0 181.0
4207	27.184 27.184
4208	291.0 291.0
4209	29.78 29.78
4210	57.0 57.0
4211	40.496 40.496
4212	238.0 238.0
4213	31.439 31.439
4214	196.0 196.0
4215	26.764 26.764
4216	105.0 105.0
4217	29.111 29.111
4218	179.0 179.0
4219	29.847 29.847
4220	73.0 73.0
4221	29.088 29.088
4222	77.0 77.0
4223	28.286 28.286
4224	136.0 136.0
4225	37.449 37.449
4226	109.0 109.0
4227	38.13 38.13
4228	227.0 227.0
4229	29.685 29.685
4230	223.0 223.0
4231	31.75 31.75
4232	226.0 226.0
4233	28.502 28.502
4234	131.0 131.0
4235	35.714 35.714
4236	252.0 252.0
4237	38.37 38.37
4238	247.0 247.0
4239	29.932 29.932
4240	191.0 191.0
4241	27.842 27.842
4242	155.0 155.0
4243	30.754 30.754
4244	232.0 232.0
4245	35.476 35.476
4246	214.0 214.0
4247	28.981 28.981
4248	154.0 154.0
4249	30.47 30.47
4250	157.0 157.0
4251	28.873 28.873
4252	264.0 264.0
4253	32.76 32.76
4254	213.0 213.0
4255	31.454 31.454
4256	285.0 285.0
4257	27.642 27.642
4258	166.0 166.0
4259	29.223 29.223
4260	224.0 224.0
4261	30.53 30.53
4262	231.0 231.0
4263	35.145 35.145
4264	218.0 218.0
4265	35.026 35.026
4266	242.0 242.0
4267	37.678 37.678
4268	216.0 216.0
4269	32.349 32.349
4270	234.0 234.0
4271	29.019 29.019
4272	221.0 221.0
4273	27.727 27.727
4274	121.0 121.0
4275	31.167 31.167
4276	133.0 133.0
4277	27.43 27.43
4278	281.0 281.0
4279	30.533 30.533
4280	284.0 284.0
4281	28.39 28.39
4282	116.0 116.0
4283	36.997 36.997
4284	99.0 99.0
4285	28.4 28.4
4286	106.0 106.0
4287	26.772 26.772
4288	183.0 183.0
4289	28.669 28.669
4290	65.0 65.0
4291	31.827 31.827
4292	43.0 43.0
4293	28.96 28.96
4294	129.0 129.0
4295	29.003 29.003
4296	227.0 227.0
4297	27.28 27.28
4298	97.0 97.0
4299	32.26 32.26
4300	57.0 57.0
4301	34.197 34.197
4302	247.0 247.0
4303	29.117 29.117
4304	284.0 284.0
4305	28.338 28.338
4306	104.0 104.0
4307	32.821 32.821
4308	263.0 263.0
4309	31.024 31.024
4310	276.0 276.0
4311	26.47 26.47
4312	289.0 289.0
4313	30.168 30.168
4314	174.0 174.0
4315	37.858 37.858
4316	229.0 229.0
4317	32.428 32.428
4318	144.0 144.0
4319	31.534 31.534
4320	185.0 185.0
4321	30.008 30.008
4322	180.0 180.0
4323	27.272 27.272
4324	184.0 184.0
4325	29.885 29.885
4326	158.0 158.0
4327	35.977 35.977
4328	216.0 216.0
4329	36.277 36.277
4330	177.0 177.0
4331	34.224 34.224
4332	119.0 119.0
4333	38.697 38.697
4334	277.0 277.0
4335	29.289 29.289
4336	265.0 265.0
4337	34.551 34.551
4338	182.0 182.0
4339	36.433 36.433
4340	110.0 110.0
4341	33.429 33.429
4342	202.0 202.0
4343	32.056 32.056
4344	225.0 225.0
4345	35.125 35.125
4346	78.0 78.0
4347	28.996 28.996
4348	98.0 98.0
4349	29.168 29.168
4350	240.0 240.0
4351	30.335 30.335
4352	72.0 72.0
4353	28.627 28.627
4354	62.0 62.0
4355	30.46 30.46
4356	95.0 95.0
4357	27.187 27.187
4358	285.0 285.0
4359	31.235 31.235
4360	135.0 135.0
4361	31.497 31.497
4362	253.0 253.0
4363	29.837 29.837
4364	211.0 211.0
4365	27.12 27.12
4366	208.0 208.0
4367	31.6 31.6
4368	274.0 274.0
4369	29.439 29.439
4370	207.0 207.0
4371	28.6 28.6
4372	97.0 97.0
4373	30.234 30.234
4374	267.0 267.0
4375	28.923 28.923
4376	118.0 118.0
4377	27.331 27.331
4378	190.0 190.0
4379	27.278 27.278
4380	108.0 108.0
4381	35.302 35.302
4382	73.0 73.0
4383	32.511 32.511
4384	191.0 191.0
4385	28.373 28.373
4386	111.0 111.0
4387	29.596 29.596
4388	47.0 47.0
4389	36.433 36.433
4390	159.0 159.0
4391	30.489 30.489
4392	129.0 129.0
4393	41.905 41.905
4394	274.0 274.0
4395	30.816 30.816
4396	219.0 219.0
4397	31.224 31.224
4398	246.0 246.0
4399	28.26 28.26
4400	167.0 167.0
4401	32.357 32.357
4402	215.0 215.0
4403	31.666 31.666
4404	48.0 48.0
4405	35.934 35.934
4406	183.0 183.0
4407	34.33 34.33
4408	154.0 154.0
4409	30.125 30.125
4410	254.0 254.0
4411	31.602 31.602
4412	250.0 250.0
4413	30.835 30.835
4414	239.0 239.0
4415	30.152 30.152
4416	141.0 141.0
4417	30.524 30.524
4418	80.0 80.0
4419	30.718 30.718
4420	164.0 164.0
4421	30.712 30.712
4422	50.0 50.0
4423	29.934 29.934
4424	169.0 169.0
4425	31.512 31.512
4426	44.0 44.0
4427	31.488 31.488
4428	286.0 286.0
4429	33.085 33.085
4430	56.0 56.0
4431	28.68 28.68
4432	228.0 228.0
4433	27.557 27.557
4434	118.0 118.0
4435	27.973 27.973
4436	126.0 126.0
4437	28.236 28.236
4438	221.0 221.0
4439	28.283 28.283
4440	121.0 121.0
4441	35.058 35.058
4442	204.0 204.0
4443	29.924 29.924
4444	234.0 234.0
4445	33.847 33.847
4446	255.0 255.0
4447	33.03 33.03
4448	233.0 233.0
4449	31.157 31.157
4450	111.0 111.0
4451	30.052 30.052
4452	148.0 148.0
4453	29.314 29.314
4454	274.0 274.0
4455	31.83 31.83
4456	240.0 240.0
4457	27.161 27.161
4458	69.0 69.0
4459	41.839 41.839
4460	221.0 221.0
4461	27.764 27.764
4462	246.0 246.0
4463	27.851 27.851
4464	227.0 227.0
4465	26.867 26.867
4466	147.0 147.0
4467	35.47 35.47
4468	92.0 92.0
4469	32.206 32.206
4470	231.0 231.0
4471	28.152 28.152
4472	253.0 253.0
4473	29.772 29.772
4474	43.0 43.0
4475	31.041 31.041
4476	192.0 192.0
4477	38.043 38.043
4478	124.0 124.0
4479	41.119 41.119
4480	103.0 103.0
4481	27.686 27.686
4482	154.0 154.0
4483	32.946 32.946
4484	63.0 63.0
4485	28.837 28.837
4486	104.0 104.0
4487	31.682 31.682
4488	91.0 91.0
4489	37.957 37.957
4490	218.0 218.0
4491	30.528 30.528
4492	281.0 281.0
4493	28.462 28.462
4494	284.0 284.0
4495	27.672 27.672
4496	64.0 64.0
4497	27.373 27.373
4498	236.0 236.0
4499	28.354 28.354
4500	179.0 179.0
4501	27.371 27.371
4502	267.0 267.0
4503	27.006 27.006
4504	59.0 59.0
4505	27.659 27.659
4506	221.0 221.0
4507	44.382 44.382
4508	217.0 217.0
4509	27.698 27.698
4510	278.0 278.0
4511	105.49 105.49
4512	101.0 101.0
4513	35.188 35.188
4514	294.0 294.0
4515	26.619 26.619
4516	132.0 132.0
4517	34.542 34.542
4518	208.0 208.0
4519	30.369 30.369
4520	208.0 208.0
4521	31.204 31.204
4522	203.0 203.0
4523	33.139 33.139
4524	178.0 178.0
4525	27.68 27.68
4526	136.0 136.0
4527	29.071 29.071
4528	220.0 220.0
4529	32.763 32.763
4530	274.0 274.0
4531	34.005 34.005
4532	250.0 250.0
4533	27.137 27.137
4534	256.0 256.0
4535	27.74 27.74
4536	172.0 172.0
4537	27.881 27.881
4538	241.0 241.0
4539	29.019 29.019
4540	111.0 111.0
4541	222.799 222.799
4542	160.0 160.0
4543	28.407 28.407
4544	196.0 196.0
4545	35.492 35.492
4546	289.0 289.0
4547	28.122 28.122
4548	80.0 80.0
4549	26.802 26.802
4550	296.0 296.0
4551	32.365 32.365
4552	102.0 102.0
4553	27.432 27.432
4554	161.0 161.0
4555	28.315 28.315
4556	121.0 121.0
4557	29.371 29.371
4558	119.0 119.0
4559	29.708 29.708
4560	63.0 63.0
4561	29.593 29.593
4562	133.0 133.0
4563	27.079 27.079
4564	93.0 93.0
4565	36.805 36.805
4566	45.0 45.0
4567	43.07 43.07
4568	266.0 266.0
4569	34.823 34.823
4570	287.0 287.0
4571	28.007 28.007
4572	185.0 185.0
4573	26.487 26.487
4574	270.0 270.0
4575	38.224 38.224
4576	85.0 85.0
4577	29.256 29.256
4578	159.0 159.0
4579	30.772 30.772
4580	177.0 177.0
4581	27.24 27.24
4582	76.0 76.0
4583	27.568 27.568
4584	127.0 127.0
4585	29.33 29.33
4586	199.0 199.0
4587	34.723 34.723
4588	200.0 200.0
4589	36.109 36.109
4590	272.0 272.0
4591	33.654 33.654
4592	111.0 111.0
4593	34.651 34.651
4594	212.0 212.0
4595	39.24 39.24
4596	182.0 182.0
4597	30.795 30.795
4598	206.0 206.0
4599	34.413 34.413
4600	71.0 71.0
4601	33.127 33.127
4602	274.0 274.0
4603	28.964 28.964
4604	53.0 53.0
4605	28.367 28.367
4606	81.0 81.0
4607	30.063 30.063
4608	116.0 116.0
4609	27.425 27.425
4610	89.0 89.0
4611	27.706 27.706
4612	70.0 70.0
4613	28.023 28.023
4614	57.0 57.0
4615	35.71 35.71
4616	251.0 251.0
4617	33.802 33.802
4618	63.0 63.0
4619	27.842 27.842
4620	178.0 178.0
4621	26.305 26.305
4622	90.0 90.0
4623	33.648 33.648
4624	203.0 203.0
4625	31.571 31.571
4626	247.0 247.0
4627	46.37 46.37
4628	53.0 53.0
4629	27.346 27.346
4630	290.0 290.0
4631	30.858 30.858
4632	137.0 137.0
4633	28.46 28.46
4634	276.0 276.0
4635	30.566 30.566
4636	233.0 233.0
4637	27.196 27.196
4638	65.0 65.0
4639	28.043 28.043
4640	116.0 116.0
4641	27.007 27.007
4642	58.0 58.0
4643	46.12 46.12
4644	117.0 117.0
4645	36.393 36.393
4646	145.0 145.0
4647	28.841 28.841
4648	202.0 202.0
4649	27.968 27.968
4650	209.0 209.0
4651	29.363 29.363
4652	157.0 157.0
4653	27.546 27.546
4654	43.0 43.0
4655	28.641 28.641
4656	141.0 141.0
4657	28.041 28.041
4658	212.0 212.0
4659	30.932 30.932
4660	126.0 126.0
4661	30.405 30.405
4662	47.0 47.0
4663	27.481 27.481
4664	115.0 115.0
4665	48.573 48.573
4666	57.0 57.0
4667	27.618 27.618
4668	106.0 106.0
4669	27.732 27.732
4670	152.0 152.0
4671	32.024 32.024
4672	171.0 171.0
4673	28.427 28.427
4674	60.0 60.0
4675	28.765 28.765
4676	112.0 112.0
4677	35.923 35.923
4678	280.0 280.0
4679	29.366 29.366
4680	83.0 83.0
4681	29.363 29.363
4682	100.0 100.0
4683	37.786 37.786
4684	131.0 131.0
4685	32.206 32.206
4686	166.0 166.0
4687	26.194 26.194
4688	246.0 246.0
4689	28.348 28.348
4690	107.0 107.0
4691	47.988 47.988
4692	159.0 159.0
4693	33.364 33.364
4694	105.0 105.0
4695	27.156 27.156
4696	57.0 57.0
4697	26.41 26.41
4698	105.0 105.0
4699	27.191 27.191
4700	174.0 174.0
4701	32.571 32.571
4702	165.0 165.0
4703	26.387 26.387
4704	211.0 211.0
4705	28.285 28.285
4706	135.0 135.0
4707	32.318 32.318
4708	118.0 118.0
4709	32.03 32.03
4710	89.0 89.0
4711	34.223 34.223
4712	197.0 197.0
4713	29.492 29.492
4714	215.0 215.0
4715	27.653 27.653
4716	63.0 63.0
4717	27.578 27.578
4718	142.0 142.0
4719	30.908 30.908
4720	44.0 44.0
4721	27.726 27.726
4722	296.0 296.0
4723	28.461 28.461
4724	288.0 288.0
4725	28.549 28.549
4726	252.0 252.0
4727	28.752 28.752
4728	164.0 164.0
