,time,rtt,id
2043,2043,16.586,2043
2051,2051,0.0,2051
962,962,61.0,962
1029,1029,19.649,1029
954,954,42.0,954
2370,2370,87.0,2370
607,607,0.0,607
1545,1545,29.0,1545
2184,2184,26.188000000000002,2184
1350,1350,93.0,1350
677,677,133.0,677
1367,1367,140.0,1367
922,922,0.0,922
758,758,52.613,758
1994,1994,159.0,1994
1861,1861,58.981,1861
1352,1352,86.0,1352
722,722,19.0,722
2607,2607,22.0,2607
2636,2636,41.205,2636
2057,2057,27.0,2057
2755,2755,0.0,2755
1980,1980,122.0,1980
2378,2378,0.0,2378
1151,1151,117.0,1151
2759,2759,24.0,2759
2209,2209,11.696,2209
1642,1642,86.0,1642
816,816,28.0,816
1864,1864,119.0,1864
1680,1680,18.227999999999998,1680
2753,2753,0.0,2753
1523,1523,0.0,1523
2351,2351,20.0,2351
760,760,23.223000000000003,760
1184,1184,10.867,1184
798,798,111.0,798
2270,2270,101.0,2270
1464,1464,135.0,1464
654,654,82.0,654
2538,2538,0.0,2538
1531,1531,22.461,1531
970,970,11.568,970
1136,1136,0.0,1136
1240,1240,0.0,1240
1983,1983,0.0,1983
2192,2192,0.0,2192
1937,1937,29.0,1937
1566,1566,22.721999999999998,1566
1082,1082,0.0,1082
1376,1376,16.929000000000002,1376
566,566,22.0,566
1102,1102,28.0,1102
1047,1047,0.0,1047
1501,1501,19.0,1501
2508,2508,22.0,2508
1052,1052,44.813,1052
663,663,141.0,663
986,986,23.0,986
2529,2529,29.0,2529
587,587,15.37,587
1929,1929,34.0,1929
1996,1996,20.0,1996
2036,2036,117.0,2036
1609,1609,14.314,1609
2402,2402,28.03,2402
966,966,0.0,966
2568,2568,103.0,2568
864,864,0.0,864
2500,2500,128.0,2500
1974,1974,115.0,1974
542,542,57.0,542
608,608,0.0,608
2148,2148,41.0,2148
737,737,48.0,737
2588,2588,0.0,2588
656,656,14.235,656
681,681,60.0,681
1919,1919,0.0,1919
1671,1671,58.0,1671
1992,1992,0.0,1992
2383,2383,10.685,2383
902,902,150.0,902
1268,1268,13.502,1268
1669,1669,22.0,1669
2295,2295,32.0,2295
1218,1218,31.0,1218
1712,1712,29.0,1712
1505,1505,0.0,1505
2393,2393,25.0,2393
1705,1705,0.0,1705
2465,2465,38.817,2465
1299,1299,0.0,1299
606,606,24.320999999999998,606
2710,2710,0.0,2710
1716,1716,27.0,1716
1572,1572,0.0,1572
1869,1869,21.0,1869
2539,2539,0.0,2539
1399,1399,0.0,1399
1730,1730,0.0,1730
2495,2495,0.0,2495
1493,1493,0.0,1493
862,862,162.0,862
1640,1640,29.0,1640
2254,2254,19.0,2254
1578,1578,13.134,1578
666,666,19.997,666
1698,1698,119.0,1698
1667,1667,0.0,1667
747,747,0.0,747
2204,2204,0.0,2204
875,875,0.0,875
2610,2610,0.0,2610
2216,2216,0.0,2216
2575,2575,0.0,2575
651,651,13.78,651
1676,1676,14.276,1676
2487,2487,14.2,2487
1852,1852,46.0,1852
960,960,0.0,960
2426,2426,0.0,2426
572,572,83.0,572
2491,2491,79.0,2491
2525,2525,67.0,2525
1805,1805,32.0,1805
934,934,25.146,934
532,532,15.228,532
838,838,19.632,838
2258,2258,0.0,2258
1188,1188,29.0,1188
1438,1438,119.0,1438
1620,1620,163.0,1620
771,771,20.509,771
1714,1714,163.0,1714
1724,1724,48.0,1724
1228,1228,0.0,1228
1013,1013,16.0,1013
1410,1410,16.0,1410
2429,2429,61.0,2429
1036,1036,25.568,1036
1339,1339,21.0,1339
2391,2391,17.0,2391
2250,2250,0.0,2250
1452,1452,26.0,1452
1559,1559,0.0,1559
2140,2140,0.0,2140
2247,2247,30.0,2247
1692,1692,0.0,1692
1424,1424,16.0,1424
2524,2524,11.874,2524
2365,2365,18.0,2365
2620,2620,0.0,2620
844,844,11.251,844
1547,1547,16.0,1547
1043,1043,0.0,1043
583,583,65.0,583
1987,1987,26.0,1987
1096,1096,0.0,1096
1152,1152,126.0,1152
784,784,36.0,784
1306,1306,0.0,1306
2514,2514,27.0,2514
1970,1970,0.0,1970
2217,2217,28.0,2217
1216,1216,94.0,1216
2650,2650,100.0,2650
2137,2137,31.0,2137
2171,2171,25.0,2171
2199,2199,37.231,2199
1394,1394,26.364,1394
1752,1752,31.0,1752
2077,2077,0.0,2077
911,911,94.0,911
2592,2592,27.0,2592
2717,2717,21.15,2717
2355,2355,0.0,2355
1514,1514,11.380999999999998,1514
1754,1754,43.0,1754
639,639,0.0,639
2421,2421,29.449,2421
1636,1636,150.0,1636
2165,2165,27.0,2165
1619,1619,0.0,1619
1141,1141,112.0,1141
589,589,11.72,589
740,740,161.0,740
2737,2737,138.0,2737
1704,1704,28.0,1704
2780,2780,0.0,2780
2778,2778,11.515,2778
2649,2649,72.0,2649
2329,2329,0.0,2329
2472,2472,0.0,2472
1693,1693,158.0,1693
2481,2481,141.0,2481
1482,1482,25.0,1482
2460,2460,17.570999999999998,2460
1657,1657,103.0,1657
544,544,23.205,544
741,741,13.255,741
1837,1837,105.0,1837
1592,1592,53.681999999999995,1592
1641,1641,132.0,1641
2414,2414,0.0,2414
1801,1801,66.0,1801
2059,2059,0.0,2059
1178,1178,54.0,1178
1646,1646,81.0,1646
2428,2428,164.0,2428
1832,1832,20.926,1832
2743,2743,23.0,2743
669,669,23.0,669
2727,2727,16.268,2727
2394,2394,0.0,2394
1568,1568,74.0,1568
1943,1943,85.0,1943
1171,1171,41.0,1171
1087,1087,17.021,1087
2708,2708,0.0,2708
2212,2212,156.0,2212
852,852,28.0,852
576,576,15.238,576
1467,1467,11.009,1467
2736,2736,12.479000000000001,2736
1644,1644,94.0,1644
1155,1155,99.99,1155
1298,1298,62.0,1298
2673,2673,0.0,2673
1423,1423,0.0,1423
534,534,18.773,534
1659,1659,75.0,1659
1746,1746,12.034,1746
585,585,11.175,585
2046,2046,100.0,2046
755,755,14.526,755
1168,1168,157.84799999999998,1168
2590,2590,25.0,2590
1239,1239,11.612,1239
2181,2181,122.0,2181
2786,2786,0.0,2786
1392,1392,90.0,1392
2100,2100,15.705,2100
2042,2042,155.0,2042
1721,1721,41.27,1721
2074,2074,142.0,2074
1871,1871,76.0,1871
1602,1602,32.0,1602
2709,2709,23.0,2709
2169,2169,17.0,2169
2011,2011,28.0,2011
1162,1162,31.0,1162
2605,2605,36.0,2605
1809,1809,14.779000000000002,1809
1814,1814,16.0,1814
1586,1586,0.0,1586
2191,2191,0.0,2191
2112,2112,0.0,2112
2631,2631,0.0,2631
1291,1291,145.0,1291
610,610,78.0,610
725,725,14.55,725
2549,2549,22.0,2549
2018,2018,159.0,2018
801,801,30.0,801
2425,2425,19.0,2425
873,873,22.0,873
1323,1323,0.0,1323
1765,1765,20.0,1765
1492,1492,88.0,1492
2403,2403,0.0,2403
1511,1511,0.0,1511
517,517,99.0,517
1925,1925,22.0,1925
1336,1336,16.0,1336
2309,2309,95.0,2309
1691,1691,110.0,1691
1375,1375,14.856,1375
2431,2431,46.0,2431
1510,1510,11.464,1510
2300,2300,21.535999999999998,2300
594,594,18.0,594
1231,1231,11.452,1231
836,836,0.0,836
992,992,0.0,992
1143,1143,17.475,1143
613,613,117.0,613
2695,2695,0.0,2695
1064,1064,0.0,1064
1338,1338,84.0,1338
2606,2606,25.0,2606
1872,1872,11.324000000000002,1872
2466,2466,34.44,2466
2440,2440,0.0,2440
914,914,0.0,914
1988,1988,0.0,1988
1428,1428,0.0,1428
1796,1796,27.0,1796
2712,2712,0.0,2712
1379,1379,110.0,1379
2308,2308,10.702,2308
1846,1846,0.0,1846
2459,2459,32.0,2459
928,928,21.0,928
1508,1508,121.0,1508
1593,1593,24.0,1593
557,557,0.0,557
2008,2008,204.292,2008
1132,1132,26.889,1132
1045,1045,80.0,1045
730,730,0.0,730
1437,1437,0.0,1437
1851,1851,17.143,1851
2375,2375,0.0,2375
1902,1902,27.0,1902
2332,2332,21.0,2332
829,829,23.0,829
641,641,18.905,641
938,938,32.0,938
1751,1751,0.0,1751
1577,1577,105.0,1577
1290,1290,97.0,1290
2751,2751,12.625,2751
2544,2544,100.0,2544
885,885,0.0,885
1027,1027,26.0,1027
944,944,23.0,944
1169,1169,14.923,1169
2233,2233,13.595,2233
1648,1648,31.0,1648
675,675,0.0,675
2020,2020,11.59,2020
2344,2344,0.0,2344
855,855,19.009,855
2119,2119,153.0,2119
2385,2385,149.0,2385
1123,1123,133.0,1123
2744,2744,63.0,2744
2189,2189,100.0,2189
1301,1301,54.0,1301
1558,1558,23.0,1558
2009,2009,0.0,2009
1055,1055,127.0,1055
2614,2614,16.074,2614
763,763,16.113,763
2571,2571,73.0,2571
2285,2285,21.0,2285
2038,2038,0.0,2038
1480,1480,147.0,1480
533,533,55.133,533
2765,2765,32.0,2765
2595,2595,0.0,2595
1863,1863,0.0,1863
1144,1144,0.0,1144
1302,1302,16.281,1302
812,812,22.971999999999998,812
974,974,60.0,974
1037,1037,95.0,1037
2230,2230,27.0,2230
665,665,89.0,665
1309,1309,31.0,1309
1174,1174,118.0,1174
1873,1873,118.0,1873
2484,2484,16.0,2484
1137,1137,12.16,1137
2025,2025,23.0,2025
1584,1584,0.0,1584
1010,1010,23.0,1010
851,851,0.0,851
558,558,95.0,558
2527,2527,20.0,2527
1308,1308,63.0,1308
1777,1777,14.685,1777
2364,2364,72.0,2364
2400,2400,0.0,2400
1138,1138,26.0,1138
1165,1165,0.0,1165
2056,2056,0.0,2056
744,744,13.883,744
1575,1575,0.0,1575
1395,1395,77.0,1395
1293,1293,22.0,1293
1924,1924,158.0,1924
1729,1729,13.384,1729
2067,2067,16.0,2067
1672,1672,0.0,1672
799,799,0.0,799
1210,1210,11.841,1210
1499,1499,0.0,1499
1420,1420,0.0,1420
2162,2162,41.58,2162
2366,2366,0.0,2366
1114,1114,14.036,1114
2266,2266,39.0,2266
2739,2739,0.0,2739
802,802,0.0,802
2626,2626,19.0,2626
831,831,31.0,831
912,912,14.995999999999999,912
2037,2037,31.0,2037
1623,1623,139.0,1623
2387,2387,10.967,2387
1961,1961,23.0,1961
1632,1632,160.606,1632
2511,2511,32.0,2511
1689,1689,28.0,1689
2506,2506,0.0,2506
2561,2561,21.0,2561
1952,1952,21.701999999999998,1952
1859,1859,0.0,1859
2454,2454,131.0,2454
535,535,0.0,535
1966,1966,31.0,1966
1629,1629,0.0,1629
2180,2180,19.404,2180
2474,2474,28.0,2474
2634,2634,0.0,2634
993,993,91.0,993
2228,2228,0.0,2228
1427,1427,0.0,1427
1613,1613,12.435,1613
2170,2170,36.323,2170
595,595,14.1,595
1441,1441,11.645999999999999,1441
692,692,21.0,692
2012,2012,142.0,2012
1630,1630,0.0,1630
1594,1594,111.0,1594
793,793,12.715,793
2687,2687,101.0,2687
1297,1297,94.0,1297
2003,2003,24.643,2003
1334,1334,21.489,1334
1649,1649,124.0,1649
1843,1843,42.0,1843
2449,2449,19.749000000000002,2449
2406,2406,30.0,2406
1226,1226,88.0,1226
828,828,10.690999999999999,828
949,949,115.0,949
2653,2653,12.379000000000001,2653
2608,2608,120.0,2608
748,748,17.0,748
1962,1962,13.463,1962
2623,2623,22.476,2623
2277,2277,16.949,2277
522,522,12.319,522
1281,1281,0.0,1281
1331,1331,67.0,1331
2438,2438,25.0,2438
1093,1093,125.825,1093
2734,2734,103.0,2734
915,915,31.0,915
884,884,0.0,884
1180,1180,17.0,1180
847,847,25.0,847
1197,1197,14.982999999999999,1197
1615,1615,13.539000000000001,1615
1761,1761,0.0,1761
1674,1674,14.745,1674
637,637,26.0,637
1758,1758,18.0,1758
2317,2317,35.655,2317
2095,2095,107.0,2095
1883,1883,13.948,1883
1359,1359,0.0,1359
903,903,116.0,903
2108,2108,88.0,2108
1078,1078,0.0,1078
1035,1035,0.0,1035
2783,2783,12.591,2783
611,611,23.0,611
2241,2241,12.140999999999998,2241
2227,2227,11.878,2227
1142,1142,0.0,1142
979,979,122.0,979
945,945,27.590999999999998,945
1219,1219,0.0,1219
599,599,112.0,599
1910,1910,0.0,1910
931,931,22.0,931
1643,1643,0.0,1643
1354,1354,112.0,1354
859,859,25.0,859
1908,1908,25.0,1908
721,721,17.344,721
756,756,17.0,756
1936,1936,0.0,1936
1416,1416,0.0,1416
2621,2621,21.738000000000003,2621
1455,1455,137.0,1455
1358,1358,19.0,1358
1627,1627,0.0,1627
1051,1051,29.0,1051
1296,1296,0.0,1296
504,504,16.294,504
1263,1263,39.0,1263
1321,1321,12.02,1321
2353,2353,30.0,2353
913,913,10.789000000000001,913
1461,1461,0.0,1461
2612,2612,83.35600000000001,2612
2310,2310,11.05,2310
2334,2334,15.544,2334
1881,1881,21.0,1881
1182,1182,17.151,1182
2662,2662,19.0,2662
2785,2785,32.0,2785
1039,1039,20.0,1039
1839,1839,23.0,1839
2515,2515,18.701,2515
1024,1024,12.39,1024
2106,2106,103.0,2106
698,698,0.0,698
1995,1995,208.012,1995
582,582,124.0,582
1878,1878,17.307000000000002,1878
717,717,67.0,717
1384,1384,42.0,1384
2173,2173,22.0,2173
826,826,14.322000000000001,826
2442,2442,49.0,2442
805,805,0.0,805
1471,1471,122.0,1471
2587,2587,0.0,2587
757,757,14.609000000000002,757
1021,1021,155.0,1021
1015,1015,12.777000000000001,1015
1815,1815,44.0,1815
2373,2373,0.0,2373
621,621,0.0,621
1243,1243,26.0,1243
1786,1786,0.0,1786
2374,2374,27.0,2374
2354,2354,21.0,2354
2464,2464,12.252,2464
2564,2564,135.0,2564
1875,1875,0.0,1875
2117,2117,20.0,2117
1353,1353,58.0,1353
1907,1907,29.0,1907
1077,1077,23.191999999999997,1077
2788,2788,81.0,2788
2521,2521,70.0,2521
513,513,29.0,513
2557,2557,0.0,2557
2562,2562,27.0,2562
620,620,0.0,620
2584,2584,0.0,2584
2010,2010,106.0,2010
1604,1604,0.0,1604
1876,1876,10.629000000000001,1876
2190,2190,162.0,2190
2689,2689,22.0,2689
573,573,14.610999999999999,573
2318,2318,0.0,2318
1835,1835,19.855,1835
2176,2176,31.0,2176
1874,1874,0.0,1874
994,994,103.0,994
2724,2724,152.0,2724
571,571,0.0,571
1203,1203,26.0,1203
2150,2150,0.0,2150
1260,1260,0.0,1260
1328,1328,27.0,1328
531,531,0.0,531
1181,1181,0.0,1181
2522,2522,12.022,2522
2577,2577,151.0,2577
1408,1408,0.0,1408
2232,2232,19.0,2232
1685,1685,27.0,1685
1590,1590,27.0,1590
1941,1941,0.0,1941
1170,1170,20.726,1170
803,803,17.0,803
2390,2390,17.744,2390
943,943,12.617,943
1647,1647,25.0,1647
1101,1101,100.331,1101
2103,2103,13.937000000000001,2103
2475,2475,14.501,2475
2435,2435,23.465,2435
738,738,18.288,738
506,506,0.0,506
1380,1380,48.0,1380
1020,1020,24.0,1020
2764,2764,71.0,2764
1396,1396,43.181000000000004,1396
1004,1004,67.0,1004
1579,1579,29.0,1579
647,647,0.0,647
985,985,22.0,985
1349,1349,0.0,1349
1454,1454,30.599,1454
935,935,13.222000000000001,935
876,876,0.0,876
848,848,0.0,848
2279,2279,0.0,2279
1678,1678,18.0,1678
1316,1316,18.472,1316
2559,2559,74.0,2559
1557,1557,31.0,1557
2456,2456,13.838,2456
2591,2591,18.0,2591
696,696,149.0,696
540,540,45.0,540
1718,1718,17.0,1718
1385,1385,0.0,1385
1294,1294,0.0,1294
1824,1824,113.0,1824
1434,1434,15.402000000000001,1434
2235,2235,0.0,2235
2550,2550,0.0,2550
2696,2696,0.0,2696
1900,1900,65.0,1900
633,633,0.0,633
2118,2118,25.0,2118
2076,2076,17.0,2076
2704,2704,129.0,2704
2732,2732,158.0,2732
2719,2719,0.0,2719
1369,1369,111.0,1369
2141,2141,57.0,2141
2163,2163,13.344000000000001,2163
2389,2389,113.0,2389
987,987,52.0,987
749,749,112.0,749
1596,1596,17.774,1596
1717,1717,23.0,1717
2345,2345,88.0,2345
1637,1637,0.0,1637
2382,2382,31.0,2382
1965,1965,0.0,1965
786,786,28.0,786
2078,2078,0.0,2078
646,646,13.388,646
1040,1040,159.0,1040
2443,2443,15.96,2443
1440,1440,129.0,1440
2245,2245,37.05,2245
1551,1551,19.0,1551
1088,1088,129.577,1088
1473,1473,158.0,1473
2007,2007,37.0,2007
701,701,30.302,701
2738,2738,148.0,2738
1250,1250,17.0,1250
627,627,21.0,627
2306,2306,77.105,2306
660,660,0.0,660
2409,2409,0.0,2409
1858,1858,82.0,1858
1954,1954,31.0,1954
1930,1930,50.0,1930
1272,1272,19.0,1272
622,622,23.0,622
670,670,31.0,670
1803,1803,0.0,1803
1131,1131,82.0,1131
2296,2296,0.0,2296
1595,1595,0.0,1595
2501,2501,135.0,2501
2284,2284,25.0,2284
1214,1214,0.0,1214
1495,1495,30.0,1495
1886,1886,83.0,1886
880,880,15.231,880
1451,1451,0.0,1451
2321,2321,17.468,2321
2249,2249,28.0,2249
2028,2028,30.0,2028
787,787,164.0,787
1503,1503,22.0,1503
2768,2768,77.0,2768
2658,2658,28.0,2658
625,625,0.0,625
1684,1684,32.0,1684
1042,1042,0.0,1042
1063,1063,21.0,1063
1999,1999,0.0,1999
942,942,25.086,942
2144,2144,17.0,2144
1788,1788,0.0,1788
1848,1848,25.0,1848
2361,2361,25.0,2361
643,643,0.0,643
1951,1951,74.0,1951
1391,1391,16.0,1391
853,853,24.223000000000003,853
715,715,41.547,715
958,958,0.0,958
2203,2203,80.0,2203
1560,1560,0.0,1560
2517,2517,86.0,2517
2297,2297,12.622,2297
785,785,41.0,785
1025,1025,16.726,1025
888,888,0.0,888
1448,1448,10.693,1448
830,830,18.0,830
2339,2339,16.0,2339
1429,1429,31.0,1429
2573,2573,0.0,2573
926,926,11.254000000000001,926
2139,2139,11.011,2139
1288,1288,0.0,1288
790,790,153.0,790
2467,2467,111.0,2467
1413,1413,141.0,1413
2080,2080,22.412,2080
2267,2267,27.0,2267
2462,2462,0.0,2462
777,777,14.093,777
1466,1466,0.0,1466
1897,1897,152.0,1897
1421,1421,11.967,1421
2004,2004,64.0,2004
1950,1950,0.0,1950
1756,1756,231.907,1756
2661,2661,0.0,2661
2416,2416,22.0,2416
2264,2264,76.0,2264
1285,1285,21.0,1285
1804,1804,138.351,1804
2251,2251,77.0,2251
1973,1973,0.0,1973
794,794,20.0,794
2757,2757,0.0,2757
1175,1175,17.401,1175
2307,2307,23.0,2307
2422,2422,113.0,2422
2248,2248,69.0,2248
2728,2728,0.0,2728
1089,1089,0.0,1089
1893,1893,11.956,1893
1430,1430,110.0,1430
1259,1259,18.16,1259
705,705,16.0,705
1653,1653,17.887999999999998,1653
2113,2113,11.863,2113
1512,1512,0.0,1512
1967,1967,0.0,1967
1148,1148,164.0,1148
1933,1933,116.0,1933
628,628,26.0,628
2319,2319,0.0,2319
898,898,0.0,898
2423,2423,22.0,2423
1732,1732,21.0,1732
894,894,0.0,894
2622,2622,53.0,2622
2706,2706,14.725,2706
2281,2281,154.0,2281
1563,1563,106.0,1563
707,707,51.0,707
920,920,100.0,920
2360,2360,14.172,2360
1911,1911,64.0,1911
1313,1313,0.0,1313
1673,1673,153.0,1673
1095,1095,23.0,1095
1831,1831,157.0,1831
946,946,104.0,946
1236,1236,28.0,1236
612,612,27.0,612
1360,1360,106.0,1360
1928,1928,65.0,1928
1018,1018,21.0,1018
1400,1400,11.604000000000001,1400
2062,2062,179.954,2062
2015,2015,30.0,2015
1204,1204,16.0,1204
2290,2290,0.0,2290
2627,2627,18.0,2627
1409,1409,58.0,1409
2021,2021,0.0,2021
1351,1351,14.946,1351
1917,1917,25.0,1917
764,764,102.0,764
1582,1582,30.0,1582
923,923,67.0,923
2659,2659,21.0,2659
837,837,0.0,837
817,817,106.0,817
782,782,0.0,782
2159,2159,24.0,2159
2666,2666,17.063,2666
1940,1940,11.39,1940
2155,2155,17.0,2155
704,704,12.222999999999999,704
2558,2558,27.0,2558
1791,1791,0.0,1791
2331,2331,42.0,2331
2617,2617,20.0,2617
600,600,21.0,600
604,604,27.785999999999998,604
1938,1938,23.0,1938
2714,2714,31.0,2714
1167,1167,98.0,1167
2635,2635,0.0,2635
593,593,17.0,593
1982,1982,0.0,1982
1880,1880,106.0,1880
2641,2641,86.0,2641
1713,1713,65.86,1713
1723,1723,110.0,1723
580,580,151.0,580
2207,2207,26.0,2207
1918,1918,26.0,1918
882,882,15.046,882
2111,2111,17.84,2111
1820,1820,19.0,1820
2022,2022,0.0,2022
1282,1282,108.0,1282
2174,2174,32.0,2174
2551,2551,27.0,2551
1022,1022,0.0,1022
1564,1564,0.0,1564
1333,1333,0.0,1333
2200,2200,158.0,2200
1749,1749,26.0,1749
1150,1150,0.0,1150
1348,1348,155.0,1348
1305,1305,0.0,1305
2752,2752,16.499000000000002,2752
2505,2505,0.0,2505
750,750,0.0,750
2094,2094,29.0,2094
691,691,70.0,691
2161,2161,25.0,2161
1517,1517,0.0,1517
1668,1668,0.0,1668
811,811,0.0,811
1133,1133,0.0,1133
1772,1772,10.450999999999999,1772
761,761,53.0,761
2068,2068,41.0,2068
1389,1389,24.0,1389
581,581,27.0,581
1561,1561,26.0,1561
952,952,32.0,952
2769,2769,102.0,2769
1661,1661,13.212,1661
1140,1140,49.0,1140
567,567,29.0,567
1034,1034,16.612000000000002,1034
1005,1005,155.0,1005
1105,1105,66.0,1105
1635,1635,149.0,1635
538,538,56.0,538
2335,2335,0.0,2335
1481,1481,30.0,1481
1030,1030,149.0,1030
2384,2384,147.0,2384
1303,1303,158.0,1303
2154,2154,0.0,2154
2585,2585,21.0,2585
561,561,143.0,561
1412,1412,19.0,1412
706,706,17.909000000000002,706
1806,1806,0.0,1806
1225,1225,0.0,1225
529,529,0.0,529
1533,1533,0.0,1533
1679,1679,19.0,1679
1588,1588,14.47,1588
1023,1023,0.0,1023
1638,1638,39.0,1638
2730,2730,0.0,2730
1945,1945,45.0,1945
1587,1587,12.995,1587
1275,1275,81.0,1275
2548,2548,12.110999999999999,2548
1242,1242,0.0,1242
900,900,131.0,900
1476,1476,0.0,1476
1539,1539,0.0,1539
556,556,0.0,556
933,933,0.0,933
1969,1969,32.85,1969
2601,2601,0.0,2601
2124,2124,21.0,2124
1515,1515,14.328,1515
2026,2026,35.299,2026
2109,2109,0.0,2109
1612,1612,11.843,1612
2208,2208,130.0,2208
505,505,30.0,505
1688,1688,0.0,1688
1946,1946,15.18,1946
2781,2781,0.0,2781
2084,2084,0.0,2084
539,539,126.0,539
1130,1130,0.0,1130
2328,2328,68.0,2328
1279,1279,24.0,1279
1628,1628,0.0,1628
2482,2482,12.569,2482
2486,2486,17.062,2486
1092,1092,0.0,1092
2346,2346,29.0,2346
1870,1870,70.0,1870
1110,1110,125.0,1110
2471,2471,0.0,2471
1372,1372,78.0,1372
2726,2726,43.0,2726
2301,2301,0.0,2301
1991,1991,28.0,1991
1771,1771,0.0,1771
1264,1264,23.0,1264
1850,1850,0.0,1850
2496,2496,0.0,2496
1834,1834,0.0,1834
2733,2733,0.0,2733
2061,2061,15.232999999999999,2061
980,980,17.255,980
2672,2672,26.475,2672
2398,2398,24.0,2398
2237,2237,0.0,2237
2024,2024,32.887,2024
655,655,0.0,655
2177,2177,123.0,2177
1606,1606,51.0,1606
2195,2195,81.0,2195
1368,1368,0.0,1368
2070,2070,20.0,2070
2581,2581,30.0,2581
1768,1768,163.0,1768
967,967,107.0,967
1126,1126,20.0,1126
1405,1405,30.0,1405
1554,1554,149.0,1554
972,972,26.063000000000002,972
671,671,77.0,671
1462,1462,0.0,1462
1038,1038,19.0,1038
804,804,125.0,804
1931,1931,0.0,1931
1478,1478,25.0,1478
2064,2064,10.524000000000001,2064
1402,1402,28.0,1402
2705,2705,22.393,2705
2613,2613,84.0,2613
1319,1319,0.0,1319
2097,2097,12.459000000000001,2097
1472,1472,0.0,1472
2640,2640,11.75,2640
1817,1817,19.0,1817
1618,1618,109.824,1618
822,822,0.0,822
1212,1212,0.0,1212
2014,2014,11.739,2014
2116,2116,0.0,2116
1256,1256,99.0,1256
1518,1518,26.0,1518
1797,1797,151.0,1797
2762,2762,24.56,2762
2715,2715,160.0,2715
783,783,0.0,783
631,631,23.254,631
2648,2648,17.535,2648
2718,2718,0.0,2718
501,501,17.963,501
1418,1418,101.0,1418
1382,1382,103.0,1382
1370,1370,17.75,1370
2292,2292,32.0,2292
1417,1417,53.769,1417
840,840,149.0,840
2771,2771,0.0,2771
2136,2136,127.0,2136
1576,1576,0.0,1576
2686,2686,18.0,2686
1033,1033,0.0,1033
2157,2157,36.0,2157
908,908,30.0,908
1813,1813,15.692,1813
961,961,0.0,961
676,676,119.0,676
901,901,26.0,901
507,507,16.129,507
2348,2348,21.464000000000002,2348
1569,1569,31.0,1569
835,835,32.085,835
2776,2776,21.0,2776
2470,2470,59.0,2470
2782,2782,0.0,2782
1235,1235,50.0,1235
1465,1465,14.032,1465
1109,1109,153.0,1109
1702,1702,30.0,1702
1728,1728,0.0,1728
1217,1217,0.0,1217
1104,1104,33.0,1104
1238,1238,145.0,1238
1106,1106,11.378,1106
2259,2259,84.0,2259
699,699,0.0,699
1650,1650,12.633,1650
1345,1345,0.0,1345
1984,1984,136.0,1984
1844,1844,31.0,1844
509,509,23.0,509
1344,1344,53.0,1344
1447,1447,11.389000000000001,1447
1764,1764,0.0,1764
927,927,32.0,927
2081,2081,27.04,2081
2035,2035,58.0,2035
1903,1903,80.0,1903
1540,1540,0.0,1540
2699,2699,0.0,2699
2045,2045,0.0,2045
1738,1738,0.0,1738
1366,1366,103.0,1366
2555,2555,20.0,2555
2476,2476,0.0,2476
615,615,0.0,615
2350,2350,0.0,2350
508,508,24.0,508
1591,1591,39.088,1591
1406,1406,76.0,1406
1743,1743,0.0,1743
1160,1160,101.0,1160
1865,1865,0.0,1865
2019,2019,13.619000000000002,2019
551,551,77.0,551
1128,1128,0.0,1128
2395,2395,74.0,2395
842,842,0.0,842
1098,1098,148.0,1098
2236,2236,119.0,2236
1312,1312,32.0,1312
1580,1580,22.634,1580
2289,2289,23.0,2289
860,860,24.0,860
2629,2629,100.0,2629
1085,1085,28.0,1085
2499,2499,11.4,2499
910,910,14.238,910
685,685,24.0,685
1459,1459,0.0,1459
686,686,15.309000000000001,686
1009,1009,13.519,1009
2363,2363,24.0,2363
1091,1091,105.508,1091
1683,1683,140.0,1683
1519,1519,106.0,1519
1283,1283,74.0,1283
1651,1651,21.0,1651
2324,2324,0.0,2324
1906,1906,25.0,1906
2164,2164,112.0,2164
1156,1156,10.638,1156
1489,1489,25.877,1489
512,512,100.0,512
2179,2179,120.0,2179
745,745,16.0,745
2494,2494,0.0,2494
1506,1506,47.0,1506
2122,2122,0.0,2122
797,797,0.0,797
1097,1097,128.0,1097
767,767,26.859,767
2206,2206,0.0,2206
1058,1058,29.0,1058
2410,2410,19.0,2410
2167,2167,148.0,2167
857,857,69.0,857
998,998,24.0,998
759,759,28.0,759
839,839,10.817,839
1548,1548,89.0,1548
609,609,31.0,609
1127,1127,24.425,1127
1811,1811,0.0,1811
2342,2342,31.0,2342
565,565,26.993000000000002,565
2098,2098,25.0,2098
950,950,74.0,950
1054,1054,93.0,1054
1770,1770,0.0,1770
762,762,154.0,762
2205,2205,15.546,2205
2223,2223,0.0,2223
1802,1802,42.0,1802
1776,1776,153.0,1776
788,788,48.0,788
2447,2447,14.86,2447
1329,1329,22.799,1329
2229,2229,0.0,2229
2299,2299,0.0,2299
548,548,12.812000000000001,548
739,739,105.0,739
953,953,39.0,953
2624,2624,17.773,2624
2392,2392,22.0,2392
1404,1404,22.0,1404
667,667,63.0,667
982,982,0.0,982
2065,2065,31.0,2065
2314,2314,16.672,2314
1655,1655,13.888,1655
2260,2260,18.837,2260
1012,1012,59.0,1012
1949,1949,19.0,1949
2684,2684,11.084000000000001,2684
2039,2039,28.0,2039
2533,2533,157.0,2533
2096,2096,18.714000000000002,2096
2129,2129,0.0,2129
1081,1081,17.383,1081
1292,1292,30.0,1292
2502,2502,15.936,2502
1475,1475,32.0,1475
957,957,21.0,957
1700,1700,50.552,1700
1307,1307,130.0,1307
2707,2707,0.0,2707
1541,1541,73.0,1541
1763,1763,20.0,1763
2756,2756,98.0,2756
1191,1191,16.0,1191
1794,1794,27.0,1794
2596,2596,39.0,2596
2729,2729,12.534,2729
919,919,0.0,919
626,626,11.556,626
1838,1838,34.0,1838
2547,2547,16.0,2547
2509,2509,0.0,2509
1322,1322,142.0,1322
1401,1401,36.592,1401
1975,1975,61.0,1975
921,921,47.0,921
1687,1687,16.0,1687
1145,1145,0.0,1145
996,996,17.27,996
2427,2427,0.0,2427
807,807,36.0,807
1112,1112,22.0,1112
2679,2679,84.0,2679
2458,2458,30.491999999999997,2458
687,687,107.0,687
2678,2678,12.769,2678
1879,1879,76.0,1879
806,806,28.0,806
1979,1979,197.262,1979
1681,1681,0.0,1681
1014,1014,31.0,1014
1477,1477,16.0,1477
1744,1744,0.0,1744
2720,2720,67.0,2720
2102,2102,0.0,2102
1571,1571,77.0,1571
841,841,19.164,841
1532,1532,0.0,1532
689,689,127.53200000000001,689
2741,2741,15.401,2741
1800,1800,19.157,1800
2132,2132,25.0,2132
2749,2749,0.0,2749
700,700,22.564,700
2054,2054,76.0,2054
2187,2187,0.0,2187
1663,1663,0.0,1663
2325,2325,26.0,2325
1895,1895,83.0,1895
638,638,30.0,638
519,519,0.0,519
778,778,25.0,778
694,694,98.0,694
2473,2473,34.155,2473
2369,2369,0.0,2369
1183,1183,14.571,1183
1056,1056,32.0,1056
2013,2013,13.868,2013
1011,1011,39.0,1011
1998,1998,58.0,1998
1445,1445,0.0,1445
2298,2298,11.363,2298
2597,2597,0.0,2597
1199,1199,16.0,1199
1241,1241,20.0,1241
1740,1740,31.0,1740
2554,2554,14.682,2554
991,991,12.21,991
1468,1468,27.543000000000003,1468
596,596,23.0,596
1536,1536,28.218000000000004,1536
1737,1737,23.0,1737
1694,1694,130.0,1694
703,703,0.0,703
1822,1822,17.0,1822
1774,1774,32.0,1774
1927,1927,22.526,1927
658,658,21.0,658
526,526,0.0,526
2242,2242,0.0,2242
645,645,135.0,645
1868,1868,161.0,1868
2202,2202,0.0,2202
570,570,28.0,570
657,657,116.0,657
818,818,0.0,818
1222,1222,13.288,1222
1645,1645,16.0,1645
1833,1833,26.0,1833
825,825,13.074000000000002,825
976,976,163.0,976
1538,1538,36.701,1538
536,536,38.0,536
892,892,28.0,892
1755,1755,30.0,1755
564,564,15.525,564
1213,1213,102.0,1213
2225,2225,145.0,2225
891,891,24.72,891
537,537,12.994000000000002,537
2412,2412,32.0,2412
752,752,27.0,752
2214,2214,14.127,2214
2677,2677,98.0,2677
2602,2602,0.0,2602
695,695,35.0,695
2468,2468,24.0,2468
2138,2138,68.0,2138
1546,1546,12.107999999999999,1546
1544,1544,23.0,1544
575,575,0.0,575
2478,2478,0.0,2478
1139,1139,19.6,1139
2304,2304,17.735,2304
2700,2700,0.0,2700
1343,1343,15.659,1343
1552,1552,32.0,1552
2493,2493,0.0,2493
2143,2143,27.0,2143
1944,1944,119.0,1944
2656,2656,14.665,2656
1597,1597,47.0,1597
1847,1847,19.0,1847
2685,2685,26.0,2685
1107,1107,111.0,1107
742,742,74.0,742
653,653,30.0,653
2278,2278,22.0,2278
2050,2050,85.0,2050
1233,1233,18.684,1233
709,709,148.0,709
1208,1208,0.0,1208
1179,1179,13.481,1179
1855,1855,118.0,1855
2680,2680,11.569,2680
1154,1154,0.0,1154
1985,1985,27.0,1985
586,586,0.0,586
2041,2041,0.0,2041
2049,2049,31.0,2049
552,552,0.0,552
1502,1502,146.0,1502
1390,1390,0.0,1390
1071,1071,0.0,1071
2586,2586,20.0,2586
893,893,22.0,893
1277,1277,26.0,1277
1601,1601,0.0,1601
2503,2503,12.089,2503
937,937,0.0,937
1374,1374,12.384,1374
1892,1892,0.0,1892
2543,2543,11.388,2543
1276,1276,19.325,1276
1639,1639,78.0,1639
1103,1103,19.557000000000002,1103
2681,2681,124.0,2681
849,849,0.0,849
2069,2069,27.0,2069
2578,2578,77.0,2578
2175,2175,0.0,2175
729,729,17.0,729
1866,1866,33.946999999999996,1866
973,973,17.0,973
2407,2407,26.349,2407
550,550,98.0,550
1458,1458,93.0,1458
1341,1341,161.0,1341
2226,2226,32.0,2226
1266,1266,0.0,1266
2246,2246,20.0,2246
1163,1163,14.937999999999999,1163
1194,1194,23.904,1194
1513,1513,12.185,1513
2323,2323,129.0,2323
1193,1193,22.0,1193
736,736,24.592,736
1625,1625,0.0,1625
1346,1346,31.0,1346
549,549,114.0,549
1496,1496,32.0,1496
598,598,13.562999999999999,598
682,682,0.0,682
2758,2758,102.0,2758
1570,1570,133.0,1570
1997,1997,0.0,1997
1176,1176,0.0,1176
2273,2273,74.0,2273
1494,1494,73.0,1494
2256,2256,0.0,2256
1766,1766,24.0,1766
2697,2697,28.0,2697
916,916,0.0,916
2149,2149,26.0,2149
649,649,27.0,649
879,879,27.0,879
1914,1914,0.0,1914
1129,1129,48.0,1129
1248,1248,111.0,1248
2115,2115,23.0,2115
1397,1397,129.0,1397
1537,1537,16.518,1537
1069,1069,0.0,1069
795,795,0.0,795
1377,1377,28.0,1377
1697,1697,98.0,1697
1439,1439,66.0,1439
2153,2153,95.0,2153
579,579,26.0,579
2053,2053,138.0,2053
1147,1147,16.329,1147
668,668,0.0,668
2492,2492,16.63,2492
554,554,16.083,554
2565,2565,106.0,2565
821,821,127.0,821
2271,2271,87.0,2271
2286,2286,160.0,2286
2371,2371,0.0,2371
2488,2488,17.086,2488
1032,1032,16.0,1032
2453,2453,11.843,2453
1976,1976,13.696,1976
1857,1857,0.0,1857
1002,1002,23.0,1002
2545,2545,0.0,2545
2128,2128,11.495999999999999,2128
2675,2675,19.344,2675
1220,1220,66.0,1220
723,723,28.0,723
2133,2133,36.0,2133
1335,1335,0.0,1335
2397,2397,0.0,2397
644,644,89.0,644
1896,1896,42.0,1896
1028,1028,25.0,1028
2418,2418,0.0,2418
796,796,52.0,796
2185,2185,21.0,2185
1166,1166,24.0,1166
559,559,27.0,559
2763,2763,52.0,2763
1675,1675,28.0,1675
2336,2336,89.0,2336
774,774,63.0,774
1483,1483,16.544,1483
1325,1325,0.0,1325
827,827,0.0,827
1709,1709,166.104,1709
2615,2615,157.605,2615
1094,1094,10.517999999999999,1094
1320,1320,46.839,1320
2701,2701,45.0,2701
1046,1046,18.0,1046
1778,1778,43.0,1778
591,591,69.0,591
1273,1273,18.814,1273
2142,2142,16.022000000000002,2142
2147,2147,0.0,2147
2572,2572,0.0,2572
1567,1567,50.0,1567
1498,1498,162.0,1498
1701,1701,13.217,1701
1192,1192,50.0,1192
679,679,32.0,679
1894,1894,21.0,1894
1760,1760,10.620999999999999,1760
2779,2779,13.91,2779
2424,2424,0.0,2424
1347,1347,13.094000000000001,1347
1393,1393,21.0,1393
1862,1862,10.932,1862
1083,1083,16.543,1083
2479,2479,108.0,2479
2637,2637,31.0,2637
2452,2452,0.0,2452
2261,2261,51.0,2261
2316,2316,18.840999999999998,2316
2340,2340,12.958,2340
1229,1229,32.0,1229
2516,2516,23.0,2516
2723,2723,18.0,2723
1877,1877,14.984000000000002,1877
2063,2063,133.0,2063
2000,2000,120.0,2000
2439,2439,89.0,2439
751,751,38.579,751
2692,2692,45.0,2692
1198,1198,16.0,1198
1386,1386,15.569,1386
2611,2611,32.0,2611
1251,1251,90.0,1251
1972,1972,28.0,1972
1195,1195,31.096,1195
1915,1915,0.0,1915
1201,1201,14.064,1201
773,773,71.0,773
1808,1808,32.0,1808
883,883,30.081999999999997,883
2633,2633,23.0,2633
1059,1059,111.0,1059
733,733,0.0,733
1787,1787,0.0,1787
1247,1247,0.0,1247
1356,1356,0.0,1356
2238,2238,0.0,2238
2450,2450,26.0,2450
568,568,46.0,568
2320,2320,110.0,2320
1823,1823,44.0,1823
975,975,19.971,975
2178,2178,0.0,2178
2694,2694,73.0,2694
789,789,131.0,789
1784,1784,0.0,1784
2280,2280,16.977999999999998,2280
1026,1026,22.421999999999997,1026
1773,1773,21.0,1773
1660,1660,122.0,1660
1708,1708,19.371,1708
1739,1739,103.0,1739
1741,1741,0.0,1741
1565,1565,141.0,1565
1884,1884,0.0,1884
2528,2528,11.743,2528
553,553,146.0,553
1031,1031,0.0,1031
1605,1605,74.0,1605
1792,1792,11.249,1792
1460,1460,46.0,1460
2676,2676,109.0,2676
2604,2604,17.0,2604
769,769,24.0,769
1775,1775,23.0,1775
2519,2519,19.0,2519
2058,2058,14.222999999999999,2058
1120,1120,32.0,1120
1470,1470,103.0,1470
1497,1497,29.0,1497
2034,2034,140.0,2034
1753,1753,101.0,1753
1121,1121,0.0,1121
2772,2772,18.233,2772
731,731,0.0,731
951,951,20.155,951
753,753,12.228,753
629,629,10.759,629
652,652,17.798,652
1436,1436,33.424,1436
1971,1971,37.0,1971
2359,2359,0.0,2359
2618,2618,15.757,2618
964,964,32.0,964
1785,1785,29.0,1785
1845,1845,40.0,1845
1826,1826,106.0,1826
1205,1205,60.0,1205
1598,1598,51.0,1598
1958,1958,0.0,1958
2269,2269,17.0,2269
1365,1365,0.0,1365
2532,2532,31.0,2532
809,809,13.231,809
1530,1530,21.0,1530
2092,2092,90.0,2092
1603,1603,18.0,1603
1507,1507,11.175999999999998,1507
2239,2239,13.712,2239
2090,2090,0.0,2090
1049,1049,148.0,1049
2234,2234,27.0,2234
1426,1426,21.0,1426
2698,2698,44.0,2698
2563,2563,12.7,2563
2352,2352,0.0,2352
1067,1067,19.0,1067
2417,2417,17.718,2417
2123,2123,16.69,2123
1662,1662,23.363000000000003,1662
605,605,0.0,605
907,907,11.289000000000001,907
1856,1856,56.423,1856
574,574,0.0,574
588,588,155.0,588
800,800,19.495,800
2386,2386,119.0,2386
1830,1830,38.0,1830
1215,1215,0.0,1215
1706,1706,55.0,1706
1057,1057,24.916,1057
1153,1153,113.0,1153
672,672,0.0,672
525,525,11.08,525
1762,1762,11.05,1762
713,713,157.0,713
2130,2130,115.0,2130
1388,1388,102.0,1388
981,981,31.0,981
2255,2255,19.0,2255
2721,2721,39.271,2721
2632,2632,14.505,2632
2702,2702,0.0,2702
1867,1867,12.095,1867
2372,2372,25.361,2372
2665,2665,32.0,2665
968,968,58.0,968
602,602,28.0,602
2625,2625,21.0,2625
1135,1135,151.00799999999998,1135
2498,2498,91.0,2498
634,634,28.773000000000003,634
899,899,21.0,899
2446,2446,0.0,2446
2198,2198,0.0,2198
1017,1017,12.595,1017
1543,1543,120.0,1543
1747,1747,116.0,1747
1524,1524,0.0,1524
2099,2099,21.0,2099
2674,2674,0.0,2674
2713,2713,0.0,2713
978,978,110.0,978
1234,1234,0.0,1234
1060,1060,0.0,1060
2087,2087,0.0,2087
965,965,0.0,965
791,791,84.0,791
1905,1905,25.0,1905
2222,2222,25.601,2222
597,597,0.0,597
1986,1986,162.0,1986
2066,2066,11.329,2066
2441,2441,27.0,2441
555,555,24.143,555
2268,2268,19.0,2268
2497,2497,155.0,2497
543,543,30.0,543
2598,2598,0.0,2598
2151,2151,18.0,2151
2381,2381,17.0,2381
2158,2158,125.0,2158
2072,2072,60.0,2072
1953,1953,126.0,1953
1446,1446,11.405,1446
518,518,15.133,518
1658,1658,110.0,1658
2600,2600,28.0,2600
1703,1703,142.9,1703
1361,1361,49.0,1361
1781,1781,138.0,1781
1200,1200,164.0,1200
2048,2048,136.0,2048
1981,1981,0.0,1981
780,780,0.0,780
2379,2379,28.0,2379
1534,1534,0.0,1534
1422,1422,17.0,1422
2333,2333,0.0,2333
1722,1722,132.0,1722
2784,2784,30.0,2784
1686,1686,27.0,1686
2789,2789,16.0,2789
1978,1978,0.0,1978
2457,2457,0.0,2457
2582,2582,110.0,2582
930,930,16.756,930
2745,2745,26.0,2745
1237,1237,0.0,1237
1562,1562,117.0,1562
1008,1008,28.0,1008
661,661,0.0,661
1526,1526,0.0,1526
932,932,0.0,932
1310,1310,23.045,1310
1888,1888,0.0,1888
2570,2570,94.0,2570
2311,2311,10.872,2311
1111,1111,17.0,1111
2219,2219,59.0,2219
1117,1117,0.0,1117
601,601,16.261,601
2583,2583,0.0,2583
2531,2531,55.0,2531
711,711,63.403999999999996,711
1715,1715,0.0,1715
2399,2399,12.677999999999999,2399
2775,2775,0.0,2775
1433,1433,111.0,1433
1959,1959,17.0,1959
1463,1463,21.0,1463
1443,1443,103.0,1443
1177,1177,96.0,1177
1207,1207,27.384,1207
2420,2420,0.0,2420
2376,2376,14.513,2376
1634,1634,19.0,1634
1849,1849,27.0,1849
1061,1061,111.0,1061
2526,2526,114.0,2526
1363,1363,0.0,1363
2594,2594,32.0,2594
516,516,17.0,516
1326,1326,14.335999999999999,1326
2368,2368,10.917,2368
2031,2031,164.0,2031
971,971,159.0,971
1115,1115,29.0,1115
2224,2224,0.0,2224
2294,2294,110.0,2294
1767,1767,47.0,1767
2088,2088,28.0,2088
674,674,28.0,674
1084,1084,0.0,1084
1435,1435,99.0,1435
1444,1444,0.0,1444
1926,1926,29.016,1926
1227,1227,0.0,1227
959,959,0.0,959
1314,1314,35.679,1314
1656,1656,112.0,1656
2282,2282,71.85600000000001,2282
1748,1748,39.02,1748
1710,1710,80.0,1710
523,523,23.188000000000002,523
1065,1065,59.0,1065
1963,1963,16.63,1963
2002,2002,105.0,2002
1357,1357,97.0,1357
2089,2089,144.0,2089
1942,1942,27.0,1942
2032,2032,18.107,2032
1555,1555,13.057,1555
1860,1860,52.0,1860
2536,2536,0.0,2536
2193,2193,0.0,2193
693,693,107.0,693
1727,1727,0.0,1727
2215,2215,30.0,2215
2711,2711,0.0,2711
1522,1522,31.0,1522
2152,2152,0.0,2152
2401,2401,0.0,2401
2252,2252,22.588,2252
1173,1173,132.0,1173
2589,2589,35.0,2589
1882,1882,0.0,1882
2646,2646,12.273,2646
2220,2220,19.0,2220
947,947,0.0,947
1340,1340,97.0,1340
1904,1904,0.0,1904
2792,2792,50.0,2792
2553,2553,0.0,2553
584,584,60.0,584
1075,1075,19.381,1075
2082,2082,135.0,2082
1100,1100,0.0,1100
1527,1527,15.634,1527
1221,1221,0.0,1221
1211,1211,20.94,1211
2343,2343,10.75,2343
678,678,0.0,678
1072,1072,13.713,1072
1149,1149,14.763,1149
1257,1257,22.0,1257
2029,2029,117.0,2029
1840,1840,0.0,1840
2477,2477,0.0,2477
814,814,25.0,814
1836,1836,27.0,1836
2433,2433,18.042,2433
1387,1387,32.0,1387
2580,2580,27.0,2580
1457,1457,33.0,1457
1783,1783,0.0,1783
2104,2104,65.0,2104
1474,1474,19.117,1474
2253,2253,94.0,2253
2101,2101,19.0,2101
2655,2655,78.0,2655
845,845,131.0,845
904,904,101.0,904
2071,2071,10.414000000000001,2071
1159,1159,101.0,1159
1053,1053,144.0,1053
2682,2682,26.0,2682
2218,2218,30.0,2218
1050,1050,131.0,1050
1622,1622,0.0,1622
710,710,22.694000000000003,710
1819,1819,138.0,1819
2075,2075,19.83,2075
1432,1432,67.0,1432
2754,2754,0.0,2754
929,929,132.0,929
2313,2313,19.0,2313
1827,1827,33.275,1827
2693,2693,12.315999999999999,2693
2560,2560,19.928,2560
1932,1932,30.0,1932
1068,1068,23.0,1068
2445,2445,0.0,2445
1157,1157,0.0,1157
2033,2033,26.0,2033
2303,2303,0.0,2303
2120,2120,22.721999999999998,2120
664,664,0.0,664
1431,1431,16.921,1431
2787,2787,23.0,2787
843,843,43.0,843
1735,1735,132.0,1735
1842,1842,85.0,1842
2085,2085,0.0,2085
2388,2388,12.463,2388
2405,2405,59.0,2405
1073,1073,27.016,1073
1284,1284,21.0,1284
2312,2312,0.0,2312
515,515,0.0,515
1599,1599,29.0,1599
2489,2489,11.15,2489
832,832,15.985999999999999,832
712,712,11.978,712
865,865,10.084,865
2197,2197,12.299000000000001,2197
1816,1816,135.0,1816
939,939,0.0,939
2349,2349,57.0,2349
2006,2006,0.0,2006
546,546,0.0,546
2774,2774,21.0,2774
1654,1654,12.869000000000002,1654
1119,1119,17.0,1119
1398,1398,55.0,1398
2773,2773,0.0,2773
1253,1253,0.0,1253
636,636,14.11,636
940,940,0.0,940
650,650,15.83,650
2356,2356,0.0,2356
2415,2415,15.487,2415
1550,1550,24.0,1550
896,896,138.0,896
2322,2322,17.84,2322
1271,1271,0.0,1271
1666,1666,211.27,1666
925,925,18.164,925
872,872,23.0,872
969,969,19.285,969
2766,2766,0.0,2766
2523,2523,0.0,2523
2667,2667,13.693,2667
1901,1901,50.0,1901
846,846,20.0,846
854,854,0.0,854
1707,1707,32.0,1707
1074,1074,14.069,1074
1759,1759,0.0,1759
603,603,31.0,603
2630,2630,20.0,2630
1528,1528,0.0,1528
510,510,0.0,510
1411,1411,30.0,1411
1187,1187,17.652,1187
2274,2274,0.0,2274
2231,2231,0.0,2231
635,635,28.0,635
1889,1889,17.829,1889
2210,2210,11.772,2210
2121,2121,30.0,2121
1542,1542,28.0,1542
2213,2213,31.0,2213
1486,1486,20.454,1486
1610,1610,10.769,1610
541,541,28.519000000000002,541
2593,2593,31.0,2593
1608,1608,0.0,1608
1520,1520,20.0,1520
1261,1261,16.045,1261
1125,1125,18.0,1125
697,697,18.0,697
1108,1108,110.0,1108
616,616,19.917,616
2305,2305,101.0,2305
1355,1355,0.0,1355
990,990,28.755,990
1989,1989,70.492,1989
2542,2542,87.0,2542
871,871,22.0,871
2485,2485,35.869,2485
1799,1799,0.0,1799
1782,1782,18.0,1782
503,503,60.0,503
1245,1245,22.0,1245
1719,1719,0.0,1719
2030,2030,97.0,2030
2326,2326,32.0,2326
1600,1600,15.917,1600
2287,2287,0.0,2287
2086,2086,25.0,2086
746,746,14.562999999999999,746
1469,1469,25.0,1469
2404,2404,32.0,2404
2668,2668,18.494,2668
1898,1898,102.0,1898
1682,1682,34.0,1682
530,530,15.83,530
1757,1757,0.0,1757
779,779,24.0,779
2541,2541,13.277000000000001,2541
1164,1164,0.0,1164
1818,1818,130.0,1818
1223,1223,19.37,1223
