,time,rtt,id
815,815,80.0,815
2327,2327,71.0,2327
1138,1138,330.0,1138
1252,1252,56.659,1252
2993,2993,0.0,2993
2277,2277,64.271,2277
1342,1342,188.0,1342
1788,1788,360.0,1788
2550,2550,65.0,2550
1046,1046,0.0,1046
2736,2736,53.604,2736
2802,2802,74.0,2802
2739,2739,63.0,2739
2382,2382,82.0,2382
573,573,66.0,573
1428,1428,83.0,1428
2907,2907,64.0,2907
918,918,0.0,918
544,544,0.0,544
1559,1559,71.0,1559
1003,1003,195.0,1003
595,595,52.333999999999996,595
1076,1076,313.0,1076
1376,1376,395.0,1376
810,810,80.0,810
718,718,74.0,718
1000,1000,0.0,1000
2330,2330,0.0,2330
1456,1456,0.0,1456
2920,2920,186.0,2920
2237,2237,54.113,2237
3015,3015,53.913999999999994,3015
1790,1790,0.0,1790
2341,2341,78.0,2341
2304,2304,53.09,2304
726,726,205.0,726
2612,2612,58.318999999999996,2612
1327,1327,393.0,1327
1186,1186,83.0,1186
2169,2169,52.595,2169
2345,2345,0.0,2345
941,941,58.713,941
770,770,0.0,770
2743,2743,423.0,2743
863,863,55.676,863
792,792,78.0,792
1067,1067,75.0,1067
617,617,0.0,617
755,755,55.59,755
766,766,0.0,766
1301,1301,328.0,1301
1498,1498,0.0,1498
2577,2577,0.0,2577
2510,2510,253.0,2510
2745,2745,84.0,2745
1581,1581,57.038999999999994,1581
1807,1807,84.0,1807
2770,2770,76.0,2770
2659,2659,398.0,2659
1113,1113,119.0,1113
2753,2753,0.0,2753
869,869,81.0,869
2424,2424,207.0,2424
1174,1174,51.383,1174
1461,1461,55.754,1461
1627,1627,53.493,1627
1094,1094,66.0,1094
2534,2534,356.0,2534
563,563,66.0,563
808,808,324.0,808
1383,1383,0.0,1383
2080,2080,187.007,2080
568,568,0.0,568
2298,2298,0.0,2298
887,887,0.0,887
1704,1704,0.0,1704
1317,1317,54.953,1317
2037,2037,0.0,2037
997,997,76.0,997
2336,2336,0.0,2336
1155,1155,75.0,1155
2236,2236,0.0,2236
637,637,60.872,637
3029,3029,357.0,3029
2390,2390,140.0,2390
828,828,52.53,828
2243,2243,0.0,2243
1621,1621,58.431999999999995,1621
1987,1987,0.0,1987
970,970,56.17100000000001,970
1841,1841,0.0,1841
2020,2020,294.0,2020
2829,2829,76.0,2829
2634,2634,0.0,2634
776,776,0.0,776
2329,2329,56.303000000000004,2329
2016,2016,183.0,2016
1246,1246,72.0,1246
1643,1643,0.0,1643
1976,1976,300.0,1976
992,992,314.0,992
3064,3064,68.0,3064
1178,1178,57.278,1178
2562,2562,0.0,2562
866,866,55.636,866
2425,2425,65.567,2425
928,928,142.0,928
1001,1001,67.0,1001
1936,1936,55.727,1936
1894,1894,0.0,1894
632,632,0.0,632
2350,2350,51.153999999999996,2350
2822,2822,413.0,2822
1029,1029,83.0,1029
2791,2791,369.0,2791
2763,2763,51.232,2763
752,752,53.778,752
2442,2442,82.0,2442
2864,2864,72.0,2864
1659,1659,79.0,1659
2961,2961,52.093,2961
2098,2098,0.0,2098
1278,1278,191.505,1278
1455,1455,0.0,1455
2440,2440,51.333,2440
1574,1574,57.034,1574
834,834,81.0,834
2413,2413,85.0,2413
2912,2912,84.0,2912
2375,2375,173.0,2375
1268,1268,0.0,1268
924,924,0.0,924
823,823,304.0,823
1488,1488,0.0,1488
1410,1410,80.0,1410
2700,2700,64.48,2700
524,524,408.0,524
1230,1230,77.0,1230
2695,2695,0.0,2695
1364,1364,255.0,1364
1879,1879,0.0,1879
2729,2729,123.0,2729
1280,1280,80.0,1280
824,824,53.978,824
1254,1254,306.0,1254
1311,1311,61.832,1311
2995,2995,62.31399999999999,2995
2423,2423,110.0,2423
2005,2005,75.0,2005
2011,2011,233.695,2011
2617,2617,0.0,2617
988,988,61.575,988
2486,2486,60.942,2486
1295,1295,0.0,1295
2402,2402,209.0,2402
1993,1993,69.0,1993
2614,2614,244.0,2614
2228,2228,60.391000000000005,2228
765,765,0.0,765
2773,2773,51.356,2773
1052,1052,55.778,1052
1831,1831,53.211000000000006,1831
683,683,298.0,683
2954,2954,0.0,2954
1725,1725,340.0,1725
1951,1951,204.0,1951
2307,2307,77.0,2307
2971,2971,109.0,2971
2395,2395,0.0,2395
2516,2516,78.0,2516
1820,1820,0.0,1820
2335,2335,0.0,2335
1636,1636,202.0,1636
2200,2200,408.0,2200
2444,2444,66.0,2444
1744,1744,295.0,1744
1971,1971,0.0,1971
2150,2150,62.583,2150
634,634,77.0,634
2803,2803,79.0,2803
2007,2007,74.0,2007
1491,1491,64.0,1491
1732,1732,51.368,1732
1601,1601,412.0,1601
2339,2339,95.0,2339
2567,2567,172.0,2567
886,886,69.0,886
1062,1062,0.0,1062
1216,1216,0.0,1216
2176,2176,81.0,2176
2775,2775,366.0,2775
1116,1116,0.0,1116
2697,2697,59.693999999999996,2697
536,536,0.0,536
1493,1493,0.0,1493
1549,1549,52.143,1549
2633,2633,79.0,2633
1330,1330,405.0,1330
1057,1057,154.61,1057
2992,2992,0.0,2992
569,569,81.0,569
1286,1286,282.0,1286
2387,2387,100.0,2387
1136,1136,66.225,1136
989,989,55.758,989
1931,1931,71.0,1931
2921,2921,0.0,2921
1352,1352,318.0,1352
760,760,54.66,760
2761,2761,51.87,2761
2789,2789,51.787,2789
624,624,64.0,624
1449,1449,140.0,1449
588,588,238.0,588
1122,1122,52.595,1122
2226,2226,69.0,2226
2717,2717,67.0,2717
2378,2378,187.0,2378
1658,1658,70.0,1658
1210,1210,0.0,1210
889,889,51.88,889
826,826,303.0,826
983,983,69.0,983
2478,2478,0.0,2478
2276,2276,356.0,2276
673,673,53.606,673
2249,2249,67.0,2249
3021,3021,52.126999999999995,3021
1196,1196,0.0,1196
623,623,57.888999999999996,623
2767,2767,327.0,2767
2892,2892,53.507,2892
2028,2028,51.778999999999996,2028
2699,2699,393.0,2699
1765,1765,56.17,1765
1930,1930,207.799,1930
1602,1602,135.0,1602
2537,2537,0.0,2537
1309,1309,80.0,1309
2595,2595,55.672,2595
2221,2221,78.0,2221
1014,1014,0.0,1014
2092,2092,192.0,2092
2242,2242,0.0,2242
878,878,71.0,878
716,716,79.0,716
2615,2615,81.531,2615
2833,2833,68.0,2833
2687,2687,56.026,2687
590,590,53.423,590
3036,3036,72.0,3036
1575,1575,0.0,1575
948,948,67.12,948
3030,3030,52.196000000000005,3030
1833,1833,75.0,1833
2138,2138,51.833,2138
1143,1143,55.577,1143
2474,2474,283.0,2474
1593,1593,64.0,1593
1630,1630,171.0,1630
2260,2260,0.0,2260
2389,2389,0.0,2389
607,607,0.0,607
1290,1290,85.0,1290
2036,2036,84.0,2036
2716,2716,54.218999999999994,2716
677,677,0.0,677
566,566,85.0,566
995,995,51.846000000000004,995
758,758,54.38399999999999,758
1939,1939,52.553000000000004,1939
1899,1899,78.0,1899
669,669,0.0,669
722,722,84.0,722
2163,2163,429.0,2163
912,912,0.0,912
1350,1350,0.0,1350
2492,2492,0.0,2492
1853,1853,51.71,1853
2436,2436,250.0,2436
883,883,71.0,883
2875,2875,84.0,2875
1789,1789,0.0,1789
999,999,70.0,999
1590,1590,55.519,1590
517,517,0.0,517
1184,1184,65.256,1184
1991,1991,51.927,1991
2076,2076,164.752,2076
2214,2214,116.0,2214
2545,2545,54.413000000000004,2545
1909,1909,313.0,1909
1946,1946,349.0,1946
2661,2661,79.0,2661
2119,2119,74.0,2119
2823,2823,250.0,2823
1872,1872,395.0,1872
1672,1672,52.926,1672
1915,1915,0.0,1915
1866,1866,139.0,1866
2391,2391,52.148999999999994,2391
1499,1499,53.143,1499
2170,2170,0.0,2170
1846,1846,74.0,1846
1686,1686,384.0,1686
2275,2275,106.0,2275
2660,2660,0.0,2660
2877,2877,0.0,2877
2366,2366,64.0,2366
2480,2480,54.483000000000004,2480
1980,1980,0.0,1980
1384,1384,58.667,1384
663,663,123.0,663
1059,1059,56.332,1059
2095,2095,53.371,2095
1086,1086,75.0,1086
986,986,64.0,986
1010,1010,0.0,1010
2117,2117,78.0,2117
587,587,52.748999999999995,587
2332,2332,363.0,2332
1957,1957,85.0,1957
2419,2419,51.778,2419
2168,2168,365.0,2168
2374,2374,187.0,2374
1992,1992,176.0,1992
966,966,0.0,966
1953,1953,77.0,1953
864,864,55.727,864
2535,2535,168.0,2535
1863,1863,0.0,1863
3008,3008,0.0,3008
542,542,0.0,542
608,608,67.0,608
1756,1756,199.0,1756
737,737,56.479,737
2722,2722,52.725,2722
2870,2870,51.043,2870
656,656,161.0,656
2647,2647,0.0,2647
681,681,0.0,681
1090,1090,54.181999999999995,1090
2319,2319,51.898,2319
2645,2645,53.347,2645
1258,1258,184.03599999999997,1258
2418,2418,71.0,2418
2873,2873,78.0,2873
2400,2400,0.0,2400
1910,1910,52.02,1910
902,902,54.765,902
1371,1371,0.0,1371
852,852,98.0,852
1577,1577,52.81100000000001,1577
821,821,214.0,821
1632,1632,111.0,1632
2837,2837,0.0,2837
2084,2084,312.0,2084
1779,1779,0.0,1779
1923,1923,52.132,1923
1168,1168,249.0,1168
1080,1080,61.111000000000004,1080
2876,2876,228.0,2876
789,789,64.389,789
2908,2908,0.0,2908
2916,2916,55.332,2916
2590,2590,62.57,2590
979,979,59.348,979
606,606,54.813,606
2324,2324,69.0,2324
3072,3072,71.0,3072
2043,2043,56.141999999999996,2043
2769,2769,0.0,2769
2826,2826,51.391000000000005,2826
1691,1691,71.0,1691
2289,2289,52.413000000000004,2289
1378,1378,65.0,1378
2278,2278,0.0,2278
1943,1943,0.0,1943
2064,2064,82.0,2064
3081,3081,71.0,3081
801,801,72.0,801
2077,2077,58.828,2077
862,862,52.021,862
1941,1941,75.0,1941
873,873,343.0,873
1641,1641,71.0,1641
1861,1861,0.0,1861
2403,2403,0.0,2403
1424,1424,274.0,1424
666,666,71.0,666
2057,2057,59.076,2057
1224,1224,62.791000000000004,1224
2757,2757,52.792,2757
747,747,69.0,747
2132,2132,54.276,2132
3025,3025,82.0,3025
2259,2259,64.0,2259
875,875,66.0,875
2460,2460,0.0,2460
1928,1928,60.625,1928
1933,1933,333.0,1933
2572,2572,170.0,2572
1945,1945,0.0,1945
651,651,0.0,651
2175,2175,0.0,2175
1716,1716,315.0,1716
2310,2310,0.0,2310
2144,2144,330.0,2144
1657,1657,68.0,1657
960,960,248.0,960
2730,2730,69.0,2730
572,572,54.481,572
899,899,84.0,899
1962,1962,51.614,1962
1185,1185,73.0,1185
2161,2161,220.0,2161
1367,1367,74.0,1367
934,934,51.119,934
532,532,0.0,532
838,838,0.0,838
2869,2869,380.0,2869
1644,1644,85.0,1644
1731,1731,130.0,1731
1615,1615,384.0,1615
2245,2245,79.0,2245
2093,2093,78.0,2093
771,771,76.0,771
2953,2953,54.922,2953
1381,1381,182.0,1381
1229,1229,275.0,1229
2895,2895,57.044,2895
1585,1585,279.0,1585
1013,1013,54.632,1013
1161,1161,52.728,1161
2663,2663,148.0,2663
1338,1338,0.0,1338
1249,1249,81.0,1249
2783,2783,159.0,2783
2968,2968,58.231,2968
1812,1812,72.0,1812
2917,2917,0.0,2917
1036,1036,57.416000000000004,1036
1665,1665,80.0,1665
2597,2597,0.0,2597
2058,2058,0.0,2058
1746,1746,0.0,1746
2232,2232,57.635,2232
1479,1479,0.0,1479
756,756,51.135,756
1667,1667,220.0,1667
1298,1298,64.0,1298
2598,2598,63.0,2598
2131,2131,52.45399999999999,2131
2272,2272,230.794,2272
3080,3080,0.0,3080
1297,1297,0.0,1297
2737,2737,0.0,2737
3069,3069,72.0,3069
1868,1868,52.906000000000006,1868
1717,1717,64.0,1717
2625,2625,73.0,2625
1151,1151,57.443000000000005,1151
518,518,208.0,518
736,736,0.0,736
2014,2014,52.431999999999995,2014
844,844,54.541000000000004,844
2446,2446,183.0,2446
1864,1864,0.0,1864
1043,1043,0.0,1043
1464,1464,287.0,1464
583,583,410.0,583
1675,1675,52.063,1675
2867,2867,75.0,2867
2410,2410,165.0,2410
1096,1096,56.195,1096
525,525,58.044,525
3020,3020,218.0,3020
1296,1296,82.0,1296
784,784,122.0,784
2238,2238,325.0,2238
1300,1300,426.0,1300
1912,1912,0.0,1912
2473,2473,90.0,2473
1718,1718,214.0,1718
2619,2619,0.0,2619
1403,1403,0.0,1403
2749,2749,0.0,2749
1766,1766,220.0,1766
2437,2437,0.0,2437
1809,1809,54.558,1809
2351,2351,184.0,2351
2055,2055,371.0,2055
2261,2261,0.0,2261
2793,2793,52.625,2793
911,911,320.0,911
1453,1453,73.0,1453
2852,2852,51.601000000000006,2852
2985,2985,0.0,2985
2248,2248,0.0,2248
1423,1423,255.0,1423
2746,2746,0.0,2746
1427,1427,55.235,1427
1922,1922,303.0,1922
695,695,55.218999999999994,695
1805,1805,63.912,1805
639,639,53.391999999999996,639
1341,1341,0.0,1341
2726,2726,58.81399999999999,2726
818,818,58.058,818
2790,2790,0.0,2790
2926,2926,64.28399999999999,2926
1141,1141,0.0,1141
2778,2778,363.0,2778
2505,2505,64.0,2505
3068,3068,0.0,3068
703,703,72.0,703
2380,2380,167.0,2380
2768,2768,397.0,2768
2434,2434,187.0,2434
1758,1758,67.839,1758
741,741,254.0,741
1480,1480,57.489,1480
2497,2497,215.0,2497
2707,2707,82.0,2707
2270,2270,361.0,2270
2461,2461,422.0,2461
1965,1965,399.0,1965
829,829,68.0,829
2564,2564,91.0,2564
1858,1858,150.344,1858
1441,1441,54.428999999999995,1441
2430,2430,79.0,2430
1500,1500,204.0,1500
1179,1179,63.0,1179
2608,2608,0.0,2608
2552,2552,77.0,2552
1529,1529,68.0,1529
1331,1331,0.0,1331
1504,1504,362.0,1504
2938,2938,214.0,2938
2732,2732,0.0,2732
534,534,51.103,534
2281,2281,0.0,2281
1375,1375,423.0,1375
2819,2819,148.0,2819
2429,2429,83.0,2429
3076,3076,411.0,3076
1696,1696,62.301,1696
1407,1407,0.0,1407
2361,2361,55.42,2361
2620,2620,202.0,2620
2227,2227,421.0,2227
2172,2172,0.0,2172
1996,1996,77.0,1996
1318,1318,76.0,1318
2588,2588,0.0,2588
2795,2795,0.0,2795
2435,2435,0.0,2435
1162,1162,341.0,1162
1852,1852,295.0,1852
1935,1935,408.0,1935
1676,1676,222.0,1676
1871,1871,0.0,1871
2850,2850,164.0,2850
610,610,283.0,610
725,725,55.799,725
1883,1883,52.604,1883
1808,1808,85.0,1808
994,994,51.716,994
2574,2574,0.0,2574
575,575,279.0,575
1977,1977,427.0,1977
802,802,267.0,802
2265,2265,142.467,2265
2696,2696,335.0,2696
1420,1420,77.0,1420
1843,1843,0.0,1843
2665,2665,67.0,2665
1243,1243,65.0,1243
594,594,67.0,594
1231,1231,0.0,1231
836,836,0.0,836
1299,1299,218.0,1299
613,613,54.968999999999994,613
1064,1064,0.0,1064
2416,2416,0.0,2416
2561,2561,0.0,2561
1875,1875,300.0,1875
1337,1337,82.0,1337
2411,2411,53.258,2411
1035,1035,320.0,1035
2980,2980,51.596000000000004,2980
2825,2825,182.0,2825
2751,2751,0.0,2751
2799,2799,66.0,2799
1620,1620,0.0,1620
557,557,128.0,557
558,558,66.0,558
1132,1132,64.382,1132
2508,2508,0.0,2508
730,730,395.0,730
1730,1730,309.0,1730
3014,3014,123.0,3014
2705,2705,0.0,2705
2180,2180,201.695,2180
938,938,56.38399999999999,938
2872,2872,54.428000000000004,2872
1780,1780,53.885,1780
2202,2202,0.0,2202
885,885,189.0,885
944,944,84.0,944
1169,1169,119.0,1169
2838,2838,299.0,2838
2135,2135,70.0,2135
675,675,75.0,675
679,679,230.0,679
2842,2842,0.0,2842
855,855,60.926,855
2999,2999,77.0,2999
1123,1123,84.0,1123
2171,2171,168.343,2171
2913,2913,0.0,2913
1438,1438,314.0,1438
1055,1055,81.0,1055
2300,2300,74.0,2300
2693,2693,0.0,2693
2879,2879,114.0,2879
2956,2956,76.0,2956
3048,3048,85.0,3048
2481,2481,80.0,2481
2246,2246,217.0,2246
1302,1302,68.0,1302
974,974,76.0,974
1685,1685,52.486999999999995,1685
2203,2203,225.0,2203
1137,1137,294.0,1137
2824,2824,75.0,2824
2451,2451,179.0,2451
1594,1594,56.196000000000005,1594
2488,2488,68.0,2488
2264,2264,401.0,2264
1736,1736,56.211999999999996,1736
2896,2896,0.0,2896
2113,2113,132.0,2113
744,744,81.0,744
1487,1487,60.655,1487
2262,2262,0.0,2262
2355,2355,0.0,2355
1031,1031,259.0,1031
1293,1293,67.729,1293
1801,1801,383.0,1801
2466,2466,51.367,2466
2796,2796,52.026,2796
799,799,134.0,799
2664,2664,51.785,2664
2918,2918,385.0,2918
2412,2412,375.0,2412
1114,1114,84.0,1114
3031,3031,83.0,3031
831,831,51.544,831
1592,1592,0.0,1592
2513,2513,53.205,2513
2212,2212,121.0,2212
2062,2062,0.0,2062
1626,1626,0.0,1626
1083,1083,0.0,1083
535,535,0.0,535
2110,2110,0.0,2110
2762,2762,52.843,2762
993,993,405.0,993
3013,3013,80.0,3013
1905,1905,55.522,1905
3067,3067,79.0,3067
1619,1619,253.0,1619
698,698,0.0,698
1929,1929,266.0,1929
793,793,51.548,793
1514,1514,139.0,1514
2427,2427,228.0,2427
1952,1952,140.0,1952
1786,1786,215.0,1786
1049,1049,145.0,1049
1226,1226,83.0,1226
949,949,67.0,949
3028,3028,52.303000000000004,3028
2883,2883,73.0,2883
2902,2902,53.071000000000005,2902
522,522,243.0,522
1281,1281,322.0,1281
2547,2547,54.641000000000005,2547
2818,2818,0.0,2818
3053,3053,52.629,3053
915,915,0.0,915
884,884,0.0,884
1180,1180,52.983999999999995,1180
1197,1197,75.0,1197
1617,1617,65.0,1617
1754,1754,0.0,1754
2159,2159,228.0,2159
796,796,398.0,796
1467,1467,0.0,1467
2539,2539,71.0,2539
1897,1897,212.0,1897
903,903,330.0,903
2397,2397,420.0,2397
1078,1078,54.396,1078
1919,1919,241.112,1919
611,611,301.0,611
729,729,89.0,729
2453,2453,54.196999999999996,2453
1142,1142,53.821999999999996,1142
945,945,0.0,945
1219,1219,0.0,1219
599,599,84.0,599
2677,2677,272.0,2677
1354,1354,81.0,1354
859,859,0.0,859
2181,2181,76.0,2181
721,721,394.0,721
2432,2432,0.0,2432
1416,1416,68.0,1416
2702,2702,77.0,2702
1263,1263,411.0,1263
2950,2950,53.483000000000004,2950
1051,1051,341.0,1051
504,504,388.0,504
2963,2963,352.0,2963
1321,1321,83.0,1321
2532,2532,124.0,2532
913,913,54.343,913
2671,2671,59.778,2671
2241,2241,0.0,2241
2108,2108,53.57,2108
1698,1698,0.0,1698
2191,2191,216.0,2191
1182,1182,198.0,1182
2548,2548,0.0,2548
1531,1531,79.0,1531
1039,1039,53.188,1039
2211,2211,75.0,2211
1024,1024,280.0,1024
2266,2266,0.0,2266
1722,1722,54.941,1722
1572,1572,54.339,1572
582,582,425.0,582
1966,1966,0.0,1966
717,717,81.0,717
809,809,55.327,809
1021,1021,0.0,1021
1015,1015,0.0,1015
2348,2348,0.0,2348
2456,2456,102.0,2456
2139,2139,72.0,2139
2756,2756,51.706,2756
2041,2041,84.01700000000001,2041
2558,2558,64.0,2558
1353,1353,65.0,1353
2301,2301,0.0,2301
1077,1077,198.0,1077
3078,3078,261.0,3078
2514,2514,74.0,2514
2507,2507,51.422,2507
2494,2494,66.0,2494
620,620,83.0,620
2459,2459,225.0,2459
1954,1954,65.58,1954
2384,2384,0.0,2384
1597,1597,52.335,1597
2978,2978,155.0,2978
2204,2204,341.0,2204
1918,1918,228.148,1918
1260,1260,89.0,1260
1328,1328,52.943000000000005,1328
2205,2205,79.0,2205
531,531,0.0,531
1181,1181,59.011,1181
1535,1535,73.0,1535
1741,1741,59.336000000000006,1741
2363,2363,52.61600000000001,2363
2835,2835,70.0,2835
1408,1408,425.0,1408
700,700,167.0,700
2866,2866,55.391999999999996,2866
1876,1876,83.0,1876
2347,2347,66.0,2347
1170,1170,129.0,1170
1589,1589,0.0,1589
803,803,60.129,803
2166,2166,52.063,2166
975,975,0.0,975
1752,1752,69.0,1752
943,943,0.0,943
2569,2569,87.0,2569
1604,1604,0.0,1604
1101,1101,270.0,1101
2112,2112,53.851000000000006,2112
1968,1968,84.0,1968
1796,1796,0.0,1796
1775,1775,253.0,1775
519,519,76.0,519
2267,2267,52.413999999999994,2267
738,738,57.931999999999995,738
1921,1921,156.0,1921
506,506,0.0,506
1380,1380,0.0,1380
1020,1020,52.262,1020
3047,3047,51.638000000000005,3047
1396,1396,0.0,1396
1004,1004,161.0,1004
1862,1862,74.0,1862
647,647,351.0,647
3063,3063,0.0,3063
1751,1751,96.0,1751
985,985,59.476000000000006,985
1584,1584,74.0,1584
1349,1349,78.0,1349
1454,1454,59.788999999999994,1454
935,935,54.685,935
876,876,344.0,876
848,848,282.0,848
2142,2142,56.121,2142
2734,2734,0.0,2734
2528,2528,53.497,2528
1316,1316,86.0,1316
2816,2816,64.0,2816
1557,1557,224.0,1557
1470,1470,160.0,1470
3032,3032,0.0,3032
696,696,0.0,696
540,540,65.0,540
2051,2051,0.0,2051
2060,2060,75.0,2060
2045,2045,59.413000000000004,2045
1385,1385,69.0,1385
1294,1294,0.0,1294
2370,2370,263.0,2370
2362,2362,397.0,2362
1434,1434,72.0,1434
1103,1103,55.52,1103
2806,2806,65.0,2806
2962,2962,55.675,2962
2426,2426,57.865,2426
633,633,0.0,633
2556,2556,80.0,2556
2518,2518,0.0,2518
1199,1199,0.0,1199
2519,2519,57.739,2519
2848,2848,72.0,2848
598,598,74.0,598
1596,1596,56.715,1596
1369,1369,78.0,1369
1251,1251,0.0,1251
570,570,67.0,570
2318,2318,284.0,2318
987,987,79.0,987
749,749,385.0,749
2656,2656,82.0,2656
2044,2044,0.0,2044
1869,1869,52.608000000000004,1869
2284,2284,0.0,2284
1937,1937,84.0,1937
2140,2140,52.43,2140
2646,2646,0.0,2646
1607,1607,66.0,1607
2377,2377,137.0,2377
786,786,0.0,786
1652,1652,73.0,1652
2520,2520,69.0,2520
646,646,65.0,646
1040,1040,0.0,1040
2740,2740,0.0,2740
1440,1440,73.0,1440
2635,2635,72.0,2635
1551,1551,199.0,1551
1088,1088,58.805,1088
1473,1473,51.308,1473
2000,2000,0.0,2000
1613,1613,263.0,1613
1690,1690,0.0,1690
701,701,71.42,701
3016,3016,180.0,3016
1250,1250,146.0,1250
627,627,87.0,627
2285,2285,51.148999999999994,2285
1880,1880,231.0,1880
660,660,125.0,660
1460,1460,0.0,1460
2742,2742,0.0,2742
2364,2364,0.0,2364
1822,1822,157.0,1822
2469,2469,346.0,2469
2295,2295,312.0,2295
1272,1272,0.0,1272
2047,2047,53.092,2047
622,622,186.0,622
1642,1642,87.0,1642
2116,2116,0.0,2116
670,670,0.0,670
1967,1967,54.751999999999995,1967
1131,1131,254.0,1131
2122,2122,65.0,2122
1595,1595,52.297,1595
978,978,404.0,978
1623,1623,66.0,1623
1624,1624,55.269,1624
1377,1377,80.0,1377
1214,1214,52.141000000000005,1214
1495,1495,55.629,1495
2694,2694,55.31100000000001,2694
880,880,81.0,880
1451,1451,74.0,1451
2669,2669,53.586999999999996,2669
1266,1266,0.0,1266
2069,2069,56.501000000000005,2069
787,787,0.0,787
1503,1503,393.0,1503
3052,3052,55.882,3052
1692,1692,197.0,1692
2546,2546,0.0,2546
625,625,0.0,625
2001,2001,215.0,2001
1670,1670,66.0,1670
1042,1042,66.57600000000001,1042
1063,1063,58.04600000000001,1063
2422,2422,233.0,2422
942,942,57.246,942
1241,1241,53.165,1241
2394,2394,72.0,2394
1821,1821,301.0,1821
2847,2847,77.0,2847
1986,1986,79.0,1986
643,643,181.0,643
2314,2314,0.0,2314
2024,2024,327.0,2024
1391,1391,74.0,1391
853,853,0.0,853
715,715,68.0,715
958,958,59.967,958
1674,1674,55.17100000000001,1674
2155,2155,277.0,2155
1560,1560,69.0,1560
2787,2787,0.0,2787
2658,2658,298.0,2658
785,785,114.0,785
1025,1025,0.0,1025
888,888,55.732,888
1892,1892,292.0,1892
1448,1448,0.0,1448
1948,1948,362.0,1948
830,830,52.506,830
2830,2830,54.585,2830
1429,1429,0.0,1429
2097,2097,0.0,2097
926,926,0.0,926
2421,2421,377.0,2421
1288,1288,59.104,1288
2834,2834,244.0,2834
790,790,0.0,790
2758,2758,54.184,2758
1413,1413,0.0,1413
2522,2522,257.0,2522
1814,1814,0.0,1814
596,596,69.0,596
1695,1695,64.0,1695
2754,2754,0.0,2754
777,777,54.205,777
2611,2611,314.0,2611
1466,1466,158.0,1466
1737,1737,73.0,1737
2288,2288,63.0,2288
1421,1421,80.0,1421
2428,2428,51.806999999999995,2428
2706,2706,0.0,2706
2321,2321,73.0,2321
2924,2924,72.0,2924
2733,2733,53.864,2733
1120,1120,0.0,1120
2720,2720,0.0,2720
2915,2915,259.0,2915
1570,1570,256.0,1570
1979,1979,52.927,1979
1693,1693,0.0,1693
2186,2186,79.0,2186
1285,1285,54.964,1285
2160,2160,55.93600000000001,2160
2637,2637,55.488,2637
2059,2059,207.237,2059
1804,1804,0.0,1804
2385,2385,77.0,2385
794,794,84.0,794
3040,3040,0.0,3040
1175,1175,63.0,1175
1734,1734,53.383,1734
2672,2672,0.0,2672
2727,2727,0.0,2727
2624,2624,64.0,2624
2997,2997,0.0,2997
1089,1089,0.0,1089
2587,2587,59.794,2587
1430,1430,51.68,1430
1259,1259,77.0,1259
1745,1745,0.0,1745
705,705,0.0,705
1653,1653,51.751000000000005,1653
2493,2493,307.0,2493
2292,2292,366.0,2292
1512,1512,73.0,1512
2379,2379,62.245,2379
2613,2613,124.0,2613
1148,1148,65.0,1148
2338,2338,56.93,2338
1911,1911,57.658,1911
628,628,56.403,628
2674,2674,320.0,2674
898,898,0.0,898
731,731,346.0,731
1994,1994,69.0,1994
1873,1873,63.906000000000006,1873
2066,2066,231.0,2066
894,894,373.0,894
1194,1194,54.825,1194
2974,2974,142.0,2974
1537,1537,80.0,1537
1563,1563,0.0,1563
707,707,0.0,707
1995,1995,0.0,1995
920,920,0.0,920
2786,2786,65.717,2786
2306,2306,114.0,2306
1313,1313,72.0,1313
2250,2250,249.452,2250
1673,1673,169.0,1673
1095,1095,63.0,1095
1970,1970,0.0,1970
2199,2199,88.0,2199
2046,2046,108.0,2046
946,946,65.82,946
1236,1236,0.0,1236
1750,1750,52.133,1750
612,612,0.0,612
2019,2019,0.0,2019
1360,1360,0.0,1360
1985,1985,65.0,1985
2302,2302,0.0,2302
2331,2331,52.45399999999999,2331
1018,1018,51.251000000000005,1018
1400,1400,239.0,1400
3065,3065,66.0,3065
2439,2439,65.0,2439
1204,1204,0.0,1204
2506,2506,53.071000000000005,2506
1147,1147,0.0,1147
1947,1947,51.983999999999995,1947
552,552,200.0,552
1409,1409,76.0,1409
1916,1916,59.232,1916
2447,2447,249.0,2447
1891,1891,122.0,1891
2018,2018,52.131,2018
2177,2177,51.479,2177
1351,1351,56.775,1351
2714,2714,81.0,2714
2027,2027,0.0,2027
1791,1791,76.0,1791
2315,2315,73.0,2315
764,764,54.47,764
1582,1582,55.403,1582
2038,2038,247.0,2038
923,923,51.943000000000005,923
2549,2549,96.0,2549
837,837,55.097,837
817,817,82.0,817
782,782,0.0,782
2251,2251,280.0,2251
2471,2471,208.0,2471
2346,2346,414.0,2346
2123,2123,52.493,2123
704,704,85.0,704
2483,2483,58.695,2483
2940,2940,58.498999999999995,2940
2683,2683,245.0,2683
2618,2618,51.768,2618
600,600,425.0,600
2100,2100,0.0,2100
1893,1893,67.78,1893
604,604,0.0,604
2344,2344,51.361999999999995,2344
3011,3011,54.233999999999995,3011
1167,1167,0.0,1167
2524,2524,163.0,2524
593,593,289.0,593
2881,2881,0.0,2881
2629,2629,340.0,2629
2904,2904,188.0,2904
1713,1713,0.0,1713
1723,1723,298.0,1723
580,580,73.0,580
3022,3022,0.0,3022
1885,1885,425.0,1885
1795,1795,329.0,1795
2698,2698,0.0,2698
882,882,179.0,882
2554,2554,75.0,2554
2855,2855,65.0,2855
2500,2500,260.0,2500
2448,2448,58.986000000000004,2448
1282,1282,0.0,1282
2026,2026,51.263000000000005,2026
2081,2081,81.0,2081
2807,2807,0.0,2807
2808,2808,83.0,2808
1022,1022,52.167,1022
1564,1564,0.0,1564
1803,1803,84.0,1803
1333,1333,0.0,1333
2609,2609,165.0,2609
1749,1749,61.232,1749
1150,1150,0.0,1150
1348,1348,0.0,1348
1960,1960,67.0,1960
1305,1305,98.0,1305
3033,3033,63.0,3033
965,965,204.0,965
750,750,0.0,750
2942,2942,0.0,2942
1854,1854,0.0,1854
691,691,0.0,691
2765,2765,0.0,2765
1517,1517,57.287,1517
1668,1668,79.0,1668
811,811,72.0,811
1133,1133,0.0,1133
1772,1772,345.0,1772
761,761,54.93899999999999,761
2468,2468,0.0,2468
2107,2107,0.0,2107
1389,1389,65.0,1389
581,581,77.0,581
1561,1561,0.0,1561
2114,2114,325.0,2114
952,952,376.0,952
2771,2771,51.748000000000005,2771
1661,1661,52.605,1661
1140,1140,0.0,1140
567,567,0.0,567
1034,1034,51.611000000000004,1034
1005,1005,57.596000000000004,1005
1973,1973,82.0,1973
1105,1105,299.0,1105
1635,1635,257.0,1635
538,538,0.0,538
591,591,217.0,591
1481,1481,165.0,1481
1832,1832,0.0,1832
1887,1887,392.0,1887
2074,2074,0.0,2074
1969,1969,0.0,1969
1030,1030,195.0,1030
2709,2709,82.0,2709
2604,2604,50.923,2604
1902,1902,0.0,1902
1983,1983,319.0,1983
1303,1303,327.0,1303
2188,2188,52.257,2188
2845,2845,80.0,2845
561,561,55.395,561
2141,2141,0.0,2141
1412,1412,0.0,1412
706,706,83.0,706
1806,1806,0.0,1806
2960,2960,235.0,2960
1225,1225,0.0,1225
529,529,232.0,529
1533,1533,76.91,1533
1679,1679,0.0,1679
1588,1588,76.0,1588
1023,1023,72.0,1023
1925,1925,84.0,1925
1638,1638,0.0,1638
1446,1446,323.0,1446
2353,2353,0.0,2353
1867,1867,0.0,1867
1587,1587,0.0,1587
1275,1275,0.0,1275
2804,2804,73.0,2804
2035,2035,66.418,2035
1242,1242,275.0,1242
900,900,0.0,900
3004,3004,0.0,3004
2023,2023,0.0,2023
1476,1476,0.0,1476
1539,1539,74.0,1539
3027,3027,0.0,3027
556,556,231.0,556
933,933,172.0,933
2008,2008,220.412,2008
2788,2788,56.787,2788
2891,2891,56.515,2891
2861,2861,51.299,2861
1950,1950,0.0,1950
2966,2966,374.0,2966
1515,1515,0.0,1515
2452,2452,75.0,2452
2125,2125,67.0,2125
2551,2551,0.0,2551
1612,1612,0.0,1612
2484,2484,314.0,2484
505,505,71.0,505
1688,1688,0.0,1688
2106,2106,0.0,2106
2479,2479,0.0,2479
2581,2581,53.382,2581
2676,2676,394.0,2676
2070,2070,53.318000000000005,2070
3070,3070,0.0,3070
2836,2836,52.358999999999995,2836
539,539,76.0,539
2003,2003,137.0,2003
1130,1130,80.0,1130
1709,1709,0.0,1709
1279,1279,65.0,1279
1628,1628,194.0,1628
3012,3012,51.876000000000005,3012
602,602,133.0,602
1092,1092,0.0,1092
1760,1760,0.0,1760
2257,2257,241.447,2257
2229,2229,0.0,2229
1917,1917,82.0,1917
1110,1110,0.0,1110
2760,2760,0.0,2760
1372,1372,0.0,1372
2017,2017,299.0,2017
2865,2865,0.0,2865
2994,2994,0.0,2994
2666,2666,59.452,2666
2223,2223,92.963,2223
2936,2936,67.0,2936
2414,2414,53.696000000000005,2414
1771,1771,405.0,1771
1264,1264,314.0,1264
1850,1850,51.498999999999995,1850
1747,1747,51.931999999999995,1747
1834,1834,51.891999999999996,1834
3006,3006,63.0,3006
2499,2499,56.29600000000001,2499
980,980,0.0,980
2937,2937,75.0,2937
1660,1660,78.0,1660
849,849,90.0,849
2724,2724,0.0,2724
2450,2450,0.0,2450
655,655,369.0,655
1934,1934,54.622,1934
2596,2596,391.0,2596
1606,1606,0.0,1606
2606,2606,0.0,2606
1368,1368,51.934,1368
2511,2511,79.0,2511
2840,2840,0.0,2840
1768,1768,396.0,1768
2040,2040,177.71,2040
967,967,0.0,967
1126,1126,0.0,1126
1405,1405,51.695,1405
1554,1554,56.965,1554
972,972,52.013999999999996,972
671,671,429.0,671
1462,1462,187.0,1462
2042,2042,0.0,2042
1038,1038,137.0,1038
804,804,0.0,804
2334,2334,51.618,2334
2022,2022,52.419,2022
1478,1478,374.0,1478
2194,2194,77.0,2194
2503,2503,311.0,2503
1402,1402,60.448,1402
2973,2973,64.0,2973
1422,1422,182.0,1422
1319,1319,0.0,1319
2801,2801,83.0,2801
1472,1472,0.0,1472
3071,3071,56.273999999999994,3071
2690,2690,53.248999999999995,2690
1817,1817,60.72,1817
1618,1618,83.0,1618
3066,3066,73.0,3066
822,822,66.0,822
1212,1212,56.461000000000006,1212
2438,2438,51.744,2438
841,841,53.078,841
1256,1256,0.0,1256
2271,2271,63.0,2271
1940,1940,72.0,1940
1518,1518,169.0,1518
2145,2145,185.093,2145
1797,1797,51.641999999999996,1797
3045,3045,351.0,3045
2983,2983,412.0,2983
2280,2280,77.0,2280
2575,2575,51.894,2575
783,783,69.0,783
631,631,0.0,631
2102,2102,148.0,2102
2911,2911,0.0,2911
2986,2986,51.438,2986
2910,2910,55.161,2910
501,501,63.0,501
1418,1418,0.0,1418
1382,1382,78.0,1382
2454,2454,52.117,2454
1370,1370,0.0,1370
2741,2741,0.0,2741
1417,1417,0.0,1417
840,840,55.696999999999996,840
3056,3056,63.0,3056
1056,1056,413.0,1056
2323,2323,200.0,2323
1576,1576,55.218999999999994,1576
2701,2701,119.0,2701
2951,2951,51.714,2951
1033,1033,0.0,1033
2555,2555,0.0,2555
658,658,0.0,658
908,908,54.905,908
1813,1813,55.795,1813
961,961,65.0,961
676,676,333.0,676
901,901,0.0,901
507,507,51.365,507
2179,2179,0.0,2179
2728,2728,58.488,2728
1569,1569,0.0,1569
835,835,84.134,835
2137,2137,0.0,2137
2681,2681,274.0,2681
2958,2958,0.0,2958
2718,2718,69.0,2718
1235,1235,0.0,1235
1465,1465,224.0,1465
1109,1109,78.0,1109
2079,2079,176.864,2079
1702,1702,64.0,1702
2118,2118,0.0,2118
1728,1728,55.426,1728
1217,1217,53.123999999999995,1217
1104,1104,74.0,1104
1238,1238,71.0,1238
1106,1106,74.0,1106
2642,2642,0.0,2642
699,699,79.286,699
1650,1650,81.0,1650
2529,2529,0.0,2529
2776,2776,53.563,2776
1345,1345,73.0,1345
2605,2605,52.323,2605
1844,1844,51.381,1844
509,509,70.0,509
1344,1344,51.43,1344
1447,1447,67.0,1447
1764,1764,87.0,1764
927,927,0.0,927
3001,3001,53.598,3001
2464,2464,0.0,2464
1903,1903,156.0,1903
1540,1540,65.0,1540
3005,3005,0.0,3005
2476,2476,0.0,2476
1974,1974,0.0,1974
1738,1738,0.0,1738
1366,1366,52.12,1366
2151,2151,65.0,2151
2812,2812,54.13,2812
2782,2782,0.0,2782
2578,2578,52.288000000000004,2578
2764,2764,84.0,2764
2582,2582,187.0,2582
615,615,53.39,615
2976,2976,82.0,2976
2692,2692,106.0,2692
508,508,79.0,508
2991,2991,66.0,2991
1591,1591,152.0,1591
1406,1406,53.886,1406
1743,1743,250.0,1743
2258,2258,72.0,2258
2173,2173,421.0,2173
2948,2948,116.0,2948
1160,1160,51.878,1160
1865,1865,192.0,1865
2648,2648,0.0,2648
2946,2946,136.0,2946
551,551,412.0,551
1128,1128,111.0,1128
1397,1397,120.0,1397
842,842,54.872,842
1098,1098,240.0,1098
1603,1603,0.0,1603
1312,1312,0.0,1312
1580,1580,80.0,1580
2487,2487,96.0,2487
860,860,54.213,860
2890,2890,0.0,2890
1085,1085,0.0,1085
2939,2939,85.0,2939
910,910,0.0,910
685,685,254.0,685
1459,1459,311.0,1459
2293,2293,51.376999999999995,2293
686,686,57.102,686
1009,1009,335.0,1009
2509,2509,0.0,2509
1091,1091,0.0,1091
1683,1683,69.0,1683
1519,1519,0.0,1519
1283,1283,170.0,1283
1651,1651,79.0,1651
2679,2679,302.0,2679
1906,1906,57.04,1906
657,657,78.0,657
1156,1156,78.0,1156
1489,1489,160.0,1489
2187,2187,0.0,2187
2225,2225,84.0,2225
512,512,0.0,512
537,537,54.667,537
745,745,63.0,745
2777,2777,57.016999999999996,2777
1506,1506,250.0,1506
2559,2559,51.931000000000004,2559
797,797,73.0,797
1097,1097,66.0,1097
767,767,72.513,767
653,653,0.0,653
1058,1058,80.0,1058
2721,2721,71.0,2721
2136,2136,288.0,2136
2544,2544,280.0,2544
2586,2586,89.0,2586
857,857,0.0,857
998,998,84.0,998
759,759,0.0,759
839,839,139.0,839
1548,1548,362.0,1548
609,609,53.66,609
2463,2463,0.0,2463
1127,1127,84.0,1127
1811,1811,146.0,1811
2689,2689,51.803999999999995,2689
565,565,0.0,565
3051,3051,0.0,3051
2134,2134,51.748000000000005,2134
950,950,420.0,950
1054,1054,247.0,1054
2094,2094,52.413999999999994,2094
1770,1770,54.701,1770
762,762,77.0,762
742,742,72.0,742
1071,1071,427.0,1071
2299,2299,426.0,2299
1802,1802,69.0,1802
2638,2638,0.0,2638
1776,1776,411.0,1776
2431,2431,53.233000000000004,2431
788,788,415.0,788
2631,2631,361.0,2631
1329,1329,79.0,1329
2626,2626,0.0,2626
2774,2774,51.878,2774
548,548,260.0,548
2083,2083,83.0,2083
739,739,99.62,739
953,953,244.0,953
2849,2849,54.66,2849
2932,2932,426.0,2932
1404,1404,52.157,1404
2482,2482,63.0,2482
2358,2358,322.0,2358
667,667,0.0,667
2465,2465,0.0,2465
982,982,122.0,982
2504,2504,210.0,2504
2185,2185,52.468999999999994,2185
1896,1896,349.0,1896
1655,1655,275.0,1655
2643,2643,0.0,2643
1012,1012,136.0,1012
1949,1949,51.427,1949
3002,3002,80.0,3002
2039,2039,158.137,2039
2207,2207,65.532,2207
2502,2502,52.663000000000004,2502
2797,2797,63.0,2797
2540,2540,67.0,2540
2975,2975,83.0,2975
2565,2565,83.0,2565
1081,1081,0.0,1081
1292,1292,74.0,1292
2780,2780,82.0,2780
1475,1475,69.0,1475
957,957,0.0,957
1700,1700,54.141999999999996,1700
1307,1307,113.0,1307
2691,2691,0.0,2691
1541,1541,75.0,1541
1763,1763,62.001999999999995,1763
3039,3039,344.0,3039
1191,1191,65.73899999999999,1191
1794,1794,63.0,1794
2856,2856,379.0,2856
3000,3000,85.0,3000
2190,2190,61.536,2190
919,919,66.0,919
626,626,54.468,626
1838,1838,51.806000000000004,1838
1237,1237,0.0,1237
3035,3035,0.0,3035
1322,1322,258.0,1322
1401,1401,0.0,1401
1975,1975,0.0,1975
2337,2337,0.0,2337
921,921,52.696000000000005,921
1687,1687,55.82,1687
1145,1145,55.038999999999994,1145
996,996,98.0,996
2731,2731,0.0,2731
2105,2105,52.93600000000001,2105
807,807,56.943999999999996,807
1112,1112,54.35,1112
2944,2944,0.0,2944
2750,2750,60.023999999999994,2750
687,687,64.0,687
806,806,134.0,806
1681,1681,85.0,1681
2126,2126,291.0,2126
2832,2832,174.0,2832
1477,1477,72.0,1477
2183,2183,245.0,2183
689,689,58.165,689
3019,3019,355.0,3019
1800,1800,54.711000000000006,1800
694,694,56.25899999999999,694
2054,2054,81.0,2054
1663,1663,52.07,1663
2903,2903,0.0,2903
2680,2680,56.897,2680
1895,1895,0.0,1895
638,638,74.0,638
778,778,388.0,778
1762,1762,0.0,1762
1386,1386,54.705,1386
2216,2216,425.0,2216
2013,2013,285.0,2013
1998,1998,0.0,1998
1445,1445,83.0,1445
2383,2383,0.0,2383
1740,1740,83.0,1740
2189,2189,75.0,2189
1468,1468,215.0,1468
1536,1536,55.528999999999996,1536
2254,2254,0.0,2254
1694,1694,0.0,1694
1774,1774,51.9,1774
1927,1927,62.133,1927
2340,2340,59.5,2340
526,526,60.98,526
645,645,0.0,645
1222,1222,66.0,1222
1645,1645,273.0,1645
2283,2283,89.0,2283
825,825,0.0,825
976,976,77.0,976
2538,2538,79.0,2538
1538,1538,77.0,1538
2584,2584,354.0,2584
892,892,71.0,892
1755,1755,0.0,1755
564,564,0.0,564
2623,2623,70.0,2623
891,891,0.0,891
2585,2585,55.358000000000004,2585
769,769,60.658,769
2945,2945,202.0,2945
1706,1706,77.0,1706
1546,1546,331.0,1546
2685,2685,65.49600000000001,2685
2099,2099,0.0,2099
2406,2406,53.888000000000005,2406
1343,1343,339.0,1343
2143,2143,0.0,2143
1944,1944,53.161,1944
2919,2919,0.0,2919
2828,2828,55.755,2828
1847,1847,73.583,1847
1107,1107,64.0,1107
2050,2050,66.0,2050
1233,1233,163.0,1233
709,709,65.0,709
1208,1208,55.13,1208
1855,1855,80.0,1855
1154,1154,315.0,1154
586,586,0.0,586
2049,2049,157.0,2049
2600,2600,300.0,2600
1502,1502,55.842,1502
893,893,381.0,893
1277,1277,81.0,1277
2781,2781,70.0,2781
937,937,414.0,937
1374,1374,52.95399999999999,1374
1276,1276,82.0,1276
2268,2268,104.0,2268
2407,2407,0.0,2407
1069,1069,0.0,1069
2495,2495,53.485,2495
973,973,68.0,973
1605,1605,56.303999999999995,1605
550,550,84.0,550
1458,1458,0.0,1458
1163,1163,0.0,1163
2354,2354,73.0,2354
1193,1193,0.0,1193
1625,1625,0.0,1625
1346,1346,51.715,1346
549,549,69.0,549
1496,1496,55.38399999999999,1496
682,682,63.066,682
1997,1997,0.0,1997
2149,2149,0.0,2149
1494,1494,85.0,1494
2256,2256,275.0,2256
2715,2715,0.0,2715
916,916,52.696000000000005,916
2490,2490,52.113,2490
879,879,52.978,879
1914,1914,0.0,1914
1129,1129,104.0,1129
1248,1248,80.0,1248
2115,2115,0.0,2115
795,795,0.0,795
1439,1439,67.809,1439
2153,2153,0.0,2153
2627,2627,183.0,2627
2053,2053,241.387,2053
554,554,71.0,554
1708,1708,72.0,1708
2286,2286,0.0,2286
1032,1032,0.0,1032
2747,2747,55.49,2747
1857,1857,0.0,1857
1002,1002,56.896,1002
930,930,68.0,930
723,723,0.0,723
2133,2133,85.0,2133
644,644,125.0,644
1028,1028,76.0,1028
1166,1166,77.0,1166
2498,2498,51.63399999999999,2498
2607,2607,0.0,2607
3046,3046,79.0,3046
2686,2686,0.0,2686
774,774,79.0,774
1483,1483,56.76,1483
1325,1325,316.0,1325
827,827,83.0,827
1320,1320,287.0,1320
1778,1778,52.93,1778
2639,2639,291.0,2639
1273,1273,0.0,1273
2147,2147,0.0,2147
1567,1567,83.0,1567
1701,1701,62.597,1701
1192,1192,55.662,1192
1347,1347,67.0,1347
1393,1393,54.5,1393
2467,2467,80.0,2467
2396,2396,0.0,2396
2766,2766,66.0,2766
2899,2899,75.0,2899
2563,2563,55.8,2563
2316,2316,73.0,2316
2723,2723,0.0,2723
2591,2591,71.0,2591
2063,2063,349.0,2063
2957,2957,62.342,2957
2871,2871,350.0,2871
1195,1195,52.598,1195
1201,1201,75.0,1201
2632,2632,56.792,2632
733,733,54.042,733
1787,1787,73.0,1787
1356,1356,268.0,1356
2616,2616,85.0,2616
2320,2320,76.0,2320
1823,1823,54.396,1823
2719,2719,53.589,2719
1784,1784,369.0,1784
1773,1773,0.0,1773
1739,1739,162.0,1739
1884,1884,54.958,1884
1361,1361,0.0,1361
553,553,339.0,553
1792,1792,229.0,1792
2941,2941,323.0,2941
1497,1497,274.0,1497
3054,3054,117.0,3054
2034,2034,361.0,2034
1753,1753,427.0,1753
1121,1121,79.0,1121
3057,3057,51.38399999999999,3057
951,951,228.0,951
753,753,0.0,753
629,629,57.647,629
652,652,314.0,652
1785,1785,52.088,1785
1845,1845,55.156000000000006,1845
1826,1826,0.0,1826
1205,1205,337.0,1205
1598,1598,0.0,1598
1958,1958,53.085,1958
2269,2269,108.49799999999999,2269
1365,1365,82.0,1365
1530,1530,160.0,1530
1507,1507,84.0,1507
2239,2239,266.0,2239
2090,2090,84.0,2090
2234,2234,0.0,2234
1426,1426,381.0,1426
2964,2964,70.0,2964
2820,2820,258.0,2820
2352,2352,0.0,2352
2417,2417,0.0,2417
1662,1662,80.0,1662
605,605,156.0,605
907,907,80.0,907
1856,1856,70.0,1856
574,574,222.0,574
2636,2636,56.593,2636
800,800,53.101000000000006,800
2386,2386,79.0,2386
1215,1215,52.558,1215
1153,1153,75.0,1153
672,672,0.0,672
2573,2573,53.525,2573
713,713,55.202,713
2130,2130,233.0,2130
1388,1388,57.286,1388
2255,2255,0.0,2255
2989,2989,0.0,2989
2810,2810,0.0,2810
2969,2969,0.0,2969
2372,2372,0.0,2372
2928,2928,63.0,2928
968,968,0.0,968
2650,2650,83.0,2650
2887,2887,367.0,2887
1135,1135,0.0,1135
2682,2682,76.0,2682
2198,2198,58.785,2198
1017,1017,63.0,1017
1543,1543,59.865,1543
2981,2981,66.0,2981
1234,1234,427.0,1234
1060,1060,54.84,1060
2087,2087,0.0,2087
2222,2222,64.0,2222
597,597,0.0,597
555,555,133.0,555
543,543,53.801,543
2858,2858,0.0,2858
2381,2381,79.0,2381
2158,2158,53.67100000000001,2158
2072,2072,77.0,2072
2566,2566,70.0,2566
2860,2860,0.0,2860
1703,1703,255.0,1703
1200,1200,428.0,1200
2048,2048,77.0,2048
1981,1981,104.0,1981
780,780,56.507,780
1534,1534,192.0,1534
2333,2333,81.0,2333
3074,3074,68.0,3074
3079,3079,305.0,3079
1978,1978,0.0,1978
2457,2457,0.0,2457
1562,1562,71.0,1562
1008,1008,138.0,1008
661,661,62.148999999999994,661
2594,2594,306.0,2594
1526,1526,403.0,1526
932,932,0.0,932
1310,1310,75.0,1310
1888,1888,62.266999999999996,1888
2827,2827,0.0,2827
2311,2311,0.0,2311
1111,1111,84.0,1111
2219,2219,0.0,2219
1117,1117,74.0,1117
601,601,325.0,601
2843,2843,176.0,2843
2531,2531,82.0,2531
711,711,55.968999999999994,711
1715,1715,72.0,1715
2399,2399,233.0,2399
3061,3061,52.096000000000004,3061
1433,1433,428.0,1433
1959,1959,352.0,1959
1463,1463,71.0,1463
1443,1443,147.0,1443
3017,3017,294.0,3017
1177,1177,249.0,1177
1207,1207,0.0,1207
2420,2420,82.0,2420
2376,2376,59.861000000000004,2376
1634,1634,0.0,1634
1849,1849,170.783,1849
1061,1061,74.0,1061
2526,2526,74.0,2526
1363,1363,51.615,1363
2628,2628,52.145,2628
2854,2854,0.0,2854
516,516,60.158,516
2725,2725,52.026,2725
1326,1326,147.0,1326
2368,2368,127.0,2368
2031,2031,65.0,2031
971,971,84.0,971
1115,1115,89.0,1115
2224,2224,69.0,2224
2294,2294,65.0,2294
1767,1767,202.0,1767
2088,2088,0.0,2088
674,674,0.0,674
1084,1084,0.0,1084
1435,1435,71.0,1435
1444,1444,56.78,1444
1926,1926,0.0,1926
1227,1227,75.0,1227
959,959,264.0,959
1314,1314,178.0,1314
1656,1656,0.0,1656
2282,2282,103.0,2282
1748,1748,80.0,1748
1710,1710,81.0,1710
523,523,381.0,523
1065,1065,0.0,1065
1963,1963,58.39,1963
2002,2002,52.123999999999995,2002
1357,1357,84.0,1357
2089,2089,70.0,2089
1942,1942,0.0,1942
2032,2032,66.0,2032
1555,1555,72.0,1555
1860,1860,401.0,1860
2536,2536,207.0,2536
2193,2193,183.21400000000003,2193
693,693,54.972,693
1727,1727,135.0,1727
2215,2215,0.0,2215
2979,2979,57.545,2979
1522,1522,0.0,1522
2152,2152,76.0,2152
2401,2401,77.0,2401
2252,2252,54.878,2252
1173,1173,0.0,1173
2589,2589,83.0,2589
1882,1882,53.385,1882
2909,2909,82.0,2909
2885,2885,51.964,2885
2220,2220,0.0,2220
947,947,0.0,947
1340,1340,66.0,1340
1904,1904,391.0,1904
3082,3082,218.0,3082
2553,2553,52.172,2553
584,584,52.925,584
1075,1075,0.0,1075
2082,2082,51.887,2082
1100,1100,0.0,1100
2675,2675,69.0,2675
1527,1527,51.559,1527
1221,1221,140.0,1221
1211,1211,0.0,1211
2654,2654,83.0,2654
2343,2343,56.591,2343
678,678,0.0,678
1072,1072,68.0,1072
1149,1149,65.0,1149
1257,1257,52.111000000000004,1257
2029,2029,56.568999999999996,2029
1840,1840,80.0,1840
2477,2477,64.0,2477
814,814,55.699,814
1836,1836,73.0,1836
2433,2433,278.0,2433
1387,1387,126.0,1387
2580,2580,0.0,2580
1457,1457,68.0,1457
1783,1783,77.0,1783
2104,2104,71.0,2104
1474,1474,52.01,1474
2253,2253,0.0,2253
2101,2101,0.0,2101
2655,2655,215.0,2655
845,845,75.0,845
904,904,0.0,904
2071,2071,80.0,2071
1159,1159,103.0,1159
1053,1053,83.0,1053
2947,2947,74.0,2947
2218,2218,264.0,2218
1050,1050,188.0,1050
1622,1622,54.662,1622
2713,2713,51.661,2713
2927,2927,0.0,2927
710,710,259.0,710
1819,1819,0.0,1819
2075,2075,0.0,2075
1432,1432,65.0,1432
3037,3037,0.0,3037
929,929,0.0,929
2313,2313,52.076,2313
1827,1827,345.0,1827
2959,2959,52.093,2959
2560,2560,51.824,2560
1932,1932,72.0,1932
1068,1068,74.0,1068
2445,2445,51.742,2445
1157,1157,309.0,1157
2033,2033,70.0,2033
2303,2303,0.0,2303
2120,2120,52.202,2120
664,664,73.0,664
1431,1431,56.975,1431
3077,3077,311.0,3077
843,843,0.0,843
1735,1735,71.0,1735
1842,1842,0.0,1842
2085,2085,384.0,2085
2759,2759,0.0,2759
2388,2388,52.555,2388
2405,2405,82.0,2405
1073,1073,76.0,1073
1284,1284,57.742,1284
2312,2312,210.0,2312
515,515,75.0,515
1599,1599,53.943000000000005,1599
2489,2489,56.653,2489
832,832,286.0,832
2839,2839,52.373999999999995,2839
712,712,0.0,712
865,865,0.0,865
2925,2925,87.0,2925
2197,2197,73.0,2197
1816,1816,63.0,1816
939,939,0.0,939
2349,2349,312.0,2349
2006,2006,202.0,2006
546,546,185.0,546
3060,3060,0.0,3060
1654,1654,178.0,1654
1119,1119,53.218,1119
1398,1398,0.0,1398
3059,3059,387.0,3059
1253,1253,216.0,1253
636,636,55.455,636
940,940,76.0,940
650,650,167.0,650
2356,2356,369.0,2356
2415,2415,257.0,2415
1550,1550,0.0,1550
896,896,253.0,896
2322,2322,295.0,2322
1271,1271,0.0,1271
1666,1666,53.504,1666
925,925,391.0,925
872,872,85.0,872
969,969,52.696000000000005,969
2996,2996,78.0,2996
2984,2984,0.0,2984
2798,2798,66.0,2798
3050,3050,0.0,3050
2523,2523,64.0,2523
2667,2667,97.0,2667
2744,2744,274.0,2744
1901,1901,0.0,1901
2965,2965,0.0,2965
846,846,370.0,846
854,854,0.0,854
2888,2888,73.0,2888
1707,1707,308.0,1707
1074,1074,55.131,1074
2982,2982,195.0,2982
2882,2882,0.0,2882
1759,1759,0.0,1759
2859,2859,0.0,2859
2893,2893,52.352,2893
603,603,84.0,603
2630,2630,202.0,2630
1528,1528,251.0,1528
510,510,51.88399999999999,510
1411,1411,0.0,1411
1187,1187,67.0,1187
2922,2922,0.0,2922
2792,2792,51.828,2792
2274,2274,74.0,2274
2231,2231,52.99100000000001,2231
635,635,0.0,635
1889,1889,72.0,1889
2210,2210,82.0,2210
2121,2121,55.93600000000001,2121
1542,1542,56.119,1542
2213,2213,0.0,2213
2851,2851,284.0,2851
1486,1486,348.0,1486
1610,1610,262.0,1610
2784,2784,67.0,2784
2988,2988,66.0,2988
541,541,0.0,541
2593,2593,0.0,2593
1608,1608,265.0,1608
1520,1520,53.698,1520
1261,1261,76.0,1261
1125,1125,0.0,1125
697,697,350.0,697
1108,1108,110.0,1108
616,616,54.588,616
2305,2305,53.646,2305
1355,1355,79.0,1355
990,990,58.778,990
3003,3003,57.542,3003
1989,1989,0.0,1989
2542,2542,67.0,2542
871,871,201.0,871
3007,3007,80.0,3007
2485,2485,0.0,2485
1799,1799,74.0,1799
1782,1782,0.0,1782
503,503,67.0,503
2884,2884,0.0,2884
1245,1245,71.0,1245
1719,1719,0.0,1719
2030,2030,66.0,2030
2326,2326,55.973,2326
2841,2841,82.0,2841
1600,1600,165.0,1600
2287,2287,0.0,2287
2086,2086,52.875,2086
3058,3058,67.0,3058
746,746,61.071999999999996,746
2931,2931,57.86,2931
1469,1469,83.0,1469
2404,2404,232.0,2404
2668,2668,51.641999999999996,2668
2990,2990,242.0,2990
1898,1898,0.0,1898
1682,1682,69.0,1682
530,530,226.0,530
1757,1757,57.583999999999996,1757
779,779,248.0,779
2541,2541,52.006,2541
1164,1164,308.0,1164
1818,1818,69.0,1818
1223,1223,184.0,1223
