,time,rtt,id
2061,2061,23.0,2061
545,545,22.0,545
1011,1011,22.45,1011
2935,2935,14.0,2935
1087,1087,0.0,1087
621,621,20.0,621
1093,1093,114.0,1093
2501,2501,122.0,2501
815,815,0.0,815
2511,2511,18.0,2511
3059,3059,49.0,3059
2203,2203,0.0,2203
1323,1323,22.0,1323
1669,1669,0.0,1669
1376,1376,21.0,1376
1290,1290,21.0,1290
2789,2789,11.527999999999999,2789
1777,1777,68.0,1777
1621,1621,12.115,1621
1076,1076,26.495,1076
1972,1972,0.0,1972
1510,1510,12.658,1510
573,573,14.0,573
2394,2394,18.0,2394
1287,1287,22.0,1287
918,918,100.0,918
544,544,14.0,544
2875,2875,14.0,2875
1003,1003,0.0,1003
595,595,118.0,595
2947,2947,10.98,2947
1189,1189,0.0,1189
810,810,116.0,810
718,718,0.0,718
1000,1000,20.0,1000
1659,1659,10.709000000000001,1659
1951,1951,21.0,1951
2259,2259,0.0,2259
1309,1309,109.0,1309
1428,1428,14.777000000000001,1428
1630,1630,14.68,1630
2377,2377,39.0,2377
2119,2119,21.0,2119
1664,1664,11.831,1664
726,726,24.625,726
1124,1124,30.0,1124
1362,1362,29.0,1362
2719,2719,132.894,2719
2896,2896,46.0,2896
2382,2382,15.0,2382
941,941,0.0,941
770,770,71.0,770
2123,2123,0.0,2123
863,863,55.0,863
792,792,62.0,792
2626,2626,0.0,2626
617,617,0.0,617
1756,1756,0.0,1756
755,755,14.0,755
766,766,15.0,766
1577,1577,19.496,1577
2797,2797,21.0,2797
1558,1558,0.0,1558
2550,2550,11.069,2550
2862,2862,0.0,2862
2943,2943,0.0,2943
1203,1203,12.069,1203
1176,1176,15.837,1176
1424,1424,0.0,1424
2270,2270,0.0,2270
1883,1883,93.0,1883
869,869,22.0,869
2462,2462,0.0,2462
2732,2732,14.0,2732
1395,1395,16.35,1395
2631,2631,0.0,2631
2842,2842,48.0,2842
2812,2812,64.0,2812
563,563,0.0,563
808,808,43.0,808
2964,2964,23.0,2964
2362,2362,14.204,2362
1935,1935,0.0,1935
568,568,20.645,568
1511,1511,0.0,1511
887,887,23.0,887
1928,1928,14.0,1928
1859,1859,87.0,1859
2745,2745,20.0,2745
997,997,12.325999999999999,997
2317,2317,0.0,2317
1174,1174,70.0,1174
1733,1733,93.0,1733
637,637,15.501,637
2154,2154,14.0,2154
1482,1482,97.0,1482
828,828,0.0,828
1878,1878,0.0,1878
1252,1252,107.0,1252
1657,1657,116.0,1657
970,970,0.0,970
1246,1246,17.0,1246
1524,1524,73.0,1524
1198,1198,61.0,1198
1371,1371,0.0,1371
776,776,14.619000000000002,776
1939,1939,101.0,1939
1516,1516,0.0,1516
2772,2772,25.217,2772
2806,2806,13.628,2806
1442,1442,20.0,1442
1868,1868,22.0,1868
3074,3074,22.0,3074
992,992,33.0,992
2380,2380,0.0,2380
1769,1769,0.0,1769
2835,2835,63.0,2835
866,866,112.0,866
1498,1498,0.0,1498
928,928,10.75,928
1001,1001,10.773,1001
2722,2722,15.0,2722
1636,1636,18.0,1636
632,632,0.0,632
2505,2505,0.0,2505
2534,2534,0.0,2534
1029,1029,22.0,1029
2590,2590,20.0,2590
2446,2446,111.0,2446
752,752,0.0,752
2481,2481,0.0,2481
3046,3046,17.0,3046
2469,2469,15.0,2469
2992,2992,0.0,2992
1726,1726,0.0,1726
1308,1308,19.0,1308
2586,2586,12.630999999999998,2586
1202,1202,84.0,1202
1809,1809,23.0,1809
834,834,0.0,834
2451,2451,0.0,2451
1863,1863,24.771,1863
2412,2412,20.0,2412
2519,2519,22.0,2519
924,924,11.366,924
823,823,21.0,823
1699,1699,14.0,1699
2230,2230,12.075,2230
2036,2036,15.237,2036
524,524,15.377,524
2730,2730,95.0,2730
2822,2822,44.0,2822
1178,1178,12.306,1178
1976,1976,0.0,1976
2757,2757,40.0,2757
1544,1544,0.0,1544
824,824,29.0,824
1240,1240,18.0,1240
2706,2706,20.939,2706
2308,2308,17.0,2308
3026,3026,0.0,3026
2461,2461,38.0,2461
2302,2302,11.175999999999998,2302
2971,2971,0.0,2971
1269,1269,25.0,1269
2801,2801,0.0,2801
988,988,22.0,988
2525,2525,0.0,2525
3056,3056,11.202,3056
1464,1464,0.0,1464
2325,2325,85.0,2325
1262,1262,86.0,1262
1490,1490,11.124,1490
765,765,91.0,765
1909,1909,88.0,1909
1052,1052,0.0,1052
1815,1815,91.105,1815
683,683,21.0,683
2985,2985,0.0,2985
2166,2166,44.0,2166
2773,2773,51.0,2773
2622,2622,25.0,2622
2596,2596,17.0,2596
2944,2944,13.44,2944
2666,2666,122.0,2666
2012,2012,18.0,2012
2359,2359,53.0,2359
2300,2300,0.0,2300
2170,2170,19.0,2170
2483,2483,0.0,2483
1798,1798,10.469000000000001,1798
1999,1999,38.0,1999
2184,2184,101.0,2184
634,634,13.019,634
2496,2496,103.0,2496
2642,2642,62.0,2642
695,695,0.0,695
1096,1096,40.0,1096
2479,2479,0.0,2479
1846,1846,11.189,1846
2375,2375,0.0,2375
1786,1786,31.0,1786
1213,1213,0.0,1213
886,886,15.0,886
1062,1062,0.0,1062
2045,2045,0.0,2045
2132,2132,0.0,2132
2710,2710,15.0,2710
1116,1116,73.0,1116
1523,1523,21.0,1523
2643,2643,18.0,2643
2561,2561,18.303,2561
536,536,11.394,536
2262,2262,83.0,2262
1742,1742,0.0,1742
2659,2659,17.0,2659
2226,2226,42.0,2226
1057,1057,0.0,1057
1301,1301,14.0,1301
569,569,82.0,569
2232,2232,20.0,2232
1220,1220,12.625,1220
2728,2728,0.0,2728
1136,1136,0.0,1136
989,989,54.0,989
2765,2765,19.355,2765
1315,1315,63.0,1315
2592,2592,63.0,2592
760,760,0.0,760
2912,2912,52.0,2912
1228,1228,13.931,1228
2235,2235,120.0,2235
2192,2192,87.0,2192
2339,2339,0.0,2339
624,624,23.0,624
1488,1488,116.0,1488
588,588,0.0,588
1122,1122,99.0,1122
1631,1631,15.0,1631
1491,1491,12.729000000000001,1491
1788,1788,18.0,1788
2960,2960,48.0,2960
1210,1210,14.0,1210
889,889,22.0,889
826,826,28.0,826
983,983,23.0,983
1828,1828,0.0,1828
3095,3095,17.0,3095
673,673,0.0,673
1289,1289,64.0,1289
3052,3052,0.0,3052
1196,1196,24.0,1196
623,623,20.0,623
1851,1851,92.0,1851
1342,1342,13.880999999999998,1342
3053,3053,11.402000000000001,3053
1938,1938,14.675,1938
2524,2524,0.0,2524
1790,1790,0.0,1790
1957,1957,18.0,1957
2413,2413,49.0,2413
2004,2004,17.0,2004
2365,2365,0.0,2365
2619,2619,109.0,2619
1649,1649,11.755999999999998,1649
1014,1014,123.0,1014
2263,2263,17.629,2263
1812,1812,0.0,1812
878,878,18.962,878
716,716,36.0,716
2641,2641,13.559000000000001,2641
1658,1658,14.56,1658
2181,2181,153.366,2181
590,590,0.0,590
1705,1705,0.0,1705
2764,2764,17.0,2764
948,948,19.0,948
2162,2162,121.0,2162
1493,1493,0.0,1493
2160,2160,72.0,2160
1143,1143,17.0,1143
2513,2513,21.0,2513
1509,1509,54.0,1509
2363,2363,0.0,2363
1861,1861,93.0,1861
2539,2539,28.0,2539
607,607,22.0,607
2738,2738,0.0,2738
2067,2067,15.49,2067
2777,2777,28.0,2777
677,677,26.0,677
566,566,24.825,566
995,995,0.0,995
758,758,0.0,758
1966,1966,11.664000000000001,1966
2686,2686,0.0,2686
669,669,21.0,669
722,722,11.245,722
3081,3081,12.755,3081
912,912,19.0,912
1384,1384,107.0,1384
2847,2847,16.456,2847
1833,1833,0.0,1833
2001,2001,59.0,2001
883,883,90.0,883
2904,2904,19.0,2904
2111,2111,44.0,2111
999,999,10.852,999
1921,1921,13.87,1921
517,517,14.0,517
2007,2007,0.0,2007
1184,1184,42.0,1184
2020,2020,15.0,2020
1929,1929,14.0,1929
1931,1931,14.989,1931
2569,2569,13.901,2569
1936,1936,0.0,1936
2408,2408,0.0,2408
2795,2795,14.0,2795
2432,2432,0.0,2432
2129,2129,49.0,2129
2527,2527,19.0,2527
1899,1899,11.372,1899
1696,1696,11.715,1696
2898,2898,19.0,2898
1714,1714,12.974,1714
2981,2981,0.0,2981
3034,3034,0.0,3034
1383,1383,13.069,1383
2065,2065,0.0,2065
2891,2891,31.0,2891
1711,1711,17.0,1711
2949,2949,0.0,2949
2474,2474,48.0,2474
2403,2403,14.485999999999999,2403
1801,1801,13.911,1801
1810,1810,15.0,1810
1419,1419,37.0,1419
663,663,21.264,663
1359,1359,13.219000000000001,1359
1059,1059,86.0,1059
2128,2128,0.0,2128
1086,1086,10.418,1086
986,986,11.725,986
1010,1010,13.457,1010
2150,2150,0.0,2150
587,587,106.0,587
2458,2458,17.0,2458
2846,2846,15.0,2846
1410,1410,26.0,1410
2831,2831,13.597000000000001,2831
2202,2202,41.0,2202
1871,1871,100.0,1871
1872,1872,54.0,1872
966,966,0.0,966
2824,2824,21.0,2824
864,864,16.0,864
1322,1322,12.267000000000001,1322
1724,1724,11.333,1724
2783,2783,10.962,2783
542,542,63.0,542
608,608,15.0,608
1780,1780,15.0,1780
737,737,0.0,737
2901,2901,45.0,2901
1300,1300,64.0,1300
2062,2062,112.0,2062
656,656,15.0,656
1296,1296,16.551,1296
681,681,66.0,681
1090,1090,11.912,1090
2355,2355,107.0,2355
2246,2246,0.0,2246
1258,1258,83.0,1258
2456,2456,14.003,2456
1437,1437,0.0,1437
2500,2500,16.0,2500
1513,1513,84.0,1513
902,902,19.0,902
1449,1449,0.0,1449
852,852,12.175999999999998,852
3096,3096,17.0,3096
821,821,14.0,821
3039,3039,81.0,3039
2866,2866,0.0,2866
2069,2069,11.152000000000001,2069
2221,2221,0.0,2221
2250,2250,91.0,2250
1168,1168,0.0,1168
1080,1080,11.317,1080
2781,2781,15.175,2781
789,789,84.0,789
2059,2059,11.280999999999999,2059
2387,2387,0.0,2387
1436,1436,17.0,1436
979,979,0.0,979
606,606,13.005999999999998,606
2688,2688,116.0,2688
2695,2695,11.865,2695
2289,2289,13.197000000000001,2289
2409,2409,17.0,2409
2648,2648,113.0,2648
2849,2849,0.0,2849
2324,2324,11.127,2324
2096,2096,12.469000000000001,2096
1378,1378,73.0,1378
1586,1586,0.0,1586
2055,2055,0.0,2055
2097,2097,0.0,2097
2021,2021,12.030999999999999,2021
801,801,22.0,801
2110,2110,0.0,2110
862,862,26.0,862
1968,1968,35.0,1968
873,873,15.0,873
1665,1665,13.807,1665
2999,2999,0.0,2999
1877,1877,15.0,1877
1930,1930,16.0,1930
666,666,82.0,666
2823,2823,59.0,2823
1224,1224,11.784,1224
2766,2766,34.0,2766
747,747,107.0,747
1718,1718,33.689,1718
1508,1508,18.0,1508
2291,2291,15.0,2291
875,875,23.263,875
2499,2499,12.005,2499
1955,1955,93.0,1955
2169,2169,0.0,2169
1484,1484,16.0,1484
1848,1848,13.039000000000001,1848
651,651,0.0,651
2209,2209,0.0,2209
2598,2598,14.355,2598
2306,2306,12.993,2306
2178,2178,58.0,2178
2266,2266,18.0,2266
1908,1908,38.0,1908
960,960,0.0,960
2758,2758,0.0,2758
572,572,0.0,572
899,899,0.0,899
1990,1990,15.0,1990
1185,1185,80.0,1185
2195,2195,15.585,2195
1367,1367,12.923,1367
934,934,23.0,934
2647,2647,0.0,2647
1992,1992,18.0,1992
532,532,96.0,532
838,838,22.0,838
2548,2548,112.0,2548
2478,2478,77.0,2478
2159,2159,0.0,2159
2279,2279,19.0,2279
2634,2634,18.0,2634
2575,2575,0.0,2575
771,771,88.0,771
1789,1789,0.0,1789
1381,1381,10.28,1381
1229,1229,18.0,1229
3002,3002,17.0,3002
2139,2139,11.606,2139
1013,1013,0.0,1013
1161,1161,101.0,1161
1732,1732,58.0,1732
1338,1338,23.0,1338
1249,1249,20.0,1249
1831,1831,11.187000000000001,1831
2868,2868,55.0,2868
2877,2877,35.0,2877
2962,2962,17.269000000000002,2962
1036,1036,0.0,1036
1689,1689,60.0,1689
2621,2621,20.0,2621
2091,2091,0.0,2091
2512,2512,15.0,2512
1765,1765,12.786,1765
3107,3107,10.472999999999999,3107
756,756,0.0,756
1691,1691,99.0,1691
1298,1298,16.0,1298
2609,2609,17.0,2609
2164,2164,0.0,2164
1629,1629,11.231,1629
1499,1499,0.0,1499
3112,3112,54.0,3112
1297,1297,10.577,1297
1986,1986,12.908,1986
1793,1793,52.0,1793
2587,2587,17.0,2587
1820,1820,11.554,1820
2651,2651,14.917,2651
1151,1151,20.0,1151
518,518,12.409,518
736,736,0.0,736
2265,2265,197.222,2265
844,844,0.0,844
1835,1835,0.0,1835
2186,2186,14.419,2186
1492,1492,86.0,1492
1730,1730,11.479000000000001,1730
2448,2448,53.0,2448
2472,2472,15.18,2472
3024,3024,118.0,3024
2347,2347,0.0,2347
1403,1403,0.0,1403
2113,2113,22.0,2113
2475,2475,15.0,2475
2973,2973,88.0,2973
2948,2948,12.69,2948
2296,2296,194.69299999999998,2296
2905,2905,0.0,2905
911,911,41.0,911
2906,2906,0.0,2906
1423,1423,35.0,1423
2774,2774,74.0,2774
2544,2544,57.0,2544
639,639,18.0,639
1341,1341,19.375999999999998,1341
2754,2754,21.0,2754
818,818,14.911,818
1943,1943,14.161,1943
2957,2957,13.795,2957
1141,1141,121.0,1141
2716,2716,0.0,2716
2740,2740,0.0,2740
3100,3100,11.386,3100
703,703,56.0,703
2736,2736,12.993,2736
1549,1549,62.0,1549
2796,2796,118.0,2796
1675,1675,12.975999999999999,1675
2369,2369,19.0,2369
741,741,33.0,741
1480,1480,51.0,1480
1837,1837,14.0,1837
2735,2735,20.0,2735
1716,1716,11.17,1716
1571,1571,18.0,1571
2564,2564,20.0,2564
829,829,0.0,829
1565,1565,0.0,1565
2660,2660,13.382,2660
2148,2148,59.0,2148
1441,1441,14.47,1441
2468,2468,58.0,2468
1500,1500,0.0,1500
1179,1179,19.034000000000002,1179
1971,1971,11.581,1971
1779,1779,103.0,1779
1529,1529,0.0,1529
1331,1331,0.0,1331
1504,1504,16.502,1504
2969,2969,28.0,2969
2440,2440,72.0,2440
534,534,10.712,534
2726,2726,0.0,2726
1375,1375,31.0,1375
626,626,0.0,626
2014,2014,0.0,2014
3108,3108,0.0,3108
1720,1720,15.165999999999999,1720
1407,1407,45.0,1407
2520,2520,0.0,2520
2817,2817,85.0,2817
2261,2261,25.0,2261
1918,1918,0.0,1918
2025,2025,0.0,2025
1318,1318,120.0,1318
2612,2612,11.38,2612
1697,1697,0.0,1697
2473,2473,33.0,2473
1162,1162,107.0,1162
1879,1879,67.756,1879
1962,1962,49.0,1962
1890,1890,11.079,1890
2828,2828,15.0,2828
3061,3061,18.0,3061
610,610,13.415999999999999,610
725,725,11.73,725
1676,1676,21.0,1676
2295,2295,58.0,2295
994,994,0.0,994
3019,3019,0.0,3019
575,575,11.966,575
2434,2434,0.0,2434
802,802,94.0,802
1684,1684,19.0,1684
2724,2724,82.0,2724
1420,1420,0.0,1420
1870,1870,11.411,1870
2697,2697,36.0,2697
1243,1243,0.0,1243
594,594,21.513,594
1231,1231,0.0,1231
836,836,72.0,836
1299,1299,21.0,1299
613,613,23.0,613
1064,1064,11.619000000000002,1064
2454,2454,29.0,2454
2310,2310,0.0,2310
2540,2540,16.0,2540
1337,1337,17.512,1337
2449,2449,0.0,2449
1035,1035,83.0,1035
3011,3011,14.32,3011
1987,1987,20.0,1987
2779,2779,28.0,2779
1807,1807,66.0,1807
1643,1643,0.0,1643
557,557,16.0,557
558,558,0.0,558
1132,1132,0.0,1132
2241,2241,177.49900000000002,2241
730,730,16.093,730
1754,1754,15.0,1754
1680,1680,0.0,1680
2733,2733,0.0,2733
2214,2214,15.375,2214
938,938,21.0,938
2205,2205,65.0,2205
1805,1805,23.921,1805
2066,2066,118.0,2066
885,885,22.0,885
944,944,121.0,944
1169,1169,16.98,1169
2932,2932,0.0,2932
2168,2168,14.0,2168
675,675,0.0,675
1644,1644,21.0,1644
679,679,60.0,679
2871,2871,20.0,2871
855,855,15.0,855
2826,2826,19.0,2826
1123,1123,15.257,1123
2680,2680,21.0,2680
2471,2471,15.0,2471
1438,1438,17.63,1438
1055,1055,0.0,1055
2672,2672,78.0,2672
2506,2506,15.214,2506
2909,2909,115.0,2909
2109,2109,19.0,2109
3080,3080,17.0,3080
3040,3040,0.0,3040
2281,2281,23.0,2281
1302,1302,99.0,1302
974,974,61.0,974
2346,2346,53.0,2346
2237,2237,15.325999999999999,2237
1137,1137,23.0,1137
2852,2852,0.0,2852
2678,2678,75.0,2678
1594,1594,14.182,1594
2116,2116,15.540999999999999,2116
2360,2360,44.0,2360
2277,2277,12.085999999999999,2277
2683,2683,16.0,2683
2146,2146,15.0,2146
744,744,0.0,744
1487,1487,84.0,1487
2297,2297,15.0,2297
2392,2392,10.474,2392
1031,1031,16.066,1031
1293,1293,13.470999999999998,1293
2492,2492,0.0,2492
1725,1725,11.145999999999999,1725
2010,2010,0.0,2010
799,799,15.0,799
2966,2966,23.0,2966
2389,2389,0.0,2389
2450,2450,0.0,2450
1114,1114,0.0,1114
2247,2247,19.0,2247
831,831,77.0,831
1592,1592,20.0,1592
2551,2551,15.0,2551
2037,2037,0.0,2037
2095,2095,20.0,2095
1626,1626,0.0,1626
1083,1083,0.0,1083
535,535,23.0,535
2264,2264,28.0,2264
2790,2790,0.0,2790
993,993,0.0,993
1746,1746,0.0,1746
2975,2975,17.0,2975
2613,2613,50.0,2613
1619,1619,11.610999999999999,1619
698,698,48.0,698
1956,1956,15.594000000000001,1956
793,793,13.802,793
1514,1514,0.0,1514
2902,2902,22.0,2902
1980,1980,60.0,1980
2504,2504,10.201,2504
1049,1049,27.381,1049
1226,1226,15.562999999999999,1226
949,949,21.0,949
2244,2244,14.0,2244
2913,2913,18.0,2913
2681,2681,0.0,2681
522,522,43.0,522
1281,1281,44.0,1281
2853,2853,107.0,2853
2991,2991,0.0,2991
3038,3038,106.0,3038
915,915,0.0,915
884,884,20.034000000000002,884
1180,1180,0.0,1180
1197,1197,81.0,1197
1617,1617,0.0,1617
2712,2712,21.0,2712
2903,2903,10.779000000000002,2903
796,796,21.0,796
1467,1467,11.92,1467
2819,2819,0.0,2819
1924,1924,16.331,1924
903,903,21.0,903
2435,2435,35.0,2435
1078,1078,45.0,1078
1946,1946,22.0,1946
611,611,0.0,611
729,729,17.0,729
2176,2176,10.972999999999999,2176
1142,1142,0.0,1142
945,945,63.0,945
1219,1219,21.0,1219
599,599,0.0,599
2341,2341,16.0,2341
1354,1354,13.062000000000001,1354
859,859,14.267000000000001,859
2907,2907,13.302999999999999,2907
721,721,13.953,721
2470,2470,17.0,2470
1416,1416,15.793,1416
2398,2398,11.048,2398
1263,1263,19.0,1263
1953,1953,15.0,1953
1051,1051,0.0,1051
504,504,15.059000000000001,504
2348,2348,46.0,2348
1321,1321,56.0,1321
1853,1853,0.0,1853
913,913,18.0,913
2676,2676,0.0,2676
2276,2276,90.0,2276
2217,2217,20.0,2217
1698,1698,13.567,1698
2480,2480,0.0,2480
1182,1182,15.902999999999999,1182
2571,2571,16.0,2571
1531,1531,0.0,1531
1039,1039,16.0,1039
2245,2245,17.491,2245
1024,1024,12.460999999999999,1024
2301,2301,20.0,2301
1722,1722,10.998,1722
1572,1572,14.0,1572
582,582,21.0,582
2064,2064,20.0,2064
717,717,19.903,717
809,809,13.152999999999999,809
1781,1781,0.0,1781
1021,1021,0.0,1021
1015,1015,25.0,1015
3063,3063,108.0,3063
2658,2658,15.626,2658
2335,2335,21.0,2335
3067,3067,0.0,3067
2073,2073,36.0,2073
2977,2977,11.363,2977
1353,1353,98.0,1353
2565,2565,16.0,2565
1077,1077,11.702,1077
3110,3110,105.0,3110
2552,2552,10.41,2552
2956,2956,0.0,2956
2521,2521,17.0,2521
620,620,0.0,620
2703,2703,14.0,2703
1982,1982,38.0,1982
2421,2421,19.0,2421
1597,1597,15.0,1597
3009,3009,77.0,3009
2238,2238,26.0,2238
1945,1945,89.0,1945
1260,1260,0.0,1260
1328,1328,11.024000000000001,1328
1907,1907,0.0,1907
531,531,15.0,531
1181,1181,17.0,1181
1535,1535,17.0,1535
3087,3087,27.0,3087
1741,1741,0.0,1741
2400,2400,22.0,2400
2864,2864,0.0,2864
1408,1408,15.207,1408
700,700,20.185,700
2873,2873,28.083000000000002,2873
2419,2419,0.0,2419
2384,2384,120.0,2384
1170,1170,10.445,1170
1589,1589,16.639,1589
803,803,51.537,803
2200,2200,12.047,2200
975,975,83.0,975
1752,1752,111.0,1752
943,943,17.549,943
1977,1977,0.0,1977
1604,1604,0.0,1604
1101,1101,0.0,1101
3006,3006,113.0,3006
1996,1996,11.114,1996
1829,1829,0.0,1829
1796,1796,28.0,1796
1775,1775,0.0,1775
519,519,12.332,519
1900,1900,19.0,1900
738,738,18.0,738
1993,1993,20.0,1993
506,506,15.644,506
1380,1380,11.556,1380
1020,1020,15.0,1020
3079,3079,11.087,3079
1396,1396,13.9,1396
1004,1004,0.0,1004
2243,2243,31.0,2243
647,647,82.0,647
2753,2753,74.0,2753
1751,1751,15.729000000000001,1751
985,985,0.0,985
1584,1584,0.0,1584
1349,1349,67.0,1349
1454,1454,15.0,1454
935,935,90.0,935
876,876,22.0,876
848,848,0.0,848
1881,1881,200.769,1881
2762,2762,12.405,2762
2108,2108,19.0,2108
1316,1316,0.0,1316
2844,2844,23.0,2844
1557,1557,0.0,1557
1470,1470,22.0,1470
2880,2880,0.0,2880
696,696,0.0,696
540,540,96.0,540
2084,2084,11.597999999999999,2084
2093,2093,11.847000000000001,2093
2077,2077,65.0,2077
1385,1385,85.0,1385
1294,1294,0.0,1294
2876,2876,0.0,2876
2850,2850,53.0,2850
1434,1434,42.0,1434
1103,1103,19.0,1103
2834,2834,14.0,2834
2993,2993,0.0,2993
2328,2328,53.0,2328
633,633,14.795,633
2579,2579,15.665999999999999,2579
2556,2556,0.0,2556
1199,1199,12.140999999999998,1199
2557,2557,14.151,2557
2329,2329,78.0,2329
598,598,14.0,598
1596,1596,37.0,1596
1369,1369,10.624,1369
1251,1251,40.0,1251
570,570,72.0,570
2288,2288,0.0,2288
987,987,14.936,987
749,749,13.102,749
1912,1912,94.0,1912
2076,2076,14.0,2076
1869,1869,22.0,1869
2319,2319,0.0,2319
1964,1964,10.872,1964
2174,2174,11.318,2174
2576,2576,16.0,2576
1607,1607,83.0,1607
2414,2414,15.405999999999999,2414
786,786,15.833,786
1652,1652,0.0,1652
1307,1307,17.529,1307
646,646,12.727,646
1040,1040,13.434000000000001,1040
2768,2768,38.0,2768
1440,1440,116.0,1440
2661,2661,14.0,2661
1551,1551,14.44,1551
1088,1088,17.0,1088
1473,1473,0.0,1473
2963,2963,31.0,2963
1613,1613,25.0,1613
1690,1690,70.0,1690
701,701,15.0,701
3047,3047,0.0,3047
1250,1250,15.835,1250
627,627,16.727,627
2739,2739,111.0,2739
1880,1880,27.0,1880
660,660,0.0,660
1460,1460,21.891,1460
3055,3055,21.0,3055
2911,2911,15.0,2911
1822,1822,57.089,1822
2167,2167,11.614,2167
2330,2330,39.0,2330
1272,1272,34.0,1272
1991,1991,0.0,1991
622,622,14.0,622
1642,1642,0.0,1642
2673,2673,49.0,2673
670,670,0.0,670
2206,2206,19.0,2206
1131,1131,29.0,1131
2155,2155,20.0,2155
1595,1595,67.0,1595
978,978,15.583,978
1623,1623,14.437999999999999,1623
1624,1624,14.0,1624
1377,1377,0.0,1377
1214,1214,0.0,1214
1495,1495,0.0,1495
2236,2236,17.0,2236
880,880,0.0,880
1451,1451,74.0,1451
2696,2696,23.0,2696
1266,1266,19.0,1266
2895,2895,13.923,2895
787,787,18.0,787
1503,1503,30.0,1503
3084,3084,14.0,3084
1692,1692,60.0,1692
2570,2570,10.362,2570
625,625,18.0,625
3064,3064,19.0,3064
1670,1670,11.966,1670
1042,1042,106.0,1042
1063,1063,51.0,1063
2460,2460,96.0,2460
942,942,17.031,942
1241,1241,21.0,1241
2175,2175,0.0,2175
1821,1821,0.0,1821
2441,2441,65.0,2441
2015,2015,19.0,2015
643,643,0.0,643
2350,2350,0.0,2350
2583,2583,14.0,2583
1952,1952,71.0,1952
1391,1391,30.0,1391
853,853,0.0,853
715,715,0.0,715
958,958,82.0,958
1674,1674,0.0,1674
2518,2518,17.0,2518
1560,1560,35.0,1560
2815,2815,18.755,2815
2685,2685,15.054,2685
785,785,0.0,785
1025,1025,10.562999999999999,1025
888,888,21.885,888
1892,1892,106.0,1892
1448,1448,0.0,1448
1948,1948,18.0,1948
830,830,0.0,830
2858,2858,14.0,2858
1429,1429,22.0,1429
2791,2791,33.0,2791
926,926,21.0,926
2459,2459,37.0,2459
1288,1288,14.0,1288
2863,2863,0.0,2863
2423,2423,16.0,2423
790,790,66.0,790
2786,2786,31.0,2786
1413,1413,17.404,1413
2558,2558,102.0,2558
1814,1814,40.0,1814
596,596,44.0,596
1695,1695,15.399000000000001,1695
2782,2782,10.677999999999999,2782
777,777,22.0,777
2637,2637,20.0,2637
1466,1466,18.0,1466
1737,1737,18.195,1737
2371,2371,15.0,2371
1421,1421,15.0,1421
2466,2466,114.0,2466
2395,2395,0.0,2395
2135,2135,15.0,2135
2955,2955,10.502,2955
2761,2761,44.0,2761
1120,1120,0.0,1120
2748,2748,14.18,2748
2604,2604,14.449000000000002,2604
1570,1570,0.0,1570
1979,1979,115.10799999999999,1979
1693,1693,72.0,1693
2918,2918,118.0,2918
1285,1285,118.0,1285
2327,2327,14.457,2327
2663,2663,0.0,2663
2092,2092,18.565,2092
1804,1804,78.0,1804
2422,2422,0.0,2422
794,794,44.957,794
3072,3072,17.0,3072
1175,1175,18.0,1175
1734,1734,82.0,1734
2700,2700,0.0,2700
2755,2755,16.0,2755
2800,2800,89.0,2800
3027,3027,15.575,3027
1089,1089,15.0,1089
2336,2336,15.148,2336
1430,1430,68.0,1430
1259,1259,10.515999999999998,1259
1745,1745,74.0,1745
705,705,39.0,705
1653,1653,0.0,1653
2939,2939,86.0,2939
2545,2545,0.0,2545
2228,2228,23.0,2228
1512,1512,23.0,1512
2416,2416,91.0,2416
2926,2926,111.0,2926
1148,1148,22.0,1148
2374,2374,14.0,2374
1911,1911,99.0,1911
628,628,13.42,628
2702,2702,64.0,2702
898,898,0.0,898
731,731,52.0,731
2041,2041,0.0,2041
1994,1994,103.0,1994
1873,1873,98.0,1873
3060,3060,12.549000000000001,3060
894,894,11.61,894
1194,1194,0.0,1194
3005,3005,0.0,3005
2043,2043,12.083,2043
1537,1537,17.788,1537
1563,1563,15.0,1563
707,707,89.0,707
1995,1995,0.0,1995
920,920,14.0,920
2814,2814,23.0,2814
2342,2342,39.0,2342
1313,1313,97.0,1313
2285,2285,19.0,2285
1673,1673,17.0,1673
1095,1095,0.0,1095
1970,1970,121.0,1970
2060,2060,140.244,2060
2233,2233,0.0,2233
2046,2046,15.354000000000001,2046
946,946,0.0,946
1236,1236,20.0,1236
1750,1750,25.415,1750
612,612,22.0,612
2019,2019,16.0,2019
1360,1360,0.0,1360
1985,1985,0.0,1985
2338,2338,107.0,2338
2367,2367,0.0,2367
1018,1018,13.157,1018
1400,1400,0.0,1400
2437,2437,0.0,2437
2941,2941,17.602,2941
1204,1204,0.0,1204
2546,2546,33.0,2546
1147,1147,12.329,1147
1947,1947,16.0,1947
552,552,20.0,552
1409,1409,49.0,1409
1916,1916,16.685,1916
2486,2486,0.0,2486
1891,1891,21.491,1891
2018,2018,11.072000000000001,2018
2211,2211,0.0,2211
1351,1351,21.0,1351
2742,2742,92.0,2742
2027,2027,17.0,2027
1791,1791,24.0,1791
2351,2351,0.0,2351
764,764,53.0,764
1582,1582,21.0,1582
2038,2038,31.0,2038
923,923,0.0,923
2572,2572,10.716,2572
837,837,13.588,837
817,817,23.0,817
782,782,91.0,782
2691,2691,10.775,2691
2510,2510,11.220999999999998,2510
2597,2597,0.0,2597
2156,2156,0.0,2156
704,704,0.0,704
2522,2522,17.0,2522
2385,2385,20.0,2385
2711,2711,23.0,2711
2644,2644,88.0,2644
600,600,0.0,600
2100,2100,24.0,2100
1893,1893,22.835,1893
604,604,93.0,604
2816,2816,20.0,2816
3013,3013,22.0,3013
1167,1167,115.0,1167
2559,2559,11.042,2559
593,593,31.0,593
2439,2439,0.0,2439
2980,2980,14.286,2980
2934,2934,18.0,2934
1713,1713,15.0,1713
1723,1723,10.603,1723
580,580,14.0,580
2803,2803,16.0,2803
1885,1885,15.0,1885
1795,1795,14.459000000000001,1795
2776,2776,10.532,2776
882,882,22.0,882
2577,2577,0.0,2577
3090,3090,111.0,3090
2843,2843,21.0,2843
2487,2487,59.0,2487
1282,1282,0.0,1282
2026,2026,13.437000000000001,2026
2081,2081,187.764,2081
2618,2618,94.0,2618
2836,2836,15.0,2836
1022,1022,11.32,1022
1564,1564,0.0,1564
1803,1803,88.0,1803
1333,1333,89.0,1333
2635,2635,23.0,2635
1749,1749,18.0,1749
1150,1150,62.0,1150
1348,1348,14.422,1348
1960,1960,116.0,1960
1305,1305,22.0,1305
3065,3065,0.0,3065
2171,2171,71.0,2171
965,965,76.0,965
750,750,28.0,750
2425,2425,0.0,2425
1854,1854,0.0,1854
691,691,116.0,691
2290,2290,110.0,2290
1517,1517,43.0,1517
1668,1668,18.0,1668
811,811,19.0,811
1133,1133,16.0,1133
1772,1772,12.439,1772
761,761,0.0,761
2507,2507,48.0,2507
2107,2107,0.0,2107
1389,1389,0.0,1389
581,581,11.209000000000001,581
1561,1561,12.294,1561
2114,2114,49.0,2114
952,952,21.0,952
2799,2799,22.0,2799
1661,1661,22.0,1661
1140,1140,69.0,1140
567,567,67.0,567
1034,1034,15.0,1034
1005,1005,22.682,1005
1973,1973,0.0,1973
1105,1105,14.0,1105
1635,1635,0.0,1635
538,538,0.0,538
591,591,18.562,591
1481,1481,12.923,1481
1832,1832,17.0,1832
1887,1887,22.0,1887
2074,2074,20.0,2074
1969,1969,18.0,1969
1030,1030,14.0,1030
2737,2737,22.495,2737
2856,2856,18.0,2856
1902,1902,0.0,1902
1983,1983,0.0,1983
1303,1303,11.247,1303
2811,2811,22.0,2811
2874,2874,0.0,2874
561,561,121.0,561
2141,2141,123.0,2141
1412,1412,64.0,1412
706,706,65.0,706
1806,1806,113.0,1806
2443,2443,105.0,2443
1225,1225,40.0,1225
529,529,104.0,529
1533,1533,22.0,1533
1679,1679,99.0,1679
1588,1588,11.187000000000001,1588
1023,1023,23.03,1023
1925,1925,112.0,1925
1638,1638,18.0,1638
1446,1446,20.0,1446
2390,2390,89.0,2390
1867,1867,64.0,1867
1587,1587,16.022000000000002,1587
1275,1275,0.0,1275
2832,2832,33.0,2832
2035,2035,172.66099999999997,2035
1242,1242,23.0,1242
900,900,0.0,900
3035,3035,13.203,3035
2023,2023,0.0,2023
1476,1476,0.0,1476
1539,1539,89.0,1539
3099,3099,0.0,3099
556,556,0.0,556
933,933,16.0,933
2008,2008,12.96,2008
2418,2418,11.504000000000001,2418
2921,2921,102.0,2921
2890,2890,0.0,2890
1950,1950,15.247,1950
2528,2528,11.390999999999998,2528
1515,1515,47.0,1515
2491,2491,0.0,2491
2125,2125,16.015,2125
2574,2574,96.0,2574
1612,1612,17.0,1612
3032,3032,93.0,3032
505,505,19.998,505
1688,1688,0.0,1688
2106,2106,20.0,2106
2391,2391,0.0,2391
2605,2605,18.0,2605
2429,2429,0.0,2429
2633,2633,102.0,2633
2070,2070,0.0,2070
3102,3102,21.0,3102
2974,2974,0.0,2974
539,539,18.0,539
2003,2003,0.0,2003
1130,1130,0.0,1130
1709,1709,0.0,1709
1279,1279,0.0,1279
1628,1628,22.0,1628
3097,3097,0.0,3097
602,602,103.0,602
1092,1092,17.0,1092
1760,1760,22.0,1760
2292,2292,0.0,2292
2229,2229,0.0,2229
1917,1917,11.475999999999999,1917
1110,1110,12.075,1110
2788,2788,87.0,2788
1372,1372,22.0,1372
2017,2017,0.0,2017
2894,2894,22.191999999999997,2894
3025,3025,0.0,3025
2693,2693,23.0,2693
2223,2223,12.443,2223
2967,2967,21.0,2967
2452,2452,101.0,2452
1771,1771,0.0,1771
1264,1264,20.739,1264
1850,1850,0.0,1850
1747,1747,23.0,1747
1834,1834,14.102,1834
3037,3037,13.145999999999999,3037
2614,2614,115.0,2614
980,980,0.0,980
2968,2968,14.0,2968
1660,1660,33.0,1660
849,849,58.0,849
2752,2752,14.0,2752
2997,2997,64.0,2997
655,655,25.177,655
1934,1934,16.0,1934
2620,2620,28.0,2620
1606,1606,85.0,1606
2734,2734,13.640999999999998,2734
1368,1368,118.0,1368
1687,1687,22.0,1687
2869,2869,117.0,2869
1768,1768,10.632,1768
2040,2040,0.0,2040
967,967,23.0,967
1126,1126,0.0,1126
1405,1405,14.173,1405
1554,1554,13.375,1554
972,972,86.0,972
671,671,122.0,671
1462,1462,10.96,1462
2042,2042,17.0,2042
1038,1038,111.0,1038
804,804,17.0,804
2370,2370,15.367,2370
2022,2022,0.0,2022
1478,1478,0.0,1478
2194,2194,30.0,2194
3083,3083,0.0,3083
1402,1402,0.0,1402
3004,3004,19.0,3004
1422,1422,0.0,1422
1319,1319,15.0,1319
2914,2914,102.0,2914
1472,1472,0.0,1472
2442,2442,61.0,2442
2318,2318,20.658,2318
2718,2718,0.0,2718
1817,1817,21.0,1817
1618,1618,20.0,1618
3098,3098,21.0,3098
822,822,26.0,822
1212,1212,0.0,1212
2476,2476,48.0,2476
841,841,23.0,841
1256,1256,19.0,1256
2271,2271,0.0,2271
1940,1940,13.360999999999999,1940
1518,1518,60.0,1518
2145,2145,112.0,2145
1797,1797,0.0,1797
3077,3077,17.180999999999997,3077
3014,3014,57.0,3014
2280,2280,175.75400000000002,2280
2599,2599,59.0,2599
783,783,23.0,783
631,631,13.843,631
2102,2102,68.0,2102
2942,2942,19.0,2942
3017,3017,43.0,3017
2516,2516,13.368,2516
501,501,0.0,501
1418,1418,0.0,1418
1382,1382,85.0,1382
2493,2493,0.0,2493
1370,1370,0.0,1370
2769,2769,21.005,2769
1417,1417,18.215,1417
840,840,17.0,840
3088,3088,0.0,3088
1056,1056,0.0,1056
2323,2323,0.0,2323
1576,1576,17.048,1576
2729,2729,15.144,2729
3042,3042,17.0,3042
1033,1033,24.616,1033
2578,2578,0.0,2578
658,658,0.0,658
908,908,71.0,908
1813,1813,105.0,1813
2357,2357,21.0,2357
961,961,71.0,961
676,676,0.0,676
901,901,0.0,901
507,507,13.094000000000001,507
2179,2179,20.0,2179
2756,2756,47.0,2756
1569,1569,21.0,1569
835,835,0.0,835
2137,2137,0.0,2137
2709,2709,23.0,2709
2787,2787,0.0,2787
2746,2746,18.0,2746
1235,1235,17.0,1235
1465,1465,19.0,1465
1109,1109,23.0,1109
2079,2079,0.0,2079
1702,1702,0.0,1702
2118,2118,0.0,2118
1728,1728,0.0,1728
1217,1217,35.0,1217
1104,1104,11.448,1104
1238,1238,12.812000000000001,1238
1106,1106,10.628,1106
3104,3104,14.905999999999999,3104
699,699,36.0,699
1650,1650,0.0,1650
2562,2562,0.0,2562
2804,2804,72.0,2804
1345,1345,15.0,1345
2444,2444,16.0,2444
1844,1844,11.319,1844
509,509,47.0,509
1344,1344,0.0,1344
1447,1447,11.089,1447
1764,1764,10.860999999999999,1764
927,927,68.0,927
1763,1763,15.0,1763
2503,2503,29.0,2503
1903,1903,0.0,1903
1540,1540,15.758,1540
3028,3028,0.0,3028
2515,2515,0.0,2515
1974,1974,71.0,1974
1738,1738,0.0,1738
1366,1366,20.0,1366
2151,2151,14.543,2151
2840,2840,22.0,2840
2810,2810,12.815,2810
2602,2602,20.0,2602
3054,3054,0.0,3054
2426,2426,45.0,2426
2606,2606,0.0,2606
615,615,0.0,615
3085,3085,11.362,3085
2720,2720,11.354000000000001,2720
508,508,0.0,508
3022,3022,39.0,3022
1591,1591,0.0,1591
1406,1406,81.0,1406
1743,1743,0.0,1743
2258,2258,13.947000000000001,2258
2173,2173,0.0,2173
2979,2979,121.0,2979
1160,1160,0.0,1160
1865,1865,95.15799999999999,1865
2928,2928,67.0,2928
2484,2484,14.0,2484
551,551,48.0,551
1128,1128,13.958,1128
1397,1397,11.368,1397
842,842,0.0,842
1098,1098,19.0,1098
1603,1603,22.0,1603
1312,1312,14.0,1312
1580,1580,14.593,1580
2865,2865,122.0,2865
860,860,0.0,860
2920,2920,0.0,2920
1085,1085,119.0,1085
2970,2970,0.0,2970
910,910,23.0,910
685,685,78.0,685
1459,1459,0.0,1459
2293,2293,17.7,2293
686,686,12.519,686
1009,1009,15.0,1009
2829,2829,11.055,2829
1091,1091,11.304,1091
1683,1683,87.0,1683
1519,1519,27.0,1519
1283,1283,41.0,1283
1651,1651,11.209000000000001,1651
2707,2707,15.0,2707
1906,1906,15.860999999999999,1906
657,657,17.0,657
1156,1156,13.133,1156
1489,1489,19.0,1489
2455,2455,90.0,2455
2187,2187,22.0,2187
2225,2225,69.0,2225
512,512,17.332,512
537,537,89.0,537
745,745,20.0,745
2805,2805,11.543,2805
1506,1506,14.0,1506
2582,2582,0.0,2582
797,797,14.421,797
1097,1097,0.0,1097
767,767,0.0,767
653,653,15.425,653
1058,1058,15.868,1058
2749,2749,21.0,2749
2136,2136,10.979000000000001,2136
2105,2105,36.0,2105
2610,2610,16.0,2610
857,857,40.0,857
998,998,0.0,998
759,759,0.0,759
839,839,16.0,839
1548,1548,29.0,1548
609,609,11.634,609
2463,2463,44.0,2463
1127,1127,14.0,1127
1811,1811,0.0,1811
2717,2717,0.0,2717
565,565,0.0,565
2568,2568,37.885999999999996,2568
2134,2134,91.0,2134
950,950,16.0,950
1054,1054,121.0,1054
2094,2094,19.0,2094
1770,1770,0.0,1770
762,762,68.0,762
742,742,22.0,742
1071,1071,0.0,1071
2299,2299,0.0,2299
1802,1802,15.0,1802
2664,2664,10.655,2664
1776,1776,20.0,1776
2431,2431,18.0,2431
788,788,0.0,788
2657,2657,18.0,2657
1329,1329,0.0,1329
2652,2652,11.165,2652
2802,2802,15.0,2802
548,548,21.0,548
2083,2083,23.0,2083
739,739,22.0,739
953,953,0.0,953
2878,2878,0.0,2878
2741,2741,16.0,2741
1404,1404,0.0,1404
2482,2482,17.768,2482
2358,2358,14.0,2358
667,667,40.0,667
2465,2465,89.0,2465
982,982,0.0,982
2543,2543,0.0,2543
2185,2185,100.0,2185
1896,1896,0.0,1896
1655,1655,19.0,1655
2669,2669,83.0,2669
1012,1012,0.0,1012
1949,1949,49.0,1949
2532,2532,0.0,2532
2694,2694,18.0,2694
2039,2039,23.0,2039
2207,2207,62.0,2207
2502,2502,22.0,2502
2825,2825,15.0,2825
2588,2588,10.375,2588
1081,1081,0.0,1081
1292,1292,16.9,1292
2808,2808,16.936,2808
1475,1475,12.112,1475
957,957,15.183,957
1700,1700,21.0,1700
1541,1541,13.559000000000001,1541
3071,3071,11.800999999999998,3071
1794,1794,19.0,1794
2917,2917,0.0,2917
2190,2190,15.0,2190
1401,1401,29.0,1401
1975,1975,0.0,1975
2337,2337,14.780999999999999,2337
921,921,0.0,921
1145,1145,104.0,1145
996,996,18.0,996
807,807,16.002,807
1112,1112,21.0,1112
2778,2778,0.0,2778
687,687,110.0,687
806,806,21.0,806
1681,1681,24.0,1681
2126,2126,10.824000000000002,2126
2860,2860,21.0,2860
1477,1477,16.0,1477
2183,2183,96.0,2183
689,689,38.0,689
3050,3050,0.0,3050
1800,1800,11.527000000000001,1800
694,694,17.285999999999998,694
2054,2054,11.497,2054
1663,1663,14.0,1663
2933,2933,19.0,2933
2708,2708,14.0,2708
1895,1895,14.0,1895
638,638,20.0,638
2567,2567,22.0,2567
778,778,14.0,778
1762,1762,21.0,1762
1386,1386,10.557,1386
2216,2216,98.0,2216
2013,2013,36.0,2013
1998,1998,189.514,1998
1445,1445,18.0,1445
2383,2383,17.0,2383
1740,1740,0.0,1740
2189,2189,48.0,2189
1468,1468,0.0,1468
1536,1536,121.0,1536
2254,2254,0.0,2254
1694,1694,0.0,1694
1774,1774,107.0,1774
1927,1927,184.55700000000002,1927
2340,2340,0.0,2340
526,526,122.0,526
645,645,95.0,645
1222,1222,83.0,1222
1645,1645,17.0,1645
2283,2283,0.0,2283
825,825,18.0,825
976,976,20.0,976
2538,2538,0.0,2538
1538,1538,123.0,1538
2584,2584,17.0,2584
892,892,22.0,892
1755,1755,19.613,1755
564,564,20.147000000000002,564
2649,2649,15.0,2649
891,891,21.0,891
2585,2585,0.0,2585
769,769,22.0,769
2976,2976,122.0,2976
2704,2704,0.0,2704
1706,1706,17.267,1706
1546,1546,15.0,1546
2623,2623,13.129000000000001,2623
2665,2665,0.0,2665
2099,2099,77.0,2099
2406,2406,16.0,2406
1343,1343,10.709000000000001,1343
2143,2143,10.732999999999999,2143
1944,1944,0.0,1944
2950,2950,46.0,2950
2656,2656,105.0,2656
1847,1847,0.0,1847
1107,1107,0.0,1107
2050,2050,13.289000000000001,2050
1233,1233,15.0,1233
709,709,0.0,709
1208,1208,87.0,1208
1855,1855,113.0,1855
1154,1154,0.0,1154
586,586,0.0,586
2049,2049,12.294,2049
2600,2600,61.0,2600
1502,1502,0.0,1502
893,893,0.0,893
1277,1277,14.0,1277
2809,2809,17.0,2809
937,937,0.0,937
1374,1374,14.734000000000002,1374
1276,1276,100.0,1276
2268,2268,11.073,2268
2407,2407,14.334000000000001,2407
1069,1069,0.0,1069
2495,2495,0.0,2495
973,973,50.0,973
1605,1605,23.093000000000004,1605
550,550,65.0,550
1458,1458,0.0,1458
1163,1163,45.0,1163
2354,2354,28.0,2354
1193,1193,0.0,1193
1625,1625,22.0,1625
1346,1346,11.21,1346
549,549,16.695,549
1496,1496,0.0,1496
2646,2646,18.0,2646
682,682,19.925,682
1997,1997,18.0,1997
2149,2149,0.0,2149
1494,1494,14.0,1494
2256,2256,83.0,2256
2743,2743,55.0,2743
916,916,83.0,916
2490,2490,88.0,2490
879,879,79.0,879
1914,1914,42.0,1914
1129,1129,12.378,1129
1248,1248,0.0,1248
2115,2115,22.0,2115
795,795,21.0,795
1439,1439,21.0,1439
2153,2153,0.0,2153
2627,2627,15.144,2627
2053,2053,72.0,2053
554,554,16.0,554
1708,1708,19.0,1708
2286,2286,24.746,2286
1032,1032,21.0,1032
2775,2775,81.0,2775
1857,1857,15.0,1857
1002,1002,0.0,1002
930,930,85.0,930
2692,2692,19.0,2692
723,723,0.0,723
2133,2133,0.0,2133
644,644,71.0,644
1028,1028,14.0,1028
1166,1166,79.0,1166
2498,2498,17.0,2498
2607,2607,0.0,2607
3078,3078,0.0,3078
2714,2714,18.0,2714
774,774,14.037,774
1483,1483,0.0,1483
1325,1325,0.0,1325
827,827,14.276,827
1320,1320,120.0,1320
1778,1778,75.0,1778
2639,2639,81.0,2639
1273,1273,17.381,1273
2147,2147,16.0,2147
1567,1567,0.0,1567
1701,1701,0.0,1701
1192,1192,19.055,1192
1347,1347,23.0,1347
1393,1393,17.0,1393
2467,2467,15.0,2467
2396,2396,11.699000000000002,2396
2794,2794,119.0,2794
2929,2929,0.0,2929
2563,2563,16.016,2563
2316,2316,70.0,2316
2751,2751,20.022000000000002,2751
2591,2591,11.842,2591
2063,2063,0.0,2063
3068,3068,23.0,3068
2900,2900,0.0,2900
1195,1195,0.0,1195
1201,1201,15.0,1201
2632,2632,10.625,2632
733,733,0.0,733
1787,1787,15.0,1787
1356,1356,84.0,1356
2616,2616,37.0,2616
2320,2320,78.0,2320
1823,1823,99.0,1823
2747,2747,31.0,2747
1784,1784,0.0,1784
1773,1773,0.0,1773
1739,1739,17.357,1739
1884,1884,10.363,1884
1361,1361,14.755999999999998,1361
553,553,16.0,553
1792,1792,31.0,1792
2972,2972,16.0,2972
1497,1497,17.169,1497
3086,3086,94.0,3086
2034,2034,10.625,2034
1753,1753,20.349,1753
1121,1121,17.0,1121
3089,3089,16.0,3089
951,951,103.0,951
753,753,19.614,753
629,629,0.0,629
652,652,22.33,652
1785,1785,0.0,1785
1845,1845,71.0,1845
1826,1826,21.0,1826
1205,1205,58.0,1205
1598,1598,0.0,1598
1958,1958,0.0,1958
2269,2269,19.0,2269
1365,1365,96.0,1365
1530,1530,16.0,1530
1507,1507,0.0,1507
2239,2239,176.329,2239
2090,2090,17.0,2090
2234,2234,17.0,2234
1426,1426,110.0,1426
2995,2995,15.0,2995
2848,2848,19.0,2848
2352,2352,16.0,2352
2417,2417,105.0,2417
1662,1662,11.5,1662
605,605,95.0,605
907,907,0.0,907
1856,1856,85.0,1856
574,574,0.0,574
2636,2636,0.0,2636
800,800,0.0,800
2386,2386,13.065,2386
1215,1215,22.0,1215
1153,1153,13.772,1153
672,672,0.0,672
2573,2573,44.0,2573
713,713,53.0,713
2130,2130,18.0,2130
1388,1388,11.449000000000002,1388
2255,2255,12.074000000000002,2255
3020,3020,12.115,3020
2838,2838,78.0,2838
3000,3000,22.0,3000
2372,2372,95.0,2372
2959,2959,62.0,2959
968,968,11.84,968
2650,2650,0.0,2650
2915,2915,75.0,2915
1135,1135,20.0,1135
2682,2682,10.772,2682
2198,2198,173.40900000000002,2198
1017,1017,101.0,1017
1543,1543,14.4,1543
3012,3012,104.0,3012
1234,1234,0.0,1234
1060,1060,12.366,1060
2087,2087,59.0,2087
2222,2222,14.145999999999999,2222
597,597,15.495999999999999,597
555,555,67.0,555
543,543,14.0,543
2887,2887,18.0,2887
2381,2381,17.0,2381
2158,2158,70.0,2158
2072,2072,62.0,2072
2566,2566,16.972,2566
2889,2889,12.300999999999998,2889
1703,1703,11.214,1703
1200,1200,13.074000000000002,1200
2048,2048,15.0,2048
1981,1981,17.0,1981
780,780,111.0,780
1534,1534,11.509,1534
2333,2333,14.0,2333
3106,3106,15.0,3106
3111,3111,42.0,3111
1978,1978,17.526,1978
2457,2457,20.0,2457
1562,1562,16.0,1562
1008,1008,54.0,1008
661,661,62.0,661
2594,2594,18.0,2594
1526,1526,13.093,1526
932,932,0.0,932
1310,1310,17.0,1310
1888,1888,46.0,1888
2855,2855,11.517999999999999,2855
2311,2311,100.0,2311
1111,1111,11.147,1111
2219,2219,21.0,2219
1117,1117,17.0,1117
601,601,110.0,601
2872,2872,10.407,2872
2531,2531,21.265,2531
711,711,65.0,711
1715,1715,0.0,1715
2399,2399,114.0,2399
3093,3093,11.204,3093
1433,1433,10.6,1433
1959,1959,0.0,1959
1463,1463,106.0,1463
1443,1443,0.0,1443
3048,3048,23.0,3048
1177,1177,82.0,1177
1207,1207,0.0,1207
2420,2420,78.0,2420
2376,2376,0.0,2376
1634,1634,58.0,1634
2854,2854,0.0,2854
1849,1849,0.0,1849
1061,1061,0.0,1061
2526,2526,116.0,2526
1363,1363,22.0,1363
2628,2628,114.0,2628
2883,2883,11.174000000000001,2883
516,516,0.0,516
2725,2725,19.0,2725
1326,1326,17.0,1326
2368,2368,93.0,2368
2031,2031,21.096,2031
971,971,0.0,971
1115,1115,11.940999999999999,1115
2224,2224,0.0,2224
2294,2294,104.0,2294
1767,1767,19.0,1767
2088,2088,14.065999999999999,2088
674,674,15.0,674
1084,1084,17.0,1084
1435,1435,78.0,1435
1444,1444,16.602,1444
1926,1926,14.0,1926
1227,1227,0.0,1227
959,959,82.0,959
1314,1314,10.890999999999998,1314
1656,1656,23.0,1656
2282,2282,26.0,2282
1748,1748,17.0,1748
1710,1710,19.35,1710
523,523,18.043,523
1065,1065,10.62,1065
1963,1963,48.0,1963
2002,2002,16.0,2002
1357,1357,16.327,1357
2089,2089,107.0,2089
1942,1942,23.0,1942
2032,2032,17.0,2032
1555,1555,0.0,1555
1860,1860,0.0,1860
2536,2536,106.0,2536
2193,2193,16.0,2193
693,693,18.898,693
1727,1727,17.0,1727
2881,2881,0.0,2881
2215,2215,18.208,2215
3010,3010,35.0,3010
1522,1522,17.0,1522
2152,2152,97.0,2152
2401,2401,96.0,2401
2252,2252,21.932,2252
1173,1173,18.0,1173
2589,2589,15.222000000000001,2589
1882,1882,42.0,1882
2940,2940,15.744000000000002,2940
2885,2885,17.27,2885
2220,2220,83.0,2220
947,947,14.0,947
1340,1340,38.0,1340
1904,1904,112.0,1904
3114,3114,0.0,3114
2553,2553,15.0,2553
584,584,0.0,584
1075,1075,116.0,1075
2082,2082,0.0,2082
1100,1100,33.0,1100
2675,2675,57.0,2675
1527,1527,72.0,1527
1221,1221,0.0,1221
1211,1211,13.479000000000001,1211
2654,2654,76.0,2654
2343,2343,11.4,2343
678,678,0.0,678
1072,1072,11.087,1072
1149,1149,0.0,1149
1257,1257,71.0,1257
2916,2916,15.0,2916
2029,2029,13.834000000000001,2029
1840,1840,103.0,1840
2477,2477,0.0,2477
814,814,80.0,814
1836,1836,14.0,1836
2433,2433,0.0,2433
1387,1387,0.0,1387
2580,2580,30.0,2580
1457,1457,11.569,1457
1783,1783,0.0,1783
2104,2104,0.0,2104
1474,1474,12.584000000000001,1474
2253,2253,14.459000000000001,2253
2101,2101,21.0,2101
2655,2655,20.442999999999998,2655
845,845,84.0,845
904,904,14.003,904
2071,2071,14.745999999999999,2071
1159,1159,70.0,1159
1053,1053,119.0,1053
2978,2978,23.0,2978
2218,2218,15.248,2218
1050,1050,23.0,1050
1622,1622,0.0,1622
2713,2713,11.163,2713
2927,2927,16.549,2927
710,710,16.0,710
1819,1819,21.0,1819
2075,2075,21.0,2075
1432,1432,12.579,1432
3069,3069,0.0,3069
929,929,119.0,929
2313,2313,116.0,2313
1827,1827,11.369000000000002,1827
3105,3105,0.0,3105
2560,2560,96.0,2560
1932,1932,19.0,1932
1068,1068,0.0,1068
2445,2445,53.0,2445
1157,1157,11.604000000000001,1157
2033,2033,16.0,2033
2303,2303,17.0,2303
2120,2120,65.0,2120
664,664,12.806,664
1431,1431,14.895999999999999,1431
3109,3109,53.0,3109
843,843,14.0,843
1735,1735,10.675,1735
1842,1842,76.0,1842
2085,2085,0.0,2085
2759,2759,28.0,2759
2388,2388,13.998,2388
2405,2405,0.0,2405
1073,1073,102.0,1073
1284,1284,15.0,1284
2312,2312,11.15,2312
515,515,79.0,515
1599,1599,20.0,1599
2489,2489,37.0,2489
832,832,70.0,832
2839,2839,10.805,2839
712,712,15.0,712
865,865,36.0,865
2925,2925,46.0,2925
2197,2197,136.915,2197
1816,1816,49.0,1816
939,939,12.149000000000001,939
2349,2349,0.0,2349
2006,2006,0.0,2006
546,546,84.0,546
3092,3092,23.0,3092
1654,1654,0.0,1654
1119,1119,0.0,1119
1398,1398,0.0,1398
3091,3091,18.0,3091
1253,1253,123.0,1253
636,636,23.0,636
940,940,0.0,940
650,650,20.0,650
2356,2356,21.0,2356
2415,2415,16.055999999999997,2415
1550,1550,23.0,1550
896,896,15.0,896
2322,2322,142.715,2322
1271,1271,21.0,1271
1666,1666,0.0,1666
925,925,16.542,925
872,872,18.0,872
969,969,17.0,969
2996,2996,11.514000000000001,2996
2984,2984,33.0,2984
2798,2798,48.0,2798
3082,3082,0.0,3082
2523,2523,41.0,2523
2667,2667,14.0,2667
2744,2744,14.0,2744
1901,1901,94.0,1901
2965,2965,0.0,2965
846,846,23.0,846
854,854,15.0,854
2888,2888,18.0,2888
1707,1707,79.0,1707
1074,1074,18.0,1074
2982,2982,0.0,2982
2882,2882,15.0,2882
1759,1759,15.0,1759
2859,2859,11.544,2859
2893,2893,30.0,2893
603,603,14.515999999999998,603
2630,2630,11.485,2630
1528,1528,0.0,1528
510,510,45.0,510
1411,1411,0.0,1411
1187,1187,92.0,1187
2922,2922,0.0,2922
2792,2792,19.0,2792
2274,2274,0.0,2274
2231,2231,65.0,2231
635,635,19.0,635
1889,1889,17.762999999999998,1889
3030,3030,0.0,3030
2210,2210,11.030999999999999,2210
2121,2121,21.0,2121
1542,1542,102.0,1542
2213,2213,19.202,2213
2851,2851,0.0,2851
1486,1486,58.0,1486
1610,1610,112.0,1610
2784,2784,119.0,2784
2988,2988,44.0,2988
541,541,96.0,541
2593,2593,40.0,2593
1608,1608,37.0,1608
1520,1520,22.095,1520
1261,1261,13.213,1261
1125,1125,52.0,1125
697,697,22.383000000000003,697
1108,1108,19.0,1108
616,616,23.0,616
2305,2305,19.0,2305
1355,1355,15.535,1355
990,990,46.0,990
3003,3003,10.433,3003
1989,1989,202.717,1989
2542,2542,19.489,2542
871,871,0.0,871
3007,3007,0.0,3007
2485,2485,0.0,2485
1799,1799,19.0,1799
1782,1782,18.555,1782
503,503,78.0,503
2884,2884,14.854000000000001,2884
1245,1245,0.0,1245
1719,1719,22.0,1719
2030,2030,18.0,2030
2326,2326,0.0,2326
2841,2841,0.0,2841
1600,1600,18.0,1600
2287,2287,15.0,2287
2086,2086,21.0,2086
3058,3058,16.0,3058
746,746,20.518,746
2931,2931,0.0,2931
1469,1469,21.0,1469
2404,2404,14.0,2404
2668,2668,16.245,2668
2990,2990,114.0,2990
1898,1898,0.0,1898
1682,1682,80.0,1682
530,530,85.0,530
1757,1757,22.0,1757
779,779,0.0,779
2541,2541,0.0,2541
1164,1164,16.0,1164
1818,1818,11.425,1818
1223,1223,22.0,1223
