,time,rtt,id
2567,2567,80.0,2567
2833,2833,0.0,2833
2113,2113,77.0,2113
637,637,99.0,637
819,819,0.0,819
2722,2722,74.0,2722
1290,1290,22.0,1290
828,828,25.0,828
1490,1490,14.875,1490
2474,2474,21.454,2474
1843,1843,14.203,1843
1047,1047,20.0,1047
2774,2774,0.0,2774
1721,1721,42.0,1721
2229,2229,0.0,2229
970,970,112.0,970
2517,2517,11.075999999999999,2517
1228,1228,166.635,1228
2558,2558,83.0,2558
776,776,20.0,776
1484,1484,26.0,1484
1278,1278,23.0,1278
1124,1124,20.0,1124
1664,1664,0.0,1664
1968,1968,24.069000000000003,1968
2047,2047,17.622,2047
1923,1923,21.0,1923
2707,2707,23.0,2707
1880,1880,23.0,1880
866,866,24.326,866
1509,1509,21.694000000000003,1509
1001,1001,61.0,1001
2052,2052,10.505999999999998,2052
1516,1516,0.0,1516
632,632,0.0,632
2696,2696,98.0,2696
1029,1029,0.0,1029
2403,2403,0.0,2403
1471,1471,15.0,1471
2624,2624,20.0,2624
2645,2645,0.0,2645
1559,1559,14.231,1559
1070,1070,92.0,1070
1437,1437,18.0,1437
1291,1291,0.0,1291
2920,2920,69.0,2920
2610,2610,29.0,2610
834,834,0.0,834
2241,2241,11.296,2241
2912,2912,0.0,2912
1450,1450,20.0,1450
924,924,31.0,924
823,823,78.0,823
2740,2740,10.337,2740
2903,2903,0.0,2903
524,524,0.0,524
1574,1574,0.0,1574
2811,2811,13.485,2811
2803,2803,15.0,2803
2397,2397,0.0,2397
2733,2733,10.887,2733
1441,1441,12.267999999999999,1441
824,824,17.534000000000002,824
1379,1379,75.0,1379
1395,1395,19.406,1395
2251,2251,11.998,2251
2336,2336,92.0,2336
988,988,70.0,988
2644,2644,16.144000000000002,2644
2046,2046,18.0,2046
2510,2510,0.0,2510
1315,1315,0.0,1315
765,765,21.12,765
1761,1761,22.0,1761
1052,1052,17.893,1052
1993,1993,0.0,1993
683,683,25.0,683
2914,2914,10.655,2914
1620,1620,87.0,1620
1967,1967,0.0,1967
1262,1262,25.0,1262
2545,2545,111.0,2545
1116,1116,11.155999999999999,1116
1705,1705,19.805,1705
2413,2413,128.0,2413
1461,1461,16.404,1461
1189,1189,23.0,1189
2507,2507,99.0,2507
634,634,21.0,634
2284,2284,0.0,2284
1933,1933,22.0,1933
1218,1218,17.0,1218
1491,1491,47.0,1491
2233,2233,16.0,2233
2422,2422,19.0,2422
886,886,13.162,886
1062,1062,17.0,1062
1953,1953,26.0,1953
2608,2608,110.0,2608
1324,1324,85.0,1324
2452,2452,12.126,2452
2480,2480,23.0,2480
1499,1499,12.734000000000002,1499
2537,2537,21.0,2537
1198,1198,0.0,1198
1057,1057,0.0,1057
569,569,86.0,569
1158,1158,16.087,1158
2119,2119,12.193,2119
989,989,112.0,989
1805,1805,10.895,1805
2677,2677,19.309,2677
1684,1684,0.0,1684
760,760,0.0,760
1383,1383,13.901,1383
1425,1425,0.0,1425
624,624,23.766,624
1295,1295,115.0,1295
588,588,14.665,588
1364,1364,22.316999999999997,1364
2559,2559,0.0,2559
2828,2828,89.0,2828
889,889,19.0,889
826,826,14.921,826
983,983,79.0,983
2117,2117,0.0,2117
673,673,0.0,673
1134,1134,11.388,1134
623,623,41.0,623
2732,2732,102.0,2732
1786,1786,23.397,1786
2309,2309,0.0,2309
2766,2766,11.472999999999999,2766
1872,1872,13.554,1872
2615,2615,23.0,2615
2455,2455,0.0,2455
1529,1529,17.0,1529
2377,2377,21.0,2377
1946,1946,17.0,1946
2414,2414,79.0,2414
878,878,20.0,878
716,716,25.0,716
2494,2494,0.0,2494
1669,1669,89.0,1669
2412,2412,19.348,2412
590,590,15.347000000000001,590
1493,1493,25.0,1493
948,948,0.0,948
2525,2525,0.0,2525
2930,2930,10.654000000000002,2930
1488,1488,15.199000000000002,1488
2300,2300,14.0,2300
1492,1492,0.0,1492
2456,2456,19.596,2456
1717,1717,120.0,1717
2773,2773,70.0,2773
607,607,59.0,607
2818,2818,11.559000000000001,2818
1900,1900,0.0,1900
677,677,86.0,677
566,566,14.537,566
995,995,0.0,995
758,758,14.0,758
2176,2176,80.0,2176
2936,2936,12.030999999999999,2936
1616,1616,11.263,1616
722,722,18.619,722
2012,2012,0.0,2012
912,912,0.0,912
1862,1862,146.293,1862
2606,2606,0.0,2606
2095,2095,0.0,2095
2910,2910,23.0,2910
883,883,13.991,883
2061,2061,0.0,2061
1196,1196,13.325,1196
999,999,18.371,999
2139,2139,0.0,2139
1480,1480,0.0,1480
1861,1861,56.0,1861
1780,1780,0.0,1780
2165,2165,22.0,2165
2611,2611,0.0,2611
2730,2730,0.0,2730
1913,1913,102.0,1913
2746,2746,17.0,2746
2400,2400,10.369000000000002,2400
2632,2632,0.0,2632
2729,2729,107.0,2729
1941,1941,11.309000000000001,1941
1336,1336,19.0,1336
2497,2497,0.0,2497
1877,1877,32.0,1877
1714,1714,10.737,1714
1585,1585,23.0,1585
2335,2335,81.0,2335
1643,1643,14.742,1643
2199,2199,0.0,2199
1667,1667,19.0,1667
1592,1592,13.863,1592
1720,1720,15.860999999999999,1720
663,663,20.269000000000002,663
1059,1059,19.0,1059
2958,2958,24.0,2958
1086,1086,11.841,1086
986,986,19.0,986
1010,1010,35.0,1010
587,587,14.603,587
2167,2167,81.0,2167
2247,2247,88.0,2247
2091,2091,113.0,2091
1726,1726,10.728,1726
2783,2783,93.0,2783
966,966,81.0,966
2641,2641,66.0,2641
864,864,0.0,864
1675,1675,25.823,1675
1936,1936,10.288,1936
542,542,19.0,542
608,608,13.458,608
1648,1648,55.0,1648
737,737,58.0,737
1897,1897,12.262,1897
656,656,13.853,656
681,681,0.0,681
1090,1090,98.0,1090
2155,2155,0.0,2155
2741,2741,13.034,2741
2547,2547,0.0,2547
2148,2148,43.0,2148
1359,1359,12.780999999999999,1359
902,902,46.0,902
1232,1232,23.0,1232
1686,1686,24.0,1686
1801,1801,17.995,1801
821,821,18.0,821
2822,2822,0.0,2822
2366,2366,0.0,2366
1812,1812,73.0,1812
2431,2431,20.0,2431
1427,1427,15.0,1427
1080,1080,25.0,1080
2837,2837,0.0,2837
789,789,0.0,789
1894,1894,118.0,1894
1255,1255,19.0,1255
979,979,13.273,979
606,606,34.0,606
2475,2475,16.0,2475
2263,2263,0.0,2263
1306,1306,0.0,1306
2038,2038,0.0,2038
2670,2670,97.0,2670
2857,2857,23.0,2857
1918,1918,0.0,1918
1922,1922,10.855,1922
2700,2700,12.258,2700
1456,1456,22.0,1456
862,862,0.0,862
1815,1815,88.0,1815
1464,1464,0.0,1464
1742,1742,194.002,1742
2315,2315,23.979,2315
666,666,76.0,666
2020,2020,0.0,2020
1224,1224,11.783,1224
2329,2329,49.0,2329
747,747,21.0,747
1722,1722,12.975,1722
875,875,19.0,875
2371,2371,0.0,2371
2304,2304,0.0,2304
1807,1807,22.0,1807
651,651,116.0,651
1611,1611,0.0,1611
2112,2112,31.0,2112
1995,1995,23.0,1995
1280,1280,19.136,1280
960,960,14.0,960
2637,2637,22.0,2637
572,572,0.0,572
899,899,48.0,899
1835,1835,0.0,1835
1185,1185,0.0,1185
2010,2010,15.0,2010
934,934,122.0,934
532,532,14.931,532
838,838,14.0,838
2162,2162,14.865,2162
1919,1919,12.515999999999998,1919
1626,1626,14.317,1626
2230,2230,106.0,2230
1935,1935,70.0,1935
1947,1947,19.0,1947
771,771,0.0,771
1649,1649,38.0,1649
1229,1229,15.0,1229
2062,2062,22.772,2062
2067,2067,20.0,2067
1013,1013,0.0,1013
1161,1161,0.0,1161
2539,2539,104.0,2539
1249,1249,99.0,1249
1511,1511,0.0,1511
2142,2142,117.0,2142
2347,2347,15.0,2347
1036,1036,163.74200000000002,1036
1565,1565,17.302,1565
2458,2458,76.0,2458
1641,1641,24.671,1641
1636,1636,40.0,1636
2470,2470,16.0,2470
756,756,12.327,756
2596,2596,0.0,2596
1298,1298,21.0,1298
2964,2964,14.113,2964
1500,1500,0.0,1500
2974,2974,21.0,2974
1297,1297,13.04,1297
1831,1831,40.0,1831
1525,1525,15.0,1525
1984,1984,0.0,1984
2514,2514,25.0,2514
1151,1151,47.0,1151
518,518,0.0,518
736,736,31.0,736
2680,2680,118.0,2680
844,844,14.0,844
1342,1342,69.0,1342
1043,1043,0.0,1043
583,583,19.0,583
1575,1575,0.0,1575
2238,2238,0.0,2238
1096,1096,76.0,1096
2164,2164,21.0,2164
1296,1296,0.0,1296
784,784,11.140999999999998,784
2933,2933,26.0,2933
1300,1300,13.372,1300
1545,1545,48.0,1545
2380,2380,0.0,2380
2848,2848,84.0,2848
2520,2520,115.0,2520
1455,1455,15.075,1455
1657,1657,0.0,1657
2264,2264,0.0,2264
1697,1697,12.714,1697
2184,2184,11.388,2184
1677,1677,20.0,1677
2157,2157,100.0,2157
2960,2960,35.0,2960
911,911,12.709000000000001,911
2863,2863,23.611,2863
2889,2889,10.809000000000001,2889
2653,2653,60.0,2653
2466,2466,93.0,2466
2679,2679,14.0,2679
639,639,0.0,639
2543,2543,10.939,2543
2633,2633,70.0,2633
1810,1810,0.0,1810
2444,2444,0.0,2444
1790,1790,0.0,1790
2832,2832,0.0,2832
1141,1141,20.0,1141
589,589,47.0,589
740,740,14.0,740
2077,2077,18.608,2077
1178,1178,56.0,1178
1954,1954,0.0,1954
2963,2963,27.0,2963
2430,2430,0.0,2430
2785,2785,0.0,2785
2782,2782,109.0,2782
525,525,24.0,525
1881,1881,16.0,1881
2804,2804,14.0,2804
2097,2097,11.414000000000001,2097
2202,2202,0.0,2202
2659,2659,11.034,2659
2827,2827,74.0,2827
544,544,10.63,544
741,741,15.718,741
1699,1699,12.280999999999999,1699
1758,1758,25.0,1758
1658,1658,0.0,1658
2135,2135,0.0,2135
2614,2614,90.0,2614
1808,1808,11.960999999999999,1808
2227,2227,17.0,2227
2318,2318,0.0,2318
2533,2533,21.0,2533
1403,1403,23.0,1403
1821,1821,22.0,1821
2948,2948,0.0,2948
829,829,17.0,829
1632,1632,73.0,1632
669,669,0.0,669
2754,2754,22.997,2754
2899,2899,40.0,2899
2826,2826,0.0,2826
1513,1513,13.92,1513
2330,2330,12.139000000000001,2330
1171,1171,16.711,1171
1716,1716,34.0,1716
2435,2435,0.0,2435
1087,1087,40.0,1087
2257,2257,17.0,2257
2334,2334,17.0,2334
1980,1980,32.665,1980
2496,2496,23.0,2496
2975,2975,114.0,2975
852,852,0.0,852
576,576,96.0,576
1647,1647,0.0,1647
2911,2911,123.0,2911
2840,2840,23.0,2840
1155,1155,10.539000000000001,1155
1331,1331,10.267999999999999,1331
2685,2685,23.0,2685
2843,2843,127.0,2843
1614,1614,18.609,1614
1414,1414,101.0,1414
534,534,10.755999999999998,534
2122,2122,22.531999999999996,2122
1633,1633,10.522,1633
2482,2482,37.0,2482
585,585,0.0,585
1375,1375,27.375999999999998,1375
2007,2007,12.284,2007
755,755,0.0,755
1168,1168,118.0,1168
2350,2350,48.0,2350
2018,2018,0.0,2018
2462,2462,0.0,2462
2970,2970,71.0,2970
1593,1593,0.0,1593
2364,2364,24.0,2364
1482,1482,0.0,1482
1407,1407,11.904000000000002,1407
1971,1971,10.446,1971
2321,2321,35.0,2321
1911,1911,103.0,1911
2025,2025,0.0,2025
2639,2639,0.0,2639
2831,2831,15.0,2831
2854,2854,0.0,2854
2881,2881,99.0,2881
1318,1318,0.0,1318
2449,2449,120.0,2449
1573,1573,13.065999999999999,1573
2262,2262,0.0,2262
1162,1162,116.0,1162
1886,1886,13.392999999999999,1886
2208,2208,0.0,2208
1809,1809,19.0,1809
2170,2170,0.0,2170
1752,1752,117.82700000000001,1752
2472,2472,124.0,2472
2776,2776,10.765999999999998,2776
1779,1779,16.0,1779
2258,2258,55.0,2258
610,610,22.0,610
725,725,22.433000000000003,725
2712,2712,0.0,2712
2271,2271,0.0,2271
801,801,0.0,801
2662,2662,0.0,2662
873,873,22.345,873
2521,2521,11.054,2521
1696,1696,23.0,1696
994,994,13.327,994
2429,2429,21.0,2429
2500,2500,10.267000000000001,2500
517,517,47.0,517
802,802,54.0,802
1830,1830,0.0,1830
1553,1553,104.0,1553
2821,2821,52.0,2821
2370,2370,0.0,2370
2801,2801,22.0,2801
1420,1420,0.0,1420
812,812,62.0,812
2824,2824,18.034000000000002,2824
1725,1725,126.0,1725
2575,2575,0.0,2575
1243,1243,113.0,1243
594,594,0.0,594
1231,1231,12.481,1231
836,836,77.0,836
1299,1299,19.0,1299
992,992,86.0,992
1143,1143,24.0,1143
613,613,16.351,613
2866,2866,120.0,2866
1064,1064,16.0,1064
2244,2244,106.0,2244
2060,2060,93.0,2060
2918,2918,64.0,2918
1945,1945,0.0,1945
1915,1915,0.0,1915
791,791,23.0,791
914,914,15.0,914
1337,1337,30.0,1337
2649,2649,83.0,2649
1035,1035,77.0,1035
2001,2001,20.0,2001
2954,2954,15.693,2954
1586,1586,29.0,1586
2019,2019,0.0,2019
1220,1220,21.0,1220
2168,2168,135.75,2168
2658,2658,0.0,2658
928,928,12.799000000000001,928
1910,1910,14.296,1910
1523,1523,55.0,1523
557,557,11.888,557
2469,2469,10.45,2469
1132,1132,88.0,1132
1045,1045,16.289,1045
1890,1890,10.582,1890
2571,2571,0.0,2571
730,730,94.0,730
2847,2847,14.632,2847
1410,1410,22.0,1410
2551,2551,129.0,2551
558,558,95.0,558
2613,2613,10.292,2613
2027,2027,104.0,2027
938,938,0.0,938
1741,1741,0.0,1741
1671,1671,23.0,1671
1899,1899,19.0,1899
885,885,0.0,885
944,944,38.0,944
1169,1169,24.0,1169
2522,2522,0.0,2522
1986,1986,0.0,1986
675,675,0.0,675
679,679,22.0,679
2749,2749,0.0,2749
855,855,16.0,855
2705,2705,11.116,2705
1123,1123,12.155999999999999,1123
1766,1766,13.617,1766
2260,2260,18.055,2260
1438,1438,13.727,1438
1055,1055,0.0,1055
2793,2793,0.0,2793
2293,2293,15.972000000000001,2293
2786,2786,19.127,2786
2946,2946,25.0,2946
1581,1581,0.0,1581
2757,2757,43.0,2757
1302,1302,12.838,1302
974,974,21.0,974
1583,1583,0.0,1583
2505,2505,20.0,2505
1137,1137,0.0,1137
2731,2731,15.0,2731
2278,2278,22.0,2278
2699,2699,66.0,2699
1631,1631,23.0,1631
1937,1937,21.0,1937
1966,1966,39.0,1966
744,744,0.0,744
1487,1487,0.0,1487
2103,2103,42.0,2103
2188,2188,11.114,2188
1031,1031,83.0,1031
1293,1293,13.367,1293
2461,2461,10.859000000000002,2461
2643,2643,100.0,2643
1851,1851,0.0,1851
799,799,129.0,799
1665,1665,128.0,1665
1957,1957,16.0,1957
2240,2240,0.0,2240
1114,1114,56.0,1114
2059,2059,14.0,2059
831,831,108.0,831
2332,2332,122.0,2332
1876,1876,17.0,1876
1920,1920,124.0,1920
1083,1083,99.0,1083
535,535,0.0,535
2092,2092,0.0,2092
2669,2669,111.0,2669
993,993,62.0,993
1617,1617,0.0,1617
2823,2823,0.0,2823
2450,2450,0.0,2450
698,698,42.0,698
2703,2703,11.677999999999999,2703
793,793,14.534,793
1514,1514,0.0,1514
2819,2819,95.0,2819
1825,1825,23.0,1825
1676,1676,0.0,1676
1049,1049,0.0,1049
1226,1226,10.209,1226
949,949,0.0,949
2056,2056,27.0,2056
2790,2790,0.0,2790
2565,2565,11.593,2565
522,522,95.0,522
1281,1281,21.0,1281
2440,2440,0.0,2440
2201,2201,14.173,2201
2908,2908,0.0,2908
915,915,30.195,915
884,884,21.0,884
1180,1180,24.0,1180
1197,1197,11.7,1197
1646,1646,0.0,1646
796,796,10.59,796
1467,1467,15.0,1467
2385,2385,0.0,2385
2382,2382,42.0,2382
903,903,14.954,903
2228,2228,15.0,2228
1078,1078,0.0,1078
1793,1793,165.22799999999998,1793
611,611,13.559000000000001,611
2535,2535,18.209,2535
1712,1712,19.0,1712
1142,1142,12.925999999999998,1142
945,945,24.0,945
1219,1219,0.0,1219
599,599,25.0,599
2144,2144,20.192999999999998,2144
1354,1354,17.0,1354
859,859,0.0,859
2028,2028,11.235,2028
721,721,21.0,721
2259,2259,80.0,2259
1416,1416,0.0,1416
1939,1939,71.085,1939
1263,1263,18.180999999999997,1263
2391,2391,74.0,2391
1051,1051,25.0,1051
504,504,16.406,504
2150,2150,13.449000000000002,2150
1321,1321,0.0,1321
1711,1711,0.0,1711
913,913,16.0,913
1644,1644,17.0,1644
2084,2084,0.0,2084
1961,1961,14.0,1961
1182,1182,22.0,1182
1531,1531,0.0,1531
1039,1039,0.0,1039
2057,2057,0.0,2057
1024,1024,69.0,1024
2107,2107,23.0,2107
1572,1572,77.0,1572
582,582,93.0,582
1837,1837,126.756,1837
717,717,0.0,717
809,809,0.0,809
1021,1021,25.519000000000002,1021
1015,1015,0.0,1015
2026,2026,0.0,2026
2448,2448,11.669,2448
1990,1990,17.0,1990
2663,2663,75.0,2663
1905,1905,0.0,1905
1689,1689,11.165999999999999,1689
1353,1353,0.0,1353
2140,2140,12.038,2140
1077,1077,0.0,1077
2972,2972,23.0,2972
2706,2706,12.247,2706
2934,2934,18.0,2934
2306,2306,0.0,2306
620,620,25.0,620
2574,2574,0.0,2574
2280,2280,23.0,2280
2217,2217,24.0,2217
2484,2484,0.0,2484
2492,2492,57.0,2492
1864,1864,15.449000000000002,1864
1260,1260,75.0,1260
1328,1328,16.0,1328
2913,2913,14.0,2913
531,531,106.0,531
1181,1181,22.0,1181
1535,1535,21.0,1535
2196,2196,14.99,2196
2742,2742,84.0,2742
1408,1408,117.0,1408
2394,2394,11.104000000000001,2394
1871,1871,23.0,1871
1756,1756,0.0,1756
2180,2180,18.0,2180
1170,1170,16.199,1170
1589,1589,102.0,1589
803,803,0.0,803
2015,2015,10.457,2015
975,975,0.0,975
943,943,17.421,943
2619,2619,27.0,2619
1604,1604,0.0,1604
1101,1101,0.0,1101
1839,1839,21.0,1839
2402,2402,11.933,2402
1754,1754,0.0,1754
738,738,13.71,738
2021,2021,12.1,2021
506,506,0.0,506
1380,1380,14.960999999999999,1380
1020,1020,0.0,1020
2945,2945,38.0,2945
1396,1396,0.0,1396
1004,1004,17.0,1004
2232,2232,15.12,2232
647,647,12.545,647
985,985,12.754000000000001,985
1584,1584,0.0,1584
1349,1349,0.0,1349
1454,1454,127.0,1454
935,935,102.0,935
876,876,94.0,876
848,848,0.0,848
2860,2860,0.0,2860
1859,1859,18.752,1859
1316,1316,22.0,1316
2723,2723,0.0,2723
1557,1557,15.354000000000001,1557
1470,1470,0.0,1470
2758,2758,21.0,2758
696,696,0.0,696
540,540,14.31,540
1912,1912,45.0,1912
1908,1908,0.0,1908
1385,1385,14.495999999999999,1385
1294,1294,23.0,1294
2036,2036,0.0,2036
2195,2195,0.0,2195
1434,1434,17.0,1434
2524,2524,109.0,2524
2838,2838,89.0,2838
2867,2867,0.0,2867
2581,2581,81.0,2581
633,633,0.0,633
2389,2389,25.0,2389
2357,2357,0.0,2357
2656,2656,66.0,2656
2338,2338,10.841,2338
2295,2295,17.61,2295
598,598,19.0,598
1596,1596,57.0,1596
1369,1369,0.0,1369
2892,2892,35.0,2892
2442,2442,19.151,2442
2702,2702,21.0,2702
987,987,129.0,987
749,749,12.152000000000001,749
2211,2211,49.471000000000004,2211
1907,1907,13.245,1907
2125,2125,21.0,2125
2291,2291,11.770999999999999,2291
1991,1991,199.196,1991
1607,1607,11.640999999999998,1607
2927,2927,23.0,2927
786,786,18.0,786
1652,1652,46.0,1652
2339,2339,0.0,2339
646,646,0.0,646
1040,1040,93.0,1040
2647,2647,0.0,2647
1440,1440,0.0,1440
2540,2540,16.0,2540
1551,1551,0.0,1551
1088,1088,23.155,1088
1473,1473,119.0,1473
1869,1869,15.0,1869
1613,1613,16.0,1613
1690,1690,10.437999999999999,1690
701,701,99.0,701
2916,2916,0.0,2916
1250,1250,0.0,1250
627,627,24.0,627
2375,2375,0.0,2375
660,660,99.0,660
1460,1460,0.0,1460
2802,2802,10.367,2802
2876,2876,16.0,2876
2502,2502,11.923,2502
1272,1272,23.0,1272
622,622,0.0,622
1642,1642,0.0,1642
670,670,25.0,670
2351,2351,17.0,2351
1131,1131,0.0,1131
2891,2891,0.0,2891
1595,1595,0.0,1595
978,978,19.0,978
1623,1623,16.0,1623
1624,1624,0.0,1624
1377,1377,13.624,1377
1214,1214,13.307,1214
1495,1495,0.0,1495
1874,1874,119.0,1874
880,880,0.0,880
1451,1451,15.024000000000001,1451
2579,2579,22.0,2579
2546,2546,12.224,2546
1820,1820,21.0,1820
787,787,77.0,787
1503,1503,12.472000000000001,1503
2949,2949,15.0,2949
1692,1692,24.0,1692
2365,2365,11.679,2365
625,625,0.0,625
1870,1870,27.0,1870
1670,1670,18.0,1670
1042,1042,0.0,1042
1063,1063,0.0,1063
2250,2250,23.0,2250
942,942,0.0,942
2419,2419,10.509,2419
1992,1992,11.356,1992
2530,2530,0.0,2530
2660,2660,0.0,2660
643,643,21.32,643
2787,2787,21.0,2787
1931,1931,131.586,1931
1391,1391,30.0,1391
853,853,42.0,853
715,715,0.0,715
958,958,0.0,958
1674,1674,24.0,1674
2005,2005,20.0,2005
1560,1560,11.2,1560
2694,2694,13.782,2694
2569,2569,21.289,2569
785,785,14.0,785
1025,1025,66.0,1025
888,888,0.0,888
1448,1448,10.956,1448
830,830,21.0,830
2737,2737,0.0,2737
1429,1429,11.234000000000002,1429
1951,1951,23.0,1951
926,926,11.007,926
2249,2249,20.0,2249
1288,1288,11.405999999999999,1288
790,790,26.86,790
2665,2665,0.0,2665
1413,1413,0.0,1413
2538,2538,11.288,2538
1814,1814,23.0,1814
2425,2425,0.0,2425
1695,1695,0.0,1695
2661,2661,124.0,2661
777,777,11.695,777
2441,2441,117.0,2441
1466,1466,18.0,1466
2428,2428,33.0,2428
2129,2129,23.0,2129
1421,1421,25.0,1421
2672,2672,20.0,2672
2191,2191,22.0,2191
1955,1955,88.0,1955
2830,2830,0.0,2830
2640,2640,15.119000000000002,2640
1120,1120,0.0,1120
2627,2627,22.0,2627
2432,2432,11.287,2432
1570,1570,0.0,1570
1693,1693,25.0,1693
2777,2777,0.0,2777
1285,1285,0.0,1285
2009,2009,10.454,2009
2548,2548,10.713,2548
1804,1804,61.0,1804
2835,2835,0.0,2835
794,794,54.0,794
2938,2938,18.0,2938
1175,1175,0.0,1175
1734,1734,0.0,1734
2582,2582,19.0,2582
2634,2634,0.0,2634
2512,2512,17.0,2512
2900,2900,53.0,2900
1089,1089,16.0,1089
2124,2124,81.0,2124
1430,1430,0.0,1430
1259,1259,0.0,1259
1745,1745,34.0,1745
705,705,24.0,705
1653,1653,0.0,1653
2317,2317,15.038,2317
1512,1512,31.0,1512
2212,2212,13.129000000000001,2212
1148,1148,106.0,1148
2172,2172,0.0,2172
628,628,23.0,628
2584,2584,17.114,2584
898,898,0.0,898
731,731,24.0,731
1873,1873,16.0,1873
1924,1924,0.0,1924
894,894,0.0,894
1194,1194,10.457,1194
2878,2878,0.0,2878
1537,1537,50.0,1537
1563,1563,12.504000000000001,1563
707,707,16.0,707
920,920,15.0,920
2693,2693,100.0,2693
2690,2690,0.0,2690
1313,1313,23.0,1313
1673,1673,43.0,1673
1095,1095,15.725,1095
2045,2045,48.0,2045
946,946,11.544,946
1236,1236,99.0,1236
1750,1750,89.0,1750
612,612,13.110999999999999,612
1360,1360,42.0,1360
2141,2141,0.0,2141
2166,2166,54.0,2166
1018,1018,14.0,1018
1400,1400,0.0,1400
2128,2128,16.0,2128
2266,2266,39.0,2266
1204,1204,0.0,1204
2544,2544,0.0,2544
1147,1147,0.0,1147
2506,2506,24.0,2506
1409,1409,0.0,1409
1916,1916,11.894,1916
2923,2923,0.0,2923
1891,1891,39.0,1891
2024,2024,0.0,2024
1351,1351,0.0,1351
2621,2621,0.0,2621
1791,1791,51.0,1791
2570,2570,67.0,2570
764,764,0.0,764
1582,1582,49.0,1582
923,923,0.0,923
2748,2748,0.0,2748
837,837,0.0,837
817,817,0.0,817
782,782,17.0,782
2093,2093,15.304,2093
2297,2297,19.0,2297
2181,2181,12.776,2181
1976,1976,21.0,1976
704,704,113.0,704
2307,2307,15.872,2307
1996,1996,65.0,1996
2592,2592,17.0,2592
2501,2501,16.929000000000002,2501
600,600,0.0,600
1893,1893,75.0,1893
604,604,127.0,604
2177,2177,0.0,2177
2886,2886,21.0,2886
1167,1167,46.0,1167
2398,2398,14.0,2398
593,593,25.0,593
2924,2924,0.0,2924
2109,2109,116.0,2109
2810,2810,40.0,2810
1713,1713,20.0,1713
1723,1723,16.0,1723
580,580,51.513000000000005,580
2491,2491,113.0,2491
1885,1885,0.0,1885
1795,1795,22.285,1795
2154,2154,0.0,2154
882,882,12.739,882
2378,2378,0.0,2378
2762,2762,24.0,2762
2751,2751,22.0,2751
2275,2275,0.0,2275
1282,1282,34.0,1282
2454,2454,21.0,2454
2715,2715,16.0,2715
1022,1022,0.0,1022
1564,1564,19.0,1564
1803,1803,24.0,1803
1333,1333,63.0,1333
2483,2483,0.0,2483
1749,1749,17.726,1749
1150,1150,43.0,1150
1348,1348,0.0,1348
1960,1960,20.0,1960
1305,1305,11.107999999999999,1305
2932,2932,122.0,2932
965,965,83.0,965
750,750,0.0,750
2221,2221,89.0,2221
1854,1854,9.959,1854
691,691,18.0,691
2096,2096,16.0,2096
1517,1517,90.0,1517
1668,1668,17.0,1668
811,811,0.0,811
1133,1133,31.0,1133
1772,1772,0.0,1772
761,761,104.0,761
2755,2755,18.0,2755
1389,1389,0.0,1389
581,581,12.374,581
1561,1561,9.972999999999999,1561
952,952,17.0,952
2678,2678,42.0,2678
1661,1661,12.562999999999999,1661
1140,1140,40.0,1140
567,567,18.0,567
1034,1034,55.118,1034
1005,1005,74.0,1005
1973,1973,16.0,1973
1105,1105,26.0,1105
1635,1635,22.0,1635
538,538,78.0,538
591,591,52.0,591
1481,1481,0.0,1481
1832,1832,0.0,1832
1887,1887,40.0,1887
1969,1969,10.97,1969
1030,1030,25.0,1030
2617,2617,0.0,2617
1902,1902,20.0,1902
1983,1983,35.0,1983
1303,1303,16.242,1303
2108,2108,79.0,2108
2752,2752,0.0,2752
561,561,0.0,561
1412,1412,72.0,1412
706,706,49.0,706
1806,1806,18.0,1806
2651,2651,67.0,2651
1225,1225,25.0,1225
529,529,0.0,529
1533,1533,19.0,1533
1679,1679,15.913,1679
1588,1588,17.0,1588
1023,1023,0.0,1023
1925,1925,14.633,1925
1638,1638,18.0,1638
1446,1446,13.755,1446
2186,2186,20.565,2186
1867,1867,11.54,1867
1587,1587,0.0,1587
1275,1275,20.0,1275
2711,2711,14.319,2711
2035,2035,12.505999999999998,2035
1242,1242,91.0,1242
900,900,93.0,900
2906,2906,17.0,2906
2023,2023,43.0,2023
1476,1476,16.0,1476
1539,1539,0.0,1539
2926,2926,110.0,2926
556,556,16.0,556
933,933,20.0,933
2008,2008,124.0,2008
2214,2214,16.039,2214
2797,2797,61.0,2797
2768,2768,20.025,2768
1950,1950,10.696,1950
2845,2845,11.065,2845
1515,1515,0.0,1515
2279,2279,25.0,2279
2374,2374,12.015999999999998,2374
1612,1612,10.667,1612
2308,2308,0.0,2308
505,505,18.629,505
1688,1688,10.722999999999999,1688
2267,2267,38.0,2267
2434,2434,107.0,2434
2070,2070,97.0,2070
2965,2965,115.0,2965
2345,2345,15.821,2345
539,539,12.055,539
2003,2003,0.0,2003
1130,1130,24.0,1130
1709,1709,18.0,1709
1279,1279,17.793,1279
1628,1628,0.0,1628
2298,2298,0.0,2298
602,602,15.414000000000001,602
1092,1092,17.0,1092
1760,1760,40.0,1760
2098,2098,93.0,2098
1917,1917,85.0,1917
1110,1110,0.0,1110
2904,2904,17.0,2904
1372,1372,13.495999999999999,1372
2017,2017,17.0,2017
2772,2772,14.309000000000001,2772
2898,2898,120.0,2898
2576,2576,35.0,2576
2959,2959,0.0,2959
2242,2242,18.0,2242
1771,1771,0.0,1771
1264,1264,16.0,1264
1850,1850,83.0,1850
1747,1747,0.0,1747
1834,1834,68.0,1834
2907,2907,20.317999999999998,2907
2618,2618,14.302,2618
980,980,0.0,980
2842,2842,0.0,2842
1660,1660,10.911,1660
2527,2527,18.0,2527
2631,2631,14.34,2631
2277,2277,22.0,2277
655,655,0.0,655
1934,1934,19.804000000000002,1934
2710,2710,11.857000000000001,2710
1606,1606,0.0,1606
2478,2478,0.0,2478
1368,1368,12.104000000000001,1368
2331,2331,16.0,2331
2747,2747,106.0,2747
1768,1768,12.774000000000001,1768
2040,2040,0.0,2040
967,967,19.0,967
1126,1126,13.007,1126
1405,1405,97.0,1405
1554,1554,17.0,1554
972,972,12.53,972
671,671,0.0,671
1462,1462,129.0,1462
2042,2042,0.0,2042
1038,1038,95.0,1038
804,804,0.0,804
2169,2169,19.0,2169
2022,2022,0.0,2022
1478,1478,13.948,1478
2324,2324,0.0,2324
1402,1402,20.323,1402
2877,2877,22.0,2877
1422,1422,22.0,1422
1319,1319,0.0,1319
2360,2360,91.0,2360
1472,1472,112.0,1472
2598,2598,17.0,2598
1817,1817,16.340999999999998,1817
1618,1618,45.0,1618
2962,2962,0.0,2962
822,822,21.301,822
1212,1212,15.706,1212
2265,2265,0.0,2265
2664,2664,0.0,2664
1256,1256,117.0,1256
1940,1940,16.0,1940
1518,1518,0.0,1518
2145,2145,10.342,2145
1797,1797,25.0,1797
2943,2943,76.0,2943
2887,2887,0.0,2887
783,783,0.0,783
631,631,14.128,631
2695,2695,0.0,2695
2817,2817,91.0,2817
2890,2890,66.0,2890
501,501,30.663,501
1418,1418,69.0,1418
1382,1382,13.767000000000001,1382
2281,2281,11.120999999999999,2281
1370,1370,89.0,1370
2648,2648,115.0,2648
1417,1417,19.0,1417
840,840,0.0,840
2952,2952,84.0,2952
2409,2409,11.556,2409
1576,1576,0.0,1576
2609,2609,18.0,2609
2856,2856,0.0,2856
1033,1033,15.0,1033
2473,2473,15.332,2473
908,908,20.049,908
1813,1813,13.022,1813
961,961,21.0,961
676,676,50.0,676
901,901,46.0,901
507,507,16.0,507
2179,2179,0.0,2179
2635,2635,0.0,2635
1569,1569,18.551,1569
835,835,38.042,835
2137,2137,91.0,2137
2590,2590,19.0,2590
2666,2666,14.409,2666
2625,2625,0.0,2625
1235,1235,0.0,1235
1465,1465,0.0,1465
1109,1109,14.421,1109
2079,2079,20.0,2079
1702,1702,20.0,1702
2118,2118,82.0,2118
1728,1728,15.249,1728
1217,1217,105.0,1217
1104,1104,18.0,1104
1238,1238,34.0,1238
1106,1106,32.0,1106
2799,2799,10.513,2799
699,699,15.985999999999999,699
1650,1650,25.0,1650
2348,2348,17.469,2348
2683,2683,21.0,2683
1345,1345,0.0,1345
2235,2235,20.135,2235
1844,1844,14.0,1844
509,509,33.0,509
1344,1344,16.0,1344
1447,1447,14.0,1447
1764,1764,137.738,1764
927,927,0.0,927
2342,2342,14.509,2342
2290,2290,19.582,2290
1903,1903,14.857999999999999,1903
1540,1540,12.315999999999999,1540
2870,2870,20.0,2870
2302,2302,20.627,2302
1974,1974,0.0,1974
1738,1738,0.0,1738
1366,1366,0.0,1366
2151,2151,12.445,2151
2719,2719,0.0,2719
2689,2689,18.0,2689
2671,2671,0.0,2671
615,615,0.0,615
2880,2880,12.732999999999999,2880
2600,2600,24.0,2600
508,508,20.0,508
1591,1591,0.0,1591
1406,1406,19.0,1406
1743,1743,100.0,1743
2173,2173,0.0,2173
2853,2853,0.0,2853
1160,1160,10.589,1160
1865,1865,11.702,1865
2272,2272,15.404000000000002,2272
551,551,22.491999999999997,551
1128,1128,28.0,1128
1397,1397,13.985,1397
842,842,33.277,842
1098,1098,14.587,1098
2743,2743,0.0,2743
1312,1312,35.0,1312
1580,1580,16.0,1580
2720,2720,11.552,2720
860,860,0.0,860
2796,2796,23.0,2796
1085,1085,0.0,1085
2844,2844,69.0,2844
910,910,0.0,910
685,685,21.31,685
1459,1459,0.0,1459
686,686,82.0,686
1009,1009,19.0,1009
2323,2323,0.0,2323
1091,1091,0.0,1091
1683,1683,0.0,1683
1519,1519,18.0,1519
1283,1283,25.0,1283
1651,1651,15.982999999999999,1651
2588,2588,14.0,2588
1906,1906,25.0,1906
2443,2443,20.0,2443
1156,1156,86.0,1156
1489,1489,12.001,1489
2187,2187,63.0,2187
2225,2225,14.0,2225
512,512,15.705,512
2459,2459,97.0,2459
745,745,67.0,745
2684,2684,22.0,2684
1506,1506,13.773,1506
2392,2392,22.0,2392
797,797,0.0,797
1097,1097,0.0,1097
767,767,77.0,767
2562,2562,21.0,2562
1058,1058,0.0,1058
2745,2745,18.0,2745
2136,2136,0.0,2136
2363,2363,34.0,2363
2446,2446,15.0,2446
857,857,54.0,857
998,998,0.0,998
759,759,12.559000000000001,759
839,839,32.0,839
1548,1548,91.0,1548
609,609,125.0,609
1127,1127,0.0,1127
1811,1811,0.0,1811
2597,2597,0.0,2597
565,565,18.0,565
2361,2361,55.0,2361
2134,2134,56.0,2134
950,950,24.0,950
1054,1054,0.0,1054
2094,2094,0.0,2094
1770,1770,18.0,1770
762,762,120.0,762
2871,2871,19.0,2871
2509,2509,0.0,2509
2299,2299,15.0,2299
1802,1802,13.5,1802
1776,1776,11.37,1776
788,788,0.0,788
2532,2532,159.55100000000002,2532
1329,1329,0.0,1329
2518,2518,19.0,2518
2681,2681,0.0,2681
548,548,126.0,548
2083,2083,123.0,2083
739,739,83.0,739
953,953,28.0,953
2756,2756,20.0,2756
2620,2620,18.921,2620
1404,1404,0.0,1404
667,667,54.0,667
982,982,10.226,982
2325,2325,22.0,2325
2185,2185,0.0,2185
1896,1896,79.0,1896
1655,1655,0.0,1655
2554,2554,20.0,2554
1012,1012,0.0,1012
1949,1949,14.0,1949
2577,2577,11.669,2577
2039,2039,20.0,2039
2207,2207,16.0,2207
2704,2704,69.0,2704
2359,2359,14.462,2359
2788,2788,19.0,2788
1081,1081,0.0,1081
1292,1292,21.0,1292
2687,2687,31.0,2687
1475,1475,88.0,1475
957,957,0.0,957
1700,1700,15.0,1700
1307,1307,25.0,1307
2599,2599,15.0,2599
1541,1541,40.0,1541
1763,1763,19.0,1763
2937,2937,19.0,2937
1191,1191,0.0,1191
1794,1794,26.115,1794
2763,2763,13.925,2763
2902,2902,14.01,2902
2190,2190,0.0,2190
919,919,15.149000000000001,919
626,626,13.1,626
1838,1838,25.0,1838
1237,1237,0.0,1237
2691,2691,123.0,2691
1322,1322,116.0,1322
1401,1401,25.0,1401
1975,1975,11.065,1975
2337,2337,11.651,2337
921,921,14.397,921
1687,1687,25.211,1687
1145,1145,0.0,1145
996,996,92.0,996
2638,2638,67.0,2638
2105,2105,15.909,2105
807,807,61.0,807
1112,1112,0.0,1112
2849,2849,38.0,2849
2657,2657,0.0,2657
687,687,19.828,687
2724,2724,0.0,2724
1879,1879,101.0,1879
2961,2961,25.0,2961
806,806,41.25,806
1979,1979,11.722000000000001,1979
1681,1681,11.030999999999999,1681
2126,2126,20.0,2126
2739,2739,0.0,2739
1014,1014,19.0,1014
1477,1477,13.65,1477
1744,1744,17.0,1744
2058,2058,18.0,2058
2102,2102,126.0,2102
2586,2586,0.0,2586
1571,1571,0.0,1571
2183,2183,103.0,2183
2358,2358,67.0,2358
841,841,15.2,841
2276,2276,22.0,2276
1532,1532,20.0,1532
689,689,22.246,689
2919,2919,19.0,2919
1800,1800,10.639000000000001,1800
2966,2966,0.0,2966
2928,2928,0.0,2928
700,700,25.0,700
2054,2054,21.0,2054
2411,2411,0.0,2411
1663,1663,16.0,1663
2809,2809,83.0,2809
2791,2791,73.0,2791
1895,1895,0.0,1895
638,638,0.0,638
519,519,109.0,519
778,778,0.0,778
694,694,12.027999999999999,694
1762,1762,15.0,1762
1386,1386,0.0,1386
1183,1183,11.192,1183
2216,2216,11.825,2216
1056,1056,16.0,1056
2013,2013,10.692,2013
1011,1011,0.0,1011
1998,1998,14.264000000000001,1998
2159,2159,15.372,2159
1445,1445,21.0,1445
1251,1251,15.0,1251
2764,2764,17.745,2764
1199,1199,0.0,1199
2383,2383,17.0,2383
1241,1241,56.0,1241
1740,1740,20.0,1740
2189,2189,19.0,2189
2718,2718,0.0,2718
991,991,106.0,991
1468,1468,17.0,1468
596,596,69.0,596
1536,1536,0.0,1536
2254,2254,0.0,2254
1737,1737,0.0,1737
1694,1694,15.0,1694
703,703,0.0,703
1822,1822,0.0,1822
1774,1774,21.0,1774
2427,2427,16.195,2427
1927,1927,11.448,1927
2340,2340,15.134,2340
658,658,20.0,658
526,526,16.202,526
2780,2780,0.0,2780
645,645,22.953000000000003,645
1868,1868,0.0,1868
2726,2726,0.0,2726
570,570,16.0,570
657,657,19.0,657
818,818,118.0,818
1222,1222,0.0,1222
1645,1645,0.0,1645
1833,1833,19.0,1833
2708,2708,0.0,2708
825,825,121.0,825
976,976,54.0,976
1538,1538,14.602,1538
536,536,13.415,536
892,892,0.0,892
1755,1755,30.0,1755
564,564,97.0,564
1213,1213,0.0,1213
2511,2511,12.187999999999999,2511
891,891,18.0,891
537,537,56.0,537
769,769,0.0,769
2519,2519,102.0,2519
752,752,10.55,752
2499,2499,16.0,2499
559,559,12.622,559
2769,2769,10.394,2769
695,695,15.797,695
1706,1706,99.0,1706
2138,2138,13.747,2138
1546,1546,13.447000000000001,1546
1544,1544,15.335,1544
575,575,18.753,575
2550,2550,76.0,2550
2436,2436,19.0,2436
1139,1139,13.863,1139
2578,2578,22.0,2578
2099,2099,13.697000000000001,2099
2406,2406,18.0,2406
1343,1343,17.0,1343
1552,1552,14.222999999999999,1552
2481,2481,20.1,2481
2143,2143,22.578000000000003,2143
1944,1944,91.0,1944
2825,2825,62.0,2825
1597,1597,0.0,1597
2529,2529,45.0,2529
1847,1847,10.209,1847
2855,2855,0.0,2855
1107,1107,15.585,1107
742,742,0.0,742
653,653,24.0,653
2698,2698,21.0,2698
2050,2050,11.885,2050
1233,1233,0.0,1233
709,709,57.0,709
1208,1208,14.182,1208
1179,1179,52.0,1179
2421,2421,10.514000000000001,2421
1855,1855,12.251,1855
2850,2850,0.0,2850
2471,2471,12.345,2471
1154,1154,86.0,1154
1985,1985,38.0,1985
586,586,24.0,586
2041,2041,0.0,2041
2049,2049,16.467,2049
552,552,0.0,552
1502,1502,70.0,1502
1390,1390,84.0,1390
1071,1071,20.846,1071
2753,2753,45.0,2753
893,893,22.803,893
1277,1277,0.0,1277
1601,1601,22.0,1601
2688,2688,0.0,2688
937,937,11.886,937
1374,1374,120.0,1374
1892,1892,16.0,1892
2515,2515,0.0,2515
2236,2236,176.761,2236
2503,2503,0.0,2503
2123,2123,0.0,2123
1276,1276,103.0,1276
1639,1639,10.432,1639
1103,1103,14.0,1103
2268,2268,0.0,2268
1603,1603,0.0,1603
849,849,24.0,849
2513,2513,10.788,2513
2407,2407,11.140999999999998,2407
2069,2069,44.0,2069
2486,2486,0.0,2486
1069,1069,0.0,1069
2495,2495,21.0,2495
2175,2175,44.0,2175
729,729,0.0,729
1866,1866,16.498,1866
973,973,24.0,973
2341,2341,15.012,2341
1605,1605,13.857999999999999,1605
550,550,15.0,550
2283,2283,16.778,2283
1458,1458,18.0,1458
1341,1341,20.0,1341
2327,2327,0.0,2327
2226,2226,22.0,2226
1266,1266,17.0,1266
2246,2246,63.0,2246
1163,1163,65.0,1163
2354,2354,31.0,2354
1193,1193,0.0,1193
1625,1625,0.0,1625
1346,1346,113.0,1346
549,549,29.0,549
1496,1496,0.0,1496
682,682,29.0,682
1997,1997,0.0,1997
2149,2149,20.0,2149
1494,1494,12.825,1494
2256,2256,0.0,2256
2622,2622,14.795,2622
916,916,25.0,916
2490,2490,107.0,2490
879,879,110.0,879
1914,1914,116.0,1914
1129,1129,21.767,1129
1248,1248,0.0,1248
2115,2115,17.0,2115
795,795,33.0,795
1439,1439,32.0,1439
2153,2153,0.0,2153
2053,2053,14.655999999999999,2053
554,554,15.068,554
1708,1708,0.0,1708
2286,2286,11.798,2286
1032,1032,111.0,1032
2808,2808,0.0,2808
1857,1857,11.667,1857
1002,1002,30.0,1002
930,930,19.0,930
723,723,0.0,723
2133,2133,0.0,2133
644,644,15.0,644
1028,1028,40.0,1028
1166,1166,33.0,1166
2498,2498,26.252,2498
2944,2944,72.0,2944
2714,2714,25.191,2714
774,774,17.133,774
1483,1483,74.0,1483
1325,1325,0.0,1325
827,827,0.0,827
1320,1320,16.0,1320
1778,1778,24.0,1778
1273,1273,46.0,1273
2147,2147,38.0,2147
1567,1567,14.0,1567
1701,1701,10.722000000000001,1701
1192,1192,117.0,1192
1347,1347,0.0,1347
1393,1393,14.835,1393
2467,2467,56.0,2467
2396,2396,10.415999999999999,2396
2673,2673,16.0,2673
2805,2805,0.0,2805
2563,2563,14.0,2563
2316,2316,0.0,2316
2735,2735,0.0,2735
2591,2591,17.19,2591
2063,2063,11.404000000000002,2063
2862,2862,0.0,2862
2778,2778,25.0,2778
1195,1195,69.0,1195
1201,1201,68.0,1201
733,733,26.331,733
1787,1787,0.0,1787
1356,1356,0.0,1356
2616,2616,11.799000000000001,2616
2320,2320,23.0,2320
1823,1823,12.075999999999999,1823
2626,2626,0.0,2626
1784,1784,0.0,1784
1773,1773,23.0,1773
1739,1739,0.0,1739
1884,1884,0.0,1884
1361,1361,114.0,1361
553,553,25.0,553
1792,1792,116.81,1792
2846,2846,42.0,2846
1497,1497,10.372,1497
2950,2950,0.0,2950
2034,2034,10.457,2034
1753,1753,129.0,1753
1121,1121,14.0,1121
2953,2953,93.0,2953
951,951,96.0,951
753,753,20.0,753
629,629,0.0,629
652,652,14.104000000000001,652
1785,1785,19.0,1785
1845,1845,21.0,1845
1826,1826,46.0,1826
1205,1205,17.0,1205
1598,1598,21.921999999999997,1598
1958,1958,16.0,1958
2269,2269,109.0,2269
1365,1365,0.0,1365
1530,1530,0.0,1530
1507,1507,16.958,1507
2239,2239,0.0,2239
2090,2090,130.701,2090
2234,2234,16.0,2234
1426,1426,0.0,1426
2869,2869,0.0,2869
2727,2727,10.649000000000001,2727
2352,2352,0.0,2352
2417,2417,0.0,2417
1662,1662,0.0,1662
605,605,25.0,605
907,907,76.0,907
1856,1856,15.0,1856
574,574,13.015999999999998,574
2636,2636,15.0,2636
800,800,14.0,800
2386,2386,0.0,2386
1215,1215,59.0,1215
1153,1153,0.0,1153
672,672,23.0,672
2573,2573,10.487,2573
713,713,16.0,713
2130,2130,89.0,2130
1388,1388,81.0,1388
2255,2255,16.0,2255
2915,2915,11.015999999999998,2915
2717,2717,15.432,2717
2874,2874,37.0,2874
2372,2372,11.022,2372
2834,2834,0.0,2834
968,968,16.227999999999998,968
2650,2650,125.0,2650
2922,2922,16.0,2922
1135,1135,0.0,1135
2682,2682,23.0,2682
2198,2198,12.385,2198
1017,1017,0.0,1017
1543,1543,16.25,1543
2885,2885,12.436,2885
1234,1234,0.0,1234
1060,1060,25.0,1060
2087,2087,15.162,2087
2222,2222,25.0,2222
597,597,16.0,597
555,555,17.217,555
543,543,10.417,543
2765,2765,11.239,2765
2381,2381,21.0,2381
2158,2158,38.0,2158
2072,2072,128.0,2072
2566,2566,0.0,2566
2767,2767,115.0,2767
1703,1703,90.0,1703
1200,1200,13.008,1200
2048,2048,89.0,2048
1981,1981,14.0,1981
780,780,94.0,780
1534,1534,24.0,1534
2333,2333,0.0,2333
2968,2968,0.0,2968
2973,2973,19.0,2973
1978,1978,92.008,1978
2457,2457,16.0,2457
1562,1562,24.0,1562
1008,1008,0.0,1008
661,661,24.079,661
2594,2594,14.87,2594
1526,1526,0.0,1526
932,932,94.0,932
1310,1310,34.0,1310
1888,1888,103.0,1888
2734,2734,24.0,2734
2311,2311,110.0,2311
1111,1111,18.0,1111
2219,2219,0.0,2219
1117,1117,25.0,1117
601,601,20.93,601
2750,2750,0.0,2750
2531,2531,18.049,2531
711,711,15.0,711
1715,1715,14.0,1715
2399,2399,91.0,2399
2957,2957,84.0,2957
1433,1433,24.0,1433
1959,1959,0.0,1959
1463,1463,0.0,1463
1443,1443,10.832,1443
2917,2917,13.025,2917
1177,1177,0.0,1177
1207,1207,14.0,1207
2420,2420,0.0,2420
2376,2376,22.502,2376
1634,1634,33.0,1634
1849,1849,113.0,1849
1061,1061,0.0,1061
2526,2526,0.0,2526
1363,1363,0.0,1363
2628,2628,12.75,2628
2761,2761,0.0,2761
516,516,0.0,516
2725,2725,105.0,2725
1326,1326,120.0,1326
2368,2368,0.0,2368
2031,2031,21.0,2031
971,971,22.238000000000003,971
1115,1115,43.0,1115
2224,2224,95.0,2224
2294,2294,16.0,2294
1767,1767,0.0,1767
2088,2088,10.527000000000001,2088
674,674,101.0,674
1084,1084,74.0,1084
1435,1435,95.0,1435
1444,1444,0.0,1444
1926,1926,0.0,1926
1227,1227,22.0,1227
959,959,0.0,959
1314,1314,0.0,1314
1656,1656,22.0,1656
2282,2282,19.0,2282
1748,1748,0.0,1748
1710,1710,14.0,1710
523,523,0.0,523
1065,1065,16.265,1065
1963,1963,21.456999999999997,1963
2002,2002,16.0,2002
1357,1357,17.0,1357
2089,2089,14.0,2089
1942,1942,93.0,1942
2032,2032,10.339,2032
1555,1555,60.0,1555
1860,1860,0.0,1860
2536,2536,38.0,2536
2193,2193,23.0,2193
693,693,115.0,693
1727,1727,17.0,1727
2215,2215,24.0,2215
2883,2883,15.0,2883
1522,1522,28.0,1522
2152,2152,0.0,2152
2401,2401,0.0,2401
2252,2252,19.496,2252
1173,1173,18.0,1173
2589,2589,19.594,2589
1882,1882,115.0,1882
2815,2815,11.069,2815
2220,2220,19.0,2220
947,947,10.542,947
1340,1340,15.0,1340
1904,1904,10.156,1904
2976,2976,104.0,2976
2553,2553,10.886,2553
584,584,0.0,584
1075,1075,0.0,1075
2082,2082,17.748,2082
1100,1100,0.0,1100
2675,2675,21.0,2675
1527,1527,108.0,1527
1221,1221,15.0,1221
1211,1211,40.0,1211
2654,2654,19.0,2654
2343,2343,23.0,2343
678,678,40.529,678
1072,1072,103.0,1072
1149,1149,0.0,1149
1257,1257,24.0,1257
2029,2029,0.0,2029
1840,1840,16.602,1840
2477,2477,26.708000000000002,2477
814,814,0.0,814
1836,1836,0.0,1836
2433,2433,121.0,2433
1387,1387,19.0,1387
2580,2580,0.0,2580
1457,1457,104.0,1457
1783,1783,12.901,1783
2104,2104,120.0,2104
1474,1474,0.0,1474
2253,2253,20.0,2253
2101,2101,69.0,2101
2655,2655,92.0,2655
845,845,12.671,845
904,904,0.0,904
2071,2071,0.0,2071
1159,1159,51.0,1159
1053,1053,0.0,1053
2852,2852,25.0,2852
2218,2218,98.0,2218
1050,1050,17.114,1050
1622,1622,47.0,1622
2713,2713,92.0,2713
710,710,112.0,710
1819,1819,17.0,1819
2075,2075,33.219,2075
1432,1432,33.0,1432
2935,2935,11.674000000000001,2935
929,929,17.455,929
2313,2313,0.0,2313
1827,1827,14.808,1827
2864,2864,91.0,2864
2560,2560,11.708,2560
1932,1932,0.0,1932
1068,1068,25.0,1068
2445,2445,19.0,2445
1157,1157,18.0,1157
2033,2033,13.994000000000002,2033
2303,2303,25.0,2303
2120,2120,19.915,2120
664,664,23.0,664
1431,1431,13.395,1431
2971,2971,82.0,2971
843,843,10.555,843
1735,1735,17.0,1735
1842,1842,18.0,1842
2085,2085,10.347999999999999,2085
2759,2759,24.0,2759
2388,2388,15.0,2388
2405,2405,21.0,2405
1073,1073,17.514,1073
1284,1284,64.0,1284
2312,2312,13.126,2312
515,515,12.317,515
1599,1599,24.484,1599
2489,2489,25.0,2489
832,832,0.0,832
2839,2839,23.0,2839
712,712,22.0,712
865,865,19.0,865
2197,2197,0.0,2197
1816,1816,23.485,1816
939,939,26.0,939
2349,2349,0.0,2349
2006,2006,23.0,2006
546,546,22.0,546
2956,2956,0.0,2956
1654,1654,66.0,1654
1119,1119,20.548000000000002,1119
1398,1398,0.0,1398
2955,2955,0.0,2955
1253,1253,0.0,1253
636,636,58.0,636
940,940,13.550999999999998,940
650,650,21.0,650
2356,2356,15.0,2356
2415,2415,17.561,2415
1550,1550,22.0,1550
896,896,16.26,896
2322,2322,35.0,2322
1271,1271,13.912,1271
1666,1666,24.113000000000003,1666
925,925,14.0,925
872,872,118.0,872
969,969,0.0,969
2798,2798,11.842,2798
2947,2947,94.0,2947
2523,2523,14.802,2523
2667,2667,21.0,2667
2744,2744,0.0,2744
1901,1901,14.0,1901
846,846,0.0,846
854,854,84.0,854
2888,2888,64.0,2888
1707,1707,18.237000000000002,1707
1074,1074,15.0,1074
2882,2882,14.0,2882
1759,1759,14.0,1759
2859,2859,24.0,2859
2893,2893,25.0,2893
603,603,23.0,603
2630,2630,0.0,2630
1528,1528,0.0,1528
510,510,22.581,510
1411,1411,10.690999999999999,1411
1187,1187,12.103,1187
2792,2792,0.0,2792
2274,2274,24.0,2274
2231,2231,14.686,2231
635,635,18.188,635
1889,1889,24.0,1889
2210,2210,0.0,2210
2121,2121,13.308,2121
1542,1542,19.0,1542
2213,2213,63.0,2213
2851,2851,77.0,2851
1486,1486,0.0,1486
1610,1610,0.0,1610
2784,2784,16.104,2784
541,541,15.0,541
2593,2593,20.33,2593
1608,1608,20.0,1608
1520,1520,29.0,1520
1261,1261,14.0,1261
1125,1125,117.0,1125
697,697,15.0,697
1108,1108,0.0,1108
616,616,17.0,616
2305,2305,16.999000000000002,2305
1355,1355,24.0,1355
990,990,17.0,990
1989,1989,39.0,1989
2542,2542,0.0,2542
871,871,24.0,871
2485,2485,0.0,2485
1799,1799,64.0,1799
1782,1782,79.0,1782
503,503,16.0,503
2884,2884,0.0,2884
1245,1245,16.0,1245
1719,1719,10.405999999999999,1719
2030,2030,43.0,2030
2326,2326,25.0,2326
2841,2841,11.58,2841
1600,1600,0.0,1600
2287,2287,24.0,2287
2086,2086,112.0,2086
746,746,119.0,746
2931,2931,94.0,2931
1469,1469,71.0,1469
2404,2404,17.745,2404
2668,2668,0.0,2668
1898,1898,0.0,1898
1682,1682,15.0,1682
530,530,23.0,530
1757,1757,0.0,1757
779,779,13.842,779
2541,2541,90.0,2541
1164,1164,13.529000000000002,1164
1818,1818,102.0,1818
1223,1223,114.0,1223
